{
  "message": "Animes com classificação etária: A14",
  "age_rating": "A14",
  "data": [
    {
      "id": 3969,
      "nome": "Tsurune: Tsunagari no Issha",
      "link": "https://animefire.plus/animes/tsurune-tsunagari-no-issha-todos-os-episodios",
      "texto_original": "Tsurune: Tsunagari no Issha",
      "rating": 8.1,
      "classificacao_etaria": "A14",
      "imagem_original": "https://animefire.plus/img/animes/tsurune-tsunagari-no-issha.webp",
      "imagem_pasta": "https://animefire.plus/img/animes/tsurune-tsunagari-no-issha/",
      "secao": "legendados",
      "pagina": 26,
      "total_episodios": 13,
      "link_video": "https://animefire.plus/video/tsurune-tsunagari-no-issha"
    },
    {
      "id": 3971,
      "nome": "Tsuyokiss",
      "link": "https://animefire.plus/animes/tsuyokiss-todos-os-episodios",
      "texto_original": "Tsuyokiss",
      "rating": 6.66,
      "classificacao_etaria": "A14",
      "imagem_original": "https://animefire.plus/img/animes/tsuyokiss.webp",
      "imagem_pasta": "https://animefire.plus/img/animes/tsuyokiss/",
      "secao": "legendados",
      "pagina": 156,
      "total_episodios": 10,
      "link_video": "https://animefire.plus/video/tsuyokiss"
    },
    {
      "id": 3972,
      "nome": "Tsuyokute New Saga",
      "link": "https://animefire.plus/animes/tsuyokute-new-saga-todos-os-episodios",
      "texto_original": "Tsuyokute New Saga",
      "rating": 6.69,
      "classificacao_etaria": "A14",
      "imagem_original": "https://animefire.plus/img/animes/tsuyokute-new-saga.webp",
      "imagem_pasta": "https://animefire.plus/img/animes/tsuyokute-new-saga/",
      "secao": "legendados,lancamentos",
      "pagina": 3,
      "total_episodios": 5,
      "link_video": "https://animefire.plus/video/tsuyokute-new-saga"
    },
    {
      "id": 3973,
      "nome": "Tu Bian Ying Xiong Leaf",
      "link": "https://animefire.plus/animes/tu-bian-ying-xiong-leaf-todos-os-episodios",
      "texto_original": "Tu Bian Ying Xiong Leaf",
      "rating": 7.16,
      "classificacao_etaria": "A14",
      "imagem_original": "https://animefire.plus/img/animes/tu-bian-ying-xiong-leaf.webp",
      "imagem_pasta": "https://animefire.plus/img/animes/tu-bian-ying-xiong-leaf/",
      "secao": "legendados",
      "pagina": 95,
      "total_episodios": 8,
      "link_video": "https://animefire.plus/video/tu-bian-ying-xiong-leaf"
    },
    {
      "id": 3974,
      "nome": "Tu Bian Yingxiong X (Dublado)",
      "link": "https://animefire.plus/animes/tu-bian-yingxiong-x-dublado-todos-os-episodios",
      "texto_original": "Tu Bian Yingxiong X (Dublado)",
      "rating": 8.44,
      "classificacao_etaria": "A14",
      "imagem_original": "https://animefire.plus/img/animes/tu-bian-yingxiong-x.webp",
      "imagem_pasta": "https://animefire.plus/img/animes/tu-bian-yingxiong-x/",
      "secao": "dublados,legendados,lancamentos",
      "pagina": 1,
      "total_episodios": 18,
      "link_video": "https://animefire.plus/video/tu-bian-yingxiong-x-dublado"
    },
    {
      "id": 3975,
      "nome": "Turkey!",
      "link": "https://animefire.plus/animes/turkey-todos-os-episodios",
      "texto_original": "Turkey!",
      "rating": 6.29,
      "classificacao_etaria": "A14",
      "imagem_original": "https://animefire.plus/img/animes/turkey.webp",
      "imagem_pasta": "https://animefire.plus/img/animes/turkey/",
      "secao": "legendados,lancamentos",
      "pagina": 2,
      "total_episodios": 4,
      "link_video": "https://animefire.plus/video/turkey"
    },
    {
      "id": 3977,
      "nome": "TV Yarou Nanaana: Wakuwaku Doukutsu Land",
      "link": "https://animefire.plus/animes/tv-yarou-nanaana-wakuwaku-doukutsu-land-todos-os-episodios",
      "texto_original": "TV Yarou Nanaana: Wakuwaku Doukutsu Land",
      "rating": 6.06,
      "classificacao_etaria": "A14",
      "imagem_original": "https://animefire.plus/img/animes/tv-yarou-nanaana-wakuwaku-doukutsu-land.webp",
      "imagem_pasta": "https://animefire.plus/img/animes/tv-yarou-nanaana-wakuwaku-doukutsu-land/",
      "secao": "legendados",
      "pagina": 61,
      "total_episodios": 21,
      "link_video": "https://animefire.plus/video/tv-yarou-nanaana-wakuwaku-doukutsu-land"
    },
    {
      "id": 3978,
      "nome": "Twin Angel Break",
      "link": "https://animefire.plus/animes/twin-angel-break-todos-os-episodios",
      "texto_original": "Twin Angel Break",
      "rating": 5.94,
      "classificacao_etaria": "A14",
      "imagem_original": "https://animefire.plus/img/animes/twin-angel-break.webp",
      "imagem_pasta": "https://animefire.plus/img/animes/twin-angel-break/",
      "secao": "legendados",
      "pagina": 127,
      "total_episodios": 12,
      "link_video": "https://animefire.plus/video/twin-angel-break"
    },
    {
      "id": 3979,
      "nome": "Twinkle Heart: Gingakei made Todokanai",
      "link": "https://animefire.plus/animes/twinkle-heart-gingakei-made-todokanai-todos-os-episodios",
      "texto_original": "Twinkle Heart: Gingakei made Todokanai",
      "rating": 5.35,
      "classificacao_etaria": "A14",
      "imagem_original": "https://animefire.plus/img/animes/twinkle-heart-gingakei-made-todokanai.webp",
      "imagem_pasta": "https://animefire.plus/img/animes/twinkle-heart-gingakei-made-todokanai/",
      "secao": "legendados",
      "pagina": 69,
      "total_episodios": 1,
      "link_video": "https://animefire.plus/video/twinkle-heart-gingakei-made-todokanai"
    },
    {
      "id": 3980,
      "nome": "Twinkle Nora Rock Me!",
      "link": "https://animefire.plus/animes/twinkle-nora-rock-me-todos-os-episodios",
      "texto_original": "Twinkle Nora Rock Me!",
      "rating": 3.46,
      "classificacao_etaria": "A14",
      "imagem_original": "https://animefire.plus/img/animes/twinkle-nora-rock-me.webp",
      "imagem_pasta": "https://animefire.plus/img/animes/twinkle-nora-rock-me/",
      "secao": "legendados",
      "pagina": 87,
      "total_episodios": 1,
      "link_video": "https://animefire.plus/video/twinkle-nora-rock-me"
    },
    {
      "id": 3981,
      "nome": "Twins Hinahima",
      "link": "https://animefire.plus/animes/twins-hinahima-todos-os-episodios",
      "texto_original": "Twins Hinahima",
      "rating": null,
      "classificacao_etaria": "A14",
      "imagem_original": "https://animefire.plus/img/animes/twins-hinahima.webp",
      "imagem_pasta": "https://animefire.plus/img/animes/twins-hinahima/",
      "secao": "legendados,lancamentos",
      "pagina": 4,
      "total_episodios": 0,
      "link_video": "https://animefire.plus/video/twins-hinahima"
    },
    {
      "id": 3982,
      "nome": "Two Car",
      "link": "https://animefire.plus/animes/two-car-todos-os-episodios",
      "texto_original": "Two Car",
      "rating": 5.73,
      "classificacao_etaria": "A14",
      "imagem_original": "https://animefire.plus/img/animes/two-car.webp",
      "imagem_pasta": "https://animefire.plus/img/animes/two-car/",
      "secao": "legendados",
      "pagina": 108,
      "total_episodios": 12,
      "link_video": "https://animefire.plus/video/two-car"
    },
    {
      "id": 3983,
      "nome": "Tytania",
      "link": "https://animefire.plus/animes/tytania-todos-os-episodios",
      "texto_original": "Tytania",
      "rating": 6.86,
      "classificacao_etaria": "A14",
      "imagem_original": "https://animefire.plus/img/animes/tytania.webp",
      "imagem_pasta": "https://animefire.plus/img/animes/tytania/",
      "secao": "legendados",
      "pagina": 176,
      "total_episodios": 26,
      "link_video": "https://animefire.plus/video/tytania"
    },
    {
      "id": 3985,
      "nome": "Uchi no Kaisha no Chiisai Senpai no Hanashi (Dublado)",
      "link": "https://animefire.plus/animes/uchi-no-kaisha-no-chiisai-senpai-no-hanashi-dublado-todos-os-episodios",
      "texto_original": "Uchi no Kaisha no Chiisai Senpai no Hanashi (Dublado)",
      "rating": 6.9,
      "classificacao_etaria": "A14",
      "imagem_original": "https://animefire.plus/img/animes/uchi-no-kaisha-no-chiisai-senpai-no-hanashi.webp",
      "imagem_pasta": "https://animefire.plus/img/animes/uchi-no-kaisha-no-chiisai-senpai-no-hanashi/",
      "secao": "dublados,legendados",
      "pagina": 6,
      "total_episodios": 12,
      "link_video": "https://animefire.plus/video/uchi-no-kaisha-no-chiisai-senpai-no-hanashi-dublado"
    },
    {
      "id": 3986,
      "nome": "Uchi no Ko no Tame naraba, Ore wa Moshikashitara Maou mo Taoseru kamo Shirenai.",
      "link": "https://animefire.plus/animes/uchi-no-ko-no-tame-naraba-ore-wa-moshikashitara-maou-mo-taoseru-kamo-shirenai-todos-os-episodios",
      "texto_original": "Uchi no Ko no Tame naraba, Ore wa Moshikashitara Maou mo Taoseru kamo Shirenai.",
      "rating": 7.04,
      "classificacao_etaria": "A14",
      "imagem_original": "https://animefire.plus/img/animes/uchi-no-ko-no-tame-naraba-ore-wa-moshikashitara-maou-mo-taoseru-kamo-shirenai.webp",
      "imagem_pasta": "https://animefire.plus/img/animes/uchi-no-ko-no-tame-naraba-ore-wa-moshikashitara-maou-mo-taoseru-kamo-shirenai/",
      "secao": "legendados",
      "pagina": 103,
      "total_episodios": 12,
      "link_video": "https://animefire.plus/video/uchi-no-ko-no-tame-naraba-ore-wa-moshikashitara-maou-mo-taoseru-kamo-shirenai"
    },
    {
      "id": 3987,
      "nome": "Uchi no Maid ga Uzasugiru!",
      "link": "https://animefire.plus/animes/uchi-no-maid-ga-uzasugiru-todos-os-episodios",
      "texto_original": "Uchi no Maid ga Uzasugiru!",
      "rating": 7.14,
      "classificacao_etaria": "A14",
      "imagem_original": "https://animefire.plus/img/animes/uchi-no-maid-ga-uzasugiru.webp",
      "imagem_pasta": "https://animefire.plus/img/animes/uchi-no-maid-ga-uzasugiru/",
      "secao": "legendados",
      "pagina": 157,
      "total_episodios": 12,
      "link_video": "https://animefire.plus/video/uchi-no-maid-ga-uzasugiru"
    },
    {
      "id": 3988,
      "nome": "Uchi no Shishou wa Shippo ga Nai",
      "link": "https://animefire.plus/animes/uchi-no-shishou-wa-shippo-ga-nai-todos-os-episodios",
      "texto_original": "Uchi no Shishou wa Shippo ga Nai",
      "rating": 6.73,
      "classificacao_etaria": "A14",
      "imagem_original": "https://animefire.plus/img/animes/uchi-no-shishou-wa-shippo-ga-nai.webp",
      "imagem_pasta": "https://animefire.plus/img/animes/uchi-no-shishou-wa-shippo-ga-nai/",
      "secao": "legendados",
      "pagina": 28,
      "total_episodios": 13,
      "link_video": "https://animefire.plus/video/uchi-no-shishou-wa-shippo-ga-nai"
    },
    {
      "id": 3989,
      "nome": "Uchi Tama?! Uchi no Tama Shirimasen ka?",
      "link": "https://animefire.plus/animes/uchi-tama-uchi-no-tama-shirimasen-ka-todos-os-episodios",
      "texto_original": "Uchi Tama?! Uchi no Tama Shirimasen ka?",
      "rating": 6.9,
      "classificacao_etaria": "A14",
      "imagem_original": "https://animefire.plus/img/animes/uchi-tama-uchi-no-tama-shirimasen-ka.webp",
      "imagem_pasta": "https://animefire.plus/img/animes/uchi-tama-uchi-no-tama-shirimasen-ka/",
      "secao": "legendados",
      "pagina": 92,
      "total_episodios": 1,
      "link_video": "https://animefire.plus/video/uchi-tama-uchi-no-tama-shirimasen-ka"
    },
    {
      "id": 3990,
      "nome": "Uchouten Kazoku",
      "link": "https://animefire.plus/animes/uchouten-kazoku-todos-os-episodios",
      "texto_original": "Uchouten Kazoku",
      "rating": 7.94,
      "classificacao_etaria": "A14",
      "imagem_original": "https://animefire.plus/img/animes/uchouten-kazoku.webp",
      "imagem_pasta": "https://animefire.plus/img/animes/uchouten-kazoku/",
      "secao": "legendados",
      "pagina": 137,
      "total_episodios": 0,
      "link_video": "https://animefire.plus/video/uchouten-kazoku"
    },
    {
      "id": 3991,
      "nome": "Uchouten Kazoku 2",
      "link": "https://animefire.plus/animes/uchouten-kazoku-2-todos-os-episodios",
      "texto_original": "Uchouten Kazoku 2",
      "rating": 8.2,
      "classificacao_etaria": "A14",
      "imagem_original": "https://animefire.plus/img/animes/uchouten-kazoku-2.webp",
      "imagem_pasta": "https://animefire.plus/img/animes/uchouten-kazoku-2/",
      "secao": "legendados",
      "pagina": 133,
      "total_episodios": 12,
      "link_video": "https://animefire.plus/video/uchouten-kazoku-2"
    }
  ],
  "pagination": {
    "current_page": 135,
    "per_page": 20,
    "total_items": 2988,
    "total_pages": 150,
    "has_next": true,
    "has_prev": true
  }
}
