{
  "message": "Animes com classificação etária: A14",
  "age_rating": "A14",
  "data": [
    {
      "id": 1434,
      "nome": "Hetalia: The World Twinkle Extra Disc",
      "link": "https://animefire.plus/animes/hetalia-the-world-twinkle-extra-disc-todos-os-episodios",
      "texto_original": "Hetalia: The World Twinkle Extra Disc",
      "rating": 7.44,
      "classificacao_etaria": "A14",
      "imagem_original": "https://animefire.plus/img/animes/hetalia-the-world-twinkle-extra-disc.webp",
      "imagem_pasta": "https://animefire.plus/img/animes/hetalia-the-world-twinkle-extra-disc/",
      "secao": "legendados",
      "pagina": 82,
      "total_episodios": 1,
      "link_video": "https://animefire.plus/video/hetalia-the-world-twinkle-extra-disc"
    },
    {
      "id": 1435,
      "nome": "Hetalia: The World Twinkle Specials",
      "link": "https://animefire.plus/animes/hetalia-the-world-twinkle-specials-todos-os-episodios",
      "texto_original": "Hetalia: The World Twinkle Specials",
      "rating": 7.48,
      "classificacao_etaria": "A14",
      "imagem_original": "https://animefire.plus/img/animes/hetalia-the-world-twinkle-specials.webp",
      "imagem_pasta": "https://animefire.plus/img/animes/hetalia-the-world-twinkle-specials/",
      "secao": "legendados",
      "pagina": 164,
      "total_episodios": 3,
      "link_video": "https://animefire.plus/video/hetalia-the-world-twinkle-specials"
    },
    {
      "id": 1436,
      "nome": "Heya Camp△",
      "link": "https://animefire.plus/animes/heya-camp-todos-os-episodios",
      "texto_original": "Heya Camp△",
      "rating": 7.19,
      "classificacao_etaria": "A14",
      "imagem_original": "https://animefire.plus/img/animes/heya-camp.webp",
      "imagem_pasta": "https://animefire.plus/img/animes/heya-camp/",
      "secao": "legendados",
      "pagina": 93,
      "total_episodios": 4,
      "link_video": "https://animefire.plus/video/heya-camp"
    },
    {
      "id": 1437,
      "nome": "Hi☆sCoool! SeHa Girls",
      "link": "https://animefire.plus/animes/hi-scoool-seha-girls-todos-os-episodios",
      "texto_original": "Hi☆sCoool! SeHa Girls",
      "rating": 6.57,
      "classificacao_etaria": "A14",
      "imagem_original": "https://animefire.plus/img/animes/hi-scoool-seha-girls.webp",
      "imagem_pasta": "https://animefire.plus/img/animes/hi-scoool-seha-girls/",
      "secao": "legendados",
      "pagina": 98,
      "total_episodios": 13,
      "link_video": "https://animefire.plus/video/hi-scoool-seha-girls"
    },
    {
      "id": 1438,
      "nome": "Hibi wa Sugiredo Meshi Umashi",
      "link": "https://animefire.plus/animes/hibi-wa-sugiredo-meshi-umashi-todos-os-episodios",
      "texto_original": "Hibi wa Sugiredo Meshi Umashi",
      "rating": 7.77,
      "classificacao_etaria": "A14",
      "imagem_original": "https://animefire.plus/img/animes/hibi-wa-sugiredo-meshi-umashi.webp",
      "imagem_pasta": "https://animefire.plus/img/animes/hibi-wa-sugiredo-meshi-umashi/",
      "secao": "legendados",
      "pagina": 4,
      "total_episodios": 12,
      "link_video": "https://animefire.plus/video/hibi-wa-sugiredo-meshi-umashi"
    },
    {
      "id": 1439,
      "nome": "Hibike! Euphonium",
      "link": "https://animefire.plus/animes/hibike-euphonium-todos-os-episodios",
      "texto_original": "Hibike! Euphonium",
      "rating": 8.02,
      "classificacao_etaria": "A14",
      "imagem_original": "https://animefire.plus/img/animes/hibike-euphonium.webp",
      "imagem_pasta": "https://animefire.plus/img/animes/hibike-euphonium/",
      "secao": "legendados",
      "pagina": 82,
      "total_episodios": 13,
      "link_video": "https://animefire.plus/video/hibike-euphonium"
    },
    {
      "id": 1440,
      "nome": "Hibike! Euphonium 2",
      "link": "https://animefire.plus/animes/hibike-euphonium-2-todos-os-episodios",
      "texto_original": "Hibike! Euphonium 2",
      "rating": 8.3,
      "classificacao_etaria": "A14",
      "imagem_original": "https://animefire.plus/img/animes/hibike-euphonium-2.webp",
      "imagem_pasta": "https://animefire.plus/img/animes/hibike-euphonium-2/",
      "secao": "legendados",
      "pagina": 104,
      "total_episodios": 14,
      "link_video": "https://animefire.plus/video/hibike-euphonium-2"
    },
    {
      "id": 1441,
      "nome": "Hibike! Euphonium 3",
      "link": "https://animefire.plus/animes/hibike-euphonium-3-todos-os-episodios",
      "texto_original": "Hibike! Euphonium 3",
      "rating": 8.72,
      "classificacao_etaria": "A14",
      "imagem_original": "https://animefire.plus/img/animes/hibike-euphonium-3.webp",
      "imagem_pasta": "https://animefire.plus/img/animes/hibike-euphonium-3/",
      "secao": "legendados",
      "pagina": 15,
      "total_episodios": 12,
      "link_video": "https://animefire.plus/video/hibike-euphonium-3"
    },
    {
      "id": 1442,
      "nome": "Hibike! Euphonium: Suisougaku-bu no Nichijou",
      "link": "https://animefire.plus/animes/hibike-euphonium-suisougaku-bu-no-nichijou-todos-os-episodios",
      "texto_original": "Hibike! Euphonium: Suisougaku-bu no Nichijou",
      "rating": 6.76,
      "classificacao_etaria": "A14",
      "imagem_original": "https://animefire.plus/img/animes/hibike-euphonium-suisougaku-bu-no-nichijou.webp",
      "imagem_pasta": "https://animefire.plus/img/animes/hibike-euphonium-suisougaku-bu-no-nichijou/",
      "secao": "legendados",
      "pagina": 119,
      "total_episodios": 7,
      "link_video": "https://animefire.plus/video/hibike-euphonium-suisougaku-bu-no-nichijou"
    },
    {
      "id": 1443,
      "nome": "Hidamari Sketch",
      "link": "https://animefire.plus/animes/hidamari-sketch-todos-os-episodios",
      "texto_original": "Hidamari Sketch",
      "rating": 7.48,
      "classificacao_etaria": "A14",
      "imagem_original": "https://animefire.plus/img/animes/hidamari-sketch.webp",
      "imagem_pasta": "https://animefire.plus/img/animes/hidamari-sketch/",
      "secao": "legendados",
      "pagina": 101,
      "total_episodios": 0,
      "link_video": "https://animefire.plus/video/hidamari-sketch"
    },
    {
      "id": 1444,
      "nome": "Hidamari Sketch x 365",
      "link": "https://animefire.plus/animes/hidamari-sketch-x-365-todos-os-episodios",
      "texto_original": "Hidamari Sketch x 365",
      "rating": 7.84,
      "classificacao_etaria": "A14",
      "imagem_original": "https://animefire.plus/img/animes/hidamari-sketch-x-365.webp",
      "imagem_pasta": "https://animefire.plus/img/animes/hidamari-sketch-x-365/",
      "secao": "legendados",
      "pagina": 76,
      "total_episodios": 19,
      "link_video": "https://animefire.plus/video/hidamari-sketch-x-365"
    },
    {
      "id": 1445,
      "nome": "Hidamari Sketch x Honeycomb",
      "link": "https://animefire.plus/animes/hidamari-sketch-x-honeycomb-todos-os-episodios",
      "texto_original": "Hidamari Sketch x Honeycomb",
      "rating": 7.97,
      "classificacao_etaria": "A14",
      "imagem_original": "https://animefire.plus/img/animes/hidamari-sketch-x-honeycomb.webp",
      "imagem_pasta": "https://animefire.plus/img/animes/hidamari-sketch-x-honeycomb/",
      "secao": "legendados",
      "pagina": 131,
      "total_episodios": 0,
      "link_video": "https://animefire.plus/video/hidamari-sketch-x-honeycomb"
    },
    {
      "id": 1446,
      "nome": "Hidan no Aria",
      "link": "https://animefire.plus/animes/hidan-no-aria-todos-os-episodios",
      "texto_original": "Hidan no Aria",
      "rating": 7.03,
      "classificacao_etaria": "A14",
      "imagem_original": "https://animefire.plus/img/animes/hidan-no-aria.webp",
      "imagem_pasta": "https://animefire.plus/img/animes/hidan-no-aria/",
      "secao": "legendados",
      "pagina": 120,
      "total_episodios": 12,
      "link_video": "https://animefire.plus/video/hidan-no-aria"
    },
    {
      "id": 1447,
      "nome": "Hidan no Aria AA",
      "link": "https://animefire.plus/animes/hidan-no-aria-aa-todos-os-episodios",
      "texto_original": "Hidan no Aria AA",
      "rating": 6.35,
      "classificacao_etaria": "A14",
      "imagem_original": "https://animefire.plus/img/animes/hidan-no-aria-aa.webp",
      "imagem_pasta": "https://animefire.plus/img/animes/hidan-no-aria-aa/",
      "secao": "legendados",
      "pagina": 157,
      "total_episodios": 12,
      "link_video": "https://animefire.plus/video/hidan-no-aria-aa"
    },
    {
      "id": 1449,
      "nome": "Hige wo Soru. Soshite Joshikousei wo Hirou.",
      "link": "https://animefire.plus/animes/hige-wo-soru-soshite-joshikousei-wo-hirou-todos-os-episodios",
      "texto_original": "Hige wo Soru. Soshite Joshikousei wo Hirou.",
      "rating": 7.27,
      "classificacao_etaria": "A14",
      "imagem_original": "https://animefire.plus/img/animes/hige-wo-soru-soshite-joshikousei-wo-hirou.webp",
      "imagem_pasta": "https://animefire.plus/img/animes/hige-wo-soru-soshite-joshikousei-wo-hirou/",
      "secao": "legendados",
      "pagina": 47,
      "total_episodios": 13,
      "link_video": "https://animefire.plus/video/hige-wo-soru-soshite-joshikousei-wo-hirou"
    },
    {
      "id": 1450,
      "nome": "Higeki no Genkyou to Naru Saikyou Gedou Last Boss Joou wa Tami no Tame ni Tsukushimasu.",
      "link": "https://animefire.plus/animes/higeki-no-genkyou-to-naru-saikyou-gedou-last-boss-joou-wa-tami-no-tame-ni-tsukushimasu-todos-os-episodios",
      "texto_original": "Higeki no Genkyou to Naru Saikyou Gedou Last Boss Joou wa Tami no Tame ni Tsukushimasu.",
      "rating": 7.12,
      "classificacao_etaria": "A14",
      "imagem_original": "https://animefire.plus/img/animes/higeki-no-genkyou-to-naru-saikyou-gedou-last-boss-joou-wa-tami-no-tame-ni-tsukushimasu.jpg",
      "imagem_pasta": "https://animefire.plus/img/animes/higeki-no-genkyou-to-naru-saikyou-gedou-last-boss-joou-wa-tami-no-tame-ni-tsukushimasu/",
      "secao": "legendados",
      "pagina": 22,
      "total_episodios": 12,
      "link_video": "https://animefire.plus/video/higeki-no-genkyou-to-naru-saikyou-gedou-last-boss-joou-wa-tami-no-tame-ni-tsukushimasu"
    },
    {
      "id": 1459,
      "nome": "High School Fleet",
      "link": "https://animefire.plus/animes/high-school-fleet-todos-os-episodios",
      "texto_original": "High School Fleet",
      "rating": 7.31,
      "classificacao_etaria": "A14",
      "imagem_original": "https://animefire.plus/img/animes/high-school-fleet.webp",
      "imagem_pasta": "https://animefire.plus/img/animes/high-school-fleet/",
      "secao": "legendados",
      "pagina": 64,
      "total_episodios": 12,
      "link_video": "https://animefire.plus/video/high-school-fleet"
    },
    {
      "id": 1460,
      "nome": "High Score Girl (Dublado)",
      "link": "https://animefire.plus/animes/high-score-girl-dublado-todos-os-episodios",
      "texto_original": "High Score Girl (Dublado)",
      "rating": 8.02,
      "classificacao_etaria": "A14",
      "imagem_original": "https://animefire.plus/img/animes/high-score-girl.webp",
      "imagem_pasta": "https://animefire.plus/img/animes/high-score-girl/",
      "secao": "dublados,legendados",
      "pagina": 24,
      "total_episodios": 12,
      "link_video": "https://animefire.plus/video/high-score-girl-dublado"
    },
    {
      "id": 1461,
      "nome": "High Score Girl II (Dublado)",
      "link": "https://animefire.plus/animes/high-score-girl-ii-dublado-todos-os-episodios",
      "texto_original": "High Score Girl II (Dublado)",
      "rating": 8.21,
      "classificacao_etaria": "A14",
      "imagem_original": "https://animefire.plus/img/animes/high-score-girl-ii.webp",
      "imagem_pasta": "https://animefire.plus/img/animes/high-score-girl-ii/",
      "secao": "dublados,legendados",
      "pagina": 23,
      "total_episodios": 9,
      "link_video": "https://animefire.plus/video/high-score-girl-ii-dublado"
    },
    {
      "id": 1462,
      "nome": "High Score Girl: Extra Stage (Dublado)",
      "link": "https://animefire.plus/animes/high-score-girl-extra-stage-dublado-todos-os-episodios",
      "texto_original": "High Score Girl: Extra Stage (Dublado)",
      "rating": 8.07,
      "classificacao_etaria": "A14",
      "imagem_original": "https://animefire.plus/img/animes/high-score-girl-extra-stage.webp",
      "imagem_pasta": "https://animefire.plus/img/animes/high-score-girl-extra-stage/",
      "secao": "dublados,legendados",
      "pagina": 24,
      "total_episodios": 3,
      "link_video": "https://animefire.plus/video/high-score-girl-extra-stage-dublado"
    }
  ],
  "pagination": {
    "current_page": 47,
    "per_page": 20,
    "total_items": 2988,
    "total_pages": 150,
    "has_next": true,
    "has_prev": true
  }
}
