{
  "message": "Animes com classificação etária: A14",
  "age_rating": "A14",
  "data": [
    {
      "id": 2169,
      "nome": "Kuusen Madoushi Kouhosei No Kyoukan",
      "link": "https://animefire.plus/animes/kuusen-madoushi-kouhosei-no-kyoukan-todos-os-episodios",
      "texto_original": "Kuusen Madoushi Kouhosei No Kyoukan",
      "rating": 6.56,
      "classificacao_etaria": "A14",
      "imagem_original": "https://animefire.plus/img/animes/kuusen-madoushi-kouhosei-no-kyoukan.webp",
      "imagem_pasta": "https://animefire.plus/img/animes/kuusen-madoushi-kouhosei-no-kyoukan/",
      "secao": "legendados",
      "pagina": 107,
      "total_episodios": 12,
      "link_video": "https://animefire.plus/video/kuusen-madoushi-kouhosei-no-kyoukan"
    },
    {
      "id": 2170,
      "nome": "Kuusen Madoushi Kouhosei no Kyoukan: Lecty no, Ikimonogatari",
      "link": "https://animefire.plus/animes/kuusen-madoushi-kouhosei-no-kyoukan-lecty-no-ikimonogatari-todos-os-episodios",
      "texto_original": "Kuusen Madoushi Kouhosei no Kyoukan: Lecty no, Ikimonogatari",
      "rating": 6.45,
      "classificacao_etaria": "A14",
      "imagem_original": "https://animefire.plus/img/animes/kuusen-madoushi-kouhosei-no-kyoukan-lecty-no-ikimonogatari.webp",
      "imagem_pasta": "https://animefire.plus/img/animes/kuusen-madoushi-kouhosei-no-kyoukan-lecty-no-ikimonogatari/",
      "secao": "legendados",
      "pagina": 71,
      "total_episodios": 1,
      "link_video": "https://animefire.plus/video/kuusen-madoushi-kouhosei-no-kyoukan-lecty-no-ikimonogatari"
    },
    {
      "id": 2171,
      "nome": "Kuutei Dragons (Dublado)",
      "link": "https://animefire.plus/animes/kuutei-dragons-dublado-todos-os-episodios",
      "texto_original": "Kuutei Dragons (Dublado)",
      "rating": 7.05,
      "classificacao_etaria": "A14",
      "imagem_original": "https://animefire.plus/img/animes/kuutei-dragons.webp",
      "imagem_pasta": "https://animefire.plus/img/animes/kuutei-dragons/",
      "secao": "dublados,legendados",
      "pagina": 23,
      "total_episodios": 12,
      "link_video": "https://animefire.plus/video/kuutei-dragons-dublado"
    },
    {
      "id": 2176,
      "nome": "Kyoto Teramachi Sanjou no Holmes",
      "link": "https://animefire.plus/animes/kyoto-teramachi-sanjou-no-holmes-todos-os-episodios",
      "texto_original": "Kyoto Teramachi Sanjou no Holmes",
      "rating": 6.81,
      "classificacao_etaria": "A14",
      "imagem_original": "https://animefire.plus/img/animes/kyoto-teramachi-sanjou-no-holmes.webp",
      "imagem_pasta": "https://animefire.plus/img/animes/kyoto-teramachi-sanjou-no-holmes/",
      "secao": "legendados",
      "pagina": 143,
      "total_episodios": 12,
      "link_video": "https://animefire.plus/video/kyoto-teramachi-sanjou-no-holmes"
    },
    {
      "id": 2177,
      "nome": "Kyou kara Maou!",
      "link": "https://animefire.plus/animes/kyou-kara-maou-todos-os-episodios",
      "texto_original": "Kyou kara Maou!",
      "rating": 7.81,
      "classificacao_etaria": "A14",
      "imagem_original": "https://animefire.plus/img/animes/kyou-kara-maou.webp",
      "imagem_pasta": "https://animefire.plus/img/animes/kyou-kara-maou/",
      "secao": "legendados",
      "pagina": 135,
      "total_episodios": 76,
      "link_video": "https://animefire.plus/video/kyou-kara-maou"
    },
    {
      "id": 2178,
      "nome": "Kyou kara Maou! 3rd Series",
      "link": "https://animefire.plus/animes/kyou-kara-maou-3rd-series-todos-os-episodios",
      "texto_original": "Kyou kara Maou! 3rd Series",
      "rating": 7.85,
      "classificacao_etaria": "A14",
      "imagem_original": "https://animefire.plus/img/animes/kyou-kara-maou-3rd-series.webp",
      "imagem_pasta": "https://animefire.plus/img/animes/kyou-kara-maou-3rd-series/",
      "secao": "legendados",
      "pagina": 76,
      "total_episodios": 39,
      "link_video": "https://animefire.plus/video/kyou-kara-maou-3rd-series"
    },
    {
      "id": 2179,
      "nome": "Kyou kara Maou! R",
      "link": "https://animefire.plus/animes/kyou-kara-maou-r-todos-os-episodios",
      "texto_original": "Kyou kara Maou! R",
      "rating": 7.49,
      "classificacao_etaria": "A14",
      "imagem_original": "https://animefire.plus/img/animes/kyou-kara-maou-r.webp",
      "imagem_pasta": "https://animefire.plus/img/animes/kyou-kara-maou-r/",
      "secao": "legendados",
      "pagina": 76,
      "total_episodios": 5,
      "link_video": "https://animefire.plus/video/kyou-kara-maou-r"
    },
    {
      "id": 2180,
      "nome": "Kyou no 5 no 2",
      "link": "https://animefire.plus/animes/kyou-no-5-no-2-todos-os-episodios",
      "texto_original": "Kyou no 5 no 2",
      "rating": 7.27,
      "classificacao_etaria": "A14",
      "imagem_original": "https://animefire.plus/img/animes/kyou-no-5-no-2.webp",
      "imagem_pasta": "https://animefire.plus/img/animes/kyou-no-5-no-2/",
      "secao": "legendados",
      "pagina": 118,
      "total_episodios": 11,
      "link_video": "https://animefire.plus/video/kyou-no-5-no-2"
    },
    {
      "id": 2181,
      "nome": "Kyou no Asuka Show",
      "link": "https://animefire.plus/animes/kyou-no-asuka-show-todos-os-episodios",
      "texto_original": "Kyou no Asuka Show",
      "rating": 6.57,
      "classificacao_etaria": "A14",
      "imagem_original": "https://animefire.plus/img/animes/kyou-no-asuka-show.webp",
      "imagem_pasta": "https://animefire.plus/img/animes/kyou-no-asuka-show/",
      "secao": "legendados",
      "pagina": 12,
      "total_episodios": 20,
      "link_video": "https://animefire.plus/video/kyou-no-asuka-show"
    },
    {
      "id": 2183,
      "nome": "Kyoukai no Kanata",
      "link": "https://animefire.plus/animes/kyoukai-no-kanata-todos-os-episodios",
      "texto_original": "Kyoukai no Kanata",
      "rating": 7.86,
      "classificacao_etaria": "A14",
      "imagem_original": "https://animefire.plus/img/animes/kyoukai-no-kanata.webp",
      "imagem_pasta": "https://animefire.plus/img/animes/kyoukai-no-kanata/",
      "secao": "legendados",
      "pagina": 169,
      "total_episodios": 5,
      "link_video": "https://animefire.plus/video/kyoukai-no-kanata"
    },
    {
      "id": 2184,
      "nome": "Kyoukai no Rinne (TV)",
      "link": "https://animefire.plus/animes/kyoukai-no-rinne-tv-todos-os-episodios",
      "texto_original": "Kyoukai no Rinne (TV)",
      "rating": 6.93,
      "classificacao_etaria": "A14",
      "imagem_original": "https://animefire.plus/img/animes/kyoukai-no-rinne-tv.webp",
      "imagem_pasta": "https://animefire.plus/img/animes/kyoukai-no-rinne-tv/",
      "secao": "legendados",
      "pagina": 91,
      "total_episodios": 25,
      "link_video": "https://animefire.plus/video/kyoukai-no-rinne-tv"
    },
    {
      "id": 2185,
      "nome": "Kyoukai Senki",
      "link": "https://animefire.plus/animes/kyoukai-senki-todos-os-episodios",
      "texto_original": "Kyoukai Senki",
      "rating": 6.31,
      "classificacao_etaria": "A14",
      "imagem_original": "https://animefire.plus/img/animes/kyoukai-senki.webp",
      "imagem_pasta": "https://animefire.plus/img/animes/kyoukai-senki/",
      "secao": "legendados",
      "pagina": 38,
      "total_episodios": 13,
      "link_video": "https://animefire.plus/video/kyoukai-senki"
    },
    {
      "id": 2186,
      "nome": "Kyoukai Senki Part 2",
      "link": "https://animefire.plus/animes/kyoukai-senki-part-2-todos-os-episodios",
      "texto_original": "Kyoukai Senki Part 2",
      "rating": 6.53,
      "classificacao_etaria": "A14",
      "imagem_original": "https://animefire.plus/img/animes/kyoukai-senki-part-2.webp",
      "imagem_pasta": "https://animefire.plus/img/animes/kyoukai-senki-part-2/",
      "secao": "legendados",
      "pagina": 33,
      "total_episodios": 12,
      "link_video": "https://animefire.plus/video/kyoukai-senki-part-2"
    },
    {
      "id": 2187,
      "nome": "Kyoukai Senki: Kyokkou no Souki",
      "link": "https://animefire.plus/animes/kyoukai-senki-kyokkou-no-souki-todos-os-episodios",
      "texto_original": "Kyoukai Senki: Kyokkou no Souki",
      "rating": 5.72,
      "classificacao_etaria": "A14",
      "imagem_original": "https://animefire.plus/img/animes/kyoukai-senki-kyokkou-no-souki.webp",
      "imagem_pasta": "https://animefire.plus/img/animes/kyoukai-senki-kyokkou-no-souki/",
      "secao": "legendados,lancamentos",
      "pagina": 21,
      "total_episodios": 2,
      "link_video": "https://animefire.plus/video/kyoukai-senki-kyokkou-no-souki"
    },
    {
      "id": 2188,
      "nome": "Kyoukaisenjou no Horizon",
      "link": "https://animefire.plus/animes/kyoukaisenjou-no-horizon-todos-os-episodios",
      "texto_original": "Kyoukaisenjou no Horizon",
      "rating": 7.19,
      "classificacao_etaria": "A14",
      "imagem_original": "https://animefire.plus/img/animes/kyoukaisenjou-no-horizon.webp",
      "imagem_pasta": "https://animefire.plus/img/animes/kyoukaisenjou-no-horizon/",
      "secao": "legendados",
      "pagina": 171,
      "total_episodios": 13,
      "link_video": "https://animefire.plus/video/kyoukaisenjou-no-horizon"
    },
    {
      "id": 2190,
      "nome": "Kyoushirou to Towa no Sora",
      "link": "https://animefire.plus/animes/kyoushirou-to-towa-no-sora-todos-os-episodios",
      "texto_original": "Kyoushirou to Towa no Sora",
      "rating": 6.58,
      "classificacao_etaria": "A14",
      "imagem_original": "https://animefire.plus/img/animes/kyoushirou-to-towa-no-sora.webp",
      "imagem_pasta": "https://animefire.plus/img/animes/kyoushirou-to-towa-no-sora/",
      "secao": "legendados",
      "pagina": 177,
      "total_episodios": 12,
      "link_video": "https://animefire.plus/video/kyoushirou-to-towa-no-sora"
    },
    {
      "id": 2191,
      "nome": "Kyoushoku Soukou Guyver (2005)",
      "link": "https://animefire.plus/animes/kyoushoku-soukou-guyver-2005-todos-os-episodios",
      "texto_original": "Kyoushoku Soukou Guyver (2005)",
      "rating": 7.27,
      "classificacao_etaria": "A14",
      "imagem_original": "https://animefire.plus/img/animes/kyoushoku-soukou-guyver-2005.webp",
      "imagem_pasta": "https://animefire.plus/img/animes/kyoushoku-soukou-guyver-2005/",
      "secao": "legendados",
      "pagina": 68,
      "total_episodios": 24,
      "link_video": "https://animefire.plus/video/kyoushoku-soukou-guyver-2005"
    },
    {
      "id": 2192,
      "nome": "Kyousou Giga (TV)",
      "link": "https://animefire.plus/animes/kyousou-giga-tv-todos-os-episodios",
      "texto_original": "Kyousou Giga (TV)",
      "rating": 7.84,
      "classificacao_etaria": "A14",
      "imagem_original": "https://animefire.plus/img/animes/kyousou-giga-tv.webp",
      "imagem_pasta": "https://animefire.plus/img/animes/kyousou-giga-tv/",
      "secao": "legendados",
      "pagina": 94,
      "total_episodios": 10,
      "link_video": "https://animefire.plus/video/kyousou-giga-tv"
    },
    {
      "id": 2193,
      "nome": "Kyuujitsu no Warumono-san",
      "link": "https://animefire.plus/animes/kyuujitsu-no-warumono-san-todos-os-episodios",
      "texto_original": "Kyuujitsu no Warumono-san",
      "rating": 7.25,
      "classificacao_etaria": "A14",
      "imagem_original": "https://animefire.plus/img/animes/kyuujitsu-no-warumono-san.webp",
      "imagem_pasta": "https://animefire.plus/img/animes/kyuujitsu-no-warumono-san/",
      "secao": "legendados",
      "pagina": 17,
      "total_episodios": 12,
      "link_video": "https://animefire.plus/video/kyuujitsu-no-warumono-san"
    },
    {
      "id": 2194,
      "nome": "Kyuuketsuhime Miyu",
      "link": "https://animefire.plus/animes/kyuuketsuhime-miyu-todos-os-episodios",
      "texto_original": "Kyuuketsuhime Miyu",
      "rating": 7.01,
      "classificacao_etaria": "A14",
      "imagem_original": "https://animefire.plus/img/animes/kyuuketsuhime-miyu.webp",
      "imagem_pasta": "https://animefire.plus/img/animes/kyuuketsuhime-miyu/",
      "secao": "legendados",
      "pagina": 66,
      "total_episodios": 4,
      "link_video": "https://animefire.plus/video/kyuuketsuhime-miyu"
    }
  ],
  "pagination": {
    "current_page": 71,
    "per_page": 20,
    "total_items": 2988,
    "total_pages": 150,
    "has_next": true,
    "has_prev": true
  }
}
