{
  "message": "Animes com classificação etária: A14",
  "age_rating": "A14",
  "data": [
    {
      "id": 1322,
      "nome": "Hajime no Ippo: Mashiba vs. Kimura",
      "link": "https://animefire.plus/animes/hajime-no-ippo-mashiba-vs-kimura-todos-os-episodios",
      "texto_original": "Hajime no Ippo: Mashiba vs. Kimura",
      "rating": 8.24,
      "classificacao_etaria": "A14",
      "imagem_original": "https://animefire.plus/img/animes/hajime-no-ippo-mashiba-vs-kimura.webp",
      "imagem_pasta": "https://animefire.plus/img/animes/hajime-no-ippo-mashiba-vs-kimura/",
      "secao": "legendados",
      "pagina": 67,
      "total_episodios": 1,
      "link_video": "https://animefire.plus/video/hajime-no-ippo-mashiba-vs-kimura"
    },
    {
      "id": 1323,
      "nome": "Hajime no Ippo: Rising",
      "link": "https://animefire.plus/animes/hajime-no-ippo-rising-todos-os-episodios",
      "texto_original": "Hajime no Ippo: Rising",
      "rating": 8.62,
      "classificacao_etaria": "A14",
      "imagem_original": "https://animefire.plus/img/animes/hajime-no-ippo-rising.webp",
      "imagem_pasta": "https://animefire.plus/img/animes/hajime-no-ippo-rising/",
      "secao": "legendados",
      "pagina": 76,
      "total_episodios": 25,
      "link_video": "https://animefire.plus/video/hajime-no-ippo-rising"
    },
    {
      "id": 1324,
      "nome": "Hajimete no Gal",
      "link": "https://animefire.plus/animes/hajimete-no-gal-todos-os-episodios",
      "texto_original": "Hajimete no Gal",
      "rating": 6.18,
      "classificacao_etaria": "A14",
      "imagem_original": "https://animefire.plus/img/animes/hajimete-no-gal.webp",
      "imagem_pasta": "https://animefire.plus/img/animes/hajimete-no-gal/",
      "secao": "legendados",
      "pagina": 80,
      "total_episodios": 11,
      "link_video": "https://animefire.plus/video/hajimete-no-gal"
    },
    {
      "id": 1325,
      "nome": "Hajimete no Gal: Hajimete no Bunkasai",
      "link": "https://animefire.plus/animes/hajimete-no-gal-hajimete-no-bunkasai-todos-os-episodios",
      "texto_original": "Hajimete no Gal: Hajimete no Bunkasai",
      "rating": 6.5,
      "classificacao_etaria": "A14",
      "imagem_original": "https://animefire.plus/img/animes/hajimete-no-gal-hajimete-no-bunkasai.webp",
      "imagem_pasta": "https://animefire.plus/img/animes/hajimete-no-gal-hajimete-no-bunkasai/",
      "secao": "legendados",
      "pagina": 78,
      "total_episodios": 1,
      "link_video": "https://animefire.plus/video/hajimete-no-gal-hajimete-no-bunkasai"
    },
    {
      "id": 1328,
      "nome": "Hakkenden: Touhou Hakken Ibun",
      "link": "https://animefire.plus/animes/hakkenden-touhou-hakken-ibun-todos-os-episodios",
      "texto_original": "Hakkenden: Touhou Hakken Ibun",
      "rating": 7.52,
      "classificacao_etaria": "A14",
      "imagem_original": "https://animefire.plus/img/animes/hakkenden-touhou-hakken-ibun.webp",
      "imagem_pasta": "https://animefire.plus/img/animes/hakkenden-touhou-hakken-ibun/",
      "secao": "legendados",
      "pagina": 124,
      "total_episodios": 13,
      "link_video": "https://animefire.plus/video/hakkenden-touhou-hakken-ibun"
    },
    {
      "id": 1329,
      "nome": "Hakkenden: Touhou Hakken Ibun 2nd Season",
      "link": "https://animefire.plus/animes/hakkenden-touhou-hakken-ibun-2nd-season-todos-os-episodios",
      "texto_original": "Hakkenden: Touhou Hakken Ibun 2nd Season",
      "rating": 7.75,
      "classificacao_etaria": "A14",
      "imagem_original": "https://animefire.plus/img/animes/hakkenden-touhou-hakken-ibun-2nd-season.webp",
      "imagem_pasta": "https://animefire.plus/img/animes/hakkenden-touhou-hakken-ibun-2nd-season/",
      "secao": "legendados",
      "pagina": 155,
      "total_episodios": 0,
      "link_video": "https://animefire.plus/video/hakkenden-touhou-hakken-ibun-2nd-season"
    },
    {
      "id": 1330,
      "nome": "Hakozume: Kouban Joshi no Gyakushuu",
      "link": "https://animefire.plus/animes/hakozume-kouban-joshi-no-gyakushuu-todos-os-episodios",
      "texto_original": "Hakozume: Kouban Joshi no Gyakushuu",
      "rating": 7.16,
      "classificacao_etaria": "A14",
      "imagem_original": "https://animefire.plus/img/animes/hakozume-kouban-joshi-no-gyakushuu.webp",
      "imagem_pasta": "https://animefire.plus/img/animes/hakozume-kouban-joshi-no-gyakushuu/",
      "secao": "legendados",
      "pagina": 36,
      "total_episodios": 13,
      "link_video": "https://animefire.plus/video/hakozume-kouban-joshi-no-gyakushuu"
    },
    {
      "id": 1332,
      "nome": "Hakumei to Mikochi",
      "link": "https://animefire.plus/animes/hakumei-to-mikochi-todos-os-episodios",
      "texto_original": "Hakumei to Mikochi",
      "rating": 7.66,
      "classificacao_etaria": "A14",
      "imagem_original": "https://animefire.plus/img/animes/hakumei-to-mikochi.webp",
      "imagem_pasta": "https://animefire.plus/img/animes/hakumei-to-mikochi/",
      "secao": "legendados",
      "pagina": 156,
      "total_episodios": 12,
      "link_video": "https://animefire.plus/video/hakumei-to-mikochi"
    },
    {
      "id": 1335,
      "nome": "Hakuouki OVA",
      "link": "https://animefire.plus/animes/hakuouki-ova-todos-os-episodios",
      "texto_original": "Hakuouki OVA",
      "rating": 7.42,
      "classificacao_etaria": "A14",
      "imagem_original": "https://animefire.plus/img/animes/hakuouki-ova.webp",
      "imagem_pasta": "https://animefire.plus/img/animes/hakuouki-ova/",
      "secao": "legendados",
      "pagina": 36,
      "total_episodios": 0,
      "link_video": "https://animefire.plus/video/hakuouki-ova"
    },
    {
      "id": 1338,
      "nome": "Hakuouki Sekkaroku",
      "link": "https://animefire.plus/animes/hakuouki-sekkaroku-todos-os-episodios",
      "texto_original": "Hakuouki Sekkaroku",
      "rating": 7.68,
      "classificacao_etaria": "A14",
      "imagem_original": "https://animefire.plus/img/animes/hakuouki-sekkaroku.webp",
      "imagem_pasta": "https://animefire.plus/img/animes/hakuouki-sekkaroku/",
      "secao": "legendados",
      "pagina": 62,
      "total_episodios": 6,
      "link_video": "https://animefire.plus/video/hakuouki-sekkaroku"
    },
    {
      "id": 1339,
      "nome": "Hakushaku To Yousei",
      "link": "https://animefire.plus/animes/hakushaku-to-yousei-todos-os-episodios",
      "texto_original": "Hakushaku To Yousei",
      "rating": 7.38,
      "classificacao_etaria": "A14",
      "imagem_original": "https://animefire.plus/img/animes/hakushaku-to-yousei.webp",
      "imagem_pasta": "https://animefire.plus/img/animes/hakushaku-to-yousei/",
      "secao": "legendados",
      "pagina": 97,
      "total_episodios": 12,
      "link_video": "https://animefire.plus/video/hakushaku-to-yousei"
    },
    {
      "id": 1340,
      "nome": "Hakyuu Houshin Engi",
      "link": "https://animefire.plus/animes/hakyuu-houshin-engi-todos-os-episodios",
      "texto_original": "Hakyuu Houshin Engi",
      "rating": 5.67,
      "classificacao_etaria": "A14",
      "imagem_original": "https://animefire.plus/img/animes/hakyuu-houshin-engi.webp",
      "imagem_pasta": "https://animefire.plus/img/animes/hakyuu-houshin-engi/",
      "secao": "legendados",
      "pagina": 139,
      "total_episodios": 24,
      "link_video": "https://animefire.plus/video/hakyuu-houshin-engi"
    },
    {
      "id": 1341,
      "nome": "Halo Legends",
      "link": "https://animefire.plus/animes/halo-legends-todos-os-episodios",
      "texto_original": "Halo Legends",
      "rating": 7.11,
      "classificacao_etaria": "A14",
      "imagem_original": "https://animefire.plus/img/animes/halo-legends.webp",
      "imagem_pasta": "https://animefire.plus/img/animes/halo-legends/",
      "secao": "legendados",
      "pagina": 107,
      "total_episodios": 8,
      "link_video": "https://animefire.plus/video/halo-legends"
    },
    {
      "id": 1345,
      "nome": "Hamidashi Creative",
      "link": "https://animefire.plus/animes/hamidashi-creative-todos-os-episodios",
      "texto_original": "Hamidashi Creative",
      "rating": null,
      "classificacao_etaria": "A14",
      "imagem_original": "https://animefire.plus/img/animes/hamidashi-creative.webp",
      "imagem_pasta": "https://animefire.plus/img/animes/hamidashi-creative/",
      "secao": "legendados,lancamentos",
      "pagina": 10,
      "total_episodios": 7,
      "link_video": "https://animefire.plus/video/hamidashi-creative"
    },
    {
      "id": 1346,
      "nome": "Hana wa Saku, Shura no Gotoku",
      "link": "https://animefire.plus/animes/hana-wa-saku-shura-no-gotoku-todos-os-episodios",
      "texto_original": "Hana wa Saku, Shura no Gotoku",
      "rating": 7.12,
      "classificacao_etaria": "A14",
      "imagem_original": "https://animefire.plus/img/animes/hana-wa-saku-shura-no-gotoku.webp",
      "imagem_pasta": "https://animefire.plus/img/animes/hana-wa-saku-shura-no-gotoku/",
      "secao": "legendados",
      "pagina": 7,
      "total_episodios": 12,
      "link_video": "https://animefire.plus/video/hana-wa-saku-shura-no-gotoku"
    },
    {
      "id": 1347,
      "nome": "Hana yori Dango",
      "link": "https://animefire.plus/animes/hana-yori-dango-todos-os-episodios",
      "texto_original": "Hana yori Dango",
      "rating": 7.75,
      "classificacao_etaria": "A14",
      "imagem_original": "https://animefire.plus/img/animes/hana-yori-dango.webp",
      "imagem_pasta": "https://animefire.plus/img/animes/hana-yori-dango/",
      "secao": "legendados",
      "pagina": 71,
      "total_episodios": 51,
      "link_video": "https://animefire.plus/video/hana-yori-dango"
    },
    {
      "id": 1348,
      "nome": "Hana-Doll*: Reinterpretation of Flowering",
      "link": "https://animefire.plus/animes/hana-doll-reinterpretation-of-flowering-todos-os-episodios",
      "texto_original": "Hana-Doll*: Reinterpretation of Flowering",
      "rating": null,
      "classificacao_etaria": "A14",
      "imagem_original": "https://animefire.plus/img/animes/hana-doll-reinterpretation-of-flowering.webp",
      "imagem_pasta": "https://animefire.plus/img/animes/hana-doll-reinterpretation-of-flowering/",
      "secao": "legendados,lancamentos",
      "pagina": 4,
      "total_episodios": 0,
      "link_video": "https://animefire.plus/video/hana-doll-reinterpretation-of-flowering"
    },
    {
      "id": 1349,
      "nome": "Hanabi-chan wa Okuregachi",
      "link": "https://animefire.plus/animes/hanabi-chan-wa-okuregachi-todos-os-episodios",
      "texto_original": "Hanabi-chan wa Okuregachi",
      "rating": 6.13,
      "classificacao_etaria": "A14",
      "imagem_original": "https://animefire.plus/img/animes/hanabi-chan-wa-okuregachi.webp",
      "imagem_pasta": "https://animefire.plus/img/animes/hanabi-chan-wa-okuregachi/",
      "secao": "legendados",
      "pagina": 31,
      "total_episodios": 12,
      "link_video": "https://animefire.plus/video/hanabi-chan-wa-okuregachi"
    },
    {
      "id": 1350,
      "nome": "Hanamaru Youchien",
      "link": "https://animefire.plus/animes/hanamaru-youchien-todos-os-episodios",
      "texto_original": "Hanamaru Youchien",
      "rating": 7.37,
      "classificacao_etaria": "A14",
      "imagem_original": "https://animefire.plus/img/animes/hanamaru-youchien.webp",
      "imagem_pasta": "https://animefire.plus/img/animes/hanamaru-youchien/",
      "secao": "legendados",
      "pagina": 96,
      "total_episodios": 2,
      "link_video": "https://animefire.plus/video/hanamaru-youchien"
    },
    {
      "id": 1352,
      "nome": "Hananoi-kun to Koi no Yamai (Dublado)",
      "link": "https://animefire.plus/animes/hananoi-kun-to-koi-no-yamai-dublado-todos-os-episodios",
      "texto_original": "Hananoi-kun to Koi no Yamai (Dublado)",
      "rating": 6.75,
      "classificacao_etaria": "A14",
      "imagem_original": "https://animefire.plus/img/animes/hananoi-kun-to-koi-no-yamai.webp",
      "imagem_pasta": "https://animefire.plus/img/animes/hananoi-kun-to-koi-no-yamai/",
      "secao": "dublados,legendados,lancamentos",
      "pagina": 2,
      "total_episodios": 12,
      "link_video": "https://animefire.plus/video/hananoi-kun-to-koi-no-yamai-dublado"
    }
  ],
  "pagination": {
    "current_page": 43,
    "per_page": 20,
    "total_items": 2988,
    "total_pages": 150,
    "has_next": true,
    "has_prev": true
  }
}
