{
  "message": "Animes com classificação etária: A14",
  "age_rating": "A14",
  "data": [
    {
      "id": 260,
      "nome": "Ashita no Joe 2",
      "link": "https://animefire.plus/animes/ashita-no-joe-2-todos-os-episodios",
      "texto_original": "Ashita no Joe 2",
      "rating": 8.52,
      "classificacao_etaria": "A14",
      "imagem_original": "https://animefire.plus/img/animes/ashita-no-joe-2.webp",
      "imagem_pasta": "https://animefire.plus/img/animes/ashita-no-joe-2/",
      "secao": "legendados",
      "pagina": 161,
      "total_episodios": 47,
      "link_video": "https://animefire.plus/video/ashita-no-joe-2"
    },
    {
      "id": 262,
      "nome": "Asobi Asobase",
      "link": "https://animefire.plus/animes/asobi-asobase-todos-os-episodios",
      "texto_original": "Asobi Asobase",
      "rating": 8.23,
      "classificacao_etaria": "A14",
      "imagem_original": "https://animefire.plus/img/animes/asobi-asobase.webp",
      "imagem_pasta": "https://animefire.plus/img/animes/asobi-asobase/",
      "secao": "legendados",
      "pagina": 170,
      "total_episodios": 12,
      "link_video": "https://animefire.plus/video/asobi-asobase"
    },
    {
      "id": 263,
      "nome": "Asobi Asobase OVA",
      "link": "https://animefire.plus/animes/asobi-asobase-ova-todos-os-episodios",
      "texto_original": "Asobi Asobase OVA",
      "rating": 7.51,
      "classificacao_etaria": "A14",
      "imagem_original": "https://animefire.plus/img/animes/asobi-asobase-ova.webp",
      "imagem_pasta": "https://animefire.plus/img/animes/asobi-asobase-ova/",
      "secao": "legendados",
      "pagina": 85,
      "total_episodios": 1,
      "link_video": "https://animefire.plus/video/asobi-asobase-ova"
    },
    {
      "id": 264,
      "nome": "Asobi Asobase Specials",
      "link": "https://animefire.plus/animes/asobi-asobase-specials-todos-os-episodios",
      "texto_original": "Asobi Asobase Specials",
      "rating": 7.59,
      "classificacao_etaria": "A14",
      "imagem_original": "https://animefire.plus/img/animes/asobi-asobase-specials.webp",
      "imagem_pasta": "https://animefire.plus/img/animes/asobi-asobase-specials/",
      "secao": "legendados",
      "pagina": 85,
      "total_episodios": 2,
      "link_video": "https://animefire.plus/video/asobi-asobase-specials"
    },
    {
      "id": 266,
      "nome": "Assassins Pride",
      "link": "https://animefire.plus/animes/assassins-pride-todos-os-episodios",
      "texto_original": "Assassins Pride",
      "rating": 5.94,
      "classificacao_etaria": "A14",
      "imagem_original": "https://animefire.plus/img/animes/assassins-pride.webp",
      "imagem_pasta": "https://animefire.plus/img/animes/assassins-pride/",
      "secao": "legendados",
      "pagina": 110,
      "total_episodios": 1,
      "link_video": "https://animefire.plus/video/assassins-pride"
    },
    {
      "id": 267,
      "nome": "Assault Lily: Bouquet",
      "link": "https://animefire.plus/animes/assault-lily-bouquet-todos-os-episodios",
      "texto_original": "Assault Lily: Bouquet",
      "rating": null,
      "classificacao_etaria": "A14",
      "imagem_original": "https://animefire.plus/img/animes/assault-lily-bouquet.webp",
      "imagem_pasta": "https://animefire.plus/img/animes/assault-lily-bouquet/",
      "secao": "legendados",
      "pagina": 52,
      "total_episodios": 12,
      "link_video": "https://animefire.plus/video/assault-lily-bouquet"
    },
    {
      "id": 268,
      "nome": "Astarotte no Omocha!",
      "link": "https://animefire.plus/animes/astarotte-no-omocha-todos-os-episodios",
      "texto_original": "Astarotte no Omocha!",
      "rating": 6.69,
      "classificacao_etaria": "A14",
      "imagem_original": "https://animefire.plus/img/animes/astarotte-no-omocha.webp",
      "imagem_pasta": "https://animefire.plus/img/animes/astarotte-no-omocha/",
      "secao": "legendados",
      "pagina": 93,
      "total_episodios": 12,
      "link_video": "https://animefire.plus/video/astarotte-no-omocha"
    },
    {
      "id": 269,
      "nome": "Astro Note",
      "link": "https://animefire.plus/animes/astro-note-todos-os-episodios",
      "texto_original": "Astro Note",
      "rating": 6.55,
      "classificacao_etaria": "A14",
      "imagem_original": "https://animefire.plus/img/animes/astro-note.webp",
      "imagem_pasta": "https://animefire.plus/img/animes/astro-note/",
      "secao": "legendados",
      "pagina": 14,
      "total_episodios": 12,
      "link_video": "https://animefire.plus/video/astro-note"
    },
    {
      "id": 270,
      "nome": "Asu no Yoichi!",
      "link": "https://animefire.plus/animes/asu-no-yoichi-todos-os-episodios",
      "texto_original": "Asu no Yoichi!",
      "rating": 6.91,
      "classificacao_etaria": "A14",
      "imagem_original": "https://animefire.plus/img/animes/asu-no-yoichi.webp",
      "imagem_pasta": "https://animefire.plus/img/animes/asu-no-yoichi/",
      "secao": "legendados",
      "pagina": 150,
      "total_episodios": 12,
      "link_video": "https://animefire.plus/video/asu-no-yoichi"
    },
    {
      "id": 271,
      "nome": "Asura Cryin'",
      "link": "https://animefire.plus/animes/asura-cryin-todos-os-episodios",
      "texto_original": "Asura Cryin'",
      "rating": 7.02,
      "classificacao_etaria": "A14",
      "imagem_original": "https://animefire.plus/img/animes/asura-cryin.webp",
      "imagem_pasta": "https://animefire.plus/img/animes/asura-cryin/",
      "secao": "legendados",
      "pagina": 172,
      "total_episodios": 13,
      "link_video": "https://animefire.plus/video/asura-cryin"
    },
    {
      "id": 272,
      "nome": "Atarashii Joushi wa Do Tennen",
      "link": "https://animefire.plus/animes/atarashii-joushi-wa-do-tennen-todos-os-episodios",
      "texto_original": "Atarashii Joushi wa Do Tennen",
      "rating": 7.92,
      "classificacao_etaria": "A14",
      "imagem_original": "https://animefire.plus/img/animes/atarashii-joushi-wa-do-tennen.webp",
      "imagem_pasta": "https://animefire.plus/img/animes/atarashii-joushi-wa-do-tennen/",
      "secao": "legendados",
      "pagina": 20,
      "total_episodios": 12,
      "link_video": "https://animefire.plus/video/atarashii-joushi-wa-do-tennen"
    },
    {
      "id": 273,
      "nome": "Atasha Kawajiri Kodama Da yo: Dangerous Lifehacker no Tadareta Seikatsu",
      "link": "https://animefire.plus/animes/atasha-kawajiri-kodama-da-yo-dangerous-lifehacker-no-tadareta-seikatsu-todos-os-episodios",
      "texto_original": "Atasha Kawajiri Kodama Da yo: Dangerous Lifehacker no Tadareta Seikatsu",
      "rating": 5.72,
      "classificacao_etaria": "A14",
      "imagem_original": "https://animefire.plus/img/animes/atasha-kawajiri-kodama-da-yo-dangerous-lifehacker-no-tadareta-seikatsu.webp",
      "imagem_pasta": "https://animefire.plus/img/animes/atasha-kawajiri-kodama-da-yo-dangerous-lifehacker-no-tadareta-seikatsu/",
      "secao": "legendados,lancamentos",
      "pagina": 35,
      "total_episodios": 11,
      "link_video": "https://animefire.plus/video/atasha-kawajiri-kodama-da-yo-dangerous-lifehacker-no-tadareta-seikatsu"
    },
    {
      "id": 274,
      "nome": "Atom: The Beginning",
      "link": "https://animefire.plus/animes/atom-the-beginning-todos-os-episodios",
      "texto_original": "Atom: The Beginning",
      "rating": 6.91,
      "classificacao_etaria": "A14",
      "imagem_original": "https://animefire.plus/img/animes/atom-the-beginning.webp",
      "imagem_pasta": "https://animefire.plus/img/animes/atom-the-beginning/",
      "secao": "legendados",
      "pagina": 163,
      "total_episodios": 12,
      "link_video": "https://animefire.plus/video/atom-the-beginning"
    },
    {
      "id": 275,
      "nome": "Atri: My Dear Moments",
      "link": "https://animefire.plus/animes/atri-my-dear-moments-todos-os-episodios",
      "texto_original": "Atri: My Dear Moments",
      "rating": 7.19,
      "classificacao_etaria": "A14",
      "imagem_original": "https://animefire.plus/img/animes/atri-my-dear-moments.webp",
      "imagem_pasta": "https://animefire.plus/img/animes/atri-my-dear-moments/",
      "secao": "legendados",
      "pagina": 13,
      "total_episodios": 13,
      "link_video": "https://animefire.plus/video/atri-my-dear-moments"
    },
    {
      "id": 281,
      "nome": "Ayaka",
      "link": "https://animefire.plus/animes/ayaka-todos-os-episodios",
      "texto_original": "Ayaka",
      "rating": 6.43,
      "classificacao_etaria": "A14",
      "imagem_original": "https://animefire.plus/img/animes/ayaka.jpg",
      "imagem_pasta": "https://animefire.plus/img/animes/ayaka/",
      "secao": "legendados",
      "pagina": 23,
      "total_episodios": 12,
      "link_video": "https://animefire.plus/video/ayaka"
    },
    {
      "id": 286,
      "nome": "Azumanga Daioh",
      "link": "https://animefire.plus/animes/azumanga-daioh-todos-os-episodios",
      "texto_original": "Azumanga Daioh",
      "rating": 8.03,
      "classificacao_etaria": "A14",
      "imagem_original": "https://animefire.plus/img/animes/azumanga-daioh.webp",
      "imagem_pasta": "https://animefire.plus/img/animes/azumanga-daioh/",
      "secao": "legendados",
      "pagina": 152,
      "total_episodios": 26,
      "link_video": "https://animefire.plus/video/azumanga-daioh"
    },
    {
      "id": 288,
      "nome": "Azur Lane: Bisoku Zenshin!",
      "link": "https://animefire.plus/animes/azur-lane-bisoku-zenshin-todos-os-episodios",
      "texto_original": "Azur Lane: Bisoku Zenshin!",
      "rating": 7,
      "classificacao_etaria": "A14",
      "imagem_original": "https://animefire.plus/img/animes/azur-lane-bisoku-zenshin.webp",
      "imagem_pasta": "https://animefire.plus/img/animes/azur-lane-bisoku-zenshin/",
      "secao": "legendados",
      "pagina": 48,
      "total_episodios": 12,
      "link_video": "https://animefire.plus/video/azur-lane-bisoku-zenshin"
    },
    {
      "id": 289,
      "nome": "Azur Lane: Bisoku Zenshin! Hokorashiki Bokou ni Shukusai wo",
      "link": "https://animefire.plus/animes/azur-lane-bisoku-zenshin-hokorashiki-bokou-ni-shukusai-wo-todos-os-episodios",
      "texto_original": "Azur Lane: Bisoku Zenshin! Hokorashiki Bokou ni Shukusai wo",
      "rating": 6.84,
      "classificacao_etaria": "A14",
      "imagem_original": "https://animefire.plus/img/animes/azur-lane-bisoku-zenshin-hokorashiki-bokou-ni-shukusai-wo.webp",
      "imagem_pasta": "https://animefire.plus/img/animes/azur-lane-bisoku-zenshin-hokorashiki-bokou-ni-shukusai-wo/",
      "secao": "legendados",
      "pagina": 37,
      "total_episodios": 1,
      "link_video": "https://animefire.plus/video/azur-lane-bisoku-zenshin-hokorashiki-bokou-ni-shukusai-wo"
    },
    {
      "id": 291,
      "nome": "B-Project: Kodou*Ambitious",
      "link": "https://animefire.plus/animes/b-project-kodou-ambitious-todos-os-episodios",
      "texto_original": "B-Project: Kodou*Ambitious",
      "rating": 6.75,
      "classificacao_etaria": "A14",
      "imagem_original": "https://animefire.plus/img/animes/b-project-kodou-ambitious.webp",
      "imagem_pasta": "https://animefire.plus/img/animes/b-project-kodou-ambitious/",
      "secao": "legendados",
      "pagina": 122,
      "total_episodios": 11,
      "link_video": "https://animefire.plus/video/b-project-kodou-ambitious"
    },
    {
      "id": 292,
      "nome": "B-Project: Netsuretsu*Love Call",
      "link": "https://animefire.plus/animes/b-project-netsuretsu-love-call-todos-os-episodios",
      "texto_original": "B-Project: Netsuretsu*Love Call",
      "rating": 6.3,
      "classificacao_etaria": "A14",
      "imagem_original": "https://animefire.plus/img/animes/b-project-netsuretsu-love-call.webp",
      "imagem_pasta": "https://animefire.plus/img/animes/b-project-netsuretsu-love-call/",
      "secao": "legendados",
      "pagina": 19,
      "total_episodios": 12,
      "link_video": "https://animefire.plus/video/b-project-netsuretsu-love-call"
    }
  ],
  "pagination": {
    "current_page": 10,
    "per_page": 20,
    "total_items": 2988,
    "total_pages": 150,
    "has_next": true,
    "has_prev": true
  }
}
