{
  "message": "Animes com classificação etária: A14",
  "age_rating": "A14",
  "data": [
    {
      "id": 3124,
      "nome": "Rikei ga Koi ni Ochita no de Shoumei shitemita. (Dublado)",
      "link": "https://animefire.plus/animes/rikei-ga-koi-ni-ochita-no-de-shoumei-shitemita-dublado-todos-os-episodios",
      "texto_original": "Rikei ga Koi ni Ochita no de Shoumei shitemita. (Dublado)",
      "rating": 7.36,
      "classificacao_etaria": "A14",
      "imagem_original": "https://animefire.plus/img/animes/rikei-ga-koi-ni-ochita-no-de-shoumei-shitemita.webp",
      "imagem_pasta": "https://animefire.plus/img/animes/rikei-ga-koi-ni-ochita-no-de-shoumei-shitemita/",
      "secao": "dublados,legendados",
      "pagina": 8,
      "total_episodios": 12,
      "link_video": "https://animefire.plus/video/rikei-ga-koi-ni-ochita-no-de-shoumei-shitemita-dublado"
    },
    {
      "id": 3125,
      "nome": "Rikei ga Koi ni Ochita no de Shoumei shitemita. Heart (Dublado)",
      "link": "https://animefire.plus/animes/rikei-ga-koi-ni-ochita-no-de-shoumei-shitemita-heart-dublado-todos-os-episodios",
      "texto_original": "Rikei ga Koi ni Ochita no de Shoumei shitemita. Heart (Dublado)",
      "rating": 7.3,
      "classificacao_etaria": "A14",
      "imagem_original": "https://animefire.plus/img/animes/rikei-ga-koi-ni-ochita-no-de-shoumei-shitemita-heart.webp",
      "imagem_pasta": "https://animefire.plus/img/animes/rikei-ga-koi-ni-ochita-no-de-shoumei-shitemita-heart/",
      "secao": "dublados,legendados",
      "pagina": 12,
      "total_episodios": 12,
      "link_video": "https://animefire.plus/video/rikei-ga-koi-ni-ochita-no-de-shoumei-shitemita-heart-dublado"
    },
    {
      "id": 3127,
      "nome": "Ring Ni Kakero 1: Kage Dou-hen",
      "link": "https://animefire.plus/animes/ring-ni-kakero-1-kage-dou-hen-todos-os-episodios",
      "texto_original": "Ring Ni Kakero 1: Kage Dou-hen",
      "rating": 6.75,
      "classificacao_etaria": "A14",
      "imagem_original": "https://animefire.plus/img/animes/ring-ni-kakero-1-kage-dou-hen.webp",
      "imagem_pasta": "https://animefire.plus/img/animes/ring-ni-kakero-1-kage-dou-hen/",
      "secao": "legendados",
      "pagina": 108,
      "total_episodios": 6,
      "link_video": "https://animefire.plus/video/ring-ni-kakero-1-kage-dou-hen"
    },
    {
      "id": 3128,
      "nome": "Ring ni Kakero 1: Nichibei Kessen-hen",
      "link": "https://animefire.plus/animes/ring-ni-kakero-1-nichibei-kessen-hen-todos-os-episodios",
      "texto_original": "Ring ni Kakero 1: Nichibei Kessen-hen",
      "rating": 6.72,
      "classificacao_etaria": "A14",
      "imagem_original": "https://animefire.plus/img/animes/ring-ni-kakero-1-nichibei-kessen-hen.webp",
      "imagem_pasta": "https://animefire.plus/img/animes/ring-ni-kakero-1-nichibei-kessen-hen/",
      "secao": "legendados",
      "pagina": 159,
      "total_episodios": 12,
      "link_video": "https://animefire.plus/video/ring-ni-kakero-1-nichibei-kessen-hen"
    },
    {
      "id": 3129,
      "nome": "Ring Ni Kakero 1: Sekai Taikai-hen",
      "link": "https://animefire.plus/animes/ring-ni-kakero-1-sekai-taikai-hen-todos-os-episodios",
      "texto_original": "Ring Ni Kakero 1: Sekai Taikai-hen",
      "rating": 6.77,
      "classificacao_etaria": "A14",
      "imagem_original": "https://animefire.plus/img/animes/ring-ni-kakero-1-sekai-taikai-hen.webp",
      "imagem_pasta": "https://animefire.plus/img/animes/ring-ni-kakero-1-sekai-taikai-hen/",
      "secao": "legendados",
      "pagina": 103,
      "total_episodios": 6,
      "link_video": "https://animefire.plus/video/ring-ni-kakero-1-sekai-taikai-hen"
    },
    {
      "id": 3130,
      "nome": "Rinne no Lagrange",
      "link": "https://animefire.plus/animes/rinne-no-lagrange-todos-os-episodios",
      "texto_original": "Rinne no Lagrange",
      "rating": 6.97,
      "classificacao_etaria": "A14",
      "imagem_original": "https://animefire.plus/img/animes/rinne-no-lagrange.webp",
      "imagem_pasta": "https://animefire.plus/img/animes/rinne-no-lagrange/",
      "secao": "legendados",
      "pagina": 153,
      "total_episodios": 12,
      "link_video": "https://animefire.plus/video/rinne-no-lagrange"
    },
    {
      "id": 3131,
      "nome": "Rinne no Lagrange Season 2",
      "link": "https://animefire.plus/animes/rinne-no-lagrange-season-2-todos-os-episodios",
      "texto_original": "Rinne no Lagrange Season 2",
      "rating": 7.03,
      "classificacao_etaria": "A14",
      "imagem_original": "https://animefire.plus/img/animes/rinne-no-lagrange-season-2.webp",
      "imagem_pasta": "https://animefire.plus/img/animes/rinne-no-lagrange-season-2/",
      "secao": "legendados",
      "pagina": 161,
      "total_episodios": 3,
      "link_video": "https://animefire.plus/video/rinne-no-lagrange-season-2"
    },
    {
      "id": 3132,
      "nome": "Rinne no Lagrange: Kamogawa Days",
      "link": "https://animefire.plus/animes/rinne-no-lagrange-kamogawa-days-todos-os-episodios",
      "texto_original": "Rinne no Lagrange: Kamogawa Days",
      "rating": 6.82,
      "classificacao_etaria": "A14",
      "imagem_original": "https://animefire.plus/img/animes/rinne-no-lagrange-kamogawa-days.webp",
      "imagem_pasta": "https://animefire.plus/img/animes/rinne-no-lagrange-kamogawa-days/",
      "secao": "legendados",
      "pagina": 71,
      "total_episodios": 1,
      "link_video": "https://animefire.plus/video/rinne-no-lagrange-kamogawa-days"
    },
    {
      "id": 3133,
      "nome": "Rinshi!! Ekoda-chan",
      "link": "https://animefire.plus/animes/rinshi-ekoda-chan-todos-os-episodios",
      "texto_original": "Rinshi!! Ekoda-chan",
      "rating": 5.53,
      "classificacao_etaria": "A14",
      "imagem_original": "https://animefire.plus/img/animes/rinshi-ekoda-chan.webp",
      "imagem_pasta": "https://animefire.plus/img/animes/rinshi-ekoda-chan/",
      "secao": "legendados",
      "pagina": 109,
      "total_episodios": 12,
      "link_video": "https://animefire.plus/video/rinshi-ekoda-chan"
    },
    {
      "id": 3134,
      "nome": "Rio: Rainbow Gate!",
      "link": "https://animefire.plus/animes/rio-rainbow-gate-todos-os-episodios",
      "texto_original": "Rio: Rainbow Gate!",
      "rating": 5.96,
      "classificacao_etaria": "A14",
      "imagem_original": "https://animefire.plus/img/animes/rio-rainbow-gate.webp",
      "imagem_pasta": "https://animefire.plus/img/animes/rio-rainbow-gate/",
      "secao": "legendados",
      "pagina": 132,
      "total_episodios": 12,
      "link_video": "https://animefire.plus/video/rio-rainbow-gate"
    },
    {
      "id": 3135,
      "nome": "Ristorante Paradiso",
      "link": "https://animefire.plus/animes/ristorante-paradiso-todos-os-episodios",
      "texto_original": "Ristorante Paradiso",
      "rating": 7.42,
      "classificacao_etaria": "A14",
      "imagem_original": "https://animefire.plus/img/animes/ristorante-paradiso.webp",
      "imagem_pasta": "https://animefire.plus/img/animes/ristorante-paradiso/",
      "secao": "legendados",
      "pagina": 150,
      "total_episodios": 11,
      "link_video": "https://animefire.plus/video/ristorante-paradiso"
    },
    {
      "id": 3137,
      "nome": "Ro-Kyu-Bu!",
      "link": "https://animefire.plus/animes/ro-kyu-bu-todos-os-episodios",
      "texto_original": "Ro-Kyu-Bu!",
      "rating": 6.95,
      "classificacao_etaria": "A14",
      "imagem_original": "https://animefire.plus/img/animes/ro-kyu-bu.webp",
      "imagem_pasta": "https://animefire.plus/img/animes/ro-kyu-bu/",
      "secao": "legendados",
      "pagina": 133,
      "total_episodios": 1,
      "link_video": "https://animefire.plus/video/ro-kyu-bu"
    },
    {
      "id": 3138,
      "nome": "Ro-Kyu-Bu! SS",
      "link": "https://animefire.plus/animes/ro-kyu-bu-ss-todos-os-episodios",
      "texto_original": "Ro-Kyu-Bu! SS",
      "rating": 7.22,
      "classificacao_etaria": "A14",
      "imagem_original": "https://animefire.plus/img/animes/ro-kyu-bu-ss.webp",
      "imagem_pasta": "https://animefire.plus/img/animes/ro-kyu-bu-ss/",
      "secao": "legendados",
      "pagina": 175,
      "total_episodios": 1,
      "link_video": "https://animefire.plus/video/ro-kyu-bu-ss"
    },
    {
      "id": 3139,
      "nome": "Ro-Kyu-Bu!: Tomoka no Ichigo Sundae",
      "link": "https://animefire.plus/animes/ro-kyu-bu-tomoka-no-ichigo-sundae-todos-os-episodios",
      "texto_original": "Ro-Kyu-Bu!: Tomoka no Ichigo Sundae",
      "rating": 7.03,
      "classificacao_etaria": "A14",
      "imagem_original": "https://animefire.plus/img/animes/ro-kyu-bu-tomoka-no-ichigo-sundae.webp",
      "imagem_pasta": "https://animefire.plus/img/animes/ro-kyu-bu-tomoka-no-ichigo-sundae/",
      "secao": "legendados",
      "pagina": 85,
      "total_episodios": 1,
      "link_video": "https://animefire.plus/video/ro-kyu-bu-tomoka-no-ichigo-sundae"
    },
    {
      "id": 3140,
      "nome": "RobiHachi",
      "link": "https://animefire.plus/animes/robihachi-todos-os-episodios",
      "texto_original": "RobiHachi",
      "rating": 6.51,
      "classificacao_etaria": "A14",
      "imagem_original": "https://animefire.plus/img/animes/robihachi.webp",
      "imagem_pasta": "https://animefire.plus/img/animes/robihachi/",
      "secao": "legendados",
      "pagina": 150,
      "total_episodios": 0,
      "link_video": "https://animefire.plus/video/robihachi"
    },
    {
      "id": 3141,
      "nome": "RoboMasters the Animated Series",
      "link": "https://animefire.plus/animes/robomasters-the-animated-series-todos-os-episodios",
      "texto_original": "RoboMasters the Animated Series",
      "rating": 6.57,
      "classificacao_etaria": "A14",
      "imagem_original": "https://animefire.plus/img/animes/robomasters-the-animated-series.webp",
      "imagem_pasta": "https://animefire.plus/img/animes/robomasters-the-animated-series/",
      "secao": "legendados",
      "pagina": 172,
      "total_episodios": 6,
      "link_video": "https://animefire.plus/video/robomasters-the-animated-series"
    },
    {
      "id": 3142,
      "nome": "Robotics;Notes",
      "link": "https://animefire.plus/animes/robotics-notes-todos-os-episodios",
      "texto_original": "Robotics;Notes",
      "rating": 7.39,
      "classificacao_etaria": "A14",
      "imagem_original": "https://animefire.plus/img/animes/robotics-notes.webp",
      "imagem_pasta": "https://animefire.plus/img/animes/robotics-notes/",
      "secao": "legendados",
      "pagina": 175,
      "total_episodios": 0,
      "link_video": "https://animefire.plus/video/robotics-notes"
    },
    {
      "id": 3143,
      "nome": "Rock wa Lady no Tashinami deshite",
      "link": "https://animefire.plus/animes/rock-wa-lady-no-tashinami-deshite-todos-os-episodios",
      "texto_original": "Rock wa Lady no Tashinami deshite",
      "rating": 7.92,
      "classificacao_etaria": "A14",
      "imagem_original": "https://animefire.plus/img/animes/rock-wa-lady-no-tashinami-deshite.webp",
      "imagem_pasta": "https://animefire.plus/img/animes/rock-wa-lady-no-tashinami-deshite/",
      "secao": "legendados",
      "pagina": 5,
      "total_episodios": 13,
      "link_video": "https://animefire.plus/video/rock-wa-lady-no-tashinami-deshite"
    },
    {
      "id": 3145,
      "nome": "Rokka no Yuusha (Dublado)",
      "link": "https://animefire.plus/animes/rokka-no-yuusha-dublado-todos-os-episodios",
      "texto_original": "Rokka no Yuusha (Dublado)",
      "rating": 7.43,
      "classificacao_etaria": "A14",
      "imagem_original": "https://animefire.plus/img/animes/rokka-no-yuusha.webp",
      "imagem_pasta": "https://animefire.plus/img/animes/rokka-no-yuusha/",
      "secao": "dublados,legendados",
      "pagina": 25,
      "total_episodios": 12,
      "link_video": "https://animefire.plus/video/rokka-no-yuusha-dublado"
    },
    {
      "id": 3147,
      "nome": "Rokudou no Onna-tachi",
      "link": "https://animefire.plus/animes/rokudou-no-onna-tachi-todos-os-episodios",
      "texto_original": "Rokudou no Onna-tachi",
      "rating": 6.41,
      "classificacao_etaria": "A14",
      "imagem_original": "https://animefire.plus/img/animes/rokudou-no-onna-tachi.jpg",
      "imagem_pasta": "https://animefire.plus/img/animes/rokudou-no-onna-tachi/",
      "secao": "legendados",
      "pagina": 24,
      "total_episodios": 12,
      "link_video": "https://animefire.plus/video/rokudou-no-onna-tachi"
    }
  ],
  "pagination": {
    "current_page": 104,
    "per_page": 20,
    "total_items": 2988,
    "total_pages": 150,
    "has_next": true,
    "has_prev": true
  }
}
