{
  "message": "Animes com classificação etária: A14",
  "age_rating": "A14",
  "data": [
    {
      "id": 3913,
      "nome": "Tonikaku Kawaii: Joshikou-hen (Dublado)",
      "link": "https://animefire.plus/animes/tonikaku-kawaii-joshikou-hen-dublado-todos-os-episodios",
      "texto_original": "Tonikaku Kawaii: Joshikou-hen (Dublado)",
      "rating": 7.76,
      "classificacao_etaria": "A14",
      "imagem_original": "https://animefire.plus/img/animes/tonikaku-kawaii-joshikou-hen.webp",
      "imagem_pasta": "https://animefire.plus/img/animes/tonikaku-kawaii-joshikou-hen/",
      "secao": "dublados,legendados",
      "pagina": 7,
      "total_episodios": 4,
      "link_video": "https://animefire.plus/video/tonikaku-kawaii-joshikou-hen-dublado"
    },
    {
      "id": 3914,
      "nome": "Tonikaku Kawaii: Seifuku (Dublado)",
      "link": "https://animefire.plus/animes/tonikaku-kawaii-seifuku-dublado-todos-os-episodios",
      "texto_original": "Tonikaku Kawaii: Seifuku (Dublado)",
      "rating": 7.72,
      "classificacao_etaria": "A14",
      "imagem_original": "https://animefire.plus/img/animes/tonikaku-kawaii-seifuku.webp",
      "imagem_pasta": "https://animefire.plus/img/animes/tonikaku-kawaii-seifuku/",
      "secao": "dublados,legendados",
      "pagina": 6,
      "total_episodios": 1,
      "link_video": "https://animefire.plus/video/tonikaku-kawaii-seifuku-dublado"
    },
    {
      "id": 3915,
      "nome": "Tonikaku Kawaii: SNS (Dublado)",
      "link": "https://animefire.plus/animes/tonikaku-kawaii-sns-dublado-todos-os-episodios",
      "texto_original": "Tonikaku Kawaii: SNS (Dublado)",
      "rating": 8.01,
      "classificacao_etaria": "A14",
      "imagem_original": "https://animefire.plus/img/animes/tonikaku-kawaii-sns.webp",
      "imagem_pasta": "https://animefire.plus/img/animes/tonikaku-kawaii-sns/",
      "secao": "dublados,legendados",
      "pagina": 15,
      "total_episodios": 1,
      "link_video": "https://animefire.plus/video/tonikaku-kawaii-sns-dublado"
    },
    {
      "id": 3918,
      "nome": "Toradora!",
      "link": "https://animefire.plus/animes/toradora-todos-os-episodios",
      "texto_original": "Toradora!",
      "rating": 8.36,
      "classificacao_etaria": "A14",
      "imagem_original": "https://animefire.plus/img/animes/toradora.webp",
      "imagem_pasta": "https://animefire.plus/img/animes/toradora/",
      "secao": "legendados",
      "pagina": 173,
      "total_episodios": 0,
      "link_video": "https://animefire.plus/video/toradora"
    },
    {
      "id": 3919,
      "nome": "Toradora!: Bentou no Gokui",
      "link": "https://animefire.plus/animes/toradora-bentou-no-gokui-todos-os-episodios",
      "texto_original": "Toradora!: Bentou no Gokui",
      "rating": 7.48,
      "classificacao_etaria": "A14",
      "imagem_original": "https://animefire.plus/img/animes/toradora-bentou-no-gokui.webp",
      "imagem_pasta": "https://animefire.plus/img/animes/toradora-bentou-no-gokui/",
      "secao": "legendados",
      "pagina": 71,
      "total_episodios": 1,
      "link_video": "https://animefire.plus/video/toradora-bentou-no-gokui"
    },
    {
      "id": 3920,
      "nome": "Toradora!: SOS! Kuishinbou Banbanzai",
      "link": "https://animefire.plus/animes/toradora-sos-kuishinbou-banbanzai-todos-os-episodios",
      "texto_original": "Toradora!: SOS! Kuishinbou Banbanzai",
      "rating": 6.38,
      "classificacao_etaria": "A14",
      "imagem_original": "https://animefire.plus/img/animes/toradora-sos-kuishinbou-banbanzai.webp",
      "imagem_pasta": "https://animefire.plus/img/animes/toradora-sos-kuishinbou-banbanzai/",
      "secao": "legendados",
      "pagina": 71,
      "total_episodios": 4,
      "link_video": "https://animefire.plus/video/toradora-sos-kuishinbou-banbanzai"
    },
    {
      "id": 3921,
      "nome": "Toriko",
      "link": "https://animefire.plus/animes/toriko-todos-os-episodios",
      "texto_original": "Toriko",
      "rating": 7.61,
      "classificacao_etaria": "A14",
      "imagem_original": "https://animefire.plus/img/animes/toriko.webp",
      "imagem_pasta": "https://animefire.plus/img/animes/toriko/",
      "secao": "legendados",
      "pagina": 74,
      "total_episodios": 18,
      "link_video": "https://animefire.plus/video/toriko"
    },
    {
      "id": 3922,
      "nome": "Toshokan Sensou",
      "link": "https://animefire.plus/animes/toshokan-sensou-todos-os-episodios",
      "texto_original": "Toshokan Sensou",
      "rating": 7.54,
      "classificacao_etaria": "A14",
      "imagem_original": "https://animefire.plus/img/animes/toshokan-sensou.webp",
      "imagem_pasta": "https://animefire.plus/img/animes/toshokan-sensou/",
      "secao": "legendados",
      "pagina": 102,
      "total_episodios": 12,
      "link_video": "https://animefire.plus/video/toshokan-sensou"
    },
    {
      "id": 3924,
      "nome": "Tougen Anki (Dublado)",
      "link": "https://animefire.plus/animes/tougen-anki-dublado-todos-os-episodios",
      "texto_original": "Tougen Anki (Dublado)",
      "rating": 7.04,
      "classificacao_etaria": "A14",
      "imagem_original": "https://animefire.plus/img/animes/tougen-anki.webp",
      "imagem_pasta": "https://animefire.plus/img/animes/tougen-anki/",
      "secao": "dublados,legendados,lancamentos",
      "pagina": 1,
      "total_episodios": 4,
      "link_video": "https://animefire.plus/video/tougen-anki-dublado"
    },
    {
      "id": 3926,
      "nome": "Touhai: Ura Rate Mahjong Touhai Roku",
      "link": "https://animefire.plus/animes/touhai-ura-rate-mahjong-touhai-roku-todos-os-episodios",
      "texto_original": "Touhai: Ura Rate Mahjong Touhai Roku",
      "rating": 6.62,
      "classificacao_etaria": "A14",
      "imagem_original": "https://animefire.plus/img/animes/touhai-ura-rate-mahjong-touhai-roku.webp",
      "imagem_pasta": "https://animefire.plus/img/animes/touhai-ura-rate-mahjong-touhai-roku/",
      "secao": "legendados,lancamentos",
      "pagina": 10,
      "total_episodios": 5,
      "link_video": "https://animefire.plus/video/touhai-ura-rate-mahjong-touhai-roku"
    },
    {
      "id": 3928,
      "nome": "Touken Ranbu Kai: Kyoden Moyuru Honnouji",
      "link": "https://animefire.plus/animes/touken-ranbu-kai-kyoden-moyuru-honnouji-todos-os-episodios",
      "texto_original": "Touken Ranbu Kai: Kyoden Moyuru Honnouji",
      "rating": 6.09,
      "classificacao_etaria": "A14",
      "imagem_original": "https://animefire.plus/img/animes/touken-ranbu-kai-kyoden-moyuru-honnouji.webp",
      "imagem_pasta": "https://animefire.plus/img/animes/touken-ranbu-kai-kyoden-moyuru-honnouji/",
      "secao": "legendados",
      "pagina": 14,
      "total_episodios": 8,
      "link_video": "https://animefire.plus/video/touken-ranbu-kai-kyoden-moyuru-honnouji"
    },
    {
      "id": 3929,
      "nome": "Touken Ranbu: Hanamaru",
      "link": "https://animefire.plus/animes/touken-ranbu-hanamaru-todos-os-episodios",
      "texto_original": "Touken Ranbu: Hanamaru",
      "rating": 6.89,
      "classificacao_etaria": "A14",
      "imagem_original": "https://animefire.plus/img/animes/touken-ranbu-hanamaru.webp",
      "imagem_pasta": "https://animefire.plus/img/animes/touken-ranbu-hanamaru/",
      "secao": "legendados",
      "pagina": 106,
      "total_episodios": 12,
      "link_video": "https://animefire.plus/video/touken-ranbu-hanamaru"
    },
    {
      "id": 3934,
      "nome": "Trickster: Edogawa Ranpo \"Shounen Tanteidan\" yori",
      "link": "https://animefire.plus/animes/trickster-edogawa-ranpo-shounen-tanteidan-yori-todos-os-episodios",
      "texto_original": "Trickster: Edogawa Ranpo \"Shounen Tanteidan\" yori",
      "rating": 6.29,
      "classificacao_etaria": "A14",
      "imagem_original": "https://animefire.plus/img/animes/trickster-edogawa-ranpo-shounen-tanteidan-yori.webp",
      "imagem_pasta": "https://animefire.plus/img/animes/trickster-edogawa-ranpo-shounen-tanteidan-yori/",
      "secao": "legendados",
      "pagina": 167,
      "total_episodios": 7,
      "link_video": "https://animefire.plus/video/trickster-edogawa-ranpo-shounen-tanteidan-yori"
    },
    {
      "id": 3935,
      "nome": "Trigun (Dublado)",
      "link": "https://animefire.plus/animes/trigun-dublado-todos-os-episodios",
      "texto_original": "Trigun (Dublado)",
      "rating": 8.25,
      "classificacao_etaria": "A14",
      "imagem_original": "https://animefire.plus/img/animes/trigun.webp",
      "imagem_pasta": "https://animefire.plus/img/animes/trigun/",
      "secao": "dublados,legendados",
      "pagina": 22,
      "total_episodios": 26,
      "link_video": "https://animefire.plus/video/trigun-dublado"
    },
    {
      "id": 3936,
      "nome": "Trigun Stampede (Dublado)",
      "link": "https://animefire.plus/animes/trigun-stampede-dublado-todos-os-episodios",
      "texto_original": "Trigun Stampede (Dublado)",
      "rating": 7.83,
      "classificacao_etaria": "A14",
      "imagem_original": "https://animefire.plus/img/animes/trigun-stampede.webp",
      "imagem_pasta": "https://animefire.plus/img/animes/trigun-stampede/",
      "secao": "dublados,legendados",
      "pagina": 7,
      "total_episodios": 12,
      "link_video": "https://animefire.plus/video/trigun-stampede-dublado"
    },
    {
      "id": 3937,
      "nome": "Trillion Game",
      "link": "https://animefire.plus/animes/trillion-game-todos-os-episodios",
      "texto_original": "Trillion Game",
      "rating": 7.56,
      "classificacao_etaria": "A14",
      "imagem_original": "https://animefire.plus/img/animes/trillion-game.webp",
      "imagem_pasta": "https://animefire.plus/img/animes/trillion-game/",
      "secao": "legendados",
      "pagina": 9,
      "total_episodios": 26,
      "link_video": "https://animefire.plus/video/trillion-game"
    },
    {
      "id": 3938,
      "nome": "Trinity Seven",
      "link": "https://animefire.plus/animes/trinity-seven-todos-os-episodios",
      "texto_original": "Trinity Seven",
      "rating": 7.37,
      "classificacao_etaria": "A14",
      "imagem_original": "https://animefire.plus/img/animes/trinity-seven.webp",
      "imagem_pasta": "https://animefire.plus/img/animes/trinity-seven/",
      "secao": "legendados",
      "pagina": 100,
      "total_episodios": 12,
      "link_video": "https://animefire.plus/video/trinity-seven"
    },
    {
      "id": 3940,
      "nome": "True Tears",
      "link": "https://animefire.plus/animes/true-tears-todos-os-episodios",
      "texto_original": "True Tears",
      "rating": 7.45,
      "classificacao_etaria": "A14",
      "imagem_original": "https://animefire.plus/img/animes/true-tears.webp",
      "imagem_pasta": "https://animefire.plus/img/animes/true-tears/",
      "secao": "legendados",
      "pagina": 168,
      "total_episodios": 13,
      "link_video": "https://animefire.plus/video/true-tears"
    },
    {
      "id": 3941,
      "nome": "Try Knights",
      "link": "https://animefire.plus/animes/try-knights-todos-os-episodios",
      "texto_original": "Try Knights",
      "rating": 4.7,
      "classificacao_etaria": "A14",
      "imagem_original": "https://animefire.plus/img/animes/try-knights.webp",
      "imagem_pasta": "https://animefire.plus/img/animes/try-knights/",
      "secao": "legendados",
      "pagina": 118,
      "total_episodios": 1,
      "link_video": "https://animefire.plus/video/try-knights"
    },
    {
      "id": 3942,
      "nome": "Tsubasa Chronicle",
      "link": "https://animefire.plus/animes/tsubasa-chronicle-todos-os-episodios",
      "texto_original": "Tsubasa Chronicle",
      "rating": 7.62,
      "classificacao_etaria": "A14",
      "imagem_original": "https://animefire.plus/img/animes/tsubasa-chronicle.webp",
      "imagem_pasta": "https://animefire.plus/img/animes/tsubasa-chronicle/",
      "secao": "legendados",
      "pagina": 162,
      "total_episodios": 52,
      "link_video": "https://animefire.plus/video/tsubasa-chronicle"
    }
  ],
  "pagination": {
    "current_page": 133,
    "per_page": 20,
    "total_items": 2988,
    "total_pages": 150,
    "has_next": true,
    "has_prev": true
  }
}
