{
  "message": "Animes com classificação etária: A14",
  "age_rating": "A14",
  "data": [
    {
      "id": 1590,
      "nome": "IDOLiSH7: Second Beat!",
      "link": "https://animefire.plus/animes/idolish7-second-beat-todos-os-episodios",
      "texto_original": "IDOLiSH7: Second Beat!",
      "rating": 8.15,
      "classificacao_etaria": "A14",
      "imagem_original": "https://animefire.plus/img/animes/idolish7-second-beat.webp",
      "imagem_pasta": "https://animefire.plus/img/animes/idolish7-second-beat/",
      "secao": "legendados",
      "pagina": 93,
      "total_episodios": 15,
      "link_video": "https://animefire.plus/video/idolish7-second-beat"
    },
    {
      "id": 1591,
      "nome": "IDOLiSH7: Third Beat!",
      "link": "https://animefire.plus/animes/idolish7-third-beat-todos-os-episodios",
      "texto_original": "IDOLiSH7: Third Beat!",
      "rating": 8.24,
      "classificacao_etaria": "A14",
      "imagem_original": "https://animefire.plus/img/animes/idolish7-third-beat.webp",
      "imagem_pasta": "https://animefire.plus/img/animes/idolish7-third-beat/",
      "secao": "legendados",
      "pagina": 41,
      "total_episodios": 13,
      "link_video": "https://animefire.plus/video/idolish7-third-beat"
    },
    {
      "id": 1592,
      "nome": "IDOLiSH7: Third Beat! Part 2",
      "link": "https://animefire.plus/animes/idolish7-third-beat-part-2-todos-os-episodios",
      "texto_original": "IDOLiSH7: Third Beat! Part 2",
      "rating": 8.34,
      "classificacao_etaria": "A14",
      "imagem_original": "https://animefire.plus/img/animes/idolish7-third-beat-part-2.webp",
      "imagem_pasta": "https://animefire.plus/img/animes/idolish7-third-beat-part-2/",
      "secao": "legendados,lancamentos",
      "pagina": 28,
      "total_episodios": 6,
      "link_video": "https://animefire.plus/video/idolish7-third-beat-part-2"
    },
    {
      "id": 1593,
      "nome": "Idolls!",
      "link": "https://animefire.plus/animes/idolls-todos-os-episodios",
      "texto_original": "Idolls!",
      "rating": 5.05,
      "classificacao_etaria": "A14",
      "imagem_original": "https://animefire.plus/img/animes/idolls.webp",
      "imagem_pasta": "https://animefire.plus/img/animes/idolls/",
      "secao": "legendados",
      "pagina": 48,
      "total_episodios": 10,
      "link_video": "https://animefire.plus/video/idolls"
    },
    {
      "id": 1594,
      "nome": "iDOLM@STER Xenoglossia",
      "link": "https://animefire.plus/animes/idolmatster-xenoglossia-todos-os-episodios",
      "texto_original": "iDOLM@STER Xenoglossia",
      "rating": 6.6,
      "classificacao_etaria": "A14",
      "imagem_original": "https://animefire.plus/img/animes/idolmatster-xenoglossia.webp",
      "imagem_pasta": "https://animefire.plus/img/animes/idolmatster-xenoglossia/",
      "secao": "legendados",
      "pagina": 130,
      "total_episodios": 26,
      "link_video": "https://animefire.plus/video/idolmatster-xenoglossia"
    },
    {
      "id": 1595,
      "nome": "Idoly Pride",
      "link": "https://animefire.plus/animes/idoly-pride-todos-os-episodios",
      "texto_original": "Idoly Pride",
      "rating": 7.41,
      "classificacao_etaria": "A14",
      "imagem_original": "https://animefire.plus/img/animes/idoly-pride.webp",
      "imagem_pasta": "https://animefire.plus/img/animes/idoly-pride/",
      "secao": "legendados",
      "pagina": 48,
      "total_episodios": 12,
      "link_video": "https://animefire.plus/video/idoly-pride"
    },
    {
      "id": 1597,
      "nome": "Ijime: Ikenie no Kyoushitsu",
      "link": "https://animefire.plus/animes/ijime-ikenie-no-kyoushitsu-todos-os-episodios",
      "texto_original": "Ijime: Ikenie no Kyoushitsu",
      "rating": 5.2,
      "classificacao_etaria": "A14",
      "imagem_original": "https://animefire.plus/img/animes/ijime-ikenie-no-kyoushitsu.webp",
      "imagem_pasta": "https://animefire.plus/img/animes/ijime-ikenie-no-kyoushitsu/",
      "secao": "legendados",
      "pagina": 43,
      "total_episodios": 1,
      "link_video": "https://animefire.plus/video/ijime-ikenie-no-kyoushitsu"
    },
    {
      "id": 1598,
      "nome": "Ijiranaide, Nagatoro-san (Dublado)",
      "link": "https://animefire.plus/animes/ijiranaide-nagatoro-san-dublado-todos-os-episodios",
      "texto_original": "Ijiranaide, Nagatoro-san (Dublado)",
      "rating": 7.21,
      "classificacao_etaria": "A14",
      "imagem_original": "https://animefire.plus/img/animes/ijiranaide-nagatoro-san.webp",
      "imagem_pasta": "https://animefire.plus/img/animes/ijiranaide-nagatoro-san/",
      "secao": "dublados,legendados",
      "pagina": 13,
      "total_episodios": 12,
      "link_video": "https://animefire.plus/video/ijiranaide-nagatoro-san-dublado"
    },
    {
      "id": 1599,
      "nome": "Ijiranaide, Nagatoro-san 2nd Attack (Dublado)",
      "link": "https://animefire.plus/animes/ijiranaide-nagatoro-san-2nd-attack-dublado-todos-os-episodios",
      "texto_original": "Ijiranaide, Nagatoro-san 2nd Attack (Dublado)",
      "rating": 7.45,
      "classificacao_etaria": "A14",
      "imagem_original": "https://animefire.plus/img/animes/ijiranaide-nagatoro-san-2nd-attack.webp",
      "imagem_pasta": "https://animefire.plus/img/animes/ijiranaide-nagatoro-san-2nd-attack/",
      "secao": "dublados,legendados,lancamentos",
      "pagina": 8,
      "total_episodios": 12,
      "link_video": "https://animefire.plus/video/ijiranaide-nagatoro-san-2nd-attack-dublado"
    },
    {
      "id": 1602,
      "nome": "Ikebukuro West Gate Park",
      "link": "https://animefire.plus/animes/ikebukuro-west-gate-park-todos-os-episodios",
      "texto_original": "Ikebukuro West Gate Park",
      "rating": null,
      "classificacao_etaria": "A14",
      "imagem_original": "https://animefire.plus/img/animes/ikebukuro-west-gate-park.webp",
      "imagem_pasta": "https://animefire.plus/img/animes/ikebukuro-west-gate-park/",
      "secao": "legendados",
      "pagina": 52,
      "total_episodios": 12,
      "link_video": "https://animefire.plus/video/ikebukuro-west-gate-park"
    },
    {
      "id": 1611,
      "nome": "Imouto Sae Ireba Ii.",
      "link": "https://animefire.plus/animes/imouto-sae-ireba-ii-todos-os-episodios",
      "texto_original": "Imouto Sae Ireba Ii.",
      "rating": 7.44,
      "classificacao_etaria": "A14",
      "imagem_original": "https://animefire.plus/img/animes/imouto-sae-ireba-ii.webp",
      "imagem_pasta": "https://animefire.plus/img/animes/imouto-sae-ireba-ii/",
      "secao": "legendados",
      "pagina": 60,
      "total_episodios": 12,
      "link_video": "https://animefire.plus/video/imouto-sae-ireba-ii"
    },
    {
      "id": 1612,
      "nome": "Inari, Konkon, Koi Iroha.",
      "link": "https://animefire.plus/animes/inari-konkon-koi-iroha-todos-os-episodios",
      "texto_original": "Inari, Konkon, Koi Iroha.",
      "rating": 7.27,
      "classificacao_etaria": "A14",
      "imagem_original": "https://animefire.plus/img/animes/inari-konkon-koi-iroha.webp",
      "imagem_pasta": "https://animefire.plus/img/animes/inari-konkon-koi-iroha/",
      "secao": "legendados",
      "pagina": 154,
      "total_episodios": 10,
      "link_video": "https://animefire.plus/video/inari-konkon-koi-iroha"
    },
    {
      "id": 1620,
      "nome": "Infini-T Force",
      "link": "https://animefire.plus/animes/infini-t-force-todos-os-episodios",
      "texto_original": "Infini-T Force",
      "rating": 6.55,
      "classificacao_etaria": "A14",
      "imagem_original": "https://animefire.plus/img/animes/infini-t-force.webp",
      "imagem_pasta": "https://animefire.plus/img/animes/infini-t-force/",
      "secao": "legendados",
      "pagina": 86,
      "total_episodios": 12,
      "link_video": "https://animefire.plus/video/infini-t-force"
    },
    {
      "id": 1621,
      "nome": "Infinite Dendrogram",
      "link": "https://animefire.plus/animes/infinite-dendrogram-todos-os-episodios",
      "texto_original": "Infinite Dendrogram",
      "rating": 6.14,
      "classificacao_etaria": "A14",
      "imagem_original": "https://animefire.plus/img/animes/infinite-dendrogram.webp",
      "imagem_pasta": "https://animefire.plus/img/animes/infinite-dendrogram/",
      "secao": "legendados",
      "pagina": 93,
      "total_episodios": 1,
      "link_video": "https://animefire.plus/video/infinite-dendrogram"
    },
    {
      "id": 1624,
      "nome": "Initial D Battle Stage 2",
      "link": "https://animefire.plus/animes/initial-d-battle-stage-2-todos-os-episodios",
      "texto_original": "Initial D Battle Stage 2",
      "rating": 7.64,
      "classificacao_etaria": "A14",
      "imagem_original": "https://animefire.plus/img/animes/initial-d-battle-stage-2.webp",
      "imagem_pasta": "https://animefire.plus/img/animes/initial-d-battle-stage-2/",
      "secao": "legendados",
      "pagina": 44,
      "total_episodios": 1,
      "link_video": "https://animefire.plus/video/initial-d-battle-stage-2"
    },
    {
      "id": 1626,
      "nome": "Initial D Extra Stage 2",
      "link": "https://animefire.plus/animes/initial-d-extra-stage-2-todos-os-episodios",
      "texto_original": "Initial D Extra Stage 2",
      "rating": 7.42,
      "classificacao_etaria": "A14",
      "imagem_original": "https://animefire.plus/img/animes/initial-d-extra-stage-2.webp",
      "imagem_pasta": "https://animefire.plus/img/animes/initial-d-extra-stage-2/",
      "secao": "legendados",
      "pagina": 56,
      "total_episodios": 1,
      "link_video": "https://animefire.plus/video/initial-d-extra-stage-2"
    },
    {
      "id": 1627,
      "nome": "Initial D Fifth Stage",
      "link": "https://animefire.plus/animes/initial-d-fifth-stage-todos-os-episodios",
      "texto_original": "Initial D Fifth Stage",
      "rating": 8.14,
      "classificacao_etaria": "A14",
      "imagem_original": "https://animefire.plus/img/animes/initial-d-fifth-stage.webp",
      "imagem_pasta": "https://animefire.plus/img/animes/initial-d-fifth-stage/",
      "secao": "legendados",
      "pagina": 151,
      "total_episodios": 0,
      "link_video": "https://animefire.plus/video/initial-d-fifth-stage"
    },
    {
      "id": 1628,
      "nome": "Initial D Final Stage",
      "link": "https://animefire.plus/animes/initial-d-final-stage-todos-os-episodios",
      "texto_original": "Initial D Final Stage",
      "rating": 8.28,
      "classificacao_etaria": "A14",
      "imagem_original": "https://animefire.plus/img/animes/initial-d-final-stage.webp",
      "imagem_pasta": "https://animefire.plus/img/animes/initial-d-final-stage/",
      "secao": "legendados",
      "pagina": 102,
      "total_episodios": 4,
      "link_video": "https://animefire.plus/video/initial-d-final-stage"
    },
    {
      "id": 1629,
      "nome": "Initial D First Stage",
      "link": "https://animefire.plus/animes/initial-d-first-stage-todos-os-episodios",
      "texto_original": "Initial D First Stage",
      "rating": 8.31,
      "classificacao_etaria": "A14",
      "imagem_original": "https://animefire.plus/img/animes/initial-d-first-stage.webp",
      "imagem_pasta": "https://animefire.plus/img/animes/initial-d-first-stage/",
      "secao": "legendados",
      "pagina": 147,
      "total_episodios": 26,
      "link_video": "https://animefire.plus/video/initial-d-first-stage"
    },
    {
      "id": 1630,
      "nome": "Initial D Fourth Stage",
      "link": "https://animefire.plus/animes/initial-d-fourth-stage-todos-os-episodios",
      "texto_original": "Initial D Fourth Stage",
      "rating": 8.2,
      "classificacao_etaria": "A14",
      "imagem_original": "https://animefire.plus/img/animes/initial-d-fourth-stage.webp",
      "imagem_pasta": "https://animefire.plus/img/animes/initial-d-fourth-stage/",
      "secao": "legendados",
      "pagina": 133,
      "total_episodios": 24,
      "link_video": "https://animefire.plus/video/initial-d-fourth-stage"
    }
  ],
  "pagination": {
    "current_page": 52,
    "per_page": 20,
    "total_items": 2988,
    "total_pages": 150,
    "has_next": true,
    "has_prev": true
  }
}
