{
  "message": "Animes com classificação etária: A14",
  "age_rating": "A14",
  "data": [
    {
      "id": 3770,
      "nome": "Tejina-senpai",
      "link": "https://animefire.plus/animes/tejina-senpai-todos-os-episodios",
      "texto_original": "Tejina-senpai",
      "rating": 6.47,
      "classificacao_etaria": "A14",
      "imagem_original": "https://animefire.plus/img/animes/tejina-senpai.webp",
      "imagem_pasta": "https://animefire.plus/img/animes/tejina-senpai/",
      "secao": "legendados",
      "pagina": 148,
      "total_episodios": 0,
      "link_video": "https://animefire.plus/video/tejina-senpai"
    },
    {
      "id": 3772,
      "nome": "Temple",
      "link": "https://animefire.plus/animes/temple-todos-os-episodios",
      "texto_original": "Temple",
      "rating": 6.7,
      "classificacao_etaria": "A14",
      "imagem_original": "https://animefire.plus/img/animes/temple.jpg",
      "imagem_pasta": "https://animefire.plus/img/animes/temple/",
      "secao": "legendados,lancamentos",
      "pagina": 22,
      "total_episodios": 10,
      "link_video": "https://animefire.plus/video/temple"
    },
    {
      "id": 3773,
      "nome": "Temple Specials",
      "link": "https://animefire.plus/animes/temple-specials-todos-os-episodios",
      "texto_original": "Temple Specials",
      "rating": 6.49,
      "classificacao_etaria": "A14",
      "imagem_original": "https://animefire.plus/img/animes/temple-specials.webp",
      "imagem_pasta": "https://animefire.plus/img/animes/temple-specials/",
      "secao": "legendados",
      "pagina": 17,
      "total_episodios": 1,
      "link_video": "https://animefire.plus/video/temple-specials"
    },
    {
      "id": 3774,
      "nome": "Tenchi Muyou! GXP",
      "link": "https://animefire.plus/animes/tenchi-muyou-gxp-todos-os-episodios",
      "texto_original": "Tenchi Muyou! GXP",
      "rating": 7.22,
      "classificacao_etaria": "A14",
      "imagem_original": "https://animefire.plus/img/animes/tenchi-muyou-gxp.webp",
      "imagem_pasta": "https://animefire.plus/img/animes/tenchi-muyou-gxp/",
      "secao": "legendados",
      "pagina": 164,
      "total_episodios": 26,
      "link_video": "https://animefire.plus/video/tenchi-muyou-gxp"
    },
    {
      "id": 3775,
      "nome": "Tenchi Muyou! Ryououki 4th Season",
      "link": "https://animefire.plus/animes/tenchi-muyou-ryououki-4-todos-os-episodios",
      "texto_original": "Tenchi Muyou! Ryououki 4th Season",
      "rating": 6.69,
      "classificacao_etaria": "A14",
      "imagem_original": "https://animefire.plus/img/animes/tenchi-muyou-ryououki-4.webp",
      "imagem_pasta": "https://animefire.plus/img/animes/tenchi-muyou-ryououki-4/",
      "secao": "legendados",
      "pagina": 54,
      "total_episodios": 0,
      "link_video": "https://animefire.plus/video/tenchi-muyou-ryououki-4"
    },
    {
      "id": 3776,
      "nome": "Tenchi Muyou! Ryououki 5th Season",
      "link": "https://animefire.plus/animes/tenchi-muyou-ryououki-5th-season-todos-os-episodios",
      "texto_original": "Tenchi Muyou! Ryououki 5th Season",
      "rating": 6.24,
      "classificacao_etaria": "A14",
      "imagem_original": "https://animefire.plus/img/animes/tenchi-muyou-ryououki-5th-season.webp",
      "imagem_pasta": "https://animefire.plus/img/animes/tenchi-muyou-ryououki-5th-season/",
      "secao": "legendados",
      "pagina": 90,
      "total_episodios": 0,
      "link_video": "https://animefire.plus/video/tenchi-muyou-ryououki-5th-season"
    },
    {
      "id": 3777,
      "nome": "Tenchi Souzou Design-bu",
      "link": "https://animefire.plus/animes/tenchi-souzou-design-bu-todos-os-episodios",
      "texto_original": "Tenchi Souzou Design-bu",
      "rating": 7.16,
      "classificacao_etaria": "A14",
      "imagem_original": "https://animefire.plus/img/animes/tenchi-souzou-design-bu.webp",
      "imagem_pasta": "https://animefire.plus/img/animes/tenchi-souzou-design-bu/",
      "secao": "legendados",
      "pagina": 49,
      "total_episodios": 13,
      "link_video": "https://animefire.plus/video/tenchi-souzou-design-bu"
    },
    {
      "id": 3778,
      "nome": "Tengen Toppa Gurren Lagann",
      "link": "https://animefire.plus/animes/tengen-toppa-gurren-lagann-todos-os-episodios",
      "texto_original": "Tengen Toppa Gurren Lagann",
      "rating": 8.7,
      "classificacao_etaria": "A14",
      "imagem_original": "https://animefire.plus/img/animes/tengen-toppa-gurren-lagann.webp",
      "imagem_pasta": "https://animefire.plus/img/animes/tengen-toppa-gurren-lagann/",
      "secao": "legendados",
      "pagina": 79,
      "total_episodios": 27,
      "link_video": "https://animefire.plus/video/tengen-toppa-gurren-lagann"
    },
    {
      "id": 3781,
      "nome": "Tenka Hyakken: Meiji-kan e Youkoso!",
      "link": "https://animefire.plus/animes/tenka-hyakken-meiji-kan-e-youkoso-todos-os-episodios",
      "texto_original": "Tenka Hyakken: Meiji-kan e Youkoso!",
      "rating": 5.06,
      "classificacao_etaria": "A14",
      "imagem_original": "https://animefire.plus/img/animes/tenka-hyakken-meiji-kan-e-youkoso.webp",
      "imagem_pasta": "https://animefire.plus/img/animes/tenka-hyakken-meiji-kan-e-youkoso/",
      "secao": "legendados",
      "pagina": 109,
      "total_episodios": 2,
      "link_video": "https://animefire.plus/video/tenka-hyakken-meiji-kan-e-youkoso"
    },
    {
      "id": 3782,
      "nome": "Tenkuu no Escaflowne",
      "link": "https://animefire.plus/animes/tenkuu-no-escaflowne-todos-os-episodios",
      "texto_original": "Tenkuu no Escaflowne",
      "rating": 7.76,
      "classificacao_etaria": "A14",
      "imagem_original": "https://animefire.plus/img/animes/tenkuu-no-escaflowne.webp",
      "imagem_pasta": "https://animefire.plus/img/animes/tenkuu-no-escaflowne/",
      "secao": "legendados",
      "pagina": 132,
      "total_episodios": 26,
      "link_video": "https://animefire.plus/video/tenkuu-no-escaflowne"
    },
    {
      "id": 3783,
      "nome": "Tenkuu Senki Shurato (Dublado)",
      "link": "https://animefire.plus/animes/tenkuu-senki-shurato-dublado-todos-os-episodios",
      "texto_original": "Tenkuu Senki Shurato (Dublado)",
      "rating": 7.26,
      "classificacao_etaria": "A14",
      "imagem_original": "https://animefire.plus/img/animes/tenkuu-senki-shurato.webp",
      "imagem_pasta": "https://animefire.plus/img/animes/tenkuu-senki-shurato/",
      "secao": "dublados,legendados",
      "pagina": 22,
      "total_episodios": 38,
      "link_video": "https://animefire.plus/video/tenkuu-senki-shurato-dublado"
    },
    {
      "id": 3785,
      "nome": "Tennis no Ouji-sama",
      "link": "https://animefire.plus/animes/tennis-no-ouji-sama-todos-os-episodios",
      "texto_original": "Tennis no Ouji-sama",
      "rating": 7.89,
      "classificacao_etaria": "A14",
      "imagem_original": "https://animefire.plus/img/animes/tennis-no-ouji-sama.webp",
      "imagem_pasta": "https://animefire.plus/img/animes/tennis-no-ouji-sama/",
      "secao": "legendados",
      "pagina": 41,
      "total_episodios": 178,
      "link_video": "https://animefire.plus/video/tennis-no-ouji-sama"
    },
    {
      "id": 3786,
      "nome": "Tennis no Ouji-sama: Another Story - Kako to Mirai no Message",
      "link": "https://animefire.plus/animes/tennis-no-ouji-sama-another-story---kako-to-mirai-no-message-todos-os-episodios",
      "texto_original": "Tennis no Ouji-sama: Another Story - Kako to Mirai no Message",
      "rating": 7.66,
      "classificacao_etaria": "A14",
      "imagem_original": "https://animefire.plus/img/animes/tennis-no-ouji-sama-another-story---kako-to-mirai-no-message.webp",
      "imagem_pasta": "https://animefire.plus/img/animes/tennis-no-ouji-sama-another-story---kako-to-mirai-no-message/",
      "secao": "legendados",
      "pagina": 44,
      "total_episodios": 4,
      "link_video": "https://animefire.plus/video/tennis-no-ouji-sama-another-story---kako-to-mirai-no-message"
    },
    {
      "id": 3787,
      "nome": "Tennis no Ouji-sama: Another Story II - Ano Toki no Bokura",
      "link": "https://animefire.plus/animes/tennis-no-ouji-sama-another-story-ii---ano-toki-no-bokura-todos-os-episodios",
      "texto_original": "Tennis no Ouji-sama: Another Story II - Ano Toki no Bokura",
      "rating": 7.53,
      "classificacao_etaria": "A14",
      "imagem_original": "https://animefire.plus/img/animes/tennis-no-ouji-sama-another-story-ii---ano-toki-no-bokura.webp",
      "imagem_pasta": "https://animefire.plus/img/animes/tennis-no-ouji-sama-another-story-ii---ano-toki-no-bokura/",
      "secao": "legendados",
      "pagina": 44,
      "total_episodios": 4,
      "link_video": "https://animefire.plus/video/tennis-no-ouji-sama-another-story-ii---ano-toki-no-bokura"
    },
    {
      "id": 3788,
      "nome": "Tennis no Ouji-sama: Zenkoku Taikai-hen",
      "link": "https://animefire.plus/animes/tennis-no-ouji-sama-zenkoku-taikai-hen-todos-os-episodios",
      "texto_original": "Tennis no Ouji-sama: Zenkoku Taikai-hen",
      "rating": 7.94,
      "classificacao_etaria": "A14",
      "imagem_original": "https://animefire.plus/img/animes/tennis-no-ouji-sama-zenkoku-taikai-hen.webp",
      "imagem_pasta": "https://animefire.plus/img/animes/tennis-no-ouji-sama-zenkoku-taikai-hen/",
      "secao": "legendados",
      "pagina": 44,
      "total_episodios": 13,
      "link_video": "https://animefire.plus/video/tennis-no-ouji-sama-zenkoku-taikai-hen"
    },
    {
      "id": 3789,
      "nome": "Tennis no Ouji-sama: Zenkoku Taikai-hen - Final",
      "link": "https://animefire.plus/animes/tennis-no-ouji-sama-zenkoku-taikai-hen---final-todos-os-episodios",
      "texto_original": "Tennis no Ouji-sama: Zenkoku Taikai-hen - Final",
      "rating": 8,
      "classificacao_etaria": "A14",
      "imagem_original": "https://animefire.plus/img/animes/tennis-no-ouji-sama-zenkoku-taikai-hen---final.webp",
      "imagem_pasta": "https://animefire.plus/img/animes/tennis-no-ouji-sama-zenkoku-taikai-hen---final/",
      "secao": "legendados",
      "pagina": 44,
      "total_episodios": 7,
      "link_video": "https://animefire.plus/video/tennis-no-ouji-sama-zenkoku-taikai-hen---final"
    },
    {
      "id": 3790,
      "nome": "Tennis no Ouji-sama: Zenkoku Taikai-hen - Semifinal",
      "link": "https://animefire.plus/animes/tennis-no-ouji-sama-zenkoku-taikai-hen---semifinal-todos-os-episodios",
      "texto_original": "Tennis no Ouji-sama: Zenkoku Taikai-hen - Semifinal",
      "rating": 7.93,
      "classificacao_etaria": "A14",
      "imagem_original": "https://animefire.plus/img/animes/tennis-no-ouji-sama-zenkoku-taikai-hen---semifinal.webp",
      "imagem_pasta": "https://animefire.plus/img/animes/tennis-no-ouji-sama-zenkoku-taikai-hen---semifinal/",
      "secao": "legendados",
      "pagina": 44,
      "total_episodios": 6,
      "link_video": "https://animefire.plus/video/tennis-no-ouji-sama-zenkoku-taikai-hen---semifinal"
    },
    {
      "id": 3791,
      "nome": "Tensai Ouji no Akaji Kokka Saisei Jutsu (Dublado)",
      "link": "https://animefire.plus/animes/tensai-ouji-no-akaji-kokka-saisei-jutsu-dublado-todos-os-episodios",
      "texto_original": "Tensai Ouji no Akaji Kokka Saisei Jutsu (Dublado)",
      "rating": 7.39,
      "classificacao_etaria": "A14",
      "imagem_original": "https://animefire.plus/img/animes/tensai-ouji-no-akaji-kokka-saisei-jutsu.webp",
      "imagem_pasta": "https://animefire.plus/img/animes/tensai-ouji-no-akaji-kokka-saisei-jutsu/",
      "secao": "dublados,legendados",
      "pagina": 12,
      "total_episodios": 12,
      "link_video": "https://animefire.plus/video/tensai-ouji-no-akaji-kokka-saisei-jutsu-dublado"
    },
    {
      "id": 3792,
      "nome": "Tensei Kenja no Isekai Life: Dai-2 no Shokugyou wo Ete, Sekai Saikyou ni Narimashita",
      "link": "https://animefire.plus/animes/tensei-kenja-no-isekai-life-dai-2-no-shokugyou-wo-ete-sekai-saikyou-ni-narimashita-todos-os-episodios",
      "texto_original": "Tensei Kenja no Isekai Life: Dai-2 no Shokugyou wo Ete, Sekai Saikyou ni Narimashita",
      "rating": 6.33,
      "classificacao_etaria": "A14",
      "imagem_original": "https://animefire.plus/img/animes/tensei-kenja-no-isekai-life-dai-2-no-shokugyou-wo-ete-sekai-saikyou-ni-narimashita.webp",
      "imagem_pasta": "https://animefire.plus/img/animes/tensei-kenja-no-isekai-life-dai-2-no-shokugyou-wo-ete-sekai-saikyou-ni-narimashita/",
      "secao": "legendados",
      "pagina": 31,
      "total_episodios": 12,
      "link_video": "https://animefire.plus/video/tensei-kenja-no-isekai-life-dai-2-no-shokugyou-wo-ete-sekai-saikyou-ni-narimashita"
    },
    {
      "id": 3793,
      "nome": "Tensei Kizoku no Isekai Boukenroku: Jichou wo Shiranai Kamigami no Shito (Dublado)",
      "link": "https://animefire.plus/animes/tensei-kizoku-no-isekai-boukenroku-jichou-wo-shiranai-kamigami-no-shito-dublado-todos-os-episodios",
      "texto_original": "Tensei Kizoku no Isekai Boukenroku: Jichou wo Shiranai Kamigami no Shito (Dublado)",
      "rating": 6.68,
      "classificacao_etaria": "A14",
      "imagem_original": "https://animefire.plus/img/animes/tensei-kizoku-no-isekai-boukenroku-jichou-wo-shiranai-kamigami-no-shito.webp",
      "imagem_pasta": "https://animefire.plus/img/animes/tensei-kizoku-no-isekai-boukenroku-jichou-wo-shiranai-kamigami-no-shito/",
      "secao": "dublados,legendados",
      "pagina": 7,
      "total_episodios": 12,
      "link_video": "https://animefire.plus/video/tensei-kizoku-no-isekai-boukenroku-jichou-wo-shiranai-kamigami-no-shito-dublado"
    }
  ],
  "pagination": {
    "current_page": 128,
    "per_page": 20,
    "total_items": 2988,
    "total_pages": 150,
    "has_next": true,
    "has_prev": true
  }
}
