{
  "message": "Animes com classificação etária: A14",
  "age_rating": "A14",
  "data": [
    {
      "id": 4046,
      "nome": "Ushio to Tora (TV) 2nd Season",
      "link": "https://animefire.plus/animes/ushio-to-tora-tv-2nd-season-todos-os-episodios",
      "texto_original": "Ushio to Tora (TV) 2nd Season",
      "rating": 8.03,
      "classificacao_etaria": "A14",
      "imagem_original": "https://animefire.plus/img/animes/ushio-to-tora-tv-2nd-season.webp",
      "imagem_pasta": "https://animefire.plus/img/animes/ushio-to-tora-tv-2nd-season/",
      "secao": "legendados",
      "pagina": 104,
      "total_episodios": 13,
      "link_video": "https://animefire.plus/video/ushio-to-tora-tv-2nd-season"
    },
    {
      "id": 4047,
      "nome": "Uta Kata",
      "link": "https://animefire.plus/animes/uta-kata-todos-os-episodios",
      "texto_original": "Uta Kata",
      "rating": 6.8,
      "classificacao_etaria": "A14",
      "imagem_original": "https://animefire.plus/img/animes/uta-kata.webp",
      "imagem_pasta": "https://animefire.plus/img/animes/uta-kata/",
      "secao": "legendados",
      "pagina": 120,
      "total_episodios": 13,
      "link_video": "https://animefire.plus/video/uta-kata"
    },
    {
      "id": 4048,
      "nome": "Uta no☆Prince-sama♪ Maji Love 1000%",
      "link": "https://animefire.plus/animes/uta-no-prince-sama-maji-love-1000-todos-os-episodios",
      "texto_original": "Uta no☆Prince-sama♪ Maji Love 1000%",
      "rating": 7.26,
      "classificacao_etaria": "A14",
      "imagem_original": "https://animefire.plus/img/animes/uta-no-prince-sama-maji-love-1000.webp",
      "imagem_pasta": "https://animefire.plus/img/animes/uta-no-prince-sama-maji-love-1000/",
      "secao": "legendados",
      "pagina": 131,
      "total_episodios": 13,
      "link_video": "https://animefire.plus/video/uta-no-prince-sama-maji-love-1000"
    },
    {
      "id": 4049,
      "nome": "Uta no☆Prince-sama♪ Maji Love Legend Star",
      "link": "https://animefire.plus/animes/uta-no-prince-sama-maji-love-legend-star-todos-os-episodios",
      "texto_original": "Uta no☆Prince-sama♪ Maji Love Legend Star",
      "rating": 7.35,
      "classificacao_etaria": "A14",
      "imagem_original": "https://animefire.plus/img/animes/uta-no-prince-sama-maji-love-legend-star.webp",
      "imagem_pasta": "https://animefire.plus/img/animes/uta-no-prince-sama-maji-love-legend-star/",
      "secao": "legendados",
      "pagina": 160,
      "total_episodios": 8,
      "link_video": "https://animefire.plus/video/uta-no-prince-sama-maji-love-legend-star"
    },
    {
      "id": 4050,
      "nome": "Utagoe wa Mille-Feuille",
      "link": "https://animefire.plus/animes/utagoe-wa-mille-feuille-todos-os-episodios",
      "texto_original": "Utagoe wa Mille-Feuille",
      "rating": 6.1,
      "classificacao_etaria": "A14",
      "imagem_original": "https://animefire.plus/img/animes/utagoe-wa-mille-feuille.webp",
      "imagem_pasta": "https://animefire.plus/img/animes/utagoe-wa-mille-feuille/",
      "secao": "legendados,lancamentos",
      "pagina": 1,
      "total_episodios": 0,
      "link_video": "https://animefire.plus/video/utagoe-wa-mille-feuille"
    },
    {
      "id": 4052,
      "nome": "Utawarerumono: Futari no Hakuoro",
      "link": "https://animefire.plus/animes/utawarerumono-futari-no-hakuoro-todos-os-episodios",
      "texto_original": "Utawarerumono: Futari no Hakuoro",
      "rating": 7.51,
      "classificacao_etaria": "A14",
      "imagem_original": "https://animefire.plus/img/animes/utawarerumono-futari-no-hakuoro.webp",
      "imagem_pasta": "https://animefire.plus/img/animes/utawarerumono-futari-no-hakuoro/",
      "secao": "legendados",
      "pagina": 32,
      "total_episodios": 28,
      "link_video": "https://animefire.plus/video/utawarerumono-futari-no-hakuoro"
    },
    {
      "id": 4053,
      "nome": "Utawarerumono: Itsuwari No Kamen",
      "link": "https://animefire.plus/animes/utawarerumono-itsuwari-no-kamen-todos-os-episodios",
      "texto_original": "Utawarerumono: Itsuwari No Kamen",
      "rating": 7.31,
      "classificacao_etaria": "A14",
      "imagem_original": "https://animefire.plus/img/animes/utawarerumono-itsuwari-no-kamen.webp",
      "imagem_pasta": "https://animefire.plus/img/animes/utawarerumono-itsuwari-no-kamen/",
      "secao": "legendados",
      "pagina": 95,
      "total_episodios": 25,
      "link_video": "https://animefire.plus/video/utawarerumono-itsuwari-no-kamen"
    },
    {
      "id": 4054,
      "nome": "Utawarerumono: Tusukuru-koujo no Karei Naru Hibi",
      "link": "https://animefire.plus/animes/utawarerumono-tusukuru-koujo-no-karei-naru-hibi-todos-os-episodios",
      "texto_original": "Utawarerumono: Tusukuru-koujo no Karei Naru Hibi",
      "rating": 6.74,
      "classificacao_etaria": "A14",
      "imagem_original": "https://animefire.plus/img/animes/utawarerumono-tusukuru-koujo-no-karei-naru-hibi.webp",
      "imagem_pasta": "https://animefire.plus/img/animes/utawarerumono-tusukuru-koujo-no-karei-naru-hibi/",
      "secao": "legendados",
      "pagina": 83,
      "total_episodios": 1,
      "link_video": "https://animefire.plus/video/utawarerumono-tusukuru-koujo-no-karei-naru-hibi"
    },
    {
      "id": 4055,
      "nome": "Uzaki-chan wa Asobitai! (Dublado)",
      "link": "https://animefire.plus/animes/uzaki-chan-wa-asobitai-dublado-todos-os-episodios",
      "texto_original": "Uzaki-chan wa Asobitai! (Dublado)",
      "rating": 7,
      "classificacao_etaria": "A14",
      "imagem_original": "https://animefire.plus/img/animes/uzaki-chan-wa-asobitai.webp",
      "imagem_pasta": "https://animefire.plus/img/animes/uzaki-chan-wa-asobitai/",
      "secao": "dublados,legendados",
      "pagina": 9,
      "total_episodios": 12,
      "link_video": "https://animefire.plus/video/uzaki-chan-wa-asobitai-dublado"
    },
    {
      "id": 4056,
      "nome": "Uzaki-chan wa Asobitai! Double (Dublado)",
      "link": "https://animefire.plus/animes/uzaki-chan-wa-asobitai-double-dublado-todos-os-episodios",
      "texto_original": "Uzaki-chan wa Asobitai! Double (Dublado)",
      "rating": 7.24,
      "classificacao_etaria": "A14",
      "imagem_original": "https://animefire.plus/img/animes/uzaki-chan-wa-asobitai-double.webp",
      "imagem_pasta": "https://animefire.plus/img/animes/uzaki-chan-wa-asobitai-double/",
      "secao": "dublados,legendados",
      "pagina": 9,
      "total_episodios": 13,
      "link_video": "https://animefire.plus/video/uzaki-chan-wa-asobitai-double-dublado"
    },
    {
      "id": 4060,
      "nome": "Vampire Dormitory",
      "link": "https://animefire.plus/animes/vampire-dormitory-todos-os-episodios",
      "texto_original": "Vampire Dormitory",
      "rating": 6.22,
      "classificacao_etaria": "A14",
      "imagem_original": "https://animefire.plus/img/animes/vampire-dormitory.webp",
      "imagem_pasta": "https://animefire.plus/img/animes/vampire-dormitory/",
      "secao": "legendados",
      "pagina": 15,
      "total_episodios": 12,
      "link_video": "https://animefire.plus/video/vampire-dormitory"
    },
    {
      "id": 4061,
      "nome": "Vampire Holmes",
      "link": "https://animefire.plus/animes/vampire-holmes-todos-os-episodios",
      "texto_original": "Vampire Holmes",
      "rating": 3.5,
      "classificacao_etaria": "A14",
      "imagem_original": "https://animefire.plus/img/animes/vampire-holmes.webp",
      "imagem_pasta": "https://animefire.plus/img/animes/vampire-holmes/",
      "secao": "legendados",
      "pagina": 148,
      "total_episodios": 0,
      "link_video": "https://animefire.plus/video/vampire-holmes"
    },
    {
      "id": 4063,
      "nome": "Vampire in the Garden (Dublado)",
      "link": "https://animefire.plus/animes/vampire-in-the-garden-dublado-todos-os-episodios",
      "texto_original": "Vampire in the Garden (Dublado)",
      "rating": 7.14,
      "classificacao_etaria": "A14",
      "imagem_original": "https://animefire.plus/img/animes/vampire-in-the-garden.webp",
      "imagem_pasta": "https://animefire.plus/img/animes/vampire-in-the-garden/",
      "secao": "dublados,legendados",
      "pagina": 11,
      "total_episodios": 5,
      "link_video": "https://animefire.plus/video/vampire-in-the-garden-dublado"
    },
    {
      "id": 4064,
      "nome": "Vampire Knight",
      "link": "https://animefire.plus/animes/vampire-knight-todos-os-episodios",
      "texto_original": "Vampire Knight",
      "rating": 7.25,
      "classificacao_etaria": "A14",
      "imagem_original": "https://animefire.plus/img/animes/vampire-knight.webp",
      "imagem_pasta": "https://animefire.plus/img/animes/vampire-knight/",
      "secao": "legendados",
      "pagina": 169,
      "total_episodios": 13,
      "link_video": "https://animefire.plus/video/vampire-knight"
    },
    {
      "id": 4065,
      "nome": "Vampire Knight: Guilty",
      "link": "https://animefire.plus/animes/vampire-knight-guilty-todos-os-episodios",
      "texto_original": "Vampire Knight: Guilty",
      "rating": 7.41,
      "classificacao_etaria": "A14",
      "imagem_original": "https://animefire.plus/img/animes/vampire-knight-guilty.webp",
      "imagem_pasta": "https://animefire.plus/img/animes/vampire-knight-guilty/",
      "secao": "legendados",
      "pagina": 155,
      "total_episodios": 13,
      "link_video": "https://animefire.plus/video/vampire-knight-guilty"
    },
    {
      "id": 4066,
      "nome": "Vandread",
      "link": "https://animefire.plus/animes/vandread-todos-os-episodios",
      "texto_original": "Vandread",
      "rating": 7.27,
      "classificacao_etaria": "A14",
      "imagem_original": "https://animefire.plus/img/animes/vandread.webp",
      "imagem_pasta": "https://animefire.plus/img/animes/vandread/",
      "secao": "legendados",
      "pagina": 134,
      "total_episodios": 13,
      "link_video": "https://animefire.plus/video/vandread"
    },
    {
      "id": 4067,
      "nome": "Vandread: The Second Stage",
      "link": "https://animefire.plus/animes/vandread-the-second-stage-todos-os-episodios",
      "texto_original": "Vandread: The Second Stage",
      "rating": 7.48,
      "classificacao_etaria": "A14",
      "imagem_original": "https://animefire.plus/img/animes/vandread-the-second-stage.webp",
      "imagem_pasta": "https://animefire.plus/img/animes/vandread-the-second-stage/",
      "secao": "legendados",
      "pagina": 165,
      "total_episodios": 13,
      "link_video": "https://animefire.plus/video/vandread-the-second-stage"
    },
    {
      "id": 4074,
      "nome": "Vazzrock the Animation",
      "link": "https://animefire.plus/animes/vazzrock-the-animation-todos-os-episodios",
      "texto_original": "Vazzrock the Animation",
      "rating": 5.45,
      "classificacao_etaria": "A14",
      "imagem_original": "https://animefire.plus/img/animes/vazzrock-the-animation.webp",
      "imagem_pasta": "https://animefire.plus/img/animes/vazzrock-the-animation/",
      "secao": "legendados",
      "pagina": 28,
      "total_episodios": 13,
      "link_video": "https://animefire.plus/video/vazzrock-the-animation"
    },
    {
      "id": 4075,
      "nome": "Venus Project: Climax",
      "link": "https://animefire.plus/animes/venus-project-climax-todos-os-episodios",
      "texto_original": "Venus Project: Climax",
      "rating": 5.41,
      "classificacao_etaria": "A14",
      "imagem_original": "https://animefire.plus/img/animes/venus-project-climax.webp",
      "imagem_pasta": "https://animefire.plus/img/animes/venus-project-climax/",
      "secao": "legendados",
      "pagina": 98,
      "total_episodios": 6,
      "link_video": "https://animefire.plus/video/venus-project-climax"
    },
    {
      "id": 4076,
      "nome": "Venus Versus Virus",
      "link": "https://animefire.plus/animes/venus-versus-virus-todos-os-episodios",
      "texto_original": "Venus Versus Virus",
      "rating": 6.47,
      "classificacao_etaria": "A14",
      "imagem_original": "https://animefire.plus/img/animes/venus-versus-virus.webp",
      "imagem_pasta": "https://animefire.plus/img/animes/venus-versus-virus/",
      "secao": "legendados",
      "pagina": 164,
      "total_episodios": 12,
      "link_video": "https://animefire.plus/video/venus-versus-virus"
    }
  ],
  "pagination": {
    "current_page": 138,
    "per_page": 20,
    "total_items": 2988,
    "total_pages": 150,
    "has_next": true,
    "has_prev": true
  }
}
