{
  "message": "Animes com classificação etária: A14",
  "age_rating": "A14",
  "data": [
    {
      "id": 3216,
      "nome": "Saiunkoku Monogatari 2nd Season",
      "link": "https://animefire.plus/animes/saiunkoku-monogatari-2nd-season-todos-os-episodios",
      "texto_original": "Saiunkoku Monogatari 2nd Season",
      "rating": 8.14,
      "classificacao_etaria": "A14",
      "imagem_original": "https://animefire.plus/img/animes/saiunkoku-monogatari-2nd-season.webp",
      "imagem_pasta": "https://animefire.plus/img/animes/saiunkoku-monogatari-2nd-season/",
      "secao": "legendados",
      "pagina": 174,
      "total_episodios": 39,
      "link_video": "https://animefire.plus/video/saiunkoku-monogatari-2nd-season"
    },
    {
      "id": 3218,
      "nome": "Saiyuuki Reload",
      "link": "https://animefire.plus/animes/saiyuuki-reload-todos-os-episodios",
      "texto_original": "Saiyuuki Reload",
      "rating": 7.49,
      "classificacao_etaria": "A14",
      "imagem_original": "https://animefire.plus/img/animes/saiyuuki-reload.webp",
      "imagem_pasta": "https://animefire.plus/img/animes/saiyuuki-reload/",
      "secao": "legendados",
      "pagina": 176,
      "total_episodios": 25,
      "link_video": "https://animefire.plus/video/saiyuuki-reload"
    },
    {
      "id": 3219,
      "nome": "Saiyuuki Reload Blast",
      "link": "https://animefire.plus/animes/saiyuuki-reload-blast-todos-os-episodios",
      "texto_original": "Saiyuuki Reload Blast",
      "rating": 7.33,
      "classificacao_etaria": "A14",
      "imagem_original": "https://animefire.plus/img/animes/saiyuuki-reload-blast.webp",
      "imagem_pasta": "https://animefire.plus/img/animes/saiyuuki-reload-blast/",
      "secao": "legendados",
      "pagina": 114,
      "total_episodios": 12,
      "link_video": "https://animefire.plus/video/saiyuuki-reload-blast"
    },
    {
      "id": 3220,
      "nome": "Saiyuuki Reload Gunlock",
      "link": "https://animefire.plus/animes/saiyuuki-reload-gunlock-todos-os-episodios",
      "texto_original": "Saiyuuki Reload Gunlock",
      "rating": 7.5,
      "classificacao_etaria": "A14",
      "imagem_original": "https://animefire.plus/img/animes/saiyuuki-reload-gunlock.webp",
      "imagem_pasta": "https://animefire.plus/img/animes/saiyuuki-reload-gunlock/",
      "secao": "legendados",
      "pagina": 176,
      "total_episodios": 26,
      "link_video": "https://animefire.plus/video/saiyuuki-reload-gunlock"
    },
    {
      "id": 3221,
      "nome": "Saiyuuki Reload: Burial",
      "link": "https://animefire.plus/animes/saiyuuki-reload-burial-todos-os-episodios",
      "texto_original": "Saiyuuki Reload: Burial",
      "rating": 7.96,
      "classificacao_etaria": "A14",
      "imagem_original": "https://animefire.plus/img/animes/saiyuuki-reload-burial.webp",
      "imagem_pasta": "https://animefire.plus/img/animes/saiyuuki-reload-burial/",
      "secao": "legendados",
      "pagina": 113,
      "total_episodios": 3,
      "link_video": "https://animefire.plus/video/saiyuuki-reload-burial"
    },
    {
      "id": 3222,
      "nome": "Saiyuuki Reload: Zeroin",
      "link": "https://animefire.plus/animes/saiyuuki-reload-zeroin-todos-os-episodios",
      "texto_original": "Saiyuuki Reload: Zeroin",
      "rating": 6.65,
      "classificacao_etaria": "A14",
      "imagem_original": "https://animefire.plus/img/animes/saiyuuki-reload-zeroin.webp",
      "imagem_pasta": "https://animefire.plus/img/animes/saiyuuki-reload-zeroin/",
      "secao": "legendados",
      "pagina": 35,
      "total_episodios": 13,
      "link_video": "https://animefire.plus/video/saiyuuki-reload-zeroin"
    },
    {
      "id": 3223,
      "nome": "Sakamichi no Apollon (Dublado)",
      "link": "https://animefire.plus/animes/sakamichi-no-apollon-dublado-todos-os-episodios",
      "texto_original": "Sakamichi no Apollon (Dublado)",
      "rating": 8.32,
      "classificacao_etaria": "A14",
      "imagem_original": "https://animefire.plus/img/animes/sakamichi-no-apollon.webp",
      "imagem_pasta": "https://animefire.plus/img/animes/sakamichi-no-apollon/",
      "secao": "dublados,legendados",
      "pagina": 11,
      "total_episodios": 12,
      "link_video": "https://animefire.plus/video/sakamichi-no-apollon-dublado"
    },
    {
      "id": 3226,
      "nome": "Sakamoto Desu ga?",
      "link": "https://animefire.plus/animes/sakamoto-desu-ga-todos-os-episodios",
      "texto_original": "Sakamoto Desu ga?",
      "rating": 7.67,
      "classificacao_etaria": "A14",
      "imagem_original": "https://animefire.plus/img/animes/sakamoto-desu-ga.webp",
      "imagem_pasta": "https://animefire.plus/img/animes/sakamoto-desu-ga/",
      "secao": "legendados",
      "pagina": 117,
      "total_episodios": 7,
      "link_video": "https://animefire.plus/video/sakamoto-desu-ga"
    },
    {
      "id": 3227,
      "nome": "Saki",
      "link": "https://animefire.plus/animes/saki-todos-os-episodios",
      "texto_original": "Saki",
      "rating": 7.5,
      "classificacao_etaria": "A14",
      "imagem_original": "https://animefire.plus/img/animes/saki.webp",
      "imagem_pasta": "https://animefire.plus/img/animes/saki/",
      "secao": "legendados",
      "pagina": 65,
      "total_episodios": 25,
      "link_video": "https://animefire.plus/video/saki"
    },
    {
      "id": 3228,
      "nome": "Saki Achiga-hen: Episode of Side-A",
      "link": "https://animefire.plus/animes/saki-achiga-hen-episode-of-side-a-todos-os-episodios",
      "texto_original": "Saki Achiga-hen: Episode of Side-A",
      "rating": 7.34,
      "classificacao_etaria": "A14",
      "imagem_original": "https://animefire.plus/img/animes/saki-achiga-hen-episode-of-side-a.webp",
      "imagem_pasta": "https://animefire.plus/img/animes/saki-achiga-hen-episode-of-side-a/",
      "secao": "legendados",
      "pagina": 65,
      "total_episodios": 12,
      "link_video": "https://animefire.plus/video/saki-achiga-hen-episode-of-side-a"
    },
    {
      "id": 3229,
      "nome": "Saki Biyori Animation",
      "link": "https://animefire.plus/animes/saki-biyori-animation-todos-os-episodios",
      "texto_original": "Saki Biyori Animation",
      "rating": 6.76,
      "classificacao_etaria": "A14",
      "imagem_original": "https://animefire.plus/img/animes/saki-biyori-animation.webp",
      "imagem_pasta": "https://animefire.plus/img/animes/saki-biyori-animation/",
      "secao": "legendados",
      "pagina": 106,
      "total_episodios": 1,
      "link_video": "https://animefire.plus/video/saki-biyori-animation"
    },
    {
      "id": 3230,
      "nome": "Saki Zenkoku-hen",
      "link": "https://animefire.plus/animes/saki-zenkoku-hen-todos-os-episodios",
      "texto_original": "Saki Zenkoku-hen",
      "rating": 7.45,
      "classificacao_etaria": "A14",
      "imagem_original": "https://animefire.plus/img/animes/saki-zenkoku-hen.webp",
      "imagem_pasta": "https://animefire.plus/img/animes/saki-zenkoku-hen/",
      "secao": "legendados",
      "pagina": 65,
      "total_episodios": 13,
      "link_video": "https://animefire.plus/video/saki-zenkoku-hen"
    },
    {
      "id": 3231,
      "nome": "Sakigake!! Cromartie Koukou",
      "link": "https://animefire.plus/animes/sakigake-cromartie-koukou-todos-os-episodios",
      "texto_original": "Sakigake!! Cromartie Koukou",
      "rating": 7.93,
      "classificacao_etaria": "A14",
      "imagem_original": "https://animefire.plus/img/animes/sakigake-cromartie-koukou.webp",
      "imagem_pasta": "https://animefire.plus/img/animes/sakigake-cromartie-koukou/",
      "secao": "legendados",
      "pagina": 45,
      "total_episodios": 25,
      "link_video": "https://animefire.plus/video/sakigake-cromartie-koukou"
    },
    {
      "id": 3232,
      "nome": "Sakugan (Dublado)",
      "link": "https://animefire.plus/animes/sakugan-dublado-todos-os-episodios",
      "texto_original": "Sakugan (Dublado)",
      "rating": 6.51,
      "classificacao_etaria": "A14",
      "imagem_original": "https://animefire.plus/img/animes/sakugan.webp",
      "imagem_pasta": "https://animefire.plus/img/animes/sakugan/",
      "secao": "dublados,legendados",
      "pagina": 14,
      "total_episodios": 12,
      "link_video": "https://animefire.plus/video/sakugan-dublado"
    },
    {
      "id": 3233,
      "nome": "Sakura Internet",
      "link": "https://animefire.plus/animes/sakura-internet-todos-os-episodios",
      "texto_original": "Sakura Internet",
      "rating": 5.76,
      "classificacao_etaria": "A14",
      "imagem_original": "https://animefire.plus/img/animes/sakura-internet.webp",
      "imagem_pasta": "https://animefire.plus/img/animes/sakura-internet/",
      "secao": "legendados",
      "pagina": 85,
      "total_episodios": 1,
      "link_video": "https://animefire.plus/video/sakura-internet"
    },
    {
      "id": 3234,
      "nome": "Sakura Quest",
      "link": "https://animefire.plus/animes/sakura-quest-todos-os-episodios",
      "texto_original": "Sakura Quest",
      "rating": 7.46,
      "classificacao_etaria": "A14",
      "imagem_original": "https://animefire.plus/img/animes/sakura-quest.webp",
      "imagem_pasta": "https://animefire.plus/img/animes/sakura-quest/",
      "secao": "legendados",
      "pagina": 153,
      "total_episodios": 24,
      "link_video": "https://animefire.plus/video/sakura-quest"
    },
    {
      "id": 3235,
      "nome": "Sakura Taisen",
      "link": "https://animefire.plus/animes/sakura-taisen-todos-os-episodios",
      "texto_original": "Sakura Taisen",
      "rating": 6.95,
      "classificacao_etaria": "A14",
      "imagem_original": "https://animefire.plus/img/animes/sakura-taisen.webp",
      "imagem_pasta": "https://animefire.plus/img/animes/sakura-taisen/",
      "secao": "legendados",
      "pagina": 176,
      "total_episodios": 25,
      "link_video": "https://animefire.plus/video/sakura-taisen"
    },
    {
      "id": 3236,
      "nome": "Sakura Trick",
      "link": "https://animefire.plus/animes/sakura-trick-todos-os-episodios",
      "texto_original": "Sakura Trick",
      "rating": 7.12,
      "classificacao_etaria": "A14",
      "imagem_original": "https://animefire.plus/img/animes/sakura-trick.webp",
      "imagem_pasta": "https://animefire.plus/img/animes/sakura-trick/",
      "secao": "legendados",
      "pagina": 129,
      "total_episodios": 12,
      "link_video": "https://animefire.plus/video/sakura-trick"
    },
    {
      "id": 3238,
      "nome": "Sakurada Reset",
      "link": "https://animefire.plus/animes/sakurada-reset-todos-os-episodios",
      "texto_original": "Sakurada Reset",
      "rating": 7.42,
      "classificacao_etaria": "A14",
      "imagem_original": "https://animefire.plus/img/animes/sakurada-reset.webp",
      "imagem_pasta": "https://animefire.plus/img/animes/sakurada-reset/",
      "secao": "legendados",
      "pagina": 147,
      "total_episodios": 24,
      "link_video": "https://animefire.plus/video/sakurada-reset"
    },
    {
      "id": 3240,
      "nome": "Sakurasou no Pet na Kanojo",
      "link": "https://animefire.plus/animes/sakurasou-no-pet-na-kanojo-todos-os-episodios",
      "texto_original": "Sakurasou no Pet na Kanojo",
      "rating": 8.29,
      "classificacao_etaria": "A14",
      "imagem_original": "https://animefire.plus/img/animes/sakurasou-no-pet-na-kanojo.webp",
      "imagem_pasta": "https://animefire.plus/img/animes/sakurasou-no-pet-na-kanojo/",
      "secao": "legendados",
      "pagina": 145,
      "total_episodios": 1,
      "link_video": "https://animefire.plus/video/sakurasou-no-pet-na-kanojo"
    }
  ],
  "pagination": {
    "current_page": 108,
    "per_page": 20,
    "total_items": 2988,
    "total_pages": 150,
    "has_next": true,
    "has_prev": true
  }
}
