{
  "message": "Animes com classificação etária: A14",
  "age_rating": "A14",
  "data": [
    {
      "id": 1752,
      "nome": "Joukamachi no Dandelion",
      "link": "https://animefire.plus/animes/joukamachi-no-dandelion-todos-os-episodios",
      "texto_original": "Joukamachi no Dandelion",
      "rating": 7.29,
      "classificacao_etaria": "A14",
      "imagem_original": "https://animefire.plus/img/animes/joukamachi-no-dandelion.webp",
      "imagem_pasta": "https://animefire.plus/img/animes/joukamachi-no-dandelion/",
      "secao": "legendados",
      "pagina": 163,
      "total_episodios": 0,
      "link_video": "https://animefire.plus/video/joukamachi-no-dandelion"
    },
    {
      "id": 1757,
      "nome": "Jungle de Ikou!",
      "link": "https://animefire.plus/animes/jungle-de-ikou-todos-os-episodios",
      "texto_original": "Jungle de Ikou!",
      "rating": 5.51,
      "classificacao_etaria": "A14",
      "imagem_original": "https://animefire.plus/img/animes/jungle-de-ikou.webp",
      "imagem_pasta": "https://animefire.plus/img/animes/jungle-de-ikou/",
      "secao": "legendados",
      "pagina": 137,
      "total_episodios": 3,
      "link_video": "https://animefire.plus/video/jungle-de-ikou"
    },
    {
      "id": 1758,
      "nome": "Junjou Romantica",
      "link": "https://animefire.plus/animes/junjou-romantica-todos-os-episodios",
      "texto_original": "Junjou Romantica",
      "rating": 7.92,
      "classificacao_etaria": "A14",
      "imagem_original": "https://animefire.plus/img/animes/junjou-romantica.webp",
      "imagem_pasta": "https://animefire.plus/img/animes/junjou-romantica/",
      "secao": "legendados",
      "pagina": 139,
      "total_episodios": 12,
      "link_video": "https://animefire.plus/video/junjou-romantica"
    },
    {
      "id": 1759,
      "nome": "Junjou Romantica 2",
      "link": "https://animefire.plus/animes/junjou-romantica-2-todos-os-episodios",
      "texto_original": "Junjou Romantica 2",
      "rating": 8.09,
      "classificacao_etaria": "A14",
      "imagem_original": "https://animefire.plus/img/animes/junjou-romantica-2.webp",
      "imagem_pasta": "https://animefire.plus/img/animes/junjou-romantica-2/",
      "secao": "legendados",
      "pagina": 125,
      "total_episodios": 12,
      "link_video": "https://animefire.plus/video/junjou-romantica-2"
    },
    {
      "id": 1760,
      "nome": "Junjou Romantica 3",
      "link": "https://animefire.plus/animes/junjou-romantica-3-todos-os-episodios",
      "texto_original": "Junjou Romantica 3",
      "rating": 8.03,
      "classificacao_etaria": "A14",
      "imagem_original": "https://animefire.plus/img/animes/junjou-romantica-3.webp",
      "imagem_pasta": "https://animefire.plus/img/animes/junjou-romantica-3/",
      "secao": "legendados",
      "pagina": 179,
      "total_episodios": 1,
      "link_video": "https://animefire.plus/video/junjou-romantica-3"
    },
    {
      "id": 1762,
      "nome": "Just Because!",
      "link": "https://animefire.plus/animes/just-because-todos-os-episodios",
      "texto_original": "Just Because!",
      "rating": 7.37,
      "classificacao_etaria": "A14",
      "imagem_original": "https://animefire.plus/img/animes/just-because.webp",
      "imagem_pasta": "https://animefire.plus/img/animes/just-because/",
      "secao": "legendados",
      "pagina": 148,
      "total_episodios": 12,
      "link_video": "https://animefire.plus/video/just-because"
    },
    {
      "id": 1764,
      "nome": "Juubee-chan 2: Siberia Yagyuu no Gyakushuu",
      "link": "https://animefire.plus/animes/juubee-chan-2-siberia-yagyuu-no-gyakushuu-todos-os-episodios",
      "texto_original": "Juubee-chan 2: Siberia Yagyuu no Gyakushuu",
      "rating": 6.93,
      "classificacao_etaria": "A14",
      "imagem_original": "https://animefire.plus/img/animes/juubee-chan-2-siberia-yagyuu-no-gyakushuu.webp",
      "imagem_pasta": "https://animefire.plus/img/animes/juubee-chan-2-siberia-yagyuu-no-gyakushuu/",
      "secao": "legendados",
      "pagina": 168,
      "total_episodios": 13,
      "link_video": "https://animefire.plus/video/juubee-chan-2-siberia-yagyuu-no-gyakushuu"
    },
    {
      "id": 1765,
      "nome": "Juubee-chan: Lovely Gantai no Himitsu",
      "link": "https://animefire.plus/animes/juubee-chan-lovely-gantai-no-himitsu-todos-os-episodios",
      "texto_original": "Juubee-chan: Lovely Gantai no Himitsu",
      "rating": 6.71,
      "classificacao_etaria": "A14",
      "imagem_original": "https://animefire.plus/img/animes/juubee-chan-lovely-gantai-no-himitsu.webp",
      "imagem_pasta": "https://animefire.plus/img/animes/juubee-chan-lovely-gantai-no-himitsu/",
      "secao": "legendados",
      "pagina": 143,
      "total_episodios": 12,
      "link_video": "https://animefire.plus/video/juubee-chan-lovely-gantai-no-himitsu"
    },
    {
      "id": 1766,
      "nome": "Juuni Kokuki",
      "link": "https://animefire.plus/animes/juuni-kokuki-todos-os-episodios",
      "texto_original": "Juuni Kokuki",
      "rating": 8.08,
      "classificacao_etaria": "A14",
      "imagem_original": "https://animefire.plus/img/animes/juuni-kokuki.webp",
      "imagem_pasta": "https://animefire.plus/img/animes/juuni-kokuki/",
      "secao": "legendados",
      "pagina": 76,
      "total_episodios": 45,
      "link_video": "https://animefire.plus/video/juuni-kokuki"
    },
    {
      "id": 1768,
      "nome": "Juuou Mujin No Fafnir",
      "link": "https://animefire.plus/animes/juuou-mujin-no-fafnir-todos-os-episodios",
      "texto_original": "Juuou Mujin No Fafnir",
      "rating": 6.39,
      "classificacao_etaria": "A14",
      "imagem_original": "https://animefire.plus/img/animes/juuou-mujin-no-fafnir.webp",
      "imagem_pasta": "https://animefire.plus/img/animes/juuou-mujin-no-fafnir/",
      "secao": "legendados",
      "pagina": 107,
      "total_episodios": 1,
      "link_video": "https://animefire.plus/video/juuou-mujin-no-fafnir"
    },
    {
      "id": 1769,
      "nome": "Juusenshi Gulkeeva",
      "link": "https://animefire.plus/animes/juusenshi-gulkeeva-todos-os-episodios",
      "texto_original": "Juusenshi Gulkeeva",
      "rating": 6.35,
      "classificacao_etaria": "A14",
      "imagem_original": "https://animefire.plus/img/animes/juusenshi-gulkeeva.webp",
      "imagem_pasta": "https://animefire.plus/img/animes/juusenshi-gulkeeva/",
      "secao": "legendados",
      "pagina": 68,
      "total_episodios": 26,
      "link_video": "https://animefire.plus/video/juusenshi-gulkeeva"
    },
    {
      "id": 1770,
      "nome": "Juushin Enbu: Hero Tales",
      "link": "https://animefire.plus/animes/juushin-enbu-hero-tales-todos-os-episodios",
      "texto_original": "Juushin Enbu: Hero Tales",
      "rating": 6.92,
      "classificacao_etaria": "A14",
      "imagem_original": "https://animefire.plus/img/animes/juushin-enbu-hero-tales.webp",
      "imagem_pasta": "https://animefire.plus/img/animes/juushin-enbu-hero-tales/",
      "secao": "legendados",
      "pagina": 148,
      "total_episodios": 26,
      "link_video": "https://animefire.plus/video/juushin-enbu-hero-tales"
    },
    {
      "id": 1771,
      "nome": "Juushinki Pandora (Dublado)",
      "link": "https://animefire.plus/animes/juushinki-pandora-dublado-todos-os-episodios",
      "texto_original": "Juushinki Pandora (Dublado)",
      "rating": 6.4,
      "classificacao_etaria": "A14",
      "imagem_original": "https://animefire.plus/img/animes/juushinki-pandora.webp",
      "imagem_pasta": "https://animefire.plus/img/animes/juushinki-pandora/",
      "secao": "dublados,legendados",
      "pagina": 24,
      "total_episodios": 26,
      "link_video": "https://animefire.plus/video/juushinki-pandora-dublado"
    },
    {
      "id": 1774,
      "nome": "K-On!",
      "link": "https://animefire.plus/animes/k-on-todos-os-episodios",
      "texto_original": "K-On!",
      "rating": 8.15,
      "classificacao_etaria": "A14",
      "imagem_original": "https://animefire.plus/img/animes/k-on.webp",
      "imagem_pasta": "https://animefire.plus/img/animes/k-on/",
      "secao": "legendados",
      "pagina": 143,
      "total_episodios": 14,
      "link_video": "https://animefire.plus/video/k-on"
    },
    {
      "id": 1775,
      "nome": "K-On!: Ura-On!",
      "link": "https://animefire.plus/animes/k-on-ura-on-todos-os-episodios",
      "texto_original": "K-On!: Ura-On!",
      "rating": 6.34,
      "classificacao_etaria": "A14",
      "imagem_original": "https://animefire.plus/img/animes/k-on-ura-on.webp",
      "imagem_pasta": "https://animefire.plus/img/animes/k-on-ura-on/",
      "secao": "legendados",
      "pagina": 66,
      "total_episodios": 2,
      "link_video": "https://animefire.plus/video/k-on-ura-on"
    },
    {
      "id": 1776,
      "nome": "K: Return Of Kings",
      "link": "https://animefire.plus/animes/k-return-of-kings-todos-os-episodios",
      "texto_original": "K: Return Of Kings",
      "rating": 7.74,
      "classificacao_etaria": "A14",
      "imagem_original": "https://animefire.plus/img/animes/k-return-of-kings.webp",
      "imagem_pasta": "https://animefire.plus/img/animes/k-return-of-kings/",
      "secao": "legendados",
      "pagina": 107,
      "total_episodios": 13,
      "link_video": "https://animefire.plus/video/k-return-of-kings"
    },
    {
      "id": 1778,
      "nome": "Kabukichou Sherlock OVA",
      "link": "https://animefire.plus/animes/kabukichou-sherlock-ova-todos-os-episodios",
      "texto_original": "Kabukichou Sherlock OVA",
      "rating": 6.61,
      "classificacao_etaria": "A14",
      "imagem_original": "https://animefire.plus/img/animes/kabukichou-sherlock-ova.webp",
      "imagem_pasta": "https://animefire.plus/img/animes/kabukichou-sherlock-ova/",
      "secao": "legendados",
      "pagina": 50,
      "total_episodios": 1,
      "link_video": "https://animefire.plus/video/kabukichou-sherlock-ova"
    },
    {
      "id": 1779,
      "nome": "Kabushikigaisha Magi-Lumière",
      "link": "https://animefire.plus/animes/kabushikigaisha-magi-lumiere-todos-os-episodios",
      "texto_original": "Kabushikigaisha Magi-Lumière",
      "rating": 6.96,
      "classificacao_etaria": "A14",
      "imagem_original": "https://animefire.plus/img/animes/kabushikigaisha-magi-lumiere.webp",
      "imagem_pasta": "https://animefire.plus/img/animes/kabushikigaisha-magi-lumiere/",
      "secao": "legendados",
      "pagina": 10,
      "total_episodios": 12,
      "link_video": "https://animefire.plus/video/kabushikigaisha-magi-lumiere"
    },
    {
      "id": 1782,
      "nome": "Kage kara Mamoru!",
      "link": "https://animefire.plus/animes/kage-kara-mamoru-todos-os-episodios",
      "texto_original": "Kage kara Mamoru!",
      "rating": 6.67,
      "classificacao_etaria": "A14",
      "imagem_original": "https://animefire.plus/img/animes/kage-kara-mamoru.webp",
      "imagem_pasta": "https://animefire.plus/img/animes/kage-kara-mamoru/",
      "secao": "legendados",
      "pagina": 133,
      "total_episodios": 12,
      "link_video": "https://animefire.plus/video/kage-kara-mamoru"
    },
    {
      "id": 1785,
      "nome": "Kageki Shoujo!! (Dublado)",
      "link": "https://animefire.plus/animes/kageki-shoujo-dublado-todos-os-episodios",
      "texto_original": "Kageki Shoujo!! (Dublado)",
      "rating": 7.72,
      "classificacao_etaria": "A14",
      "imagem_original": "https://animefire.plus/img/animes/kageki-shoujo.webp",
      "imagem_pasta": "https://animefire.plus/img/animes/kageki-shoujo/",
      "secao": "dublados,legendados",
      "pagina": 11,
      "total_episodios": 13,
      "link_video": "https://animefire.plus/video/kageki-shoujo-dublado"
    }
  ],
  "pagination": {
    "current_page": 57,
    "per_page": 20,
    "total_items": 2988,
    "total_pages": 150,
    "has_next": true,
    "has_prev": true
  }
}
