{
  "message": "Animes com classificação etária: A14",
  "age_rating": "A14",
  "data": [
    {
      "id": 2917,
      "nome": "Otome Game Sekai wa Mob ni Kibishii Sekai desu",
      "link": "https://animefire.plus/animes/otome-game-sekai-wa-mob-ni-kibishii-sekai-desu-todos-os-episodios",
      "texto_original": "Otome Game Sekai wa Mob ni Kibishii Sekai desu",
      "rating": 7.32,
      "classificacao_etaria": "A14",
      "imagem_original": "https://animefire.plus/img/animes/otome-game-sekai-wa-mob-ni-kibishii-sekai-desu.webp",
      "imagem_pasta": "https://animefire.plus/img/animes/otome-game-sekai-wa-mob-ni-kibishii-sekai-desu/",
      "secao": "legendados",
      "pagina": 34,
      "total_episodios": 12,
      "link_video": "https://animefire.plus/video/otome-game-sekai-wa-mob-ni-kibishii-sekai-desu"
    },
    {
      "id": 2918,
      "nome": "Otome wa Boku ni Koishiteru",
      "link": "https://animefire.plus/animes/otome-wa-boku-ni-koishiteru-todos-os-episodios",
      "texto_original": "Otome wa Boku ni Koishiteru",
      "rating": 7.12,
      "classificacao_etaria": "A14",
      "imagem_original": "https://animefire.plus/img/animes/otome-wa-boku-ni-koishiteru.webp",
      "imagem_pasta": "https://animefire.plus/img/animes/otome-wa-boku-ni-koishiteru/",
      "secao": "legendados",
      "pagina": 134,
      "total_episodios": 12,
      "link_video": "https://animefire.plus/video/otome-wa-boku-ni-koishiteru"
    },
    {
      "id": 2919,
      "nome": "Otome wa Boku ni Koishiteru: Trinkle Stars The Animation",
      "link": "https://animefire.plus/animes/otome-wa-boku-ni-koishiteru-trinkle-stars-the-animation-todos-os-episodios",
      "texto_original": "Otome wa Boku ni Koishiteru: Trinkle Stars The Animation",
      "rating": 5.58,
      "classificacao_etaria": "A14",
      "imagem_original": "https://animefire.plus/img/animes/otome-wa-boku-ni-koishiteru-trinkle-stars-the-animation.webp",
      "imagem_pasta": "https://animefire.plus/img/animes/otome-wa-boku-ni-koishiteru-trinkle-stars-the-animation/",
      "secao": "legendados,lancamentos",
      "pagina": 38,
      "total_episodios": 0,
      "link_video": "https://animefire.plus/video/otome-wa-boku-ni-koishiteru-trinkle-stars-the-animation"
    },
    {
      "id": 2920,
      "nome": "Otome Youkai Zakuro",
      "link": "https://animefire.plus/animes/otome-youkai-zakuro-todos-os-episodios",
      "texto_original": "Otome Youkai Zakuro",
      "rating": 7.54,
      "classificacao_etaria": "A14",
      "imagem_original": "https://animefire.plus/img/animes/otome-youkai-zakuro.webp",
      "imagem_pasta": "https://animefire.plus/img/animes/otome-youkai-zakuro/",
      "secao": "legendados",
      "pagina": 150,
      "total_episodios": 13,
      "link_video": "https://animefire.plus/video/otome-youkai-zakuro"
    },
    {
      "id": 2921,
      "nome": "Otona no Bouguya-san",
      "link": "https://animefire.plus/animes/otona-no-bouguya-san-todos-os-episodios",
      "texto_original": "Otona no Bouguya-san",
      "rating": 5.71,
      "classificacao_etaria": "A14",
      "imagem_original": "https://animefire.plus/img/animes/otona-no-bouguya-san.webp",
      "imagem_pasta": "https://animefire.plus/img/animes/otona-no-bouguya-san/",
      "secao": "legendados",
      "pagina": 105,
      "total_episodios": 12,
      "link_video": "https://animefire.plus/video/otona-no-bouguya-san"
    },
    {
      "id": 2922,
      "nome": "Otona no Bouguya-san 2nd Season",
      "link": "https://animefire.plus/animes/otona-no-bouguya-san-2-todos-os-episodios",
      "texto_original": "Otona no Bouguya-san 2nd Season",
      "rating": 5.49,
      "classificacao_etaria": "A14",
      "imagem_original": "https://animefire.plus/img/animes/otona-no-bouguya-san-2.webp",
      "imagem_pasta": "https://animefire.plus/img/animes/otona-no-bouguya-san-2/",
      "secao": "legendados",
      "pagina": 48,
      "total_episodios": 12,
      "link_video": "https://animefire.plus/video/otona-no-bouguya-san-2"
    },
    {
      "id": 2923,
      "nome": "Otonari ni Ginga (Dublado)",
      "link": "https://animefire.plus/animes/otonari-ni-ginga-dublado-todos-os-episodios",
      "texto_original": "Otonari ni Ginga (Dublado)",
      "rating": 7.15,
      "classificacao_etaria": "A14",
      "imagem_original": "https://animefire.plus/img/animes/otonari-ni-ginga.webp",
      "imagem_pasta": "https://animefire.plus/img/animes/otonari-ni-ginga/",
      "secao": "dublados,legendados",
      "pagina": 6,
      "total_episodios": 12,
      "link_video": "https://animefire.plus/video/otonari-ni-ginga-dublado"
    },
    {
      "id": 2924,
      "nome": "Otonari no Tenshi-sama ni Itsunomanika Dame Ningen ni Sareteita Ken",
      "link": "https://animefire.plus/animes/otonari-no-tenshi-sama-ni-itsunomanika-dame-ningen-ni-sareteita-ken-todos-os-episodios",
      "texto_original": "Otonari no Tenshi-sama ni Itsunomanika Dame Ningen ni Sareteita Ken",
      "rating": 7.84,
      "classificacao_etaria": "A14",
      "imagem_original": "https://animefire.plus/img/animes/otonari-no-tenshi-sama-ni-itsunomanika-dame-ningen-ni-sareteita-ken.webp",
      "imagem_pasta": "https://animefire.plus/img/animes/otonari-no-tenshi-sama-ni-itsunomanika-dame-ningen-ni-sareteita-ken/",
      "secao": "legendados",
      "pagina": 28,
      "total_episodios": 12,
      "link_video": "https://animefire.plus/video/otonari-no-tenshi-sama-ni-itsunomanika-dame-ningen-ni-sareteita-ken"
    },
    {
      "id": 2925,
      "nome": "Ou Dorobou Jing",
      "link": "https://animefire.plus/animes/ou-dorobou-jing-todos-os-episodios",
      "texto_original": "Ou Dorobou Jing",
      "rating": 7.29,
      "classificacao_etaria": "A14",
      "imagem_original": "https://animefire.plus/img/animes/ou-dorobou-jing.webp",
      "imagem_pasta": "https://animefire.plus/img/animes/ou-dorobou-jing/",
      "secao": "legendados",
      "pagina": 134,
      "total_episodios": 13,
      "link_video": "https://animefire.plus/video/ou-dorobou-jing"
    },
    {
      "id": 2926,
      "nome": "Ouran Koukou Host Club",
      "link": "https://animefire.plus/animes/ouran-koukou-host-club-todos-os-episodios",
      "texto_original": "Ouran Koukou Host Club",
      "rating": 8.31,
      "classificacao_etaria": "A14",
      "imagem_original": "https://animefire.plus/img/animes/ouran-koukou-host-club.webp",
      "imagem_pasta": "https://animefire.plus/img/animes/ouran-koukou-host-club/",
      "secao": "legendados",
      "pagina": 116,
      "total_episodios": 5,
      "link_video": "https://animefire.plus/video/ouran-koukou-host-club"
    },
    {
      "id": 2927,
      "nome": "Ouritsu Uchuugun: Honneamise no Tsubasa Pilot",
      "link": "https://animefire.plus/animes/ouritsu-uchuugun-honneamise-no-tsubasa-pilot-todos-os-episodios",
      "texto_original": "Ouritsu Uchuugun: Honneamise no Tsubasa Pilot",
      "rating": 6.05,
      "classificacao_etaria": "A14",
      "imagem_original": "https://animefire.plus/img/animes/ouritsu-uchuugun-honneamise-no-tsubasa-pilot.webp",
      "imagem_pasta": "https://animefire.plus/img/animes/ouritsu-uchuugun-honneamise-no-tsubasa-pilot/",
      "secao": "legendados",
      "pagina": 85,
      "total_episodios": 1,
      "link_video": "https://animefire.plus/video/ouritsu-uchuugun-honneamise-no-tsubasa-pilot"
    },
    {
      "id": 2929,
      "nome": "Ousama Ranking (Dublado)",
      "link": "https://animefire.plus/animes/ousama-ranking-dublado-todos-os-episodios",
      "texto_original": "Ousama Ranking (Dublado)",
      "rating": 8.49,
      "classificacao_etaria": "A14",
      "imagem_original": "https://animefire.plus/img/animes/ousama-ranking.webp",
      "imagem_pasta": "https://animefire.plus/img/animes/ousama-ranking/",
      "secao": "dublados,legendados",
      "pagina": 14,
      "total_episodios": 23,
      "link_video": "https://animefire.plus/video/ousama-ranking-dublado"
    },
    {
      "id": 2930,
      "nome": "Oushitsu Kyoushi Heine",
      "link": "https://animefire.plus/animes/oushitsu-kyoushi-heine-todos-os-episodios",
      "texto_original": "Oushitsu Kyoushi Heine",
      "rating": 7.51,
      "classificacao_etaria": "A14",
      "imagem_original": "https://animefire.plus/img/animes/oushitsu-kyoushi-heine.webp",
      "imagem_pasta": "https://animefire.plus/img/animes/oushitsu-kyoushi-heine/",
      "secao": "legendados",
      "pagina": 64,
      "total_episodios": 12,
      "link_video": "https://animefire.plus/video/oushitsu-kyoushi-heine"
    },
    {
      "id": 2931,
      "nome": "Outbreak Company",
      "link": "https://animefire.plus/animes/outbreak-company-todos-os-episodios",
      "texto_original": "Outbreak Company",
      "rating": 7.44,
      "classificacao_etaria": "A14",
      "imagem_original": "https://animefire.plus/img/animes/outbreak-company.webp",
      "imagem_pasta": "https://animefire.plus/img/animes/outbreak-company/",
      "secao": "legendados",
      "pagina": 155,
      "total_episodios": 4,
      "link_video": "https://animefire.plus/video/outbreak-company"
    },
    {
      "id": 2932,
      "nome": "Over Drive",
      "link": "https://animefire.plus/animes/over-drive-todos-os-episodios",
      "texto_original": "Over Drive",
      "rating": 7.66,
      "classificacao_etaria": "A14",
      "imagem_original": "https://animefire.plus/img/animes/over-drive.webp",
      "imagem_pasta": "https://animefire.plus/img/animes/over-drive/",
      "secao": "legendados",
      "pagina": 159,
      "total_episodios": 26,
      "link_video": "https://animefire.plus/video/over-drive"
    },
    {
      "id": 2937,
      "nome": "Overlord: Ple Ple Pleiades",
      "link": "https://animefire.plus/animes/overlord-ple-ple-pleiades-todos-os-episodios",
      "texto_original": "Overlord: Ple Ple Pleiades",
      "rating": 7.07,
      "classificacao_etaria": "A14",
      "imagem_original": "https://animefire.plus/img/animes/overlord-ple-ple-pleiades.webp",
      "imagem_pasta": "https://animefire.plus/img/animes/overlord-ple-ple-pleiades/",
      "secao": "legendados",
      "pagina": 112,
      "total_episodios": 3,
      "link_video": "https://animefire.plus/video/overlord-ple-ple-pleiades"
    },
    {
      "id": 2938,
      "nome": "Overtake!",
      "link": "https://animefire.plus/animes/overtake-todos-os-episodios",
      "texto_original": "Overtake!",
      "rating": 7.52,
      "classificacao_etaria": "A14",
      "imagem_original": "https://animefire.plus/img/animes/overtake.webp",
      "imagem_pasta": "https://animefire.plus/img/animes/overtake/",
      "secao": "legendados",
      "pagina": 20,
      "total_episodios": 12,
      "link_video": "https://animefire.plus/video/overtake"
    },
    {
      "id": 2944,
      "nome": "Ozma",
      "link": "https://animefire.plus/animes/ozma-todos-os-episodios",
      "texto_original": "Ozma",
      "rating": 6.13,
      "classificacao_etaria": "A14",
      "imagem_original": "https://animefire.plus/img/animes/ozma.webp",
      "imagem_pasta": "https://animefire.plus/img/animes/ozma/",
      "secao": "legendados",
      "pagina": 139,
      "total_episodios": 6,
      "link_video": "https://animefire.plus/video/ozma"
    },
    {
      "id": 2945,
      "nome": "Ozmafia!!",
      "link": "https://animefire.plus/animes/ozmafia-todos-os-episodios",
      "texto_original": "Ozmafia!!",
      "rating": 5.5,
      "classificacao_etaria": "A14",
      "imagem_original": "https://animefire.plus/img/animes/ozmafia.webp",
      "imagem_pasta": "https://animefire.plus/img/animes/ozmafia/",
      "secao": "legendados",
      "pagina": 144,
      "total_episodios": 0,
      "link_video": "https://animefire.plus/video/ozmafia"
    },
    {
      "id": 2946,
      "nome": "Pan de Peace!",
      "link": "https://animefire.plus/animes/pan-de-peace-todos-os-episodios",
      "texto_original": "Pan de Peace!",
      "rating": 5.61,
      "classificacao_etaria": "A14",
      "imagem_original": "https://animefire.plus/img/animes/pan-de-peace.webp",
      "imagem_pasta": "https://animefire.plus/img/animes/pan-de-peace/",
      "secao": "legendados",
      "pagina": 61,
      "total_episodios": 13,
      "link_video": "https://animefire.plus/video/pan-de-peace"
    }
  ],
  "pagination": {
    "current_page": 98,
    "per_page": 20,
    "total_items": 2988,
    "total_pages": 150,
    "has_next": true,
    "has_prev": true
  }
}
