{
  "message": "Animes com classificação etária: A14",
  "age_rating": "A14",
  "data": [
    {
      "id": 3794,
      "nome": "Tensei Kizoku, Kantei Skill de Nariagaru",
      "link": "https://animefire.plus/animes/tensei-kizoku-kantei-skill-de-nariagaru-todos-os-episodios",
      "texto_original": "Tensei Kizoku, Kantei Skill de Nariagaru",
      "rating": 7.17,
      "classificacao_etaria": "A14",
      "imagem_original": "https://animefire.plus/img/animes/tensei-kizoku-kantei-skill-de-nariagaru.webp",
      "imagem_pasta": "https://animefire.plus/img/animes/tensei-kizoku-kantei-skill-de-nariagaru/",
      "secao": "legendados",
      "pagina": 15,
      "total_episodios": 12,
      "link_video": "https://animefire.plus/video/tensei-kizoku-kantei-skill-de-nariagaru"
    },
    {
      "id": 3795,
      "nome": "Tensei Kizoku, Kantei Skill de Nariagaru 2nd Season",
      "link": "https://animefire.plus/animes/tensei-kizoku-kantei-skill-de-nariagaru-2nd-season-todos-os-episodios",
      "texto_original": "Tensei Kizoku, Kantei Skill de Nariagaru 2nd Season",
      "rating": 7.45,
      "classificacao_etaria": "A14",
      "imagem_original": "https://animefire.plus/img/animes/tensei-kizoku-kantei-skill-de-nariagaru-2nd-season.webp",
      "imagem_pasta": "https://animefire.plus/img/animes/tensei-kizoku-kantei-skill-de-nariagaru-2nd-season/",
      "secao": "legendados",
      "pagina": 10,
      "total_episodios": 12,
      "link_video": "https://animefire.plus/video/tensei-kizoku-kantei-skill-de-nariagaru-2nd-season"
    },
    {
      "id": 3796,
      "nome": "Tensei Oujo to Tensai Reijou no Mahou Kakumei",
      "link": "https://animefire.plus/animes/tensei-oujo-to-tensai-reijou-no-mahou-kakumei-todos-os-episodios",
      "texto_original": "Tensei Oujo to Tensai Reijou no Mahou Kakumei",
      "rating": 7.46,
      "classificacao_etaria": "A14",
      "imagem_original": "https://animefire.plus/img/animes/tensei-oujo-to-tensai-reijou-no-mahou-kakumei.webp",
      "imagem_pasta": "https://animefire.plus/img/animes/tensei-oujo-to-tensai-reijou-no-mahou-kakumei/",
      "secao": "legendados",
      "pagina": 27,
      "total_episodios": 12,
      "link_video": "https://animefire.plus/video/tensei-oujo-to-tensai-reijou-no-mahou-kakumei"
    },
    {
      "id": 3797,
      "nome": "Tensei shitara Dainana Ouji Datta node, Kimama ni Majutsu wo Kiwamemasu",
      "link": "https://animefire.plus/animes/tensei-shitara-dainana-ouji-datta-node-kimama-ni-majutsu-wo-kiwamemasu-todos-os-episodios",
      "texto_original": "Tensei shitara Dainana Ouji Datta node, Kimama ni Majutsu wo Kiwamemasu",
      "rating": 7.42,
      "classificacao_etaria": "A14",
      "imagem_original": "https://animefire.plus/img/animes/tensei-shitara-dainana-ouji-datta-node-kimama-ni-majutsu-wo-kiwamemasu.webp",
      "imagem_pasta": "https://animefire.plus/img/animes/tensei-shitara-dainana-ouji-datta-node-kimama-ni-majutsu-wo-kiwamemasu/",
      "secao": "legendados",
      "pagina": 15,
      "total_episodios": 12,
      "link_video": "https://animefire.plus/video/tensei-shitara-dainana-ouji-datta-node-kimama-ni-majutsu-wo-kiwamemasu"
    },
    {
      "id": 3798,
      "nome": "Tensei shitara Dainana Ouji Datta node, Kimama ni Majutsu wo Kiwamemasu 2nd Season",
      "link": "https://animefire.plus/animes/tensei-shitara-dainana-ouji-datta-node-kimama-ni-majutsu-wo-kiwamemasu-2nd-season-todos-os-episodios",
      "texto_original": "Tensei shitara Dainana Ouji Datta node, Kimama ni Majutsu wo Kiwamemasu 2nd Season",
      "rating": 7.63,
      "classificacao_etaria": "A14",
      "imagem_original": "https://animefire.plus/img/animes/tensei-shitara-dainana-ouji-datta-node-kimama-ni-majutsu-wo-kiwamemasu-2nd-season.webp",
      "imagem_pasta": "https://animefire.plus/img/animes/tensei-shitara-dainana-ouji-datta-node-kimama-ni-majutsu-wo-kiwamemasu-2nd-season/",
      "secao": "legendados,lancamentos",
      "pagina": 3,
      "total_episodios": 4,
      "link_video": "https://animefire.plus/video/tensei-shitara-dainana-ouji-datta-node-kimama-ni-majutsu-wo-kiwamemasu-2nd-season"
    },
    {
      "id": 3799,
      "nome": "Tensei shitara Ken Deshita",
      "link": "https://animefire.plus/animes/tensei-shitara-ken-deshita-todos-os-episodios",
      "texto_original": "Tensei shitara Ken Deshita",
      "rating": 7.5,
      "classificacao_etaria": "A14",
      "imagem_original": "https://animefire.plus/img/animes/tensei-shitara-ken-deshita.webp",
      "imagem_pasta": "https://animefire.plus/img/animes/tensei-shitara-ken-deshita/",
      "secao": "legendados",
      "pagina": 29,
      "total_episodios": 12,
      "link_video": "https://animefire.plus/video/tensei-shitara-ken-deshita"
    },
    {
      "id": 3800,
      "nome": "Tensei shitara Slime Datta Ken (Dublado)",
      "link": "https://animefire.plus/animes/tensei-shitara-slime-datta-ken-dublado-todos-os-episodios",
      "texto_original": "Tensei shitara Slime Datta Ken (Dublado)",
      "rating": 8.1,
      "classificacao_etaria": "A14",
      "imagem_original": "https://animefire.plus/img/animes/tensei-shitara-slime-datta-ken.webp",
      "imagem_pasta": "https://animefire.plus/img/animes/tensei-shitara-slime-datta-ken/",
      "secao": "dublados,legendados",
      "pagina": 16,
      "total_episodios": 24,
      "link_video": "https://animefire.plus/video/tensei-shitara-slime-datta-ken-dublado"
    },
    {
      "id": 3801,
      "nome": "Tensei shitara Slime Datta Ken 2nd Season (Dublado)",
      "link": "https://animefire.plus/animes/tensei-shitara-slime-datta-ken-2nd-season-dublado-todos-os-episodios",
      "texto_original": "Tensei shitara Slime Datta Ken 2nd Season (Dublado)",
      "rating": 8.35,
      "classificacao_etaria": "A14",
      "imagem_original": "https://animefire.plus/img/animes/tensei-shitara-slime-datta-ken-2nd-season.webp",
      "imagem_pasta": "https://animefire.plus/img/animes/tensei-shitara-slime-datta-ken-2nd-season/",
      "secao": "dublados,legendados,lancamentos",
      "pagina": 12,
      "total_episodios": 12,
      "link_video": "https://animefire.plus/video/tensei-shitara-slime-datta-ken-2nd-season-dublado"
    },
    {
      "id": 3802,
      "nome": "Tensei shitara Slime Datta Ken 2nd Season Part 2 (Dublado)",
      "link": "https://animefire.plus/animes/tensei-shitara-slime-datta-ken-2nd-season-part-2-dublado-todos-os-episodios",
      "texto_original": "Tensei shitara Slime Datta Ken 2nd Season Part 2 (Dublado)",
      "rating": 8.3,
      "classificacao_etaria": "A14",
      "imagem_original": "https://animefire.plus/img/animes/tensei-shitara-slime-datta-ken-2nd-season-part-2.webp",
      "imagem_pasta": "https://animefire.plus/img/animes/tensei-shitara-slime-datta-ken-2nd-season-part-2/",
      "secao": "dublados,legendados",
      "pagina": 12,
      "total_episodios": 12,
      "link_video": "https://animefire.plus/video/tensei-shitara-slime-datta-ken-2nd-season-part-2-dublado"
    },
    {
      "id": 3803,
      "nome": "Tensei shitara Slime Datta Ken 3rd Season",
      "link": "https://animefire.plus/animes/tensei-shitara-slime-datta-ken-3rd-season-todos-os-episodios",
      "texto_original": "Tensei shitara Slime Datta Ken 3rd Season",
      "rating": 7.69,
      "classificacao_etaria": "A14",
      "imagem_original": "https://animefire.plus/img/animes/tensei-shitara-slime-datta-ken-3rd-season.webp",
      "imagem_pasta": "https://animefire.plus/img/animes/tensei-shitara-slime-datta-ken-3rd-season/",
      "secao": "legendados",
      "pagina": 19,
      "total_episodios": 24,
      "link_video": "https://animefire.plus/video/tensei-shitara-slime-datta-ken-3rd-season"
    },
    {
      "id": 3804,
      "nome": "Tensei shitara Slime Datta Ken OVA (Dublado)",
      "link": "https://animefire.plus/animes/tensei-shitara-slime-datta-ken-ova-dublado-todos-os-episodios",
      "texto_original": "Tensei shitara Slime Datta Ken OVA (Dublado)",
      "rating": 7.47,
      "classificacao_etaria": "A14",
      "imagem_original": "https://animefire.plus/img/animes/tensei-shitara-slime-datta-ken-ova.webp",
      "imagem_pasta": "https://animefire.plus/img/animes/tensei-shitara-slime-datta-ken-ova/",
      "secao": "dublados,legendados",
      "pagina": 16,
      "total_episodios": 5,
      "link_video": "https://animefire.plus/video/tensei-shitara-slime-datta-ken-ova-dublado"
    },
    {
      "id": 3805,
      "nome": "Tensei shitara Slime Datta Ken: Coleus no Yume (Dublado)",
      "link": "https://animefire.plus/animes/tensei-shitara-slime-datta-ken-coleus-no-yume-dublado-todos-os-episodios",
      "texto_original": "Tensei shitara Slime Datta Ken: Coleus no Yume (Dublado)",
      "rating": 7.58,
      "classificacao_etaria": "A14",
      "imagem_original": "https://animefire.plus/img/animes/tensei-shitara-slime-datta-ken-coleus-no-yume.webp",
      "imagem_pasta": "https://animefire.plus/img/animes/tensei-shitara-slime-datta-ken-coleus-no-yume/",
      "secao": "dublados,legendados,lancamentos",
      "pagina": 4,
      "total_episodios": 3,
      "link_video": "https://animefire.plus/video/tensei-shitara-slime-datta-ken-coleus-no-yume-dublado"
    },
    {
      "id": 3806,
      "nome": "Tensei shitara Slime Datta Ken: Kanwa - Veldora Nikki (Dublado)",
      "link": "https://animefire.plus/animes/tensei-shitara-slime-datta-ken-kanwa---veldora-nikki-dublado-todos-os-episodios",
      "texto_original": "Tensei shitara Slime Datta Ken: Kanwa - Veldora Nikki (Dublado)",
      "rating": 6.57,
      "classificacao_etaria": "A14",
      "imagem_original": "https://animefire.plus/img/animes/tensei-shitara-slime-datta-ken-kanwa---veldora-nikki.webp",
      "imagem_pasta": "https://animefire.plus/img/animes/tensei-shitara-slime-datta-ken-kanwa---veldora-nikki/",
      "secao": "dublados",
      "pagina": 16,
      "total_episodios": 1,
      "link_video": "https://animefire.plus/video/tensei-shitara-slime-datta-ken-kanwa---veldora-nikki-dublado"
    },
    {
      "id": 3808,
      "nome": "Tenshi Ni Narumon!",
      "link": "https://animefire.plus/animes/tenshi-ni-narumon-todos-os-episodios",
      "texto_original": "Tenshi Ni Narumon!",
      "rating": 6.79,
      "classificacao_etaria": "A14",
      "imagem_original": "https://animefire.plus/img/animes/tenshi-ni-narumon.webp",
      "imagem_pasta": "https://animefire.plus/img/animes/tenshi-ni-narumon/",
      "secao": "legendados",
      "pagina": 109,
      "total_episodios": 26,
      "link_video": "https://animefire.plus/video/tenshi-ni-narumon"
    },
    {
      "id": 3809,
      "nome": "Tenshi no 3P!",
      "link": "https://animefire.plus/animes/tenshi-no-3p-todos-os-episodios",
      "texto_original": "Tenshi no 3P!",
      "rating": 6.71,
      "classificacao_etaria": "A14",
      "imagem_original": "https://animefire.plus/img/animes/tenshi-no-3p.webp",
      "imagem_pasta": "https://animefire.plus/img/animes/tenshi-no-3p/",
      "secao": "legendados",
      "pagina": 76,
      "total_episodios": 12,
      "link_video": "https://animefire.plus/video/tenshi-no-3p"
    },
    {
      "id": 3810,
      "nome": "Tensui no Sakuna-hime",
      "link": "https://animefire.plus/animes/tensui-no-sakuna-hime-todos-os-episodios",
      "texto_original": "Tensui no Sakuna-hime",
      "rating": 6.74,
      "classificacao_etaria": "A14",
      "imagem_original": "https://animefire.plus/img/animes/tensui-no-sakuna-hime.webp",
      "imagem_pasta": "https://animefire.plus/img/animes/tensui-no-sakuna-hime/",
      "secao": "legendados",
      "pagina": 12,
      "total_episodios": 13,
      "link_video": "https://animefire.plus/video/tensui-no-sakuna-hime"
    },
    {
      "id": 3811,
      "nome": "Tensura Nikki: Tensei shitara Slime Datta Ken (Dublado)",
      "link": "https://animefire.plus/animes/tensura-nikki-tensei-shitara-slime-datta-ken-dublado-todos-os-episodios",
      "texto_original": "Tensura Nikki: Tensei shitara Slime Datta Ken (Dublado)",
      "rating": 7.59,
      "classificacao_etaria": "A14",
      "imagem_original": "https://animefire.plus/img/animes/tensura-nikki-tensei-shitara-slime-datta-ken.webp",
      "imagem_pasta": "https://animefire.plus/img/animes/tensura-nikki-tensei-shitara-slime-datta-ken/",
      "secao": "dublados,legendados",
      "pagina": 15,
      "total_episodios": 12,
      "link_video": "https://animefire.plus/video/tensura-nikki-tensei-shitara-slime-datta-ken-dublado"
    },
    {
      "id": 3812,
      "nome": "Tentai Senshi Sunred",
      "link": "https://animefire.plus/animes/tentai-senshi-sunred-todos-os-episodios",
      "texto_original": "Tentai Senshi Sunred",
      "rating": 7.88,
      "classificacao_etaria": "A14",
      "imagem_original": "https://animefire.plus/img/animes/tentai-senshi-sunred.webp",
      "imagem_pasta": "https://animefire.plus/img/animes/tentai-senshi-sunred/",
      "secao": "legendados",
      "pagina": 98,
      "total_episodios": 0,
      "link_video": "https://animefire.plus/video/tentai-senshi-sunred"
    },
    {
      "id": 3813,
      "nome": "Teogonia",
      "link": "https://animefire.plus/animes/teogonia-todos-os-episodios",
      "texto_original": "Teogonia",
      "rating": 6.93,
      "classificacao_etaria": "A14",
      "imagem_original": "https://animefire.plus/img/animes/teogonia.webp",
      "imagem_pasta": "https://animefire.plus/img/animes/teogonia/",
      "secao": "legendados",
      "pagina": 5,
      "total_episodios": 12,
      "link_video": "https://animefire.plus/video/teogonia"
    },
    {
      "id": 3815,
      "nome": "Teppen!!!!!!!!!!!!!!!",
      "link": "https://animefire.plus/animes/teppen-laughing-039-til-you-cry-todos-os-episodios",
      "texto_original": "Teppen!!!!!!!!!!!!!!!",
      "rating": 6.61,
      "classificacao_etaria": "A14",
      "imagem_original": "https://animefire.plus/img/animes/teppen-laughing-039-til-you-cry.webp",
      "imagem_pasta": "https://animefire.plus/img/animes/teppen-laughing-039-til-you-cry/",
      "secao": "legendados,lancamentos",
      "pagina": 32,
      "total_episodios": 2,
      "link_video": "https://animefire.plus/video/teppen-laughing-039-til-you-cry"
    }
  ],
  "pagination": {
    "current_page": 129,
    "per_page": 20,
    "total_items": 2988,
    "total_pages": 150,
    "has_next": true,
    "has_prev": true
  }
}
