{
  "message": "Animes com classificação etária: A14",
  "age_rating": "A14",
  "data": [
    {
      "id": 1631,
      "nome": "Initial D Second Stage",
      "link": "https://animefire.plus/animes/initial-d-second-stage-todos-os-episodios",
      "texto_original": "Initial D Second Stage",
      "rating": 8.17,
      "classificacao_etaria": "A14",
      "imagem_original": "https://animefire.plus/img/animes/initial-d-second-stage.webp",
      "imagem_pasta": "https://animefire.plus/img/animes/initial-d-second-stage/",
      "secao": "legendados",
      "pagina": 159,
      "total_episodios": 13,
      "link_video": "https://animefire.plus/video/initial-d-second-stage"
    },
    {
      "id": 1632,
      "nome": "Innocent Venus",
      "link": "https://animefire.plus/animes/innocent-venus-todos-os-episodios",
      "texto_original": "Innocent Venus",
      "rating": 6.89,
      "classificacao_etaria": "A14",
      "imagem_original": "https://animefire.plus/img/animes/innocent-venus.webp",
      "imagem_pasta": "https://animefire.plus/img/animes/innocent-venus/",
      "secao": "legendados",
      "pagina": 156,
      "total_episodios": 12,
      "link_video": "https://animefire.plus/video/innocent-venus"
    },
    {
      "id": 1633,
      "nome": "Inou-Battle wa Nichijou-kei no Naka de",
      "link": "https://animefire.plus/animes/inou-battle-wa-nichijou-kei-no-naka-de-todos-os-episodios",
      "texto_original": "Inou-Battle wa Nichijou-kei no Naka de",
      "rating": 7.21,
      "classificacao_etaria": "A14",
      "imagem_original": "https://animefire.plus/img/animes/inou-battle-wa-nichijou-kei-no-naka-de.webp",
      "imagem_pasta": "https://animefire.plus/img/animes/inou-battle-wa-nichijou-kei-no-naka-de/",
      "secao": "legendados",
      "pagina": 79,
      "total_episodios": 12,
      "link_video": "https://animefire.plus/video/inou-battle-wa-nichijou-kei-no-naka-de"
    },
    {
      "id": 1637,
      "nome": "Inu to Hasami wa Tsukaiyou",
      "link": "https://animefire.plus/animes/inu-to-hasami-wa-tsukaiyou-todos-os-episodios",
      "texto_original": "Inu to Hasami wa Tsukaiyou",
      "rating": 6.66,
      "classificacao_etaria": "A14",
      "imagem_original": "https://animefire.plus/img/animes/inu-to-hasami-wa-tsukaiyou.webp",
      "imagem_pasta": "https://animefire.plus/img/animes/inu-to-hasami-wa-tsukaiyou/",
      "secao": "legendados",
      "pagina": 171,
      "total_episodios": 5,
      "link_video": "https://animefire.plus/video/inu-to-hasami-wa-tsukaiyou"
    },
    {
      "id": 1639,
      "nome": "Inu x Boku SS",
      "link": "https://animefire.plus/animes/inu-x-boku-ss-todos-os-episodios",
      "texto_original": "Inu x Boku SS",
      "rating": 7.59,
      "classificacao_etaria": "A14",
      "imagem_original": "https://animefire.plus/img/animes/inu-x-boku-ss.webp",
      "imagem_pasta": "https://animefire.plus/img/animes/inu-x-boku-ss/",
      "secao": "legendados",
      "pagina": 170,
      "total_episodios": 8,
      "link_video": "https://animefire.plus/video/inu-x-boku-ss"
    },
    {
      "id": 1640,
      "nome": "Inugami-san to Nekoyama-san",
      "link": "https://animefire.plus/animes/inugami-san-to-nekoyama-san-todos-os-episodios",
      "texto_original": "Inugami-san to Nekoyama-san",
      "rating": 6.64,
      "classificacao_etaria": "A14",
      "imagem_original": "https://animefire.plus/img/animes/inugami-san-to-nekoyama-san.webp",
      "imagem_pasta": "https://animefire.plus/img/animes/inugami-san-to-nekoyama-san/",
      "secao": "legendados",
      "pagina": 166,
      "total_episodios": 12,
      "link_video": "https://animefire.plus/video/inugami-san-to-nekoyama-san"
    },
    {
      "id": 1641,
      "nome": "Inukami!",
      "link": "https://animefire.plus/animes/inukami-todos-os-episodios",
      "texto_original": "Inukami!",
      "rating": 7.33,
      "classificacao_etaria": "A14",
      "imagem_original": "https://animefire.plus/img/animes/inukami.webp",
      "imagem_pasta": "https://animefire.plus/img/animes/inukami/",
      "secao": "legendados",
      "pagina": 117,
      "total_episodios": 26,
      "link_video": "https://animefire.plus/video/inukami"
    },
    {
      "id": 1642,
      "nome": "InuYasha (Dublado)",
      "link": "https://animefire.plus/animes/inuyasha-dublado-todos-os-episodios",
      "texto_original": "InuYasha (Dublado)",
      "rating": 7.91,
      "classificacao_etaria": "A14",
      "imagem_original": "https://animefire.plus/img/animes/inuyasha.webp",
      "imagem_pasta": "https://animefire.plus/img/animes/inuyasha/",
      "secao": "dublados,legendados",
      "pagina": 27,
      "total_episodios": 167,
      "link_video": "https://animefire.plus/video/inuyasha-dublado"
    },
    {
      "id": 1643,
      "nome": "InuYasha: Kanketsu-hen",
      "link": "https://animefire.plus/animes/inuyasha-kanketsu-hen-todos-os-episodios",
      "texto_original": "InuYasha: Kanketsu-hen",
      "rating": 8.3,
      "classificacao_etaria": "A14",
      "imagem_original": "https://animefire.plus/img/animes/inuyasha-kanketsu-hen.webp",
      "imagem_pasta": "https://animefire.plus/img/animes/inuyasha-kanketsu-hen/",
      "secao": "legendados",
      "pagina": 116,
      "total_episodios": 26,
      "link_video": "https://animefire.plus/video/inuyasha-kanketsu-hen"
    },
    {
      "id": 1649,
      "nome": "Irozuku Sekai no Ashita kara",
      "link": "https://animefire.plus/animes/irozuku-sekai-no-ashita-kara-todos-os-episodios",
      "texto_original": "Irozuku Sekai no Ashita kara",
      "rating": 7.64,
      "classificacao_etaria": "A14",
      "imagem_original": "https://animefire.plus/img/animes/irozuku-sekai-no-ashita-kara.webp",
      "imagem_pasta": "https://animefire.plus/img/animes/irozuku-sekai-no-ashita-kara/",
      "secao": "legendados",
      "pagina": 170,
      "total_episodios": 13,
      "link_video": "https://animefire.plus/video/irozuku-sekai-no-ashita-kara"
    },
    {
      "id": 1650,
      "nome": "IS: Infinite Stratos",
      "link": "https://animefire.plus/animes/is-infinite-stratos-todos-os-episodios",
      "texto_original": "IS: Infinite Stratos",
      "rating": 6.97,
      "classificacao_etaria": "A14",
      "imagem_original": "https://animefire.plus/img/animes/is-infinite-stratos.webp",
      "imagem_pasta": "https://animefire.plus/img/animes/is-infinite-stratos/",
      "secao": "legendados",
      "pagina": 128,
      "total_episodios": 0,
      "link_video": "https://animefire.plus/video/is-infinite-stratos"
    },
    {
      "id": 1651,
      "nome": "IS: Infinite Stratos 2",
      "link": "https://animefire.plus/animes/is-infinite-stratos-2-todos-os-episodios",
      "texto_original": "IS: Infinite Stratos 2",
      "rating": 6.76,
      "classificacao_etaria": "A14",
      "imagem_original": "https://animefire.plus/img/animes/is-infinite-stratos-2.webp",
      "imagem_pasta": "https://animefire.plus/img/animes/is-infinite-stratos-2/",
      "secao": "legendados",
      "pagina": 150,
      "total_episodios": 12,
      "link_video": "https://animefire.plus/video/is-infinite-stratos-2"
    },
    {
      "id": 1652,
      "nome": "Isekai Cheat Magician",
      "link": "https://animefire.plus/animes/isekai-cheat-magician-todos-os-episodios",
      "texto_original": "Isekai Cheat Magician",
      "rating": 5.38,
      "classificacao_etaria": "A14",
      "imagem_original": "https://animefire.plus/img/animes/isekai-cheat-magician.webp",
      "imagem_pasta": "https://animefire.plus/img/animes/isekai-cheat-magician/",
      "secao": "legendados",
      "pagina": 154,
      "total_episodios": 3,
      "link_video": "https://animefire.plus/video/isekai-cheat-magician"
    },
    {
      "id": 1653,
      "nome": "Isekai de Cheat Skill wo Te ni Shita Ore wa, Genjitsu Sekai wo mo Musou Suru: Level Up wa Jinsei wo Kaeta (Dublado)",
      "link": "https://animefire.plus/animes/isekai-de-cheat-skill-wo-te-ni-shita-ore-wa-genjitsu-sekai-wo-mo-musou-suru-level-up-wa-jinsei-wo-kaeta-dublado-todos-os-episodios",
      "texto_original": "Isekai de Cheat Skill wo Te ni Shita Ore wa, Genjitsu Sekai wo mo Musou Suru: Level Up wa Jinsei wo Kaeta (Dublado)",
      "rating": 6.34,
      "classificacao_etaria": "A14",
      "imagem_original": "https://animefire.plus/img/animes/isekai-de-cheat-skill-wo-te-ni-shita-ore-wa-genjitsu-sekai-wo-mo-musou-suru-level-up-wa-jinsei-wo-kaeta.jpg",
      "imagem_pasta": "https://animefire.plus/img/animes/isekai-de-cheat-skill-wo-te-ni-shita-ore-wa-genjitsu-sekai-wo-mo-musou-suru-level-up-wa-jinsei-wo-kaeta/",
      "secao": "dublados,legendados",
      "pagina": 7,
      "total_episodios": 13,
      "link_video": "https://animefire.plus/video/isekai-de-cheat-skill-wo-te-ni-shita-ore-wa-genjitsu-sekai-wo-mo-musou-suru-level-up-wa-jinsei-wo-kaeta-dublado"
    },
    {
      "id": 1654,
      "nome": "Isekai de Mofumofu Nadenade suru Tame ni Ganbattemasu.",
      "link": "https://animefire.plus/animes/isekai-de-mofumofu-nadenade-suru-tame-ni-ganbattemasu-todos-os-episodios",
      "texto_original": "Isekai de Mofumofu Nadenade suru Tame ni Ganbattemasu.",
      "rating": 6.78,
      "classificacao_etaria": "A14",
      "imagem_original": "https://animefire.plus/img/animes/isekai-de-mofumofu-nadenade-suru-tame-ni-ganbattemasu.webp",
      "imagem_pasta": "https://animefire.plus/img/animes/isekai-de-mofumofu-nadenade-suru-tame-ni-ganbattemasu/",
      "secao": "legendados",
      "pagina": 17,
      "total_episodios": 12,
      "link_video": "https://animefire.plus/video/isekai-de-mofumofu-nadenade-suru-tame-ni-ganbattemasu"
    },
    {
      "id": 1655,
      "nome": "Isekai Izakaya: Koto Aitheria no Izakaya Nobu",
      "link": "https://animefire.plus/animes/isekai-izakaya-koto-aitheria-no-izakaya-nobu-todos-os-episodios",
      "texto_original": "Isekai Izakaya: Koto Aitheria no Izakaya Nobu",
      "rating": 7.37,
      "classificacao_etaria": "A14",
      "imagem_original": "https://animefire.plus/img/animes/isekai-izakaya-koto-aitheria-no-izakaya-nobu.webp",
      "imagem_pasta": "https://animefire.plus/img/animes/isekai-izakaya-koto-aitheria-no-izakaya-nobu/",
      "secao": "legendados",
      "pagina": 106,
      "total_episodios": 24,
      "link_video": "https://animefire.plus/video/isekai-izakaya-koto-aitheria-no-izakaya-nobu"
    },
    {
      "id": 1656,
      "nome": "Isekai Maou to Shoukan Shoujo no Dorei Majutsu",
      "link": "https://animefire.plus/animes/isekai-maou-to-shoukan-shoujo-no-dorei-majutsu-todos-os-episodios",
      "texto_original": "Isekai Maou to Shoukan Shoujo no Dorei Majutsu",
      "rating": 7.27,
      "classificacao_etaria": "A14",
      "imagem_original": "https://animefire.plus/img/animes/isekai-maou-to-shoukan-shoujo-no-dorei-majutsu.webp",
      "imagem_pasta": "https://animefire.plus/img/animes/isekai-maou-to-shoukan-shoujo-no-dorei-majutsu/",
      "secao": "legendados",
      "pagina": 166,
      "total_episodios": 12,
      "link_video": "https://animefire.plus/video/isekai-maou-to-shoukan-shoujo-no-dorei-majutsu"
    },
    {
      "id": 1657,
      "nome": "Isekai Maou to Shoukan Shoujo no Dorei Majutsu Ω",
      "link": "https://animefire.plus/animes/how-not-to-summon-a-demon-lord-todos-os-episodios",
      "texto_original": "Isekai Maou to Shoukan Shoujo no Dorei Majutsu Ω",
      "rating": 6.69,
      "classificacao_etaria": "A14",
      "imagem_original": "https://animefire.plus/img/animes/how-not-to-summon-a-demon-lord.webp",
      "imagem_pasta": "https://animefire.plus/img/animes/how-not-to-summon-a-demon-lord/",
      "secao": "legendados",
      "pagina": 48,
      "total_episodios": 2,
      "link_video": "https://animefire.plus/video/how-not-to-summon-a-demon-lord"
    },
    {
      "id": 1660,
      "nome": "Isekai Mokushiroku Mynoghra: Hametsu no Bunmei de Hajimeru Sekai Seifuku",
      "link": "https://animefire.plus/animes/isekai-mokushiroku-mynoghra-hametsu-no-bunmei-de-hajimeru-sekai-seifuku-todos-os-episodios",
      "texto_original": "Isekai Mokushiroku Mynoghra: Hametsu no Bunmei de Hajimeru Sekai Seifuku",
      "rating": 7,
      "classificacao_etaria": "A14",
      "imagem_original": "https://animefire.plus/img/animes/isekai-mokushiroku-mynoghra-hametsu-no-bunmei-de-hajimeru-sekai-seifuku.webp",
      "imagem_pasta": "https://animefire.plus/img/animes/isekai-mokushiroku-mynoghra-hametsu-no-bunmei-de-hajimeru-sekai-seifuku/",
      "secao": "legendados,lancamentos",
      "pagina": 3,
      "total_episodios": 5,
      "link_video": "https://animefire.plus/video/isekai-mokushiroku-mynoghra-hametsu-no-bunmei-de-hajimeru-sekai-seifuku"
    },
    {
      "id": 1662,
      "nome": "Isekai Nonbiri Nouka",
      "link": "https://animefire.plus/animes/isekai-nonbiri-nouka-todos-os-episodios",
      "texto_original": "Isekai Nonbiri Nouka",
      "rating": 7.54,
      "classificacao_etaria": "A14",
      "imagem_original": "https://animefire.plus/img/animes/isekai-nonbiri-nouka.webp",
      "imagem_pasta": "https://animefire.plus/img/animes/isekai-nonbiri-nouka/",
      "secao": "legendados",
      "pagina": 27,
      "total_episodios": 12,
      "link_video": "https://animefire.plus/video/isekai-nonbiri-nouka"
    }
  ],
  "pagination": {
    "current_page": 53,
    "per_page": 20,
    "total_items": 2988,
    "total_pages": 150,
    "has_next": true,
    "has_prev": true
  }
}
