{
  "message": "Animes com classificação etária: A14",
  "age_rating": "A14",
  "data": [
    {
      "id": 3631,
      "nome": "Steins;Gate (Dublado)",
      "link": "https://animefire.plus/animes/steins-gate-dublado-todos-os-episodios",
      "texto_original": "Steins;Gate (Dublado)",
      "rating": 9.12,
      "classificacao_etaria": "A14",
      "imagem_original": "https://animefire.plus/img/animes/steins-gate.webp",
      "imagem_pasta": "https://animefire.plus/img/animes/steins-gate/",
      "secao": "dublados,legendados",
      "pagina": 19,
      "total_episodios": 25,
      "link_video": "https://animefire.plus/video/steins-gate-dublado"
    },
    {
      "id": 3632,
      "nome": "Steins;Gate 0 (Dublado)",
      "link": "https://animefire.plus/animes/steins-gate-0-dublado-todos-os-episodios",
      "texto_original": "Steins;Gate 0 (Dublado)",
      "rating": 8.52,
      "classificacao_etaria": "A14",
      "imagem_original": "https://animefire.plus/img/animes/steins-gate-0.webp",
      "imagem_pasta": "https://animefire.plus/img/animes/steins-gate-0/",
      "secao": "dublados,legendados",
      "pagina": 18,
      "total_episodios": 23,
      "link_video": "https://animefire.plus/video/steins-gate-0-dublado"
    },
    {
      "id": 3633,
      "nome": "Steins;Gate 0: Kesshou Takei no Valentine - Bittersweet Intermedio (Dublado)",
      "link": "https://animefire.plus/animes/steins-gate-0-kesshou-takei-no-valentine---bittersweet-intermedio-dublado-todos-os-episodios",
      "texto_original": "Steins;Gate 0: Kesshou Takei no Valentine - Bittersweet Intermedio (Dublado)",
      "rating": 7.14,
      "classificacao_etaria": "A14",
      "imagem_original": "https://animefire.plus/img/animes/steins-gate-0-kesshou-takei-no-valentine---bittersweet-intermedio.webp",
      "imagem_pasta": "https://animefire.plus/img/animes/steins-gate-0-kesshou-takei-no-valentine---bittersweet-intermedio/",
      "secao": "dublados,legendados",
      "pagina": 18,
      "total_episodios": 1,
      "link_video": "https://animefire.plus/video/steins-gate-0-kesshou-takei-no-valentine---bittersweet-intermedio-dublado"
    },
    {
      "id": 3634,
      "nome": "Steins;Gate: Kyoukaimenjou no Missing Link - Divide By Zero (Dublado)",
      "link": "https://animefire.plus/animes/steins-gate-kyoukaimenjou-no-missing-link---divide-by-zero-dublado-todos-os-episodios",
      "texto_original": "Steins;Gate: Kyoukaimenjou no Missing Link - Divide By Zero (Dublado)",
      "rating": 8.26,
      "classificacao_etaria": "A14",
      "imagem_original": "https://animefire.plus/img/animes/steins-gate-kyoukaimenjou-no-missing-link---divide-by-zero.webp",
      "imagem_pasta": "https://animefire.plus/img/animes/steins-gate-kyoukaimenjou-no-missing-link---divide-by-zero/",
      "secao": "dublados,legendados",
      "pagina": 18,
      "total_episodios": 1,
      "link_video": "https://animefire.plus/video/steins-gate-kyoukaimenjou-no-missing-link---divide-by-zero-dublado"
    },
    {
      "id": 3635,
      "nome": "Steins;Gate: Soumei Eichi no Cognitive Computing",
      "link": "https://animefire.plus/animes/steins-gate-soumei-eichi-no-cognitive-computing-todos-os-episodios",
      "texto_original": "Steins;Gate: Soumei Eichi no Cognitive Computing",
      "rating": 7.43,
      "classificacao_etaria": "A14",
      "imagem_original": "https://animefire.plus/img/animes/steins-gate-soumei-eichi-no-cognitive-computing.webp",
      "imagem_pasta": "https://animefire.plus/img/animes/steins-gate-soumei-eichi-no-cognitive-computing/",
      "secao": "legendados",
      "pagina": 68,
      "total_episodios": 4,
      "link_video": "https://animefire.plus/video/steins-gate-soumei-eichi-no-cognitive-computing"
    },
    {
      "id": 3636,
      "nome": "Stella Jogakuin Koutou-ka C³-bu",
      "link": "https://animefire.plus/animes/stella-jogakuin-koutou-ka-c--bu-todos-os-episodios",
      "texto_original": "Stella Jogakuin Koutou-ka C³-bu",
      "rating": 6.57,
      "classificacao_etaria": "A14",
      "imagem_original": "https://animefire.plus/img/animes/stella-jogakuin-koutou-ka-c--bu.webp",
      "imagem_pasta": "https://animefire.plus/img/animes/stella-jogakuin-koutou-ka-c--bu/",
      "secao": "legendados",
      "pagina": 156,
      "total_episodios": 13,
      "link_video": "https://animefire.plus/video/stella-jogakuin-koutou-ka-c--bu"
    },
    {
      "id": 3637,
      "nome": "Stella no Mahou",
      "link": "https://animefire.plus/animes/stella-no-mahou-todos-os-episodios",
      "texto_original": "Stella no Mahou",
      "rating": 6.91,
      "classificacao_etaria": "A14",
      "imagem_original": "https://animefire.plus/img/animes/stella-no-mahou.webp",
      "imagem_pasta": "https://animefire.plus/img/animes/stella-no-mahou/",
      "secao": "legendados",
      "pagina": 165,
      "total_episodios": 12,
      "link_video": "https://animefire.plus/video/stella-no-mahou"
    },
    {
      "id": 3639,
      "nome": "Strange+",
      "link": "https://animefire.plus/animes/strange-todos-os-episodios",
      "texto_original": "Strange+",
      "rating": 6.03,
      "classificacao_etaria": "A14",
      "imagem_original": "https://animefire.plus/img/animes/strange.webp",
      "imagem_pasta": "https://animefire.plus/img/animes/strange/",
      "secao": "legendados",
      "pagina": 100,
      "total_episodios": 12,
      "link_video": "https://animefire.plus/video/strange"
    },
    {
      "id": 3640,
      "nome": "Stratos 4 (Dublado)",
      "link": "https://animefire.plus/animes/stratos-4-dublado-todos-os-episodios",
      "texto_original": "Stratos 4 (Dublado)",
      "rating": 6.68,
      "classificacao_etaria": "A14",
      "imagem_original": "https://animefire.plus/img/animes/stratos-4.webp",
      "imagem_pasta": "https://animefire.plus/img/animes/stratos-4/",
      "secao": "dublados,legendados",
      "pagina": 23,
      "total_episodios": 13,
      "link_video": "https://animefire.plus/video/stratos-4-dublado"
    },
    {
      "id": 3641,
      "nome": "Stratos 4 Advance",
      "link": "https://animefire.plus/animes/stratos-4-advance-todos-os-episodios",
      "texto_original": "Stratos 4 Advance",
      "rating": 6.87,
      "classificacao_etaria": "A14",
      "imagem_original": "https://animefire.plus/img/animes/stratos-4-advance.webp",
      "imagem_pasta": "https://animefire.plus/img/animes/stratos-4-advance/",
      "secao": "legendados",
      "pagina": 79,
      "total_episodios": 8,
      "link_video": "https://animefire.plus/video/stratos-4-advance"
    },
    {
      "id": 3642,
      "nome": "Strawberry Panic",
      "link": "https://animefire.plus/animes/strawberry-panic-todos-os-episodios",
      "texto_original": "Strawberry Panic",
      "rating": 7.39,
      "classificacao_etaria": "A14",
      "imagem_original": "https://animefire.plus/img/animes/strawberry-panic.webp",
      "imagem_pasta": "https://animefire.plus/img/animes/strawberry-panic/",
      "secao": "legendados",
      "pagina": 123,
      "total_episodios": 26,
      "link_video": "https://animefire.plus/video/strawberry-panic"
    },
    {
      "id": 3643,
      "nome": "Street Fighter II V (Dublado)",
      "link": "https://animefire.plus/animes/street-fighter-ii-v-dublado-todos-os-episodios",
      "texto_original": "Street Fighter II V (Dublado)",
      "rating": 7.08,
      "classificacao_etaria": "A14",
      "imagem_original": "https://animefire.plus/img/animes/street-fighter-ii-v.webp",
      "imagem_pasta": "https://animefire.plus/img/animes/street-fighter-ii-v/",
      "secao": "dublados,legendados",
      "pagina": 22,
      "total_episodios": 29,
      "link_video": "https://animefire.plus/video/street-fighter-ii-v-dublado"
    },
    {
      "id": 3644,
      "nome": "Street Fighter IV: Aratanaru Kizuna",
      "link": "https://animefire.plus/animes/street-fighter-iv-aratanaru-kizuna-todos-os-episodios",
      "texto_original": "Street Fighter IV: Aratanaru Kizuna",
      "rating": 6.26,
      "classificacao_etaria": "A14",
      "imagem_original": "https://animefire.plus/img/animes/street-fighter-iv-aratanaru-kizuna.webp",
      "imagem_pasta": "https://animefire.plus/img/animes/street-fighter-iv-aratanaru-kizuna/",
      "secao": "legendados",
      "pagina": 58,
      "total_episodios": 1,
      "link_video": "https://animefire.plus/video/street-fighter-iv-aratanaru-kizuna"
    },
    {
      "id": 3654,
      "nome": "Strike Witches OVA",
      "link": "https://animefire.plus/animes/strike-witches-ova-todos-os-episodios",
      "texto_original": "Strike Witches OVA",
      "rating": 6.28,
      "classificacao_etaria": "A14",
      "imagem_original": "https://animefire.plus/img/animes/strike-witches-ova.webp",
      "imagem_pasta": "https://animefire.plus/img/animes/strike-witches-ova/",
      "secao": "legendados",
      "pagina": 44,
      "total_episodios": 1,
      "link_video": "https://animefire.plus/video/strike-witches-ova"
    },
    {
      "id": 3655,
      "nome": "Strike Witches: 501 Butai Hasshin Shimasu!",
      "link": "https://animefire.plus/animes/strike-witches-501-butai-hasshin-shimasu-todos-os-episodios",
      "texto_original": "Strike Witches: 501 Butai Hasshin Shimasu!",
      "rating": 6.48,
      "classificacao_etaria": "A14",
      "imagem_original": "https://animefire.plus/img/animes/strike-witches-501-butai-hasshin-shimasu.webp",
      "imagem_pasta": "https://animefire.plus/img/animes/strike-witches-501-butai-hasshin-shimasu/",
      "secao": "legendados",
      "pagina": 159,
      "total_episodios": 12,
      "link_video": "https://animefire.plus/video/strike-witches-501-butai-hasshin-shimasu"
    },
    {
      "id": 3657,
      "nome": "Strike Witches: Road to Berlin",
      "link": "https://animefire.plus/animes/strike-witches-road-to-berlin-todos-os-episodios",
      "texto_original": "Strike Witches: Road to Berlin",
      "rating": null,
      "classificacao_etaria": "A14",
      "imagem_original": "https://animefire.plus/img/animes/strike-witches-road-to-berlin.webp",
      "imagem_pasta": "https://animefire.plus/img/animes/strike-witches-road-to-berlin/",
      "secao": "legendados",
      "pagina": 51,
      "total_episodios": 12,
      "link_video": "https://animefire.plus/video/strike-witches-road-to-berlin"
    },
    {
      "id": 3658,
      "nome": "Subarashiki Kono Sekai The Animation (Dublado)",
      "link": "https://animefire.plus/animes/subarashiki-kono-sekai-the-animation-dublado-todos-os-episodios",
      "texto_original": "Subarashiki Kono Sekai The Animation (Dublado)",
      "rating": 6.15,
      "classificacao_etaria": "A14",
      "imagem_original": "https://animefire.plus/img/animes/subarashiki-kono-sekai-the-animation.webp",
      "imagem_pasta": "https://animefire.plus/img/animes/subarashiki-kono-sekai-the-animation/",
      "secao": "dublados,legendados",
      "pagina": 17,
      "total_episodios": 12,
      "link_video": "https://animefire.plus/video/subarashiki-kono-sekai-the-animation-dublado"
    },
    {
      "id": 3660,
      "nome": "Submarine Super 99",
      "link": "https://animefire.plus/animes/submarine-super-99-todos-os-episodios",
      "texto_original": "Submarine Super 99",
      "rating": 6.35,
      "classificacao_etaria": "A14",
      "imagem_original": "https://animefire.plus/img/animes/submarine-super-99.webp",
      "imagem_pasta": "https://animefire.plus/img/animes/submarine-super-99/",
      "secao": "legendados",
      "pagina": 98,
      "total_episodios": 13,
      "link_video": "https://animefire.plus/video/submarine-super-99"
    },
    {
      "id": 3661,
      "nome": "Sugar Apple Fairy Tale",
      "link": "https://animefire.plus/animes/sugar-apple-fairy-tale-todos-os-episodios",
      "texto_original": "Sugar Apple Fairy Tale",
      "rating": 7.46,
      "classificacao_etaria": "A14",
      "imagem_original": "https://animefire.plus/img/animes/sugar-apple-fairy-tale.webp",
      "imagem_pasta": "https://animefire.plus/img/animes/sugar-apple-fairy-tale/",
      "secao": "legendados",
      "pagina": 26,
      "total_episodios": 14,
      "link_video": "https://animefire.plus/video/sugar-apple-fairy-tale"
    },
    {
      "id": 3662,
      "nome": "Sugar Apple Fairy Tale Part 2",
      "link": "https://animefire.plus/animes/sugar-apple-fairy-tale-part-2-todos-os-episodios",
      "texto_original": "Sugar Apple Fairy Tale Part 2",
      "rating": 7.64,
      "classificacao_etaria": "A14",
      "imagem_original": "https://animefire.plus/img/animes/sugar-apple-fairy-tale-part-2.webp",
      "imagem_pasta": "https://animefire.plus/img/animes/sugar-apple-fairy-tale-part-2/",
      "secao": "legendados",
      "pagina": 22,
      "total_episodios": 12,
      "link_video": "https://animefire.plus/video/sugar-apple-fairy-tale-part-2"
    }
  ],
  "pagination": {
    "current_page": 123,
    "per_page": 20,
    "total_items": 2988,
    "total_pages": 150,
    "has_next": true,
    "has_prev": true
  }
}
