{
  "message": "Animes com classificação etária: A14",
  "age_rating": "A14",
  "data": [
    {
      "id": 28,
      "nome": "3-gatsu no Lion",
      "link": "https://animefire.plus/animes/3-gatsu-no-lion-todos-os-episodios",
      "texto_original": "3-gatsu no Lion",
      "rating": 8.44,
      "classificacao_etaria": "A14",
      "imagem_original": "https://animefire.plus/img/animes/3-gatsu-no-lion.webp",
      "imagem_pasta": "https://animefire.plus/img/animes/3-gatsu-no-lion/",
      "secao": "legendados",
      "pagina": 154,
      "total_episodios": 24,
      "link_video": "https://animefire.plus/video/3-gatsu-no-lion"
    },
    {
      "id": 29,
      "nome": "3-gatsu no Lion 2nd Season",
      "link": "https://animefire.plus/animes/3-gatsu-no-lion-2nd-season-todos-os-episodios",
      "texto_original": "3-gatsu no Lion 2nd Season",
      "rating": 8.92,
      "classificacao_etaria": "A14",
      "imagem_original": "https://animefire.plus/img/animes/3-gatsu-no-lion-2nd-season.webp",
      "imagem_pasta": "https://animefire.plus/img/animes/3-gatsu-no-lion-2nd-season/",
      "secao": "legendados",
      "pagina": 16,
      "total_episodios": 22,
      "link_video": "https://animefire.plus/video/3-gatsu-no-lion-2nd-season"
    },
    {
      "id": 30,
      "nome": "30-sai made Doutei dato Mahoutsukai ni Nareru Rashii",
      "link": "https://animefire.plus/animes/30-sai-made-doutei-dato-mahoutsukai-ni-nareru-rashii-todos-os-episodios",
      "texto_original": "30-sai made Doutei dato Mahoutsukai ni Nareru Rashii",
      "rating": 7.64,
      "classificacao_etaria": "A14",
      "imagem_original": "https://animefire.plus/img/animes/30-sai-made-doutei-dato-mahoutsukai-ni-nareru-rashii.webp",
      "imagem_pasta": "https://animefire.plus/img/animes/30-sai-made-doutei-dato-mahoutsukai-ni-nareru-rashii/",
      "secao": "legendados",
      "pagina": 16,
      "total_episodios": 12,
      "link_video": "https://animefire.plus/video/30-sai-made-doutei-dato-mahoutsukai-ni-nareru-rashii"
    },
    {
      "id": 32,
      "nome": "3D Kanojo: Real Girl",
      "link": "https://animefire.plus/animes/3d-kanojo-real-girl-todos-os-episodios",
      "texto_original": "3D Kanojo: Real Girl",
      "rating": 6.84,
      "classificacao_etaria": "A14",
      "imagem_original": "https://animefire.plus/img/animes/3d-kanojo-real-girl.webp",
      "imagem_pasta": "https://animefire.plus/img/animes/3d-kanojo-real-girl/",
      "secao": "legendados",
      "pagina": 178,
      "total_episodios": 12,
      "link_video": "https://animefire.plus/video/3d-kanojo-real-girl"
    },
    {
      "id": 33,
      "nome": "3D Kanojo: Real Girl 2nd Season",
      "link": "https://animefire.plus/animes/3d-kanojo-real-girl-2nd-season-todos-os-episodios",
      "texto_original": "3D Kanojo: Real Girl 2nd Season",
      "rating": 7.66,
      "classificacao_etaria": "A14",
      "imagem_original": "https://animefire.plus/img/animes/3d-kanojo-real-girl-2nd-season.webp",
      "imagem_pasta": "https://animefire.plus/img/animes/3d-kanojo-real-girl-2nd-season/",
      "secao": "legendados",
      "pagina": 109,
      "total_episodios": 12,
      "link_video": "https://animefire.plus/video/3d-kanojo-real-girl-2nd-season"
    },
    {
      "id": 35,
      "nome": "4-nin wa Sorezore Uso wo Tsuku",
      "link": "https://animefire.plus/animes/4-nin-wa-sorezore-uso-wo-tsuku-todos-os-episodios",
      "texto_original": "4-nin wa Sorezore Uso wo Tsuku",
      "rating": 7.13,
      "classificacao_etaria": "A14",
      "imagem_original": "https://animefire.plus/img/animes/4-nin-wa-sorezore-uso-wo-tsuku.webp",
      "imagem_pasta": "https://animefire.plus/img/animes/4-nin-wa-sorezore-uso-wo-tsuku/",
      "secao": "legendados",
      "pagina": 28,
      "total_episodios": 11,
      "link_video": "https://animefire.plus/video/4-nin-wa-sorezore-uso-wo-tsuku"
    },
    {
      "id": 36,
      "nome": "5-toubun no Hanayome (Dublado)",
      "link": "https://animefire.plus/animes/5-toubun-no-hanayome-dublado-todos-os-episodios",
      "texto_original": "5-toubun no Hanayome (Dublado)",
      "rating": 7.67,
      "classificacao_etaria": "A14",
      "imagem_original": "https://animefire.plus/img/animes/5-toubun-no-hanayome.webp",
      "imagem_pasta": "https://animefire.plus/img/animes/5-toubun-no-hanayome/",
      "secao": "dublados,legendados",
      "pagina": 8,
      "total_episodios": 12,
      "link_video": "https://animefire.plus/video/5-toubun-no-hanayome-dublado"
    },
    {
      "id": 37,
      "nome": "5-toubun no Hanayome ∬ (Dublado)",
      "link": "https://animefire.plus/animes/gotoubun-no-hanayome-2nd-season-dublado-todos-os-episodios",
      "texto_original": "5-toubun no Hanayome ∬ (Dublado)",
      "rating": 8.01,
      "classificacao_etaria": "A14",
      "imagem_original": "https://animefire.plus/img/animes/gotoubun-no-hanayome-2nd-season.webp",
      "imagem_pasta": "https://animefire.plus/img/animes/gotoubun-no-hanayome-2nd-season/",
      "secao": "dublados,legendados",
      "pagina": 8,
      "total_episodios": 12,
      "link_video": "https://animefire.plus/video/gotoubun-no-hanayome-2nd-season-dublado"
    },
    {
      "id": 38,
      "nome": "5-toubun no Hanayome∽",
      "link": "https://animefire.plus/animes/the-quintessential-quintuplets-todos-os-episodios",
      "texto_original": "5-toubun no Hanayome∽",
      "rating": 7.95,
      "classificacao_etaria": "A14",
      "imagem_original": "https://animefire.plus/img/animes/the-quintessential-quintuplets.webp",
      "imagem_pasta": "https://animefire.plus/img/animes/the-quintessential-quintuplets/",
      "secao": "legendados",
      "pagina": 21,
      "total_episodios": 1,
      "link_video": "https://animefire.plus/video/the-quintessential-quintuplets"
    },
    {
      "id": 43,
      "nome": "9: Ruler's Crown",
      "link": "https://animefire.plus/animes/9-ruler-s-crown-todos-os-episodios",
      "texto_original": "9: Ruler's Crown",
      "rating": 5.92,
      "classificacao_etaria": "A14",
      "imagem_original": "https://animefire.plus/img/animes/9-ruler-s-crown.webp",
      "imagem_pasta": "https://animefire.plus/img/animes/9-ruler-s-crown/",
      "secao": "legendados,lancamentos",
      "pagina": 1,
      "total_episodios": 1,
      "link_video": "https://animefire.plus/video/9-ruler-s-crown"
    },
    {
      "id": 45,
      "nome": "A-Channel",
      "link": "https://animefire.plus/animes/a-channel-todos-os-episodios",
      "texto_original": "A-Channel",
      "rating": 7,
      "classificacao_etaria": "A14",
      "imagem_original": "https://animefire.plus/img/animes/a-channel.webp",
      "imagem_pasta": "https://animefire.plus/img/animes/a-channel/",
      "secao": "legendados",
      "pagina": 90,
      "total_episodios": 12,
      "link_video": "https://animefire.plus/video/a-channel"
    },
    {
      "id": 46,
      "nome": "A-Channel: Nabe wo Tabeyou",
      "link": "https://animefire.plus/animes/a-channel-nabe-wo-tabeyou-todos-os-episodios",
      "texto_original": "A-Channel: Nabe wo Tabeyou",
      "rating": 6.92,
      "classificacao_etaria": "A14",
      "imagem_original": "https://animefire.plus/img/animes/a-channel-nabe-wo-tabeyou.webp",
      "imagem_pasta": "https://animefire.plus/img/animes/a-channel-nabe-wo-tabeyou/",
      "secao": "legendados",
      "pagina": 88,
      "total_episodios": 1,
      "link_video": "https://animefire.plus/video/a-channel-nabe-wo-tabeyou"
    },
    {
      "id": 47,
      "nome": "A-Rank Party wo Ridatsu shita Ore wa, Moto Oshiego-tachi to Meikyuu Shinbu wo Mezasu.",
      "link": "https://animefire.plus/animes/a-rank-party-wo-ridatsu-shita-ore-wa-moto-oshiego-tachi-to-meikyuu-shinbu-wo-mezasu-todos-os-episodios",
      "texto_original": "A-Rank Party wo Ridatsu shita Ore wa, Moto Oshiego-tachi to Meikyuu Shinbu wo Mezasu.",
      "rating": 6.58,
      "classificacao_etaria": "A14",
      "imagem_original": "https://animefire.plus/img/animes/a-rank-party-wo-ridatsu-shita-ore-wa-moto-oshiego-tachi-to-meikyuu-shinbu-wo-mezasu.webp",
      "imagem_pasta": "https://animefire.plus/img/animes/a-rank-party-wo-ridatsu-shita-ore-wa-moto-oshiego-tachi-to-meikyuu-shinbu-wo-mezasu/",
      "secao": "legendados",
      "pagina": 7,
      "total_episodios": 24,
      "link_video": "https://animefire.plus/video/a-rank-party-wo-ridatsu-shita-ore-wa-moto-oshiego-tachi-to-meikyuu-shinbu-wo-mezasu"
    },
    {
      "id": 49,
      "nome": "A3! Season Autumn & Winter",
      "link": "https://animefire.plus/animes/a3-season-autumn-winter-todos-os-episodios",
      "texto_original": "A3! Season Autumn & Winter",
      "rating": null,
      "classificacao_etaria": "A14",
      "imagem_original": "https://animefire.plus/img/animes/a3-season-autumn-winter.webp",
      "imagem_pasta": "https://animefire.plus/img/animes/a3-season-autumn-winter/",
      "secao": "legendados",
      "pagina": 51,
      "total_episodios": 12,
      "link_video": "https://animefire.plus/video/a3-season-autumn-winter"
    },
    {
      "id": 50,
      "nome": "A3! Season Spring & Summer",
      "link": "https://animefire.plus/animes/a3-season-spring-summer-todos-os-episodios",
      "texto_original": "A3! Season Spring & Summer",
      "rating": 7.14,
      "classificacao_etaria": "A14",
      "imagem_original": "https://animefire.plus/img/animes/a3-season-spring-summer.webp",
      "imagem_pasta": "https://animefire.plus/img/animes/a3-season-spring-summer/",
      "secao": "legendados",
      "pagina": 92,
      "total_episodios": 3,
      "link_video": "https://animefire.plus/video/a3-season-spring-summer"
    },
    {
      "id": 51,
      "nome": "Aa! Megami-sama!",
      "link": "https://animefire.plus/animes/aa-megami-sama-todos-os-episodios",
      "texto_original": "Aa! Megami-sama!",
      "rating": 7.31,
      "classificacao_etaria": "A14",
      "imagem_original": "https://animefire.plus/img/animes/aa-megami-sama.webp",
      "imagem_pasta": "https://animefire.plus/img/animes/aa-megami-sama/",
      "secao": "legendados",
      "pagina": 42,
      "total_episodios": 5,
      "link_video": "https://animefire.plus/video/aa-megami-sama"
    },
    {
      "id": 52,
      "nome": "Aa! Megami-sama! (TV)",
      "link": "https://animefire.plus/animes/aa-megami-sama-tv-todos-os-episodios",
      "texto_original": "Aa! Megami-sama! (TV)",
      "rating": 7.41,
      "classificacao_etaria": "A14",
      "imagem_original": "https://animefire.plus/img/animes/aa-megami-sama-tv.webp",
      "imagem_pasta": "https://animefire.plus/img/animes/aa-megami-sama-tv/",
      "secao": "legendados",
      "pagina": 123,
      "total_episodios": 26,
      "link_video": "https://animefire.plus/video/aa-megami-sama-tv"
    },
    {
      "id": 53,
      "nome": "Abarenbou Rikishi!! Matsutarou",
      "link": "https://animefire.plus/animes/abarenbou-rikishi-matsutarou-todos-os-episodios",
      "texto_original": "Abarenbou Rikishi!! Matsutarou",
      "rating": 6.15,
      "classificacao_etaria": "A14",
      "imagem_original": "https://animefire.plus/img/animes/abarenbou-rikishi-matsutarou.webp",
      "imagem_pasta": "https://animefire.plus/img/animes/abarenbou-rikishi-matsutarou/",
      "secao": "legendados",
      "pagina": 164,
      "total_episodios": 13,
      "link_video": "https://animefire.plus/video/abarenbou-rikishi-matsutarou"
    },
    {
      "id": 57,
      "nome": "ACCA: 13-ku Kansatsu-ka",
      "link": "https://animefire.plus/animes/acca-13-ku-kansatsu-ka-todos-os-episodios",
      "texto_original": "ACCA: 13-ku Kansatsu-ka",
      "rating": 7.71,
      "classificacao_etaria": "A14",
      "imagem_original": "https://animefire.plus/img/animes/acca-13-ku-kansatsu-ka.webp",
      "imagem_pasta": "https://animefire.plus/img/animes/acca-13-ku-kansatsu-ka/",
      "secao": "legendados",
      "pagina": 152,
      "total_episodios": 12,
      "link_video": "https://animefire.plus/video/acca-13-ku-kansatsu-ka"
    },
    {
      "id": 58,
      "nome": "ACCA: 13-ku Kansatsu-ka - Regards",
      "link": "https://animefire.plus/animes/acca-13-ku-kansatsu-ka---regards-todos-os-episodios",
      "texto_original": "ACCA: 13-ku Kansatsu-ka - Regards",
      "rating": 7.14,
      "classificacao_etaria": "A14",
      "imagem_original": "https://animefire.plus/img/animes/acca-13-ku-kansatsu-ka---regards.webp",
      "imagem_pasta": "https://animefire.plus/img/animes/acca-13-ku-kansatsu-ka---regards/",
      "secao": "legendados",
      "pagina": 71,
      "total_episodios": 1,
      "link_video": "https://animefire.plus/video/acca-13-ku-kansatsu-ka---regards"
    }
  ],
  "pagination": {
    "current_page": 2,
    "per_page": 20,
    "total_items": 2988,
    "total_pages": 150,
    "has_next": true,
    "has_prev": true
  }
}
