{
  "message": "Animes com classificação etária: A14",
  "age_rating": "A14",
  "data": [
    {
      "id": 154,
      "nome": "Amagami-san Chi no Enmusubi (Dublado)",
      "link": "https://animefire.plus/animes/amagami-san-chi-no-enmusubi-dublado-todos-os-episodios",
      "texto_original": "Amagami-san Chi no Enmusubi (Dublado)",
      "rating": 7.55,
      "classificacao_etaria": "A14",
      "imagem_original": "https://animefire.plus/img/animes/amagami-san-chi-no-enmusubi.webp",
      "imagem_pasta": "https://animefire.plus/img/animes/amagami-san-chi-no-enmusubi/",
      "secao": "dublados,legendados,lancamentos",
      "pagina": 2,
      "total_episodios": 24,
      "link_video": "https://animefire.plus/video/amagami-san-chi-no-enmusubi-dublado"
    },
    {
      "id": 155,
      "nome": "Amagi Brilliant Park",
      "link": "https://animefire.plus/animes/amagi-brilliant-park-todos-os-episodios",
      "texto_original": "Amagi Brilliant Park",
      "rating": 7.6,
      "classificacao_etaria": "A14",
      "imagem_original": "https://animefire.plus/img/animes/amagi-brilliant-park.webp",
      "imagem_pasta": "https://animefire.plus/img/animes/amagi-brilliant-park/",
      "secao": "legendados",
      "pagina": 129,
      "total_episodios": 5,
      "link_video": "https://animefire.plus/video/amagi-brilliant-park"
    },
    {
      "id": 156,
      "nome": "Amanchu!",
      "link": "https://animefire.plus/animes/amanchu-todos-os-episodios",
      "texto_original": "Amanchu!",
      "rating": 7.3,
      "classificacao_etaria": "A14",
      "imagem_original": "https://animefire.plus/img/animes/amanchu.webp",
      "imagem_pasta": "https://animefire.plus/img/animes/amanchu/",
      "secao": "legendados",
      "pagina": 90,
      "total_episodios": 12,
      "link_video": "https://animefire.plus/video/amanchu"
    },
    {
      "id": 157,
      "nome": "Amanchu! Advance",
      "link": "https://animefire.plus/animes/amanchu-advance-todos-os-episodios",
      "texto_original": "Amanchu! Advance",
      "rating": 7.18,
      "classificacao_etaria": "A14",
      "imagem_original": "https://animefire.plus/img/animes/amanchu-advance.webp",
      "imagem_pasta": "https://animefire.plus/img/animes/amanchu-advance/",
      "secao": "legendados",
      "pagina": 117,
      "total_episodios": 11,
      "link_video": "https://animefire.plus/video/amanchu-advance"
    },
    {
      "id": 158,
      "nome": "Amatsuki",
      "link": "https://animefire.plus/animes/amatsuki-todos-os-episodios",
      "texto_original": "Amatsuki",
      "rating": 6.97,
      "classificacao_etaria": "A14",
      "imagem_original": "https://animefire.plus/img/animes/amatsuki.webp",
      "imagem_pasta": "https://animefire.plus/img/animes/amatsuki/",
      "secao": "legendados",
      "pagina": 133,
      "total_episodios": 12,
      "link_video": "https://animefire.plus/video/amatsuki"
    },
    {
      "id": 159,
      "nome": "Ame to Kimi to",
      "link": "https://animefire.plus/animes/ame-to-kimi-to-todos-os-episodios",
      "texto_original": "Ame to Kimi to",
      "rating": 7.45,
      "classificacao_etaria": "A14",
      "imagem_original": "https://animefire.plus/img/animes/ame-to-kimi-to.webp",
      "imagem_pasta": "https://animefire.plus/img/animes/ame-to-kimi-to/",
      "secao": "legendados,lancamentos",
      "pagina": 2,
      "total_episodios": 5,
      "link_video": "https://animefire.plus/video/ame-to-kimi-to"
    },
    {
      "id": 160,
      "nome": "Ame-iro Cocoa",
      "link": "https://animefire.plus/animes/ame-iro-cocoa-todos-os-episodios",
      "texto_original": "Ame-iro Cocoa",
      "rating": 4.76,
      "classificacao_etaria": "A14",
      "imagem_original": "https://animefire.plus/img/animes/ame-iro-cocoa.webp",
      "imagem_pasta": "https://animefire.plus/img/animes/ame-iro-cocoa/",
      "secao": "legendados",
      "pagina": 136,
      "total_episodios": 12,
      "link_video": "https://animefire.plus/video/ame-iro-cocoa"
    },
    {
      "id": 161,
      "nome": "Ame-iro Cocoa in Hawaii",
      "link": "https://animefire.plus/animes/ame-iro-cocoa-in-hawaii-todos-os-episodios",
      "texto_original": "Ame-iro Cocoa in Hawaii",
      "rating": 4.83,
      "classificacao_etaria": "A14",
      "imagem_original": "https://animefire.plus/img/animes/ame-iro-cocoa-in-hawaii.webp",
      "imagem_pasta": "https://animefire.plus/img/animes/ame-iro-cocoa-in-hawaii/",
      "secao": "legendados",
      "pagina": 135,
      "total_episodios": 1,
      "link_video": "https://animefire.plus/video/ame-iro-cocoa-in-hawaii"
    },
    {
      "id": 162,
      "nome": "Ame-iro Cocoa: Rainy Color e Youkoso!",
      "link": "https://animefire.plus/animes/ame-iro-cocoa-rainy-color-e-youkoso-todos-os-episodios",
      "texto_original": "Ame-iro Cocoa: Rainy Color e Youkoso!",
      "rating": 4.84,
      "classificacao_etaria": "A14",
      "imagem_original": "https://animefire.plus/img/animes/ame-iro-cocoa-rainy-color-e-youkoso.webp",
      "imagem_pasta": "https://animefire.plus/img/animes/ame-iro-cocoa-rainy-color-e-youkoso/",
      "secao": "legendados",
      "pagina": 147,
      "total_episodios": 12,
      "link_video": "https://animefire.plus/video/ame-iro-cocoa-rainy-color-e-youkoso"
    },
    {
      "id": 163,
      "nome": "Ameku Takao no Suiri Karte",
      "link": "https://animefire.plus/animes/ameku-takao-no-suiri-karte-todos-os-episodios",
      "texto_original": "Ameku Takao no Suiri Karte",
      "rating": 7.15,
      "classificacao_etaria": "A14",
      "imagem_original": "https://animefire.plus/img/animes/ameku-takao-no-suiri-karte.webp",
      "imagem_pasta": "https://animefire.plus/img/animes/ameku-takao-no-suiri-karte/",
      "secao": "legendados",
      "pagina": 7,
      "total_episodios": 12,
      "link_video": "https://animefire.plus/video/ameku-takao-no-suiri-karte"
    },
    {
      "id": 164,
      "nome": "Amnesia",
      "link": "https://animefire.plus/animes/amnesia-todos-os-episodios",
      "texto_original": "Amnesia",
      "rating": 6.29,
      "classificacao_etaria": "A14",
      "imagem_original": "https://animefire.plus/img/animes/amnesia.webp",
      "imagem_pasta": "https://animefire.plus/img/animes/amnesia/",
      "secao": "legendados",
      "pagina": 153,
      "total_episodios": 12,
      "link_video": "https://animefire.plus/video/amnesia"
    },
    {
      "id": 166,
      "nome": "Ane Log: Moyako Neesan no Honpen wo Tobidashite Tomaranai Monologue Specials",
      "link": "https://animefire.plus/animes/ane-log-moyako-neesan-no-honpen-wo-tobidashite-tomaranai-monologue-specials-todos-os-episodios",
      "texto_original": "Ane Log: Moyako Neesan no Honpen wo Tobidashite Tomaranai Monologue Specials",
      "rating": 5.35,
      "classificacao_etaria": "A14",
      "imagem_original": "https://animefire.plus/img/animes/ane-log-moyako-neesan-no-honpen-wo-tobidashite-tomaranai-monologue-specials.webp",
      "imagem_pasta": "https://animefire.plus/img/animes/ane-log-moyako-neesan-no-honpen-wo-tobidashite-tomaranai-monologue-specials/",
      "secao": "legendados",
      "pagina": 82,
      "total_episodios": 3,
      "link_video": "https://animefire.plus/video/ane-log-moyako-neesan-no-honpen-wo-tobidashite-tomaranai-monologue-specials"
    },
    {
      "id": 167,
      "nome": "Ane Log: Moyako Neesan no Tomaranai Monologue",
      "link": "https://animefire.plus/animes/ane-log-moyako-neesan-no-tomaranai-monologue-todos-os-episodios",
      "texto_original": "Ane Log: Moyako Neesan no Tomaranai Monologue",
      "rating": 6.22,
      "classificacao_etaria": "A14",
      "imagem_original": "https://animefire.plus/img/animes/ane-log-moyako-neesan-no-tomaranai-monologue.webp",
      "imagem_pasta": "https://animefire.plus/img/animes/ane-log-moyako-neesan-no-tomaranai-monologue/",
      "secao": "legendados",
      "pagina": 90,
      "total_episodios": 0,
      "link_video": "https://animefire.plus/video/ane-log-moyako-neesan-no-tomaranai-monologue"
    },
    {
      "id": 169,
      "nome": "Angel Beats! (Dublado)",
      "link": "https://animefire.plus/animes/angel-beats-dublado-todos-os-episodios",
      "texto_original": "Angel Beats! (Dublado)",
      "rating": 8.2,
      "classificacao_etaria": "A14",
      "imagem_original": "https://animefire.plus/img/animes/angel-beats.webp",
      "imagem_pasta": "https://animefire.plus/img/animes/angel-beats/",
      "secao": "dublados,legendados",
      "pagina": 21,
      "total_episodios": 0,
      "link_video": "https://animefire.plus/video/angel-beats-dublado"
    },
    {
      "id": 172,
      "nome": "Ani ni Tsukeru Kusuri wa Nai!",
      "link": "https://animefire.plus/animes/ani-ni-tsukeru-kusuri-wa-nai-todos-os-episodios",
      "texto_original": "Ani ni Tsukeru Kusuri wa Nai!",
      "rating": 7.46,
      "classificacao_etaria": "A14",
      "imagem_original": "https://animefire.plus/img/animes/ani-ni-tsukeru-kusuri-wa-nai.webp",
      "imagem_pasta": "https://animefire.plus/img/animes/ani-ni-tsukeru-kusuri-wa-nai/",
      "secao": "legendados",
      "pagina": 114,
      "total_episodios": 12,
      "link_video": "https://animefire.plus/video/ani-ni-tsukeru-kusuri-wa-nai"
    },
    {
      "id": 173,
      "nome": "Ani ni Tsukeru Kusuri wa Nai! 2",
      "link": "https://animefire.plus/animes/ani-ni-tsukeru-kusuri-wa-nai-2-todos-os-episodios",
      "texto_original": "Ani ni Tsukeru Kusuri wa Nai! 2",
      "rating": 7.71,
      "classificacao_etaria": "A14",
      "imagem_original": "https://animefire.plus/img/animes/ani-ni-tsukeru-kusuri-wa-nai-2.webp",
      "imagem_pasta": "https://animefire.plus/img/animes/ani-ni-tsukeru-kusuri-wa-nai-2/",
      "secao": "legendados",
      "pagina": 76,
      "total_episodios": 24,
      "link_video": "https://animefire.plus/video/ani-ni-tsukeru-kusuri-wa-nai-2"
    },
    {
      "id": 174,
      "nome": "Ani ni Tsukeru Kusuri wa Nai! 4",
      "link": "https://animefire.plus/animes/ani-ni-tsukeru-kusuri-wa-nai-4-todos-os-episodios",
      "texto_original": "Ani ni Tsukeru Kusuri wa Nai! 4",
      "rating": 6.77,
      "classificacao_etaria": "A14",
      "imagem_original": "https://animefire.plus/img/animes/ani-ni-tsukeru-kusuri-wa-nai-4.webp",
      "imagem_pasta": "https://animefire.plus/img/animes/ani-ni-tsukeru-kusuri-wa-nai-4/",
      "secao": "legendados",
      "pagina": 52,
      "total_episodios": 12,
      "link_video": "https://animefire.plus/video/ani-ni-tsukeru-kusuri-wa-nai-4"
    },
    {
      "id": 175,
      "nome": "Ani ni Tsukeru Kusuri wa Nai! 5",
      "link": "https://animefire.plus/animes/ani-ni-tsukeru-kusuri-wa-nai-5-todos-os-episodios",
      "texto_original": "Ani ni Tsukeru Kusuri wa Nai! 5",
      "rating": 7.34,
      "classificacao_etaria": "A14",
      "imagem_original": "https://animefire.plus/img/animes/ani-ni-tsukeru-kusuri-wa-nai-5.webp",
      "imagem_pasta": "https://animefire.plus/img/animes/ani-ni-tsukeru-kusuri-wa-nai-5/",
      "secao": "legendados,lancamentos",
      "pagina": 30,
      "total_episodios": 2,
      "link_video": "https://animefire.plus/video/ani-ni-tsukeru-kusuri-wa-nai-5"
    },
    {
      "id": 176,
      "nome": "Anima Yell!",
      "link": "https://animefire.plus/animes/anima-yell-todos-os-episodios",
      "texto_original": "Anima Yell!",
      "rating": 7.08,
      "classificacao_etaria": "A14",
      "imagem_original": "https://animefire.plus/img/animes/anima-yell.webp",
      "imagem_pasta": "https://animefire.plus/img/animes/anima-yell/",
      "secao": "legendados",
      "pagina": 161,
      "total_episodios": 12,
      "link_video": "https://animefire.plus/video/anima-yell"
    },
    {
      "id": 177,
      "nome": "Anime de Wakaru Shinryounaika",
      "link": "https://animefire.plus/animes/anime-de-wakaru-shinryounaika-todos-os-episodios",
      "texto_original": "Anime de Wakaru Shinryounaika",
      "rating": 6.63,
      "classificacao_etaria": "A14",
      "imagem_original": "https://animefire.plus/img/animes/anime-de-wakaru-shinryounaika.webp",
      "imagem_pasta": "https://animefire.plus/img/animes/anime-de-wakaru-shinryounaika/",
      "secao": "legendados",
      "pagina": 68,
      "total_episodios": 20,
      "link_video": "https://animefire.plus/video/anime-de-wakaru-shinryounaika"
    }
  ],
  "pagination": {
    "current_page": 6,
    "per_page": 20,
    "total_items": 2988,
    "total_pages": 150,
    "has_next": true,
    "has_prev": true
  }
}
