{
  "message": "Animes com classificação etária: A14",
  "age_rating": "A14",
  "data": [
    {
      "id": 616,
      "nome": "Chobits",
      "link": "https://animefire.plus/animes/chobits-todos-os-episodios",
      "texto_original": "Chobits",
      "rating": 7.5,
      "classificacao_etaria": "A14",
      "imagem_original": "https://animefire.plus/img/animes/chobits.webp",
      "imagem_pasta": "https://animefire.plus/img/animes/chobits/",
      "secao": "legendados",
      "pagina": 137,
      "total_episodios": 15,
      "link_video": "https://animefire.plus/video/chobits"
    },
    {
      "id": 617,
      "nome": "Choboraunyopomi Gekijou Ai Mai Mii",
      "link": "https://animefire.plus/animes/choboraunyopomi-gekijou-ai-mai-mii-todos-os-episodios",
      "texto_original": "Choboraunyopomi Gekijou Ai Mai Mii",
      "rating": 5.87,
      "classificacao_etaria": "A14",
      "imagem_original": "https://animefire.plus/img/animes/choboraunyopomi-gekijou-ai-mai-mii.webp",
      "imagem_pasta": "https://animefire.plus/img/animes/choboraunyopomi-gekijou-ai-mai-mii/",
      "secao": "legendados",
      "pagina": 167,
      "total_episodios": 0,
      "link_video": "https://animefire.plus/video/choboraunyopomi-gekijou-ai-mai-mii"
    },
    {
      "id": 618,
      "nome": "Choboraunyopomi Gekijou Dai San Maku Ai Mai Mii: Surgical Friends",
      "link": "https://animefire.plus/animes/choboraunyopomi-gekijou-dai-san-maku-ai-mai-mii-surgical-friends-todos-os-episodios",
      "texto_original": "Choboraunyopomi Gekijou Dai San Maku Ai Mai Mii: Surgical Friends",
      "rating": 6.14,
      "classificacao_etaria": "A14",
      "imagem_original": "https://animefire.plus/img/animes/choboraunyopomi-gekijou-dai-san-maku-ai-mai-mii-surgical-friends.webp",
      "imagem_pasta": "https://animefire.plus/img/animes/choboraunyopomi-gekijou-dai-san-maku-ai-mai-mii-surgical-friends/",
      "secao": "legendados",
      "pagina": 173,
      "total_episodios": 13,
      "link_video": "https://animefire.plus/video/choboraunyopomi-gekijou-dai-san-maku-ai-mai-mii-surgical-friends"
    },
    {
      "id": 622,
      "nome": "Chou Henshin Cosprayers",
      "link": "https://animefire.plus/animes/chou-henshin-cosprayers-todos-os-episodios",
      "texto_original": "Chou Henshin Cosprayers",
      "rating": 4.93,
      "classificacao_etaria": "A14",
      "imagem_original": "https://animefire.plus/img/animes/chou-henshin-cosprayers.webp",
      "imagem_pasta": "https://animefire.plus/img/animes/chou-henshin-cosprayers/",
      "secao": "legendados",
      "pagina": 42,
      "total_episodios": 22,
      "link_video": "https://animefire.plus/video/chou-henshin-cosprayers"
    },
    {
      "id": 624,
      "nome": "Chou Yuu Sekai: Being the Reality",
      "link": "https://animefire.plus/animes/chou-yuu-sekai-being-the-reality-todos-os-episodios",
      "texto_original": "Chou Yuu Sekai: Being the Reality",
      "rating": 6.39,
      "classificacao_etaria": "A14",
      "imagem_original": "https://animefire.plus/img/animes/chou-yuu-sekai-being-the-reality.webp",
      "imagem_pasta": "https://animefire.plus/img/animes/chou-yuu-sekai-being-the-reality/",
      "secao": "legendados",
      "pagina": 176,
      "total_episodios": 13,
      "link_video": "https://animefire.plus/video/chou-yuu-sekai-being-the-reality"
    },
    {
      "id": 625,
      "nome": "Choujigen Game Neptune The Animation",
      "link": "https://animefire.plus/animes/choujigen-game-neptune-the-animation-todos-os-episodios",
      "texto_original": "Choujigen Game Neptune The Animation",
      "rating": 7.11,
      "classificacao_etaria": "A14",
      "imagem_original": "https://animefire.plus/img/animes/choujigen-game-neptune-the-animation.webp",
      "imagem_pasta": "https://animefire.plus/img/animes/choujigen-game-neptune-the-animation/",
      "secao": "legendados",
      "pagina": 118,
      "total_episodios": 12,
      "link_video": "https://animefire.plus/video/choujigen-game-neptune-the-animation"
    },
    {
      "id": 626,
      "nome": "Choujigen Game Neptune The Animation: Nep no Natsuyasumi",
      "link": "https://animefire.plus/animes/choujigen-game-neptune-the-animation-nep-no-natsuyasumi-todos-os-episodios",
      "texto_original": "Choujigen Game Neptune The Animation: Nep no Natsuyasumi",
      "rating": 7.17,
      "classificacao_etaria": "A14",
      "imagem_original": "https://animefire.plus/img/animes/choujigen-game-neptune-the-animation-nep-no-natsuyasumi.webp",
      "imagem_pasta": "https://animefire.plus/img/animes/choujigen-game-neptune-the-animation-nep-no-natsuyasumi/",
      "secao": "legendados",
      "pagina": 83,
      "total_episodios": 1,
      "link_video": "https://animefire.plus/video/choujigen-game-neptune-the-animation-nep-no-natsuyasumi"
    },
    {
      "id": 627,
      "nome": "Choujigen Game Neptune The Animation: Yakusoku no Eien - True End",
      "link": "https://animefire.plus/animes/choujigen-game-neptune-the-animation-yakusoku-no-eien---true-end-todos-os-episodios",
      "texto_original": "Choujigen Game Neptune The Animation: Yakusoku no Eien - True End",
      "rating": 7.3,
      "classificacao_etaria": "A14",
      "imagem_original": "https://animefire.plus/img/animes/choujigen-game-neptune-the-animation-yakusoku-no-eien---true-end.webp",
      "imagem_pasta": "https://animefire.plus/img/animes/choujigen-game-neptune-the-animation-yakusoku-no-eien---true-end/",
      "secao": "legendados",
      "pagina": 53,
      "total_episodios": 1,
      "link_video": "https://animefire.plus/video/choujigen-game-neptune-the-animation-yakusoku-no-eien---true-end"
    },
    {
      "id": 629,
      "nome": "Choujin Koukousei-tachi wa Isekai demo Yoyuu de Ikinuku you desu!",
      "link": "https://animefire.plus/animes/choujin-koukousei-tachi-wa-isekai-demo-yoyuu-de-ikinuku-you-desu-todos-os-episodios",
      "texto_original": "Choujin Koukousei-tachi wa Isekai demo Yoyuu de Ikinuku you desu!",
      "rating": 6.34,
      "classificacao_etaria": "A14",
      "imagem_original": "https://animefire.plus/img/animes/choujin-koukousei-tachi-wa-isekai-demo-yoyuu-de-ikinuku-you-desu.webp",
      "imagem_pasta": "https://animefire.plus/img/animes/choujin-koukousei-tachi-wa-isekai-demo-yoyuu-de-ikinuku-you-desu/",
      "secao": "legendados",
      "pagina": 111,
      "total_episodios": 0,
      "link_video": "https://animefire.plus/video/choujin-koukousei-tachi-wa-isekai-demo-yoyuu-de-ikinuku-you-desu"
    },
    {
      "id": 630,
      "nome": "Choujuushin Gravion",
      "link": "https://animefire.plus/animes/choujuushin-gravion-todos-os-episodios",
      "texto_original": "Choujuushin Gravion",
      "rating": 6.45,
      "classificacao_etaria": "A14",
      "imagem_original": "https://animefire.plus/img/animes/choujuushin-gravion.webp",
      "imagem_pasta": "https://animefire.plus/img/animes/choujuushin-gravion/",
      "secao": "legendados",
      "pagina": 157,
      "total_episodios": 13,
      "link_video": "https://animefire.plus/video/choujuushin-gravion"
    },
    {
      "id": 632,
      "nome": "Choukadou Girl ⅙",
      "link": "https://animefire.plus/animes/choukadou-girl-todos-os-episodios",
      "texto_original": "Choukadou Girl ⅙",
      "rating": 6,
      "classificacao_etaria": "A14",
      "imagem_original": "https://animefire.plus/img/animes/choukadou-girl.webp",
      "imagem_pasta": "https://animefire.plus/img/animes/choukadou-girl/",
      "secao": "legendados",
      "pagina": 167,
      "total_episodios": 12,
      "link_video": "https://animefire.plus/video/choukadou-girl"
    },
    {
      "id": 634,
      "nome": "Chouyaku Hyakuninisshu: Uta Koi.",
      "link": "https://animefire.plus/animes/chouyaku-hyakuninisshu-uta-koi-todos-os-episodios",
      "texto_original": "Chouyaku Hyakuninisshu: Uta Koi.",
      "rating": 7.48,
      "classificacao_etaria": "A14",
      "imagem_original": "https://animefire.plus/img/animes/chouyaku-hyakuninisshu-uta-koi.webp",
      "imagem_pasta": "https://animefire.plus/img/animes/chouyaku-hyakuninisshu-uta-koi/",
      "secao": "legendados",
      "pagina": 42,
      "total_episodios": 13,
      "link_video": "https://animefire.plus/video/chouyaku-hyakuninisshu-uta-koi"
    },
    {
      "id": 636,
      "nome": "Chrno Crusade: Az demo Wakaru Chrno Crusade Kouza",
      "link": "https://animefire.plus/animes/chrno-crusade-az-demo-wakaru-chrno-crusade-kouza-todos-os-episodios",
      "texto_original": "Chrno Crusade: Az demo Wakaru Chrno Crusade Kouza",
      "rating": 6.57,
      "classificacao_etaria": "A14",
      "imagem_original": "https://animefire.plus/img/animes/chrno-crusade-az-demo-wakaru-chrno-crusade-kouza.webp",
      "imagem_pasta": "https://animefire.plus/img/animes/chrno-crusade-az-demo-wakaru-chrno-crusade-kouza/",
      "secao": "legendados",
      "pagina": 70,
      "total_episodios": 11,
      "link_video": "https://animefire.plus/video/chrno-crusade-az-demo-wakaru-chrno-crusade-kouza"
    },
    {
      "id": 640,
      "nome": "Chuubyou Gekihatsu Boy",
      "link": "https://animefire.plus/animes/chuubyou-gekihatsu-boy-todos-os-episodios",
      "texto_original": "Chuubyou Gekihatsu Boy",
      "rating": 6.78,
      "classificacao_etaria": "A14",
      "imagem_original": "https://animefire.plus/img/animes/chuubyou-gekihatsu-boy.webp",
      "imagem_pasta": "https://animefire.plus/img/animes/chuubyou-gekihatsu-boy/",
      "secao": "legendados",
      "pagina": 110,
      "total_episodios": 0,
      "link_video": "https://animefire.plus/video/chuubyou-gekihatsu-boy"
    },
    {
      "id": 641,
      "nome": "Chuubyou Gekihatsu Boy Special",
      "link": "https://animefire.plus/animes/chuubyou-gekihatsu-boy-special-todos-os-episodios",
      "texto_original": "Chuubyou Gekihatsu Boy Special",
      "rating": 6.83,
      "classificacao_etaria": "A14",
      "imagem_original": "https://animefire.plus/img/animes/chuubyou-gekihatsu-boy-special.webp",
      "imagem_pasta": "https://animefire.plus/img/animes/chuubyou-gekihatsu-boy-special/",
      "secao": "legendados",
      "pagina": 51,
      "total_episodios": 1,
      "link_video": "https://animefire.plus/video/chuubyou-gekihatsu-boy-special"
    },
    {
      "id": 642,
      "nome": "Chuukan Kanriroku Tonegawa",
      "link": "https://animefire.plus/animes/chuukan-kanriroku-tonegawa-todos-os-episodios",
      "texto_original": "Chuukan Kanriroku Tonegawa",
      "rating": 7.16,
      "classificacao_etaria": "A14",
      "imagem_original": "https://animefire.plus/img/animes/chuukan-kanriroku-tonegawa.webp",
      "imagem_pasta": "https://animefire.plus/img/animes/chuukan-kanriroku-tonegawa/",
      "secao": "legendados",
      "pagina": 134,
      "total_episodios": 18,
      "link_video": "https://animefire.plus/video/chuukan-kanriroku-tonegawa"
    },
    {
      "id": 643,
      "nome": "Chuunibyou demo Koi ga Shitai!",
      "link": "https://animefire.plus/animes/chuunibyou-demo-koi-ga-shitai-todos-os-episodios",
      "texto_original": "Chuunibyou demo Koi ga Shitai!",
      "rating": 7.86,
      "classificacao_etaria": "A14",
      "imagem_original": "https://animefire.plus/img/animes/chuunibyou-demo-koi-ga-shitai.webp",
      "imagem_pasta": "https://animefire.plus/img/animes/chuunibyou-demo-koi-ga-shitai/",
      "secao": "legendados",
      "pagina": 116,
      "total_episodios": 12,
      "link_video": "https://animefire.plus/video/chuunibyou-demo-koi-ga-shitai"
    },
    {
      "id": 644,
      "nome": "Chuunibyou demo Koi ga Shitai! Lite",
      "link": "https://animefire.plus/animes/chuunibyou-demo-koi-ga-shitai-lite-todos-os-episodios",
      "texto_original": "Chuunibyou demo Koi ga Shitai! Lite",
      "rating": 7.27,
      "classificacao_etaria": "A14",
      "imagem_original": "https://animefire.plus/img/animes/chuunibyou-demo-koi-ga-shitai-lite.webp",
      "imagem_pasta": "https://animefire.plus/img/animes/chuunibyou-demo-koi-ga-shitai-lite/",
      "secao": "legendados",
      "pagina": 54,
      "total_episodios": 1,
      "link_video": "https://animefire.plus/video/chuunibyou-demo-koi-ga-shitai-lite"
    },
    {
      "id": 645,
      "nome": "Chuunibyou demo Koi ga Shitai! Ren",
      "link": "https://animefire.plus/animes/chuunibyou-demo-koi-ga-shitai-ren-todos-os-episodios",
      "texto_original": "Chuunibyou demo Koi ga Shitai! Ren",
      "rating": 7.6,
      "classificacao_etaria": "A14",
      "imagem_original": "https://animefire.plus/img/animes/chuunibyou-demo-koi-ga-shitai-ren.webp",
      "imagem_pasta": "https://animefire.plus/img/animes/chuunibyou-demo-koi-ga-shitai-ren/",
      "secao": "legendados",
      "pagina": 114,
      "total_episodios": 12,
      "link_video": "https://animefire.plus/video/chuunibyou-demo-koi-ga-shitai-ren"
    },
    {
      "id": 646,
      "nome": "Chuunibyou demo Koi ga Shitai! Ren Specials",
      "link": "https://animefire.plus/animes/chuunibyou-demo-koi-ga-shitai-ren-specials-todos-os-episodios",
      "texto_original": "Chuunibyou demo Koi ga Shitai! Ren Specials",
      "rating": 7.11,
      "classificacao_etaria": "A14",
      "imagem_original": "https://animefire.plus/img/animes/chuunibyou-demo-koi-ga-shitai-ren-specials.webp",
      "imagem_pasta": "https://animefire.plus/img/animes/chuunibyou-demo-koi-ga-shitai-ren-specials/",
      "secao": "legendados",
      "pagina": 54,
      "total_episodios": 1,
      "link_video": "https://animefire.plus/video/chuunibyou-demo-koi-ga-shitai-ren-specials"
    }
  ],
  "pagination": {
    "current_page": 21,
    "per_page": 20,
    "total_items": 2988,
    "total_pages": 150,
    "has_next": true,
    "has_prev": true
  }
}
