{
  "message": "Animes com classificação etária: A14",
  "age_rating": "A14",
  "data": [
    {
      "id": 2465,
      "nome": "Megami Kouhosei (Dublado)",
      "link": "https://animefire.plus/animes/megami-kouhosei-dublado-todos-os-episodios",
      "texto_original": "Megami Kouhosei (Dublado)",
      "rating": 6.49,
      "classificacao_etaria": "A14",
      "imagem_original": "https://animefire.plus/img/animes/megami-kouhosei.webp",
      "imagem_pasta": "https://animefire.plus/img/animes/megami-kouhosei/",
      "secao": "dublados,legendados",
      "pagina": 26,
      "total_episodios": 12,
      "link_video": "https://animefire.plus/video/megami-kouhosei-dublado"
    },
    {
      "id": 2466,
      "nome": "Megami no Café Terrace",
      "link": "https://animefire.plus/animes/megami-no-cafe-terrace-todos-os-episodios",
      "texto_original": "Megami no Café Terrace",
      "rating": 7.31,
      "classificacao_etaria": "A14",
      "imagem_original": "https://animefire.plus/img/animes/megami-no-cafe-terrace.jpg",
      "imagem_pasta": "https://animefire.plus/img/animes/megami-no-cafe-terrace/",
      "secao": "legendados",
      "pagina": 23,
      "total_episodios": 12,
      "link_video": "https://animefire.plus/video/megami-no-cafe-terrace"
    },
    {
      "id": 2467,
      "nome": "Megami no Café Terrace 2nd Season",
      "link": "https://animefire.plus/animes/megami-no-cafe-terrace-2nd-season-todos-os-episodios",
      "texto_original": "Megami no Café Terrace 2nd Season",
      "rating": 7.39,
      "classificacao_etaria": "A14",
      "imagem_original": "https://animefire.plus/img/animes/megami-no-cafe-terrace-2nd-season.webp",
      "imagem_pasta": "https://animefire.plus/img/animes/megami-no-cafe-terrace-2nd-season/",
      "secao": "legendados",
      "pagina": 12,
      "total_episodios": 12,
      "link_video": "https://animefire.plus/video/megami-no-cafe-terrace-2nd-season"
    },
    {
      "id": 2470,
      "nome": "Meganebu!",
      "link": "https://animefire.plus/animes/meganebu-todos-os-episodios",
      "texto_original": "Meganebu!",
      "rating": 6.35,
      "classificacao_etaria": "A14",
      "imagem_original": "https://animefire.plus/img/animes/meganebu.webp",
      "imagem_pasta": "https://animefire.plus/img/animes/meganebu/",
      "secao": "legendados",
      "pagina": 172,
      "total_episodios": 2,
      "link_video": "https://animefire.plus/video/meganebu"
    },
    {
      "id": 2471,
      "nome": "Megaton-kyuu Musashi",
      "link": "https://animefire.plus/animes/megaton-kyuu-musashi-todos-os-episodios",
      "texto_original": "Megaton-kyuu Musashi",
      "rating": 6.28,
      "classificacao_etaria": "A14",
      "imagem_original": "https://animefire.plus/img/animes/megaton-kyuu-musashi.webp",
      "imagem_pasta": "https://animefire.plus/img/animes/megaton-kyuu-musashi/",
      "secao": "legendados",
      "pagina": 13,
      "total_episodios": 1,
      "link_video": "https://animefire.plus/video/megaton-kyuu-musashi"
    },
    {
      "id": 2472,
      "nome": "Megumi no Daigo: Kyuukoku no Orange",
      "link": "https://animefire.plus/animes/megumi-no-daigo-kyuukoku-no-orange-todos-os-episodios",
      "texto_original": "Megumi no Daigo: Kyuukoku no Orange",
      "rating": 6.71,
      "classificacao_etaria": "A14",
      "imagem_original": "https://animefire.plus/img/animes/megumi-no-daigo-kyuukoku-no-orange.webp",
      "imagem_pasta": "https://animefire.plus/img/animes/megumi-no-daigo-kyuukoku-no-orange/",
      "secao": "legendados",
      "pagina": 21,
      "total_episodios": 23,
      "link_video": "https://animefire.plus/video/megumi-no-daigo-kyuukoku-no-orange"
    },
    {
      "id": 2474,
      "nome": "Meiji Tokyo Renka",
      "link": "https://animefire.plus/animes/meiji-tokyo-renka-todos-os-episodios",
      "texto_original": "Meiji Tokyo Renka",
      "rating": 6.93,
      "classificacao_etaria": "A14",
      "imagem_original": "https://animefire.plus/img/animes/meiji-tokyo-renka.webp",
      "imagem_pasta": "https://animefire.plus/img/animes/meiji-tokyo-renka/",
      "secao": "legendados",
      "pagina": 100,
      "total_episodios": 12,
      "link_video": "https://animefire.plus/video/meiji-tokyo-renka"
    },
    {
      "id": 2475,
      "nome": "Meikyuu Black Company (Dublado)",
      "link": "https://animefire.plus/animes/meikyuu-black-company-dublado-todos-os-episodios",
      "texto_original": "Meikyuu Black Company (Dublado)",
      "rating": 7.22,
      "classificacao_etaria": "A14",
      "imagem_original": "https://animefire.plus/img/animes/meikyuu-black-company.webp",
      "imagem_pasta": "https://animefire.plus/img/animes/meikyuu-black-company/",
      "secao": "dublados,legendados",
      "pagina": 16,
      "total_episodios": 12,
      "link_video": "https://animefire.plus/video/meikyuu-black-company-dublado"
    },
    {
      "id": 2477,
      "nome": "Mekakucity Actors",
      "link": "https://animefire.plus/animes/mekakucity-actors-todos-os-episodios",
      "texto_original": "Mekakucity Actors",
      "rating": 7.17,
      "classificacao_etaria": "A14",
      "imagem_original": "https://animefire.plus/img/animes/mekakucity-actors.webp",
      "imagem_pasta": "https://animefire.plus/img/animes/mekakucity-actors/",
      "secao": "legendados",
      "pagina": 148,
      "total_episodios": 12,
      "link_video": "https://animefire.plus/video/mekakucity-actors"
    },
    {
      "id": 2478,
      "nome": "Melty Lancer",
      "link": "https://animefire.plus/animes/melty-lancer-todos-os-episodios",
      "texto_original": "Melty Lancer",
      "rating": 5.96,
      "classificacao_etaria": "A14",
      "imagem_original": "https://animefire.plus/img/animes/melty-lancer.webp",
      "imagem_pasta": "https://animefire.plus/img/animes/melty-lancer/",
      "secao": "legendados",
      "pagina": 66,
      "total_episodios": 6,
      "link_video": "https://animefire.plus/video/melty-lancer"
    },
    {
      "id": 2479,
      "nome": "Meng Qi Shi Shen",
      "link": "https://animefire.plus/animes/meng-qi-shi-shen-todos-os-episodios",
      "texto_original": "Meng Qi Shi Shen",
      "rating": 7.42,
      "classificacao_etaria": "A14",
      "imagem_original": "https://animefire.plus/img/animes/meng-qi-shi-shen.webp",
      "imagem_pasta": "https://animefire.plus/img/animes/meng-qi-shi-shen/",
      "secao": "legendados",
      "pagina": 170,
      "total_episodios": 12,
      "link_video": "https://animefire.plus/video/meng-qi-shi-shen"
    },
    {
      "id": 2480,
      "nome": "Meng Qi Shi Shen: Huanxi Zhui Hun",
      "link": "https://animefire.plus/animes/meng-qi-shi-shen-huanxi-zhui-hun-todos-os-episodios",
      "texto_original": "Meng Qi Shi Shen: Huanxi Zhui Hun",
      "rating": 7.49,
      "classificacao_etaria": "A14",
      "imagem_original": "https://animefire.plus/img/animes/meng-qi-shi-shen-huanxi-zhui-hun.webp",
      "imagem_pasta": "https://animefire.plus/img/animes/meng-qi-shi-shen-huanxi-zhui-hun/",
      "secao": "legendados,lancamentos",
      "pagina": 30,
      "total_episodios": 11,
      "link_video": "https://animefire.plus/video/meng-qi-shi-shen-huanxi-zhui-hun"
    },
    {
      "id": 2481,
      "nome": "Merc Storia: Mukiryoku no Shounen to Bin no Naka no Shoujo",
      "link": "https://animefire.plus/animes/merc-storia-mukiryoku-no-shounen-to-bin-no-naka-no-shoujo-todos-os-episodios",
      "texto_original": "Merc Storia: Mukiryoku no Shounen to Bin no Naka no Shoujo",
      "rating": 6.63,
      "classificacao_etaria": "A14",
      "imagem_original": "https://animefire.plus/img/animes/merc-storia-mukiryoku-no-shounen-to-bin-no-naka-no-shoujo.webp",
      "imagem_pasta": "https://animefire.plus/img/animes/merc-storia-mukiryoku-no-shounen-to-bin-no-naka-no-shoujo/",
      "secao": "legendados",
      "pagina": 158,
      "total_episodios": 12,
      "link_video": "https://animefire.plus/video/merc-storia-mukiryoku-no-shounen-to-bin-no-naka-no-shoujo"
    },
    {
      "id": 2483,
      "nome": "Metallic Rouge (Dublado)",
      "link": "https://animefire.plus/animes/metallic-rouge-dublado-todos-os-episodios",
      "texto_original": "Metallic Rouge (Dublado)",
      "rating": 6.2,
      "classificacao_etaria": "A14",
      "imagem_original": "https://animefire.plus/img/animes/metallic-rouge.webp",
      "imagem_pasta": "https://animefire.plus/img/animes/metallic-rouge/",
      "secao": "dublados,legendados",
      "pagina": 4,
      "total_episodios": 13,
      "link_video": "https://animefire.plus/video/metallic-rouge-dublado"
    },
    {
      "id": 2486,
      "nome": "MF Ghost (Dublado)",
      "link": "https://animefire.plus/animes/mf-ghost-dublado-todos-os-episodios",
      "texto_original": "MF Ghost (Dublado)",
      "rating": 7.56,
      "classificacao_etaria": "A14",
      "imagem_original": "https://animefire.plus/img/animes/mf-ghost.webp",
      "imagem_pasta": "https://animefire.plus/img/animes/mf-ghost/",
      "secao": "dublados,legendados",
      "pagina": 5,
      "total_episodios": 12,
      "link_video": "https://animefire.plus/video/mf-ghost-dublado"
    },
    {
      "id": 2487,
      "nome": "MF Ghost 2nd Season",
      "link": "https://animefire.plus/animes/mf-ghost-2nd-season-todos-os-episodios",
      "texto_original": "MF Ghost 2nd Season",
      "rating": 7.8,
      "classificacao_etaria": "A14",
      "imagem_original": "https://animefire.plus/img/animes/mf-ghost-2nd-season.webp",
      "imagem_pasta": "https://animefire.plus/img/animes/mf-ghost-2nd-season/",
      "secao": "legendados",
      "pagina": 9,
      "total_episodios": 12,
      "link_video": "https://animefire.plus/video/mf-ghost-2nd-season"
    },
    {
      "id": 2491,
      "nome": "Midara na Ao-chan wa Benkyou ga Dekinai",
      "link": "https://animefire.plus/animes/midara-na-ao-chan-wa-benkyou-ga-dekinai-todos-os-episodios",
      "texto_original": "Midara na Ao-chan wa Benkyou ga Dekinai",
      "rating": 6.79,
      "classificacao_etaria": "A14",
      "imagem_original": "https://animefire.plus/img/animes/midara-na-ao-chan-wa-benkyou-ga-dekinai.webp",
      "imagem_pasta": "https://animefire.plus/img/animes/midara-na-ao-chan-wa-benkyou-ga-dekinai/",
      "secao": "legendados",
      "pagina": 160,
      "total_episodios": 0,
      "link_video": "https://animefire.plus/video/midara-na-ao-chan-wa-benkyou-ga-dekinai"
    },
    {
      "id": 2495,
      "nome": "Mieruko-chan (Dublado)",
      "link": "https://animefire.plus/animes/mieruko-chan-dublado-todos-os-episodios",
      "texto_original": "Mieruko-chan (Dublado)",
      "rating": 7.4,
      "classificacao_etaria": "A14",
      "imagem_original": "https://animefire.plus/img/animes/mieruko-chan.webp",
      "imagem_pasta": "https://animefire.plus/img/animes/mieruko-chan/",
      "secao": "dublados,legendados",
      "pagina": 14,
      "total_episodios": 12,
      "link_video": "https://animefire.plus/video/mieruko-chan-dublado"
    },
    {
      "id": 2496,
      "nome": "Migi to Dali",
      "link": "https://animefire.plus/animes/migi-to-dali-todos-os-episodios",
      "texto_original": "Migi to Dali",
      "rating": 7.7,
      "classificacao_etaria": "A14",
      "imagem_original": "https://animefire.plus/img/animes/migi-to-dali.webp",
      "imagem_pasta": "https://animefire.plus/img/animes/migi-to-dali/",
      "secao": "legendados",
      "pagina": 20,
      "total_episodios": 13,
      "link_video": "https://animefire.plus/video/migi-to-dali"
    },
    {
      "id": 2497,
      "nome": "Miira no Kaikata",
      "link": "https://animefire.plus/animes/miira-no-kaikata-todos-os-episodios",
      "texto_original": "Miira no Kaikata",
      "rating": 7.52,
      "classificacao_etaria": "A14",
      "imagem_original": "https://animefire.plus/img/animes/miira-no-kaikata.webp",
      "imagem_pasta": "https://animefire.plus/img/animes/miira-no-kaikata/",
      "secao": "legendados",
      "pagina": 106,
      "total_episodios": 12,
      "link_video": "https://animefire.plus/video/miira-no-kaikata"
    }
  ],
  "pagination": {
    "current_page": 82,
    "per_page": 20,
    "total_items": 2988,
    "total_pages": 150,
    "has_next": true,
    "has_prev": true
  }
}
