{
  "message": "Animes com classificação etária: A14",
  "age_rating": "A14",
  "data": [
    {
      "id": 2135,
      "nome": "Kumo Desu ga, Nani ka? (Dublado)",
      "link": "https://animefire.plus/animes/kumo-desu-ga-nani-ka-dublado-todos-os-episodios",
      "texto_original": "Kumo Desu ga, Nani ka? (Dublado)",
      "rating": 7.45,
      "classificacao_etaria": "A14",
      "imagem_original": "https://animefire.plus/img/animes/kumo-desu-ga-nani-ka.webp",
      "imagem_pasta": "https://animefire.plus/img/animes/kumo-desu-ga-nani-ka/",
      "secao": "dublados,legendados,lancamentos",
      "pagina": 18,
      "total_episodios": 24,
      "link_video": "https://animefire.plus/video/kumo-desu-ga-nani-ka-dublado"
    },
    {
      "id": 2136,
      "nome": "Kunoichi Tsubaki no Mune no Uchi",
      "link": "https://animefire.plus/animes/kunoichi-tsubaki-no-mune-no-uchi-todos-os-episodios",
      "texto_original": "Kunoichi Tsubaki no Mune no Uchi",
      "rating": 7.1,
      "classificacao_etaria": "A14",
      "imagem_original": "https://animefire.plus/img/animes/kunoichi-tsubaki-no-mune-no-uchi.webp",
      "imagem_pasta": "https://animefire.plus/img/animes/kunoichi-tsubaki-no-mune-no-uchi/",
      "secao": "legendados",
      "pagina": 33,
      "total_episodios": 13,
      "link_video": "https://animefire.plus/video/kunoichi-tsubaki-no-mune-no-uchi"
    },
    {
      "id": 2137,
      "nome": "Kurage no Shokudou",
      "link": "https://animefire.plus/animes/kurage-no-shokudou-todos-os-episodios",
      "texto_original": "Kurage no Shokudou",
      "rating": 6.27,
      "classificacao_etaria": "A14",
      "imagem_original": "https://animefire.plus/img/animes/kurage-no-shokudou.webp",
      "imagem_pasta": "https://animefire.plus/img/animes/kurage-no-shokudou/",
      "secao": "legendados",
      "pagina": 79,
      "total_episodios": 1,
      "link_video": "https://animefire.plus/video/kurage-no-shokudou"
    },
    {
      "id": 2138,
      "nome": "Kuragehime",
      "link": "https://animefire.plus/animes/kuragehime-todos-os-episodios",
      "texto_original": "Kuragehime",
      "rating": 8.19,
      "classificacao_etaria": "A14",
      "imagem_original": "https://animefire.plus/img/animes/kuragehime.webp",
      "imagem_pasta": "https://animefire.plus/img/animes/kuragehime/",
      "secao": "legendados",
      "pagina": 141,
      "total_episodios": 8,
      "link_video": "https://animefire.plus/video/kuragehime"
    },
    {
      "id": 2139,
      "nome": "Kuragehime: Eiyuu Retsuden☆",
      "link": "https://animefire.plus/animes/kuragehime-eiyuu-retsuden-todos-os-episodios",
      "texto_original": "Kuragehime: Eiyuu Retsuden☆",
      "rating": 6.6,
      "classificacao_etaria": "A14",
      "imagem_original": "https://animefire.plus/img/animes/kuragehime-eiyuu-retsuden.webp",
      "imagem_pasta": "https://animefire.plus/img/animes/kuragehime-eiyuu-retsuden/",
      "secao": "legendados",
      "pagina": 77,
      "total_episodios": 4,
      "link_video": "https://animefire.plus/video/kuragehime-eiyuu-retsuden"
    },
    {
      "id": 2140,
      "nome": "Kurau Phantom Memory",
      "link": "https://animefire.plus/animes/kurau-phantom-memory-todos-os-episodios",
      "texto_original": "Kurau Phantom Memory",
      "rating": 7.4,
      "classificacao_etaria": "A14",
      "imagem_original": "https://animefire.plus/img/animes/kurau-phantom-memory.webp",
      "imagem_pasta": "https://animefire.plus/img/animes/kurau-phantom-memory/",
      "secao": "legendados",
      "pagina": 178,
      "total_episodios": 24,
      "link_video": "https://animefire.plus/video/kurau-phantom-memory"
    },
    {
      "id": 2141,
      "nome": "Kurayami Santa",
      "link": "https://animefire.plus/animes/kurayami-santa-todos-os-episodios",
      "texto_original": "Kurayami Santa",
      "rating": 5.22,
      "classificacao_etaria": "A14",
      "imagem_original": "https://animefire.plus/img/animes/kurayami-santa.webp",
      "imagem_pasta": "https://animefire.plus/img/animes/kurayami-santa/",
      "secao": "legendados",
      "pagina": 134,
      "total_episodios": 1,
      "link_video": "https://animefire.plus/video/kurayami-santa"
    },
    {
      "id": 2142,
      "nome": "Kure-nai",
      "link": "https://animefire.plus/animes/kure-nai-todos-os-episodios",
      "texto_original": "Kure-nai",
      "rating": 7.43,
      "classificacao_etaria": "A14",
      "imagem_original": "https://animefire.plus/img/animes/kure-nai.webp",
      "imagem_pasta": "https://animefire.plus/img/animes/kure-nai/",
      "secao": "legendados",
      "pagina": 167,
      "total_episodios": 12,
      "link_video": "https://animefire.plus/video/kure-nai"
    },
    {
      "id": 2143,
      "nome": "Kure-nai OVA",
      "link": "https://animefire.plus/animes/kure-nai-ova-todos-os-episodios",
      "texto_original": "Kure-nai OVA",
      "rating": 6.85,
      "classificacao_etaria": "A14",
      "imagem_original": "https://animefire.plus/img/animes/kure-nai-ova.webp",
      "imagem_pasta": "https://animefire.plus/img/animes/kure-nai-ova/",
      "secao": "legendados",
      "pagina": 72,
      "total_episodios": 2,
      "link_video": "https://animefire.plus/video/kure-nai-ova"
    },
    {
      "id": 2144,
      "nome": "Kurenai Sanshirou",
      "link": "https://animefire.plus/animes/kurenai-sanshirou-todos-os-episodios",
      "texto_original": "Kurenai Sanshirou",
      "rating": 6.6,
      "classificacao_etaria": "A14",
      "imagem_original": "https://animefire.plus/img/animes/kurenai-sanshirou.webp",
      "imagem_pasta": "https://animefire.plus/img/animes/kurenai-sanshirou/",
      "secao": "legendados",
      "pagina": 112,
      "total_episodios": 26,
      "link_video": "https://animefire.plus/video/kurenai-sanshirou"
    },
    {
      "id": 2146,
      "nome": "Kuro no Shoukanshi (Dublado)",
      "link": "https://animefire.plus/animes/kuro-no-shoukanshi-dublado-todos-os-episodios",
      "texto_original": "Kuro no Shoukanshi (Dublado)",
      "rating": 7.03,
      "classificacao_etaria": "A14",
      "imagem_original": "https://animefire.plus/img/animes/kuro-no-shoukanshi.webp",
      "imagem_pasta": "https://animefire.plus/img/animes/kuro-no-shoukanshi/",
      "secao": "dublados,legendados",
      "pagina": 10,
      "total_episodios": 12,
      "link_video": "https://animefire.plus/video/kuro-no-shoukanshi-dublado"
    },
    {
      "id": 2148,
      "nome": "Kuroiwa Medaka ni Watashi no Kawaii ga Tsuujinai",
      "link": "https://animefire.plus/animes/kuroiwa-medaka-ni-watashi-no-kawaii-ga-tsuujinai-todos-os-episodios",
      "texto_original": "Kuroiwa Medaka ni Watashi no Kawaii ga Tsuujinai",
      "rating": 6.57,
      "classificacao_etaria": "A14",
      "imagem_original": "https://animefire.plus/img/animes/kuroiwa-medaka-ni-watashi-no-kawaii-ga-tsuujinai.webp",
      "imagem_pasta": "https://animefire.plus/img/animes/kuroiwa-medaka-ni-watashi-no-kawaii-ga-tsuujinai/",
      "secao": "legendados",
      "pagina": 8,
      "total_episodios": 12,
      "link_video": "https://animefire.plus/video/kuroiwa-medaka-ni-watashi-no-kawaii-ga-tsuujinai"
    },
    {
      "id": 2150,
      "nome": "Kuroko no Basket",
      "link": "https://animefire.plus/animes/kuroko-no-basket-todos-os-episodios",
      "texto_original": "Kuroko no Basket",
      "rating": 8.32,
      "classificacao_etaria": "A14",
      "imagem_original": "https://animefire.plus/img/animes/kuroko-no-basket.webp",
      "imagem_pasta": "https://animefire.plus/img/animes/kuroko-no-basket/",
      "secao": "legendados",
      "pagina": 176,
      "total_episodios": 0,
      "link_video": "https://animefire.plus/video/kuroko-no-basket"
    },
    {
      "id": 2151,
      "nome": "Kuroko no Basket 2nd Season",
      "link": "https://animefire.plus/animes/kuroko-no-basket-2nd-season-todos-os-episodios",
      "texto_original": "Kuroko no Basket 2nd Season",
      "rating": 8.44,
      "classificacao_etaria": "A14",
      "imagem_original": "https://animefire.plus/img/animes/kuroko-no-basket-2nd-season.webp",
      "imagem_pasta": "https://animefire.plus/img/animes/kuroko-no-basket-2nd-season/",
      "secao": "legendados",
      "pagina": 132,
      "total_episodios": 0,
      "link_video": "https://animefire.plus/video/kuroko-no-basket-2nd-season"
    },
    {
      "id": 2152,
      "nome": "Kuroko no Basket 3rd Season",
      "link": "https://animefire.plus/animes/kuroko-no-basket-3rd-season-todos-os-episodios",
      "texto_original": "Kuroko no Basket 3rd Season",
      "rating": 8.49,
      "classificacao_etaria": "A14",
      "imagem_original": "https://animefire.plus/img/animes/kuroko-no-basket-3rd-season.webp",
      "imagem_pasta": "https://animefire.plus/img/animes/kuroko-no-basket-3rd-season/",
      "secao": "legendados",
      "pagina": 127,
      "total_episodios": 0,
      "link_video": "https://animefire.plus/video/kuroko-no-basket-3rd-season"
    },
    {
      "id": 2153,
      "nome": "Kuroko no Basket: Last Game NG-shuu",
      "link": "https://animefire.plus/animes/kuroko-no-basket-last-game-ng-shuu-todos-os-episodios",
      "texto_original": "Kuroko no Basket: Last Game NG-shuu",
      "rating": 7.78,
      "classificacao_etaria": "A14",
      "imagem_original": "https://animefire.plus/img/animes/kuroko-no-basket-last-game-ng-shuu.webp",
      "imagem_pasta": "https://animefire.plus/img/animes/kuroko-no-basket-last-game-ng-shuu/",
      "secao": "legendados",
      "pagina": 87,
      "total_episodios": 1,
      "link_video": "https://animefire.plus/video/kuroko-no-basket-last-game-ng-shuu"
    },
    {
      "id": 2154,
      "nome": "Kuroko no Basket: Oshaberi Shiyou ka",
      "link": "https://animefire.plus/animes/kuroko-no-basket-oshaberi-shiyou-ka-todos-os-episodios",
      "texto_original": "Kuroko no Basket: Oshaberi Shiyou ka",
      "rating": 7.12,
      "classificacao_etaria": "A14",
      "imagem_original": "https://animefire.plus/img/animes/kuroko-no-basket-oshaberi-shiyou-ka.webp",
      "imagem_pasta": "https://animefire.plus/img/animes/kuroko-no-basket-oshaberi-shiyou-ka/",
      "secao": "legendados",
      "pagina": 87,
      "total_episodios": 1,
      "link_video": "https://animefire.plus/video/kuroko-no-basket-oshaberi-shiyou-ka"
    },
    {
      "id": 2159,
      "nome": "Kuroshitsuji II Specials (Dublado)",
      "link": "https://animefire.plus/animes/kuroshitsuji-ii-specials-dublado-todos-os-episodios",
      "texto_original": "Kuroshitsuji II Specials (Dublado)",
      "rating": 7.44,
      "classificacao_etaria": "A14",
      "imagem_original": "https://animefire.plus/img/animes/kuroshitsuji-ii-specials.webp",
      "imagem_pasta": "https://animefire.plus/img/animes/kuroshitsuji-ii-specials/",
      "secao": "dublados,legendados",
      "pagina": 16,
      "total_episodios": 6,
      "link_video": "https://animefire.plus/video/kuroshitsuji-ii-specials-dublado"
    },
    {
      "id": 2165,
      "nome": "Kusuriya no Hitorigoto (Dublado)",
      "link": "https://animefire.plus/animes/kusuriya-no-hitorigoto-dublado-todos-os-episodios",
      "texto_original": "Kusuriya no Hitorigoto (Dublado)",
      "rating": 8.87,
      "classificacao_etaria": "A14",
      "imagem_original": "https://animefire.plus/img/animes/kusuriya-no-hitorigoto.webp",
      "imagem_pasta": "https://animefire.plus/img/animes/kusuriya-no-hitorigoto/",
      "secao": "dublados,legendados,lancamentos",
      "pagina": 3,
      "total_episodios": 24,
      "link_video": "https://animefire.plus/video/kusuriya-no-hitorigoto-dublado"
    },
    {
      "id": 2166,
      "nome": "Kusuriya no Hitorigoto 2nd Season",
      "link": "https://animefire.plus/animes/kusuriya-no-hitorigoto-2nd-season-todos-os-episodios",
      "texto_original": "Kusuriya no Hitorigoto 2nd Season",
      "rating": 8.92,
      "classificacao_etaria": "A14",
      "imagem_original": "https://animefire.plus/img/animes/kusuriya-no-hitorigoto-2nd-season.webp",
      "imagem_pasta": "https://animefire.plus/img/animes/kusuriya-no-hitorigoto-2nd-season/",
      "secao": "legendados",
      "pagina": 6,
      "total_episodios": 24,
      "link_video": "https://animefire.plus/video/kusuriya-no-hitorigoto-2nd-season"
    }
  ],
  "pagination": {
    "current_page": 70,
    "per_page": 20,
    "total_items": 2988,
    "total_pages": 150,
    "has_next": true,
    "has_prev": true
  }
}
