{
  "message": "Animes com classificação etária: A14",
  "age_rating": "A14",
  "data": [
    {
      "id": 2353,
      "nome": "Mahoutsukai No Yome (Dublado)",
      "link": "https://animefire.plus/animes/mahoutsukai-no-yome-dublado-todos-os-episodios",
      "texto_original": "Mahoutsukai No Yome (Dublado)",
      "rating": 8.15,
      "classificacao_etaria": "A14",
      "imagem_original": "https://animefire.plus/img/animes/mahoutsukai-no-yome.webp",
      "imagem_pasta": "https://animefire.plus/img/animes/mahoutsukai-no-yome/",
      "secao": "dublados,legendados",
      "pagina": 25,
      "total_episodios": 0,
      "link_video": "https://animefire.plus/video/mahoutsukai-no-yome-dublado"
    },
    {
      "id": 2354,
      "nome": "Mahoutsukai no Yome Season 2 (Dublado)",
      "link": "https://animefire.plus/animes/mahoutsukai-no-yome-season-2-dublado-todos-os-episodios",
      "texto_original": "Mahoutsukai no Yome Season 2 (Dublado)",
      "rating": 7.76,
      "classificacao_etaria": "A14",
      "imagem_original": "https://animefire.plus/img/animes/mahoutsukai-no-yome-season-2.webp",
      "imagem_pasta": "https://animefire.plus/img/animes/mahoutsukai-no-yome-season-2/",
      "secao": "dublados,legendados",
      "pagina": 6,
      "total_episodios": 12,
      "link_video": "https://animefire.plus/video/mahoutsukai-no-yome-season-2-dublado"
    },
    {
      "id": 2355,
      "nome": "Mahoutsukai no Yome Season 2 Part 2 (Dublado)",
      "link": "https://animefire.plus/animes/mahoutsukai-no-yome-season-2-part-2-dublado-todos-os-episodios",
      "texto_original": "Mahoutsukai no Yome Season 2 Part 2 (Dublado)",
      "rating": 7.9,
      "classificacao_etaria": "A14",
      "imagem_original": "https://animefire.plus/img/animes/mahoutsukai-no-yome-season-2-part-2.webp",
      "imagem_pasta": "https://animefire.plus/img/animes/mahoutsukai-no-yome-season-2-part-2/",
      "secao": "dublados,legendados",
      "pagina": 5,
      "total_episodios": 12,
      "link_video": "https://animefire.plus/video/mahoutsukai-no-yome-season-2-part-2-dublado"
    },
    {
      "id": 2356,
      "nome": "Mahoutsukai no Yome: Hoshi Matsu Hito (Dublado)",
      "link": "https://animefire.plus/animes/mahoutsukai-no-yome-hoshi-matsu-hito-dublado-todos-os-episodios",
      "texto_original": "Mahoutsukai no Yome: Hoshi Matsu Hito (Dublado)",
      "rating": 8.19,
      "classificacao_etaria": "A14",
      "imagem_original": "https://animefire.plus/img/animes/mahoutsukai-no-yome-hoshi-matsu-hito.webp",
      "imagem_pasta": "https://animefire.plus/img/animes/mahoutsukai-no-yome-hoshi-matsu-hito/",
      "secao": "dublados,legendados",
      "pagina": 24,
      "total_episodios": 3,
      "link_video": "https://animefire.plus/video/mahoutsukai-no-yome-hoshi-matsu-hito-dublado"
    },
    {
      "id": 2357,
      "nome": "Mahoutsukai no Yome: Nishi no Shounen to Seiran no Kishi (Dublado)",
      "link": "https://animefire.plus/animes/mahoutsukai-no-yome-nishi-no-shounen-to-seiran-no-kishi-dublado-todos-os-episodios",
      "texto_original": "Mahoutsukai no Yome: Nishi no Shounen to Seiran no Kishi (Dublado)",
      "rating": 7.56,
      "classificacao_etaria": "A14",
      "imagem_original": "https://animefire.plus/img/animes/mahoutsukai-no-yome-nishi-no-shounen-to-seiran-no-kishi.webp",
      "imagem_pasta": "https://animefire.plus/img/animes/mahoutsukai-no-yome-nishi-no-shounen-to-seiran-no-kishi/",
      "secao": "dublados,legendados",
      "pagina": 12,
      "total_episodios": 3,
      "link_video": "https://animefire.plus/video/mahoutsukai-no-yome-nishi-no-shounen-to-seiran-no-kishi-dublado"
    },
    {
      "id": 2360,
      "nome": "Mahoutsukai Reimeiki (Dublado)",
      "link": "https://animefire.plus/animes/mahoutsukai-reimeiki-dublado-todos-os-episodios",
      "texto_original": "Mahoutsukai Reimeiki (Dublado)",
      "rating": 6.39,
      "classificacao_etaria": "A14",
      "imagem_original": "https://animefire.plus/img/animes/mahoutsukai-reimeiki.webp",
      "imagem_pasta": "https://animefire.plus/img/animes/mahoutsukai-reimeiki/",
      "secao": "dublados,legendados",
      "pagina": 11,
      "total_episodios": 12,
      "link_video": "https://animefire.plus/video/mahoutsukai-reimeiki-dublado"
    },
    {
      "id": 2362,
      "nome": "Mahoutsukai Tai!",
      "link": "https://animefire.plus/animes/mahoutsukai-tai-todos-os-episodios",
      "texto_original": "Mahoutsukai Tai!",
      "rating": 6.86,
      "classificacao_etaria": "A14",
      "imagem_original": "https://animefire.plus/img/animes/mahoutsukai-tai.webp",
      "imagem_pasta": "https://animefire.plus/img/animes/mahoutsukai-tai/",
      "secao": "legendados",
      "pagina": 148,
      "total_episodios": 0,
      "link_video": "https://animefire.plus/video/mahoutsukai-tai"
    },
    {
      "id": 2363,
      "nome": "Mahoutsukai Tai! (TV)",
      "link": "https://animefire.plus/animes/mahoutsukai-tai-tv-todos-os-episodios",
      "texto_original": "Mahoutsukai Tai! (TV)",
      "rating": 6.81,
      "classificacao_etaria": "A14",
      "imagem_original": "https://animefire.plus/img/animes/mahoutsukai-tai-tv.webp",
      "imagem_pasta": "https://animefire.plus/img/animes/mahoutsukai-tai-tv/",
      "secao": "legendados",
      "pagina": 78,
      "total_episodios": 13,
      "link_video": "https://animefire.plus/video/mahoutsukai-tai-tv"
    },
    {
      "id": 2364,
      "nome": "Mai-HiME",
      "link": "https://animefire.plus/animes/mai-hime-todos-os-episodios",
      "texto_original": "Mai-HiME",
      "rating": 7.52,
      "classificacao_etaria": "A14",
      "imagem_original": "https://animefire.plus/img/animes/mai-hime.webp",
      "imagem_pasta": "https://animefire.plus/img/animes/mai-hime/",
      "secao": "legendados",
      "pagina": 172,
      "total_episodios": 26,
      "link_video": "https://animefire.plus/video/mai-hime"
    },
    {
      "id": 2365,
      "nome": "Mai-Otome",
      "link": "https://animefire.plus/animes/mai-otome-todos-os-episodios",
      "texto_original": "Mai-Otome",
      "rating": 7.35,
      "classificacao_etaria": "A14",
      "imagem_original": "https://animefire.plus/img/animes/mai-otome.webp",
      "imagem_pasta": "https://animefire.plus/img/animes/mai-otome/",
      "secao": "legendados",
      "pagina": 120,
      "total_episodios": 26,
      "link_video": "https://animefire.plus/video/mai-otome"
    },
    {
      "id": 2368,
      "nome": "Maiko-san Chi no Makanai-san",
      "link": "https://animefire.plus/animes/maiko-san-chi-no-makanai-san-todos-os-episodios",
      "texto_original": "Maiko-san Chi no Makanai-san",
      "rating": 7.04,
      "classificacao_etaria": "A14",
      "imagem_original": "https://animefire.plus/img/animes/maiko-san-chi-no-makanai-san.webp",
      "imagem_pasta": "https://animefire.plus/img/animes/maiko-san-chi-no-makanai-san/",
      "secao": "legendados",
      "pagina": 48,
      "total_episodios": 12,
      "link_video": "https://animefire.plus/video/maiko-san-chi-no-makanai-san"
    },
    {
      "id": 2369,
      "nome": "Mairimashita! Iruma-kun (Dublado)",
      "link": "https://animefire.plus/animes/mairimashita-iruma-kun-dublado-todos-os-episodios",
      "texto_original": "Mairimashita! Iruma-kun (Dublado)",
      "rating": 7.75,
      "classificacao_etaria": "A14",
      "imagem_original": "https://animefire.plus/img/animes/mairimashita-iruma-kun.webp",
      "imagem_pasta": "https://animefire.plus/img/animes/mairimashita-iruma-kun/",
      "secao": "dublados,legendados",
      "pagina": 8,
      "total_episodios": 23,
      "link_video": "https://animefire.plus/video/mairimashita-iruma-kun-dublado"
    },
    {
      "id": 2370,
      "nome": "Mairimashita! Iruma-kun 2nd Season (Dublado)",
      "link": "https://animefire.plus/animes/mairimashita-iruma-kun-2nd-season-dublado-todos-os-episodios",
      "texto_original": "Mairimashita! Iruma-kun 2nd Season (Dublado)",
      "rating": 8.02,
      "classificacao_etaria": "A14",
      "imagem_original": "https://animefire.plus/img/animes/mairimashita-iruma-kun-2nd-season.webp",
      "imagem_pasta": "https://animefire.plus/img/animes/mairimashita-iruma-kun-2nd-season/",
      "secao": "dublados,legendados",
      "pagina": 6,
      "total_episodios": 21,
      "link_video": "https://animefire.plus/video/mairimashita-iruma-kun-2nd-season-dublado"
    },
    {
      "id": 2371,
      "nome": "Mairimashita! Iruma-kun 3rd Season (Dublado)",
      "link": "https://animefire.plus/animes/mairimashita-iruma-kun-3rd-season-dublado-todos-os-episodios",
      "texto_original": "Mairimashita! Iruma-kun 3rd Season (Dublado)",
      "rating": 7.82,
      "classificacao_etaria": "A14",
      "imagem_original": "https://animefire.plus/img/animes/mairimashita-iruma-kun-3rd-season.webp",
      "imagem_pasta": "https://animefire.plus/img/animes/mairimashita-iruma-kun-3rd-season/",
      "secao": "dublados,legendados",
      "pagina": 6,
      "total_episodios": 21,
      "link_video": "https://animefire.plus/video/mairimashita-iruma-kun-3rd-season-dublado"
    },
    {
      "id": 2374,
      "nome": "Majimoji Rurumo",
      "link": "https://animefire.plus/animes/majimoji-rurumo-todos-os-episodios",
      "texto_original": "Majimoji Rurumo",
      "rating": 6.9,
      "classificacao_etaria": "A14",
      "imagem_original": "https://animefire.plus/img/animes/majimoji-rurumo.webp",
      "imagem_pasta": "https://animefire.plus/img/animes/majimoji-rurumo/",
      "secao": "legendados",
      "pagina": 164,
      "total_episodios": 5,
      "link_video": "https://animefire.plus/video/majimoji-rurumo"
    },
    {
      "id": 2375,
      "nome": "Majimoji Rurumo: Kanketsu-hen",
      "link": "https://animefire.plus/animes/majimoji-rurumo-kanketsu-hen-todos-os-episodios",
      "texto_original": "Majimoji Rurumo: Kanketsu-hen",
      "rating": 7.43,
      "classificacao_etaria": "A14",
      "imagem_original": "https://animefire.plus/img/animes/majimoji-rurumo-kanketsu-hen.webp",
      "imagem_pasta": "https://animefire.plus/img/animes/majimoji-rurumo-kanketsu-hen/",
      "secao": "legendados",
      "pagina": 88,
      "total_episodios": 2,
      "link_video": "https://animefire.plus/video/majimoji-rurumo-kanketsu-hen"
    },
    {
      "id": 2379,
      "nome": "Major 2nd",
      "link": "https://animefire.plus/animes/major-2nd-todos-os-episodios",
      "texto_original": "Major 2nd",
      "rating": 7.63,
      "classificacao_etaria": "A14",
      "imagem_original": "https://animefire.plus/img/animes/major-2nd.webp",
      "imagem_pasta": "https://animefire.plus/img/animes/major-2nd/",
      "secao": "legendados",
      "pagina": 157,
      "total_episodios": 25,
      "link_video": "https://animefire.plus/video/major-2nd"
    },
    {
      "id": 2380,
      "nome": "Major 2nd (TV) 2nd Season",
      "link": "https://animefire.plus/animes/major-2nd-tv-2nd-season-todos-os-episodios",
      "texto_original": "Major 2nd (TV) 2nd Season",
      "rating": 7.6,
      "classificacao_etaria": "A14",
      "imagem_original": "https://animefire.plus/img/animes/major-2nd-tv-2nd-season.webp",
      "imagem_pasta": "https://animefire.plus/img/animes/major-2nd-tv-2nd-season/",
      "secao": "legendados",
      "pagina": 81,
      "total_episodios": 1,
      "link_video": "https://animefire.plus/video/major-2nd-tv-2nd-season"
    },
    {
      "id": 2381,
      "nome": "Major S1",
      "link": "https://animefire.plus/animes/major-s1-todos-os-episodios",
      "texto_original": "Major S1",
      "rating": 8.35,
      "classificacao_etaria": "A14",
      "imagem_original": "https://animefire.plus/img/animes/major-s1.webp",
      "imagem_pasta": "https://animefire.plus/img/animes/major-s1/",
      "secao": "legendados",
      "pagina": 144,
      "total_episodios": 26,
      "link_video": "https://animefire.plus/video/major-s1"
    },
    {
      "id": 2382,
      "nome": "Major S2",
      "link": "https://animefire.plus/animes/major-s2-todos-os-episodios",
      "texto_original": "Major S2",
      "rating": 8.33,
      "classificacao_etaria": "A14",
      "imagem_original": "https://animefire.plus/img/animes/major-s2.webp",
      "imagem_pasta": "https://animefire.plus/img/animes/major-s2/",
      "secao": "legendados",
      "pagina": 151,
      "total_episodios": 26,
      "link_video": "https://animefire.plus/video/major-s2"
    }
  ],
  "pagination": {
    "current_page": 78,
    "per_page": 20,
    "total_items": 2988,
    "total_pages": 150,
    "has_next": true,
    "has_prev": true
  }
}
