{
  "message": "Animes com classificação etária: A14",
  "age_rating": "A14",
  "data": [
    {
      "id": 228,
      "nome": "Argento Soma",
      "link": "https://animefire.plus/animes/argento-soma-todos-os-episodios",
      "texto_original": "Argento Soma",
      "rating": 6.86,
      "classificacao_etaria": "A14",
      "imagem_original": "https://animefire.plus/img/animes/argento-soma.webp",
      "imagem_pasta": "https://animefire.plus/img/animes/argento-soma/",
      "secao": "legendados",
      "pagina": 132,
      "total_episodios": 26,
      "link_video": "https://animefire.plus/video/argento-soma"
    },
    {
      "id": 229,
      "nome": "Argonavis from BanG Dream!",
      "link": "https://animefire.plus/animes/argonavis-from-bang-dream-todos-os-episodios",
      "texto_original": "Argonavis from BanG Dream!",
      "rating": 6.76,
      "classificacao_etaria": "A14",
      "imagem_original": "https://animefire.plus/img/animes/argonavis-from-bang-dream.webp",
      "imagem_pasta": "https://animefire.plus/img/animes/argonavis-from-bang-dream/",
      "secao": "legendados",
      "pagina": 79,
      "total_episodios": 0,
      "link_video": "https://animefire.plus/video/argonavis-from-bang-dream"
    },
    {
      "id": 234,
      "nome": "Arifureta Shokugyou de Sekai Saikyou (Dublado)",
      "link": "https://animefire.plus/animes/arifureta-shokugyou-de-sekai-saikyou-dublado-todos-os-episodios",
      "texto_original": "Arifureta Shokugyou de Sekai Saikyou (Dublado)",
      "rating": 6.64,
      "classificacao_etaria": "A14",
      "imagem_original": "https://animefire.plus/img/animes/arifureta-shokugyou-de-sekai-saikyou.webp",
      "imagem_pasta": "https://animefire.plus/img/animes/arifureta-shokugyou-de-sekai-saikyou/",
      "secao": "dublados,legendados",
      "pagina": 13,
      "total_episodios": 13,
      "link_video": "https://animefire.plus/video/arifureta-shokugyou-de-sekai-saikyou-dublado"
    },
    {
      "id": 235,
      "nome": "Arifureta Shokugyou de Sekai Saikyou 2nd Season (Dublado)",
      "link": "https://animefire.plus/animes/arifureta-shokugyou-de-sekai-saikyou-2nd-season-dublado-todos-os-episodios",
      "texto_original": "Arifureta Shokugyou de Sekai Saikyou 2nd Season (Dublado)",
      "rating": 7.15,
      "classificacao_etaria": "A14",
      "imagem_original": "https://animefire.plus/img/animes/arifureta-shokugyou-de-sekai-saikyou-2nd-season.webp",
      "imagem_pasta": "https://animefire.plus/img/animes/arifureta-shokugyou-de-sekai-saikyou-2nd-season/",
      "secao": "dublados,legendados",
      "pagina": 12,
      "total_episodios": 12,
      "link_video": "https://animefire.plus/video/arifureta-shokugyou-de-sekai-saikyou-2nd-season-dublado"
    },
    {
      "id": 236,
      "nome": "Arifureta Shokugyou de Sekai Saikyou 2nd Season Special (Dublado)",
      "link": "https://animefire.plus/animes/arifureta-shokugyou-de-sekai-saikyou-2nd-season-special-dublado-todos-os-episodios",
      "texto_original": "Arifureta Shokugyou de Sekai Saikyou 2nd Season Special (Dublado)",
      "rating": 6.94,
      "classificacao_etaria": "A14",
      "imagem_original": "https://animefire.plus/img/animes/arifureta-shokugyou-de-sekai-saikyou-2nd-season-special.webp",
      "imagem_pasta": "https://animefire.plus/img/animes/arifureta-shokugyou-de-sekai-saikyou-2nd-season-special/",
      "secao": "dublados,legendados",
      "pagina": 11,
      "total_episodios": 1,
      "link_video": "https://animefire.plus/video/arifureta-shokugyou-de-sekai-saikyou-2nd-season-special-dublado"
    },
    {
      "id": 238,
      "nome": "Arifureta Shokugyou de Sekai Saikyou Specials",
      "link": "https://animefire.plus/animes/arifureta-shokugyou-de-sekai-saikyou-specials-todos-os-episodios",
      "texto_original": "Arifureta Shokugyou de Sekai Saikyou Specials",
      "rating": 6.53,
      "classificacao_etaria": "A14",
      "imagem_original": "https://animefire.plus/img/animes/arifureta-shokugyou-de-sekai-saikyou-specials.webp",
      "imagem_pasta": "https://animefire.plus/img/animes/arifureta-shokugyou-de-sekai-saikyou-specials/",
      "secao": "legendados",
      "pagina": 93,
      "total_episodios": 2,
      "link_video": "https://animefire.plus/video/arifureta-shokugyou-de-sekai-saikyou-specials"
    },
    {
      "id": 239,
      "nome": "Arifureta Shokugyou de Sekai Saikyou: Maboroshi no Bouken to Kiseki no Kaigou (Dublado)",
      "link": "https://animefire.plus/animes/arifureta-shokugyou-de-sekai-saikyou-maboroshi-no-bouken-to-kiseki-no-kaigou-dublado-todos-os-episodios",
      "texto_original": "Arifureta Shokugyou de Sekai Saikyou: Maboroshi no Bouken to Kiseki no Kaigou (Dublado)",
      "rating": 7.16,
      "classificacao_etaria": "A14",
      "imagem_original": "https://animefire.plus/img/animes/arifureta-shokugyou-de-sekai-saikyou-maboroshi-no-bouken-to-kiseki-no-kaigou.webp",
      "imagem_pasta": "https://animefire.plus/img/animes/arifureta-shokugyou-de-sekai-saikyou-maboroshi-no-bouken-to-kiseki-no-kaigou/",
      "secao": "dublados,legendados",
      "pagina": 7,
      "total_episodios": 2,
      "link_video": "https://animefire.plus/video/arifureta-shokugyou-de-sekai-saikyou-maboroshi-no-bouken-to-kiseki-no-kaigou-dublado"
    },
    {
      "id": 240,
      "nome": "Arknights: Reimei Zensou",
      "link": "https://animefire.plus/animes/arknights-reimei-zensou-todos-os-episodios",
      "texto_original": "Arknights: Reimei Zensou",
      "rating": 7.07,
      "classificacao_etaria": "A14",
      "imagem_original": "https://animefire.plus/img/animes/arknights-reimei-zensou.webp",
      "imagem_pasta": "https://animefire.plus/img/animes/arknights-reimei-zensou/",
      "secao": "legendados",
      "pagina": 29,
      "total_episodios": 8,
      "link_video": "https://animefire.plus/video/arknights-reimei-zensou"
    },
    {
      "id": 241,
      "nome": "Arknights: Rise from Ember",
      "link": "https://animefire.plus/animes/arknights-rise-from-ember-todos-os-episodios",
      "texto_original": "Arknights: Rise from Ember",
      "rating": 7.7,
      "classificacao_etaria": "A14",
      "imagem_original": "https://animefire.plus/img/animes/arknights-rise-from-ember.webp",
      "imagem_pasta": "https://animefire.plus/img/animes/arknights-rise-from-ember/",
      "secao": "legendados,lancamentos",
      "pagina": 2,
      "total_episodios": 4,
      "link_video": "https://animefire.plus/video/arknights-rise-from-ember"
    },
    {
      "id": 242,
      "nome": "Arknights: Touin Kiro",
      "link": "https://animefire.plus/animes/arknights-touin-kiro-todos-os-episodios",
      "texto_original": "Arknights: Touin Kiro",
      "rating": 7.58,
      "classificacao_etaria": "A14",
      "imagem_original": "https://animefire.plus/img/animes/arknights-touin-kiro.webp",
      "imagem_pasta": "https://animefire.plus/img/animes/arknights-touin-kiro/",
      "secao": "legendados,lancamentos",
      "pagina": 19,
      "total_episodios": 3,
      "link_video": "https://animefire.plus/video/arknights-touin-kiro"
    },
    {
      "id": 243,
      "nome": "Around 40 Otoko no Isekai Tsuuhan",
      "link": "https://animefire.plus/animes/around-40-otoko-no-isekai-tsuuhan-todos-os-episodios",
      "texto_original": "Around 40 Otoko no Isekai Tsuuhan",
      "rating": 6.35,
      "classificacao_etaria": "A14",
      "imagem_original": "https://animefire.plus/img/animes/around-40-otoko-no-isekai-tsuuhan.webp",
      "imagem_pasta": "https://animefire.plus/img/animes/around-40-otoko-no-isekai-tsuuhan/",
      "secao": "legendados",
      "pagina": 7,
      "total_episodios": 13,
      "link_video": "https://animefire.plus/video/around-40-otoko-no-isekai-tsuuhan"
    },
    {
      "id": 244,
      "nome": "ARP Backstage Pass",
      "link": "https://animefire.plus/animes/arp-backstage-pass-todos-os-episodios",
      "texto_original": "ARP Backstage Pass",
      "rating": 5.59,
      "classificacao_etaria": "A14",
      "imagem_original": "https://animefire.plus/img/animes/arp-backstage-pass.webp",
      "imagem_pasta": "https://animefire.plus/img/animes/arp-backstage-pass/",
      "secao": "legendados",
      "pagina": 92,
      "total_episodios": 1,
      "link_video": "https://animefire.plus/video/arp-backstage-pass"
    },
    {
      "id": 245,
      "nome": "Ars no Kyojuu",
      "link": "https://animefire.plus/animes/ars-no-kyojuu-todos-os-episodios",
      "texto_original": "Ars no Kyojuu",
      "rating": 6.04,
      "classificacao_etaria": "A14",
      "imagem_original": "https://animefire.plus/img/animes/ars-no-kyojuu.webp",
      "imagem_pasta": "https://animefire.plus/img/animes/ars-no-kyojuu/",
      "secao": "legendados",
      "pagina": 26,
      "total_episodios": 12,
      "link_video": "https://animefire.plus/video/ars-no-kyojuu"
    },
    {
      "id": 247,
      "nome": "Arslan Senki (TV): Fuujin Ranbu",
      "link": "https://animefire.plus/animes/arslan-senki-tv-fuujin-ranbu-todos-os-episodios",
      "texto_original": "Arslan Senki (TV): Fuujin Ranbu",
      "rating": 7.59,
      "classificacao_etaria": "A14",
      "imagem_original": "https://animefire.plus/img/animes/arslan-senki-tv-fuujin-ranbu.webp",
      "imagem_pasta": "https://animefire.plus/img/animes/arslan-senki-tv-fuujin-ranbu/",
      "secao": "legendados",
      "pagina": 124,
      "total_episodios": 0,
      "link_video": "https://animefire.plus/video/arslan-senki-tv-fuujin-ranbu"
    },
    {
      "id": 248,
      "nome": "Arte",
      "link": "https://animefire.plus/animes/arte-todos-os-episodios",
      "texto_original": "Arte",
      "rating": 7.17,
      "classificacao_etaria": "A14",
      "imagem_original": "https://animefire.plus/img/animes/arte.webp",
      "imagem_pasta": "https://animefire.plus/img/animes/arte/",
      "secao": "legendados",
      "pagina": 60,
      "total_episodios": 8,
      "link_video": "https://animefire.plus/video/arte"
    },
    {
      "id": 249,
      "nome": "Aru Asa Dummy Head Mic ni Natteita Ore-kun no Jinsei",
      "link": "https://animefire.plus/animes/aru-asa-dummy-head-mic-ni-natteita-ore-kun-no-jinsei-todos-os-episodios",
      "texto_original": "Aru Asa Dummy Head Mic ni Natteita Ore-kun no Jinsei",
      "rating": 5,
      "classificacao_etaria": "A14",
      "imagem_original": "https://animefire.plus/img/animes/aru-asa-dummy-head-mic-ni-natteita-ore-kun-no-jinsei.webp",
      "imagem_pasta": "https://animefire.plus/img/animes/aru-asa-dummy-head-mic-ni-natteita-ore-kun-no-jinsei/",
      "secao": "legendados,lancamentos",
      "pagina": 28,
      "total_episodios": 2,
      "link_video": "https://animefire.plus/video/aru-asa-dummy-head-mic-ni-natteita-ore-kun-no-jinsei"
    },
    {
      "id": 250,
      "nome": "Aru Majo ga Shinu Made",
      "link": "https://animefire.plus/animes/aru-majo-ga-shinu-made-todos-os-episodios",
      "texto_original": "Aru Majo ga Shinu Made",
      "rating": 7.35,
      "classificacao_etaria": "A14",
      "imagem_original": "https://animefire.plus/img/animes/aru-majo-ga-shinu-made.webp",
      "imagem_pasta": "https://animefire.plus/img/animes/aru-majo-ga-shinu-made/",
      "secao": "legendados",
      "pagina": 5,
      "total_episodios": 12,
      "link_video": "https://animefire.plus/video/aru-majo-ga-shinu-made"
    },
    {
      "id": 253,
      "nome": "Asagao to Kase-san.",
      "link": "https://animefire.plus/animes/asagao-to-kase-san-todos-os-episodios",
      "texto_original": "Asagao to Kase-san.",
      "rating": 7.89,
      "classificacao_etaria": "A14",
      "imagem_original": "https://animefire.plus/img/animes/asagao-to-kase-san.webp",
      "imagem_pasta": "https://animefire.plus/img/animes/asagao-to-kase-san/",
      "secao": "legendados",
      "pagina": 109,
      "total_episodios": 0,
      "link_video": "https://animefire.plus/video/asagao-to-kase-san"
    },
    {
      "id": 258,
      "nome": "Ashiaraiyashiki no Juunin-tachi.",
      "link": "https://animefire.plus/animes/ashiaraiyashiki-no-juunin-tachi-todos-os-episodios",
      "texto_original": "Ashiaraiyashiki no Juunin-tachi.",
      "rating": 5.06,
      "classificacao_etaria": "A14",
      "imagem_original": "https://animefire.plus/img/animes/ashiaraiyashiki-no-juunin-tachi.webp",
      "imagem_pasta": "https://animefire.plus/img/animes/ashiaraiyashiki-no-juunin-tachi/",
      "secao": "legendados",
      "pagina": 69,
      "total_episodios": 1,
      "link_video": "https://animefire.plus/video/ashiaraiyashiki-no-juunin-tachi"
    },
    {
      "id": 259,
      "nome": "Ashita no Joe",
      "link": "https://animefire.plus/animes/ashita-no-joe-todos-os-episodios",
      "texto_original": "Ashita no Joe",
      "rating": 8.21,
      "classificacao_etaria": "A14",
      "imagem_original": "https://animefire.plus/img/animes/ashita-no-joe.webp",
      "imagem_pasta": "https://animefire.plus/img/animes/ashita-no-joe/",
      "secao": "legendados",
      "pagina": 131,
      "total_episodios": 0,
      "link_video": "https://animefire.plus/video/ashita-no-joe"
    }
  ],
  "pagination": {
    "current_page": 9,
    "per_page": 20,
    "total_items": 2988,
    "total_pages": 150,
    "has_next": true,
    "has_prev": true
  }
}
