{
  "message": "Animes com classificação etária: A14",
  "age_rating": "A14",
  "data": [
    {
      "id": 3194,
      "nome": "Saiki Kusuo no Ψ-nan: Kanketsu-hen",
      "link": "https://animefire.plus/animes/saiki-kusuo-no--nan-kanketsu-hen-todos-os-episodios",
      "texto_original": "Saiki Kusuo no Ψ-nan: Kanketsu-hen",
      "rating": 8.29,
      "classificacao_etaria": "A14",
      "imagem_original": "https://animefire.plus/img/animes/saiki-kusuo-no--nan-kanketsu-hen.webp",
      "imagem_pasta": "https://animefire.plus/img/animes/saiki-kusuo-no--nan-kanketsu-hen/",
      "secao": "legendados",
      "pagina": 116,
      "total_episodios": 2,
      "link_video": "https://animefire.plus/video/saiki-kusuo-no--nan-kanketsu-hen"
    },
    {
      "id": 3195,
      "nome": "Saiki Kusuo no Ψ-nan: Ψ-shidou-hen (Dublado)",
      "link": "https://animefire.plus/animes/saiki-kusuo-no--nan--shidou-hen-dublado-todos-os-episodios",
      "texto_original": "Saiki Kusuo no Ψ-nan: Ψ-shidou-hen (Dublado)",
      "rating": 8.18,
      "classificacao_etaria": "A14",
      "imagem_original": "https://animefire.plus/img/animes/saiki-kusuo-no--nan--shidou-hen.webp",
      "imagem_pasta": "https://animefire.plus/img/animes/saiki-kusuo-no--nan--shidou-hen/",
      "secao": "dublados",
      "pagina": 20,
      "total_episodios": 6,
      "link_video": "https://animefire.plus/video/saiki-kusuo-no--nan--shidou-hen-dublado"
    },
    {
      "id": 3196,
      "nome": "Saikin Yatotta Maid ga Ayashii",
      "link": "https://animefire.plus/animes/saikin-yatotta-maid-ga-ayashii-todos-os-episodios",
      "texto_original": "Saikin Yatotta Maid ga Ayashii",
      "rating": 6.57,
      "classificacao_etaria": "A14",
      "imagem_original": "https://animefire.plus/img/animes/saikin-yatotta-maid-ga-ayashii.webp",
      "imagem_pasta": "https://animefire.plus/img/animes/saikin-yatotta-maid-ga-ayashii/",
      "secao": "legendados",
      "pagina": 30,
      "total_episodios": 11,
      "link_video": "https://animefire.plus/video/saikin-yatotta-maid-ga-ayashii"
    },
    {
      "id": 3197,
      "nome": "Saikin, Imouto no Yousu ga Chotto Okashiinda ga.",
      "link": "https://animefire.plus/animes/saikin-imouto-no-yousu-ga-chotto-okashiinda-ga-todos-os-episodios",
      "texto_original": "Saikin, Imouto no Yousu ga Chotto Okashiinda ga.",
      "rating": 6.38,
      "classificacao_etaria": "A14",
      "imagem_original": "https://animefire.plus/img/animes/saikin-imouto-no-yousu-ga-chotto-okashiinda-ga.webp",
      "imagem_pasta": "https://animefire.plus/img/animes/saikin-imouto-no-yousu-ga-chotto-okashiinda-ga/",
      "secao": "legendados",
      "pagina": 112,
      "total_episodios": 12,
      "link_video": "https://animefire.plus/video/saikin-imouto-no-yousu-ga-chotto-okashiinda-ga"
    },
    {
      "id": 3198,
      "nome": "Saikyou no Ousama, Nidome no Jinsei wa Nani wo Suru?",
      "link": "https://animefire.plus/animes/saikyou-no-ousama-nidome-no-jinsei-wa-nani-wo-suru-todos-os-episodios",
      "texto_original": "Saikyou no Ousama, Nidome no Jinsei wa Nani wo Suru?",
      "rating": 6.14,
      "classificacao_etaria": "A14",
      "imagem_original": "https://animefire.plus/img/animes/saikyou-no-ousama-nidome-no-jinsei-wa-nani-wo-suru.webp",
      "imagem_pasta": "https://animefire.plus/img/animes/saikyou-no-ousama-nidome-no-jinsei-wa-nani-wo-suru/",
      "secao": "legendados",
      "pagina": 6,
      "total_episodios": 12,
      "link_video": "https://animefire.plus/video/saikyou-no-ousama-nidome-no-jinsei-wa-nani-wo-suru"
    },
    {
      "id": 3199,
      "nome": "Saikyou no Shienshoku \"Wajutsushi\" de Aru Ore wa Sekai Saikyou Clan wo Shitagaeru",
      "link": "https://animefire.plus/animes/saikyou-no-shienshoku-wajutsushi-de-aru-ore-wa-sekai-saikyou-clan-wo-shitagaeru-todos-os-episodios",
      "texto_original": "Saikyou no Shienshoku \"Wajutsushi\" de Aru Ore wa Sekai Saikyou Clan wo Shitagaeru",
      "rating": 7.6,
      "classificacao_etaria": "A14",
      "imagem_original": "https://animefire.plus/img/animes/saikyou-no-shienshoku-wajutsushi-de-aru-ore-wa-sekai-saikyou-clan-wo-shitagaeru.webp",
      "imagem_pasta": "https://animefire.plus/img/animes/saikyou-no-shienshoku-wajutsushi-de-aru-ore-wa-sekai-saikyou-clan-wo-shitagaeru/",
      "secao": "legendados",
      "pagina": 11,
      "total_episodios": 12,
      "link_video": "https://animefire.plus/video/saikyou-no-shienshoku-wajutsushi-de-aru-ore-wa-sekai-saikyou-clan-wo-shitagaeru"
    },
    {
      "id": 3200,
      "nome": "Saikyou Onmyouji no Isekai Tenseiki",
      "link": "https://animefire.plus/animes/saikyou-onmyouji-no-isekai-tenseiki-todos-os-episodios",
      "texto_original": "Saikyou Onmyouji no Isekai Tenseiki",
      "rating": 7.11,
      "classificacao_etaria": "A14",
      "imagem_original": "https://animefire.plus/img/animes/saikyou-onmyouji-no-isekai-tenseiki.webp",
      "imagem_pasta": "https://animefire.plus/img/animes/saikyou-onmyouji-no-isekai-tenseiki/",
      "secao": "legendados",
      "pagina": 27,
      "total_episodios": 13,
      "link_video": "https://animefire.plus/video/saikyou-onmyouji-no-isekai-tenseiki"
    },
    {
      "id": 3201,
      "nome": "Saikyou Tank no Meikyuu Kouryaku: Tairyoku 9999 no Rare Skill-mochi Tank, Yuusha Party wo Tsuihou sareru",
      "link": "https://animefire.plus/animes/saikyou-tank-no-meikyuu-kouryaku-tairyoku-9999-no-rare-skill-mochi-tank-yuusha-party-wo-tsuihou-sareru-todos-os-episodios",
      "texto_original": "Saikyou Tank no Meikyuu Kouryaku: Tairyoku 9999 no Rare Skill-mochi Tank, Yuusha Party wo Tsuihou sareru",
      "rating": 6.13,
      "classificacao_etaria": "A14",
      "imagem_original": "https://animefire.plus/img/animes/saikyou-tank-no-meikyuu-kouryaku-tairyoku-9999-no-rare-skill-mochi-tank-yuusha-party-wo-tsuihou-sareru.webp",
      "imagem_pasta": "https://animefire.plus/img/animes/saikyou-tank-no-meikyuu-kouryaku-tairyoku-9999-no-rare-skill-mochi-tank-yuusha-party-wo-tsuihou-sareru/",
      "secao": "legendados",
      "pagina": 17,
      "total_episodios": 2,
      "link_video": "https://animefire.plus/video/saikyou-tank-no-meikyuu-kouryaku-tairyoku-9999-no-rare-skill-mochi-tank-yuusha-party-wo-tsuihou-sareru"
    },
    {
      "id": 3203,
      "nome": "Saint Beast: Kouin Jojishi Tenshi Tan",
      "link": "https://animefire.plus/animes/saint-beast-kouin-jojishi-tenshi-tan-todos-os-episodios",
      "texto_original": "Saint Beast: Kouin Jojishi Tenshi Tan",
      "rating": 6.42,
      "classificacao_etaria": "A14",
      "imagem_original": "https://animefire.plus/img/animes/saint-beast-kouin-jojishi-tenshi-tan.webp",
      "imagem_pasta": "https://animefire.plus/img/animes/saint-beast-kouin-jojishi-tenshi-tan/",
      "secao": "legendados",
      "pagina": 102,
      "total_episodios": 13,
      "link_video": "https://animefire.plus/video/saint-beast-kouin-jojishi-tenshi-tan"
    },
    {
      "id": 3204,
      "nome": "Saint Beast: Seijuu Kourin-hen",
      "link": "https://animefire.plus/animes/saint-beast-seijuu-kourin-hen-todos-os-episodios",
      "texto_original": "Saint Beast: Seijuu Kourin-hen",
      "rating": 6.06,
      "classificacao_etaria": "A14",
      "imagem_original": "https://animefire.plus/img/animes/saint-beast-seijuu-kourin-hen.webp",
      "imagem_pasta": "https://animefire.plus/img/animes/saint-beast-seijuu-kourin-hen/",
      "secao": "legendados",
      "pagina": 139,
      "total_episodios": 6,
      "link_video": "https://animefire.plus/video/saint-beast-seijuu-kourin-hen"
    },
    {
      "id": 3205,
      "nome": "Saint Seiya (Dublado)",
      "link": "https://animefire.plus/animes/saint-seiya-dublado-todos-os-episodios",
      "texto_original": "Saint Seiya (Dublado)",
      "rating": 7.92,
      "classificacao_etaria": "A14",
      "imagem_original": "https://animefire.plus/img/animes/saint-seiya.webp",
      "imagem_pasta": "https://animefire.plus/img/animes/saint-seiya/",
      "secao": "dublados,legendados",
      "pagina": 28,
      "total_episodios": 145,
      "link_video": "https://animefire.plus/video/saint-seiya-dublado"
    },
    {
      "id": 3206,
      "nome": "Saint Seiya Omega (Dublado)",
      "link": "https://animefire.plus/animes/saint-seiya-omega-dublado-todos-os-episodios",
      "texto_original": "Saint Seiya Omega (Dublado)",
      "rating": 6.3,
      "classificacao_etaria": "A14",
      "imagem_original": "https://animefire.plus/img/animes/saint-seiya-omega.webp",
      "imagem_pasta": "https://animefire.plus/img/animes/saint-seiya-omega/",
      "secao": "dublados",
      "pagina": 20,
      "total_episodios": 97,
      "link_video": "https://animefire.plus/video/saint-seiya-omega-dublado"
    },
    {
      "id": 3207,
      "nome": "Saint Seiya: Knights of the Zodiac - Battle Sanctuary Part 2",
      "link": "https://animefire.plus/animes/saint-seiya-knights-of-the-zodiac---battle-sanctuary-part-2-todos-os-episodios",
      "texto_original": "Saint Seiya: Knights of the Zodiac - Battle Sanctuary Part 2",
      "rating": 6.44,
      "classificacao_etaria": "A14",
      "imagem_original": "https://animefire.plus/img/animes/saint-seiya-knights-of-the-zodiac---battle-sanctuary-part-2.webp",
      "imagem_pasta": "https://animefire.plus/img/animes/saint-seiya-knights-of-the-zodiac---battle-sanctuary-part-2/",
      "secao": "legendados,lancamentos",
      "pagina": 14,
      "total_episodios": 2,
      "link_video": "https://animefire.plus/video/saint-seiya-knights-of-the-zodiac---battle-sanctuary-part-2"
    },
    {
      "id": 3208,
      "nome": "Saint Seiya: Meiou Hades Elysion-hen",
      "link": "https://animefire.plus/animes/saint-seiya-meiou-hades-elysion-hen-todos-os-episodios",
      "texto_original": "Saint Seiya: Meiou Hades Elysion-hen",
      "rating": 7.62,
      "classificacao_etaria": "A14",
      "imagem_original": "https://animefire.plus/img/animes/saint-seiya-meiou-hades-elysion-hen.webp",
      "imagem_pasta": "https://animefire.plus/img/animes/saint-seiya-meiou-hades-elysion-hen/",
      "secao": "legendados",
      "pagina": 71,
      "total_episodios": 6,
      "link_video": "https://animefire.plus/video/saint-seiya-meiou-hades-elysion-hen"
    },
    {
      "id": 3209,
      "nome": "Saint Seiya: Meiou Hades Meikai-hen",
      "link": "https://animefire.plus/animes/saint-seiya-meiou-hades-meikai-hen-todos-os-episodios",
      "texto_original": "Saint Seiya: Meiou Hades Meikai-hen",
      "rating": 7.79,
      "classificacao_etaria": "A14",
      "imagem_original": "https://animefire.plus/img/animes/saint-seiya-meiou-hades-meikai-hen.webp",
      "imagem_pasta": "https://animefire.plus/img/animes/saint-seiya-meiou-hades-meikai-hen/",
      "secao": "legendados",
      "pagina": 64,
      "total_episodios": 12,
      "link_video": "https://animefire.plus/video/saint-seiya-meiou-hades-meikai-hen"
    },
    {
      "id": 3210,
      "nome": "Saint Seiya: Saintia Shou",
      "link": "https://animefire.plus/animes/saint-seiya-saintia-shou-todos-os-episodios",
      "texto_original": "Saint Seiya: Saintia Shou",
      "rating": 5.7,
      "classificacao_etaria": "A14",
      "imagem_original": "https://animefire.plus/img/animes/saint-seiya-saintia-shou.webp",
      "imagem_pasta": "https://animefire.plus/img/animes/saint-seiya-saintia-shou/",
      "secao": "legendados",
      "pagina": 139,
      "total_episodios": 10,
      "link_video": "https://animefire.plus/video/saint-seiya-saintia-shou"
    },
    {
      "id": 3211,
      "nome": "Saint Seiya: Soul of Gold (Dublado)",
      "link": "https://animefire.plus/animes/saint-seiya-soul-of-gold-dublado-todos-os-episodios",
      "texto_original": "Saint Seiya: Soul of Gold (Dublado)",
      "rating": 7.07,
      "classificacao_etaria": "A14",
      "imagem_original": "https://animefire.plus/img/animes/saint-seiya-soul-of-gold.webp",
      "imagem_pasta": "https://animefire.plus/img/animes/saint-seiya-soul-of-gold/",
      "secao": "dublados",
      "pagina": 20,
      "total_episodios": 13,
      "link_video": "https://animefire.plus/video/saint-seiya-soul-of-gold-dublado"
    },
    {
      "id": 3212,
      "nome": "Saint Seiya: The Lost Canvas - Meiou Shinwa (Dublado)",
      "link": "https://animefire.plus/animes/saint-seiya-the-lost-canvas---meiou-shinwa-dublado-todos-os-episodios",
      "texto_original": "Saint Seiya: The Lost Canvas - Meiou Shinwa (Dublado)",
      "rating": 7.98,
      "classificacao_etaria": "A14",
      "imagem_original": "https://animefire.plus/img/animes/saint-seiya-the-lost-canvas---meiou-shinwa.webp",
      "imagem_pasta": "https://animefire.plus/img/animes/saint-seiya-the-lost-canvas---meiou-shinwa/",
      "secao": "dublados,legendados",
      "pagina": 17,
      "total_episodios": 13,
      "link_video": "https://animefire.plus/video/saint-seiya-the-lost-canvas---meiou-shinwa-dublado"
    },
    {
      "id": 3213,
      "nome": "Saint Seiya: The Lost Canvas - Meiou Shinwa 2 (Dublado)",
      "link": "https://animefire.plus/animes/saint-seiya-the-lost-canvas---meiou-shinwa-2-dublado-todos-os-episodios",
      "texto_original": "Saint Seiya: The Lost Canvas - Meiou Shinwa 2 (Dublado)",
      "rating": 8.1,
      "classificacao_etaria": "A14",
      "imagem_original": "https://animefire.plus/img/animes/saint-seiya-the-lost-canvas---meiou-shinwa-2.webp",
      "imagem_pasta": "https://animefire.plus/img/animes/saint-seiya-the-lost-canvas---meiou-shinwa-2/",
      "secao": "dublados,legendados",
      "pagina": 17,
      "total_episodios": 13,
      "link_video": "https://animefire.plus/video/saint-seiya-the-lost-canvas---meiou-shinwa-2-dublado"
    },
    {
      "id": 3215,
      "nome": "Saiunkoku Monogatari",
      "link": "https://animefire.plus/animes/saiunkoku-monogatari-todos-os-episodios",
      "texto_original": "Saiunkoku Monogatari",
      "rating": 8.02,
      "classificacao_etaria": "A14",
      "imagem_original": "https://animefire.plus/img/animes/saiunkoku-monogatari.webp",
      "imagem_pasta": "https://animefire.plus/img/animes/saiunkoku-monogatari/",
      "secao": "legendados",
      "pagina": 129,
      "total_episodios": 39,
      "link_video": "https://animefire.plus/video/saiunkoku-monogatari"
    }
  ],
  "pagination": {
    "current_page": 107,
    "per_page": 20,
    "total_items": 2988,
    "total_pages": 150,
    "has_next": true,
    "has_prev": true
  }
}
