{
  "message": "Animes com classificação etária: A14",
  "age_rating": "A14",
  "data": [
    {
      "id": 1184,
      "nome": "Gintama': Futon ni Haitte kara Buki Nokoshi ni Kizuite Neru ni Nerenai Toki mo Aru",
      "link": "https://animefire.plus/animes/gintama-futon-ni-haitte-kara-buki-nokoshi-ni-kizuite-neru-ni-nerenai-toki-mo-aru-todos-os-episodios",
      "texto_original": "Gintama': Futon ni Haitte kara Buki Nokoshi ni Kizuite Neru ni Nerenai Toki mo Aru",
      "rating": 8.11,
      "classificacao_etaria": "A14",
      "imagem_original": "https://animefire.plus/img/animes/gintama-futon-ni-haitte-kara-buki-nokoshi-ni-kizuite-neru-ni-nerenai-toki-mo-aru.webp",
      "imagem_pasta": "https://animefire.plus/img/animes/gintama-futon-ni-haitte-kara-buki-nokoshi-ni-kizuite-neru-ni-nerenai-toki-mo-aru/",
      "secao": "legendados",
      "pagina": 68,
      "total_episodios": 1,
      "link_video": "https://animefire.plus/video/gintama-futon-ni-haitte-kara-buki-nokoshi-ni-kizuite-neru-ni-nerenai-toki-mo-aru"
    },
    {
      "id": 1185,
      "nome": "Gintama°",
      "link": "https://animefire.plus/animes/gintama-season-4-todos-os-episodios",
      "texto_original": "Gintama°",
      "rating": 9.11,
      "classificacao_etaria": "A14",
      "imagem_original": "https://animefire.plus/img/animes/gintama-season-4.webp",
      "imagem_pasta": "https://animefire.plus/img/animes/gintama-season-4/",
      "secao": "legendados",
      "pagina": 53,
      "total_episodios": 51,
      "link_video": "https://animefire.plus/video/gintama-season-4"
    },
    {
      "id": 1186,
      "nome": "Gintama°: Umai-mono wa Atomawashi ni Suru to Yokodorisareru kara Yappari Saki ni Kue",
      "link": "https://animefire.plus/animes/gintama-umai-mono-wa-atomawashi-ni-suru-to-yokodorisareru-kara-yappari-saki-ni-kue-todos-os-episodios",
      "texto_original": "Gintama°: Umai-mono wa Atomawashi ni Suru to Yokodorisareru kara Yappari Saki ni Kue",
      "rating": 8.1,
      "classificacao_etaria": "A14",
      "imagem_original": "https://animefire.plus/img/animes/gintama-umai-mono-wa-atomawashi-ni-suru-to-yokodorisareru-kara-yappari-saki-ni-kue.webp",
      "imagem_pasta": "https://animefire.plus/img/animes/gintama-umai-mono-wa-atomawashi-ni-suru-to-yokodorisareru-kara-yappari-saki-ni-kue/",
      "secao": "legendados",
      "pagina": 68,
      "total_episodios": 1,
      "link_video": "https://animefire.plus/video/gintama-umai-mono-wa-atomawashi-ni-suru-to-yokodorisareru-kara-yappari-saki-ni-kue"
    },
    {
      "id": 1187,
      "nome": "Ginyuu Mokushiroku Meine Liebe",
      "link": "https://animefire.plus/animes/ginyuu-mokushiroku-meine-liebe-todos-os-episodios",
      "texto_original": "Ginyuu Mokushiroku Meine Liebe",
      "rating": 6.5,
      "classificacao_etaria": "A14",
      "imagem_original": "https://animefire.plus/img/animes/ginyuu-mokushiroku-meine-liebe.webp",
      "imagem_pasta": "https://animefire.plus/img/animes/ginyuu-mokushiroku-meine-liebe/",
      "secao": "legendados",
      "pagina": 105,
      "total_episodios": 13,
      "link_video": "https://animefire.plus/video/ginyuu-mokushiroku-meine-liebe"
    },
    {
      "id": 1188,
      "nome": "Ginyuu Mokushiroku Meine Liebe Wieder",
      "link": "https://animefire.plus/animes/ginyuu-mokushiroku-meine-liebe-wieder-todos-os-episodios",
      "texto_original": "Ginyuu Mokushiroku Meine Liebe Wieder",
      "rating": 6.76,
      "classificacao_etaria": "A14",
      "imagem_original": "https://animefire.plus/img/animes/ginyuu-mokushiroku-meine-liebe-wieder.webp",
      "imagem_pasta": "https://animefire.plus/img/animes/ginyuu-mokushiroku-meine-liebe-wieder/",
      "secao": "legendados",
      "pagina": 104,
      "total_episodios": 13,
      "link_video": "https://animefire.plus/video/ginyuu-mokushiroku-meine-liebe-wieder"
    },
    {
      "id": 1189,
      "nome": "Girls & Panzer",
      "link": "https://animefire.plus/animes/girls-panzer-todos-os-episodios",
      "texto_original": "Girls & Panzer",
      "rating": 7.63,
      "classificacao_etaria": "A14",
      "imagem_original": "https://animefire.plus/img/animes/girls-panzer.webp",
      "imagem_pasta": "https://animefire.plus/img/animes/girls-panzer/",
      "secao": "legendados",
      "pagina": 115,
      "total_episodios": 12,
      "link_video": "https://animefire.plus/video/girls-panzer"
    },
    {
      "id": 1190,
      "nome": "Girls Band Cry",
      "link": "https://animefire.plus/animes/girls-band-cry-todos-os-episodios",
      "texto_original": "Girls Band Cry",
      "rating": 8.22,
      "classificacao_etaria": "A14",
      "imagem_original": "https://animefire.plus/img/animes/girls-band-cry.webp",
      "imagem_pasta": "https://animefire.plus/img/animes/girls-band-cry/",
      "secao": "legendados,lancamentos",
      "pagina": 13,
      "total_episodios": 3,
      "link_video": "https://animefire.plus/video/girls-band-cry"
    },
    {
      "id": 1193,
      "nome": "Girly Air Force",
      "link": "https://animefire.plus/animes/girly-air-force-todos-os-episodios",
      "texto_original": "Girly Air Force",
      "rating": 6.18,
      "classificacao_etaria": "A14",
      "imagem_original": "https://animefire.plus/img/animes/girly-air-force.webp",
      "imagem_pasta": "https://animefire.plus/img/animes/girly-air-force/",
      "secao": "legendados",
      "pagina": 117,
      "total_episodios": 6,
      "link_video": "https://animefire.plus/video/girly-air-force"
    },
    {
      "id": 1194,
      "nome": "Given (Dublado)",
      "link": "https://animefire.plus/animes/given-dublado-todos-os-episodios",
      "texto_original": "Given (Dublado)",
      "rating": 8.34,
      "classificacao_etaria": "A14",
      "imagem_original": "https://animefire.plus/img/animes/given.webp",
      "imagem_pasta": "https://animefire.plus/img/animes/given/",
      "secao": "dublados,legendados",
      "pagina": 7,
      "total_episodios": 11,
      "link_video": "https://animefire.plus/video/given-dublado"
    },
    {
      "id": 1195,
      "nome": "Given: Uragawa no Sonzai",
      "link": "https://animefire.plus/animes/given-uragawa-no-sonzai-todos-os-episodios",
      "texto_original": "Given: Uragawa no Sonzai",
      "rating": 8.13,
      "classificacao_etaria": "A14",
      "imagem_original": "https://animefire.plus/img/animes/given-uragawa-no-sonzai.webp",
      "imagem_pasta": "https://animefire.plus/img/animes/given-uragawa-no-sonzai/",
      "secao": "legendados",
      "pagina": 38,
      "total_episodios": 1,
      "link_video": "https://animefire.plus/video/given-uragawa-no-sonzai"
    },
    {
      "id": 1196,
      "nome": "GJ-bu",
      "link": "https://animefire.plus/animes/gj-bu-todos-os-episodios",
      "texto_original": "GJ-bu",
      "rating": 7.41,
      "classificacao_etaria": "A14",
      "imagem_original": "https://animefire.plus/img/animes/gj-bu.webp",
      "imagem_pasta": "https://animefire.plus/img/animes/gj-bu/",
      "secao": "legendados",
      "pagina": 176,
      "total_episodios": 12,
      "link_video": "https://animefire.plus/video/gj-bu"
    },
    {
      "id": 1198,
      "nome": "Glass no Kantai: La Legende du Vent de l'Univers",
      "link": "https://animefire.plus/animes/glass-no-kantai-la-legende-du-vent-de-l-univers-todos-os-episodios",
      "texto_original": "Glass no Kantai: La Legende du Vent de l'Univers",
      "rating": 6.63,
      "classificacao_etaria": "A14",
      "imagem_original": "https://animefire.plus/img/animes/glass-no-kantai-la-legende-du-vent-de-l-univers.webp",
      "imagem_pasta": "https://animefire.plus/img/animes/glass-no-kantai-la-legende-du-vent-de-l-univers/",
      "secao": "legendados",
      "pagina": 138,
      "total_episodios": 0,
      "link_video": "https://animefire.plus/video/glass-no-kantai-la-legende-du-vent-de-l-univers"
    },
    {
      "id": 1199,
      "nome": "Glasslip",
      "link": "https://animefire.plus/animes/glasslip-todos-os-episodios",
      "texto_original": "Glasslip",
      "rating": 5.53,
      "classificacao_etaria": "A14",
      "imagem_original": "https://animefire.plus/img/animes/glasslip.webp",
      "imagem_pasta": "https://animefire.plus/img/animes/glasslip/",
      "secao": "legendados",
      "pagina": 129,
      "total_episodios": 13,
      "link_video": "https://animefire.plus/video/glasslip"
    },
    {
      "id": 1201,
      "nome": "Go! Go! 575",
      "link": "https://animefire.plus/animes/go-go-575-todos-os-episodios",
      "texto_original": "Go! Go! 575",
      "rating": 5.69,
      "classificacao_etaria": "A14",
      "imagem_original": "https://animefire.plus/img/animes/go-go-575.webp",
      "imagem_pasta": "https://animefire.plus/img/animes/go-go-575/",
      "secao": "legendados",
      "pagina": 151,
      "total_episodios": 4,
      "link_video": "https://animefire.plus/video/go-go-575"
    },
    {
      "id": 1205,
      "nome": "Gochuumon wa Usagi Desu ka?",
      "link": "https://animefire.plus/animes/gochuumon-wa-usagi-desu-ka-todos-os-episodios",
      "texto_original": "Gochuumon wa Usagi Desu ka?",
      "rating": 7.58,
      "classificacao_etaria": "A14",
      "imagem_original": "https://animefire.plus/img/animes/gochuumon-wa-usagi-desu-ka.webp",
      "imagem_pasta": "https://animefire.plus/img/animes/gochuumon-wa-usagi-desu-ka/",
      "secao": "legendados",
      "pagina": 172,
      "total_episodios": 13,
      "link_video": "https://animefire.plus/video/gochuumon-wa-usagi-desu-ka"
    },
    {
      "id": 1206,
      "nome": "Gochuumon wa Usagi Desu ka? BLOOM",
      "link": "https://animefire.plus/animes/gochuumon-wa-usagi-desu-ka-bloom-todos-os-episodios",
      "texto_original": "Gochuumon wa Usagi Desu ka? BLOOM",
      "rating": null,
      "classificacao_etaria": "A14",
      "imagem_original": "https://animefire.plus/img/animes/gochuumon-wa-usagi-desu-ka-bloom.webp",
      "imagem_pasta": "https://animefire.plus/img/animes/gochuumon-wa-usagi-desu-ka-bloom/",
      "secao": "legendados",
      "pagina": 51,
      "total_episodios": 12,
      "link_video": "https://animefire.plus/video/gochuumon-wa-usagi-desu-ka-bloom"
    },
    {
      "id": 1207,
      "nome": "Gochuumon wa Usagi Desu ka??",
      "link": "https://animefire.plus/animes/is-the-order-a-rabbit-todos-os-episodios",
      "texto_original": "Gochuumon wa Usagi Desu ka??",
      "rating": 7.84,
      "classificacao_etaria": "A14",
      "imagem_original": "https://animefire.plus/img/animes/is-the-order-a-rabbit.webp",
      "imagem_pasta": "https://animefire.plus/img/animes/is-the-order-a-rabbit/",
      "secao": "legendados",
      "pagina": 51,
      "total_episodios": 12,
      "link_video": "https://animefire.plus/video/is-the-order-a-rabbit"
    },
    {
      "id": 1208,
      "nome": "Gochuumon wa Usagi Desu ka??: Sing for You",
      "link": "https://animefire.plus/animes/gochuumon-wa-usagi-desu-ka-sing-for-you-todos-os-episodios",
      "texto_original": "Gochuumon wa Usagi Desu ka??: Sing for You",
      "rating": 7.73,
      "classificacao_etaria": "A14",
      "imagem_original": "https://animefire.plus/img/animes/gochuumon-wa-usagi-desu-ka-sing-for-you.webp",
      "imagem_pasta": "https://animefire.plus/img/animes/gochuumon-wa-usagi-desu-ka-sing-for-you/",
      "secao": "legendados",
      "pagina": 88,
      "total_episodios": 1,
      "link_video": "https://animefire.plus/video/gochuumon-wa-usagi-desu-ka-sing-for-you"
    },
    {
      "id": 1210,
      "nome": "Godzilla: S.P (Dublado)",
      "link": "https://animefire.plus/animes/godzilla-s-p-dublado-todos-os-episodios",
      "texto_original": "Godzilla: S.P (Dublado)",
      "rating": 6.65,
      "classificacao_etaria": "A14",
      "imagem_original": "https://animefire.plus/img/animes/godzilla-s-p.webp",
      "imagem_pasta": "https://animefire.plus/img/animes/godzilla-s-p/",
      "secao": "dublados,legendados",
      "pagina": 17,
      "total_episodios": 13,
      "link_video": "https://animefire.plus/video/godzilla-s-p-dublado"
    },
    {
      "id": 1211,
      "nome": "Gokinjo Monogatari",
      "link": "https://animefire.plus/animes/gokinjo-monogatari-todos-os-episodios",
      "texto_original": "Gokinjo Monogatari",
      "rating": 7.46,
      "classificacao_etaria": "A14",
      "imagem_original": "https://animefire.plus/img/animes/gokinjo-monogatari.webp",
      "imagem_pasta": "https://animefire.plus/img/animes/gokinjo-monogatari/",
      "secao": "legendados",
      "pagina": 77,
      "total_episodios": 50,
      "link_video": "https://animefire.plus/video/gokinjo-monogatari"
    }
  ],
  "pagination": {
    "current_page": 39,
    "per_page": 20,
    "total_items": 2988,
    "total_pages": 150,
    "has_next": true,
    "has_prev": true
  }
}
