{
  "message": "Animes com classificação etária: A14",
  "age_rating": "A14",
  "data": [
    {
      "id": 3307,
      "nome": "Seisenshi Dunbine OVA",
      "link": "https://animefire.plus/animes/seisenshi-dunbine-ova-todos-os-episodios",
      "texto_original": "Seisenshi Dunbine OVA",
      "rating": 5.8,
      "classificacao_etaria": "A14",
      "imagem_original": "https://animefire.plus/img/animes/seisenshi-dunbine-ova.webp",
      "imagem_pasta": "https://animefire.plus/img/animes/seisenshi-dunbine-ova/",
      "secao": "legendados",
      "pagina": 142,
      "total_episodios": 3,
      "link_video": "https://animefire.plus/video/seisenshi-dunbine-ova"
    },
    {
      "id": 3308,
      "nome": "Seishun Buta Yarou wa Bunny Girl Senpai no Yume wo Minai",
      "link": "https://animefire.plus/animes/seishun-buta-yarou-wa-bunny-girl-senpai-no-yume-wo-minai-todos-os-episodios",
      "texto_original": "Seishun Buta Yarou wa Bunny Girl Senpai no Yume wo Minai",
      "rating": 8.47,
      "classificacao_etaria": "A14",
      "imagem_original": "https://animefire.plus/img/animes/seishun-buta-yarou-wa-bunny-girl-senpai-no-yume-wo-minai.webp",
      "imagem_pasta": "https://animefire.plus/img/animes/seishun-buta-yarou-wa-bunny-girl-senpai-no-yume-wo-minai/",
      "secao": "legendados",
      "pagina": 146,
      "total_episodios": 13,
      "link_video": "https://animefire.plus/video/seishun-buta-yarou-wa-bunny-girl-senpai-no-yume-wo-minai"
    },
    {
      "id": 3309,
      "nome": "Seishun Buta Yarou wa Santa Claus no Yume wo Minai",
      "link": "https://animefire.plus/animes/seishun-buta-yarou-wa-santa-claus-no-yume-wo-minai-todos-os-episodios",
      "texto_original": "Seishun Buta Yarou wa Santa Claus no Yume wo Minai",
      "rating": 8.34,
      "classificacao_etaria": "A14",
      "imagem_original": "https://animefire.plus/img/animes/seishun-buta-yarou-wa-santa-claus-no-yume-wo-minai.webp",
      "imagem_pasta": "https://animefire.plus/img/animes/seishun-buta-yarou-wa-santa-claus-no-yume-wo-minai/",
      "secao": "legendados,lancamentos",
      "pagina": 3,
      "total_episodios": 5,
      "link_video": "https://animefire.plus/video/seishun-buta-yarou-wa-santa-claus-no-yume-wo-minai"
    },
    {
      "id": 3310,
      "nome": "Seitokai No Ichizon",
      "link": "https://animefire.plus/animes/seitokai-no-ichizon-todos-os-episodios",
      "texto_original": "Seitokai No Ichizon",
      "rating": 7.42,
      "classificacao_etaria": "A14",
      "imagem_original": "https://animefire.plus/img/animes/seitokai-no-ichizon.webp",
      "imagem_pasta": "https://animefire.plus/img/animes/seitokai-no-ichizon/",
      "secao": "legendados",
      "pagina": 99,
      "total_episodios": 12,
      "link_video": "https://animefire.plus/video/seitokai-no-ichizon"
    },
    {
      "id": 3311,
      "nome": "Seitokai no Ichizon Lv.2",
      "link": "https://animefire.plus/animes/seitokai-no-ichizon-lv-2-todos-os-episodios",
      "texto_original": "Seitokai no Ichizon Lv.2",
      "rating": 7.43,
      "classificacao_etaria": "A14",
      "imagem_original": "https://animefire.plus/img/animes/seitokai-no-ichizon-lv-2.webp",
      "imagem_pasta": "https://animefire.plus/img/animes/seitokai-no-ichizon-lv-2/",
      "secao": "legendados",
      "pagina": 122,
      "total_episodios": 10,
      "link_video": "https://animefire.plus/video/seitokai-no-ichizon-lv-2"
    },
    {
      "id": 3312,
      "nome": "Seitokai no Ichizon Lv.2: Watasu Seitokai",
      "link": "https://animefire.plus/animes/seitokai-no-ichizon-lv-2-watasu-seitokai-todos-os-episodios",
      "texto_original": "Seitokai no Ichizon Lv.2: Watasu Seitokai",
      "rating": 7.35,
      "classificacao_etaria": "A14",
      "imagem_original": "https://animefire.plus/img/animes/seitokai-no-ichizon-lv-2-watasu-seitokai.webp",
      "imagem_pasta": "https://animefire.plus/img/animes/seitokai-no-ichizon-lv-2-watasu-seitokai/",
      "secao": "legendados",
      "pagina": 86,
      "total_episodios": 1,
      "link_video": "https://animefire.plus/video/seitokai-no-ichizon-lv-2-watasu-seitokai"
    },
    {
      "id": 3315,
      "nome": "Seiyuu Radio no Uraomote",
      "link": "https://animefire.plus/animes/seiyuu-radio-no-uraomote-todos-os-episodios",
      "texto_original": "Seiyuu Radio no Uraomote",
      "rating": 6.95,
      "classificacao_etaria": "A14",
      "imagem_original": "https://animefire.plus/img/animes/seiyuu-radio-no-uraomote.webp",
      "imagem_pasta": "https://animefire.plus/img/animes/seiyuu-radio-no-uraomote/",
      "secao": "legendados",
      "pagina": 14,
      "total_episodios": 12,
      "link_video": "https://animefire.plus/video/seiyuu-radio-no-uraomote"
    },
    {
      "id": 3318,
      "nome": "Sekai Saikou no Ansatsusha, Isekai Kizoku ni Tensei suru (Dublado)",
      "link": "https://animefire.plus/animes/sekai-saikou-no-ansatsusha-isekai-kizoku-ni-tensei-suru-dublado-todos-os-episodios",
      "texto_original": "Sekai Saikou no Ansatsusha, Isekai Kizoku ni Tensei suru (Dublado)",
      "rating": 7.33,
      "classificacao_etaria": "A14",
      "imagem_original": "https://animefire.plus/img/animes/sekai-saikou-no-ansatsusha-isekai-kizoku-ni-tensei-suru.webp",
      "imagem_pasta": "https://animefire.plus/img/animes/sekai-saikou-no-ansatsusha-isekai-kizoku-ni-tensei-suru/",
      "secao": "dublados,legendados",
      "pagina": 14,
      "total_episodios": 12,
      "link_video": "https://animefire.plus/video/sekai-saikou-no-ansatsusha-isekai-kizoku-ni-tensei-suru-dublado"
    },
    {
      "id": 3319,
      "nome": "Sekai Seifuku: Bouryaku no Zvezda",
      "link": "https://animefire.plus/animes/sekai-seifuku-bouryaku-no-zvezda-todos-os-episodios",
      "texto_original": "Sekai Seifuku: Bouryaku no Zvezda",
      "rating": 7.14,
      "classificacao_etaria": "A14",
      "imagem_original": "https://animefire.plus/img/animes/sekai-seifuku-bouryaku-no-zvezda.webp",
      "imagem_pasta": "https://animefire.plus/img/animes/sekai-seifuku-bouryaku-no-zvezda/",
      "secao": "legendados",
      "pagina": 177,
      "total_episodios": 12,
      "link_video": "https://animefire.plus/video/sekai-seifuku-bouryaku-no-zvezda"
    },
    {
      "id": 3320,
      "nome": "Sekai Seifuku: Bouryaku no Zvezda - Shin Zvezda Daisakusen",
      "link": "https://animefire.plus/animes/sekai-seifuku-bouryaku-no-zvezda---shin-zvezda-daisakusen-todos-os-episodios",
      "texto_original": "Sekai Seifuku: Bouryaku no Zvezda - Shin Zvezda Daisakusen",
      "rating": 6.74,
      "classificacao_etaria": "A14",
      "imagem_original": "https://animefire.plus/img/animes/sekai-seifuku-bouryaku-no-zvezda---shin-zvezda-daisakusen.webp",
      "imagem_pasta": "https://animefire.plus/img/animes/sekai-seifuku-bouryaku-no-zvezda---shin-zvezda-daisakusen/",
      "secao": "legendados",
      "pagina": 43,
      "total_episodios": 1,
      "link_video": "https://animefire.plus/video/sekai-seifuku-bouryaku-no-zvezda---shin-zvezda-daisakusen"
    },
    {
      "id": 3321,
      "nome": "Sekaiichi Hatsukoi",
      "link": "https://animefire.plus/animes/sekaiichi-hatsukoi-todos-os-episodios",
      "texto_original": "Sekaiichi Hatsukoi",
      "rating": 8.01,
      "classificacao_etaria": "A14",
      "imagem_original": "https://animefire.plus/img/animes/sekaiichi-hatsukoi.webp",
      "imagem_pasta": "https://animefire.plus/img/animes/sekaiichi-hatsukoi/",
      "secao": "legendados",
      "pagina": 161,
      "total_episodios": 5,
      "link_video": "https://animefire.plus/video/sekaiichi-hatsukoi"
    },
    {
      "id": 3322,
      "nome": "Sekaiichi Hatsukoi 2",
      "link": "https://animefire.plus/animes/sekaiichi-hatsukoi-2-todos-os-episodios",
      "texto_original": "Sekaiichi Hatsukoi 2",
      "rating": 8.18,
      "classificacao_etaria": "A14",
      "imagem_original": "https://animefire.plus/img/animes/sekaiichi-hatsukoi-2.webp",
      "imagem_pasta": "https://animefire.plus/img/animes/sekaiichi-hatsukoi-2/",
      "secao": "legendados",
      "pagina": 161,
      "total_episodios": 3,
      "link_video": "https://animefire.plus/video/sekaiichi-hatsukoi-2"
    },
    {
      "id": 3325,
      "nome": "Sekkou Boys",
      "link": "https://animefire.plus/animes/sekkou-boys-todos-os-episodios",
      "texto_original": "Sekkou Boys",
      "rating": 6.33,
      "classificacao_etaria": "A14",
      "imagem_original": "https://animefire.plus/img/animes/sekkou-boys.webp",
      "imagem_pasta": "https://animefire.plus/img/animes/sekkou-boys/",
      "secao": "legendados",
      "pagina": 97,
      "total_episodios": 12,
      "link_video": "https://animefire.plus/video/sekkou-boys"
    },
    {
      "id": 3326,
      "nome": "Selection Project",
      "link": "https://animefire.plus/animes/selection-project-todos-os-episodios",
      "texto_original": "Selection Project",
      "rating": 7.26,
      "classificacao_etaria": "A14",
      "imagem_original": "https://animefire.plus/img/animes/selection-project.webp",
      "imagem_pasta": "https://animefire.plus/img/animes/selection-project/",
      "secao": "legendados",
      "pagina": 38,
      "total_episodios": 13,
      "link_video": "https://animefire.plus/video/selection-project"
    },
    {
      "id": 3329,
      "nome": "Sengoku Basara",
      "link": "https://animefire.plus/animes/sengoku-basara-todos-os-episodios",
      "texto_original": "Sengoku Basara",
      "rating": 7.47,
      "classificacao_etaria": "A14",
      "imagem_original": "https://animefire.plus/img/animes/sengoku-basara.webp",
      "imagem_pasta": "https://animefire.plus/img/animes/sengoku-basara/",
      "secao": "legendados",
      "pagina": 130,
      "total_episodios": 7,
      "link_video": "https://animefire.plus/video/sengoku-basara"
    },
    {
      "id": 3330,
      "nome": "Sengoku Basara Two",
      "link": "https://animefire.plus/animes/sengoku-basara-two-todos-os-episodios",
      "texto_original": "Sengoku Basara Two",
      "rating": 7.63,
      "classificacao_etaria": "A14",
      "imagem_original": "https://animefire.plus/img/animes/sengoku-basara-two.webp",
      "imagem_pasta": "https://animefire.plus/img/animes/sengoku-basara-two/",
      "secao": "legendados",
      "pagina": 105,
      "total_episodios": 12,
      "link_video": "https://animefire.plus/video/sengoku-basara-two"
    },
    {
      "id": 3331,
      "nome": "Sengoku Basara Two: Ryuko, Itadaki no Chikai! Atsuki Mirai e Kakeru Tamashii!!",
      "link": "https://animefire.plus/animes/sengoku-basara-two-ryuko-itadaki-no-chikai-atsuki-mirai-e-kakeru-tamashii-todos-os-episodios",
      "texto_original": "Sengoku Basara Two: Ryuko, Itadaki no Chikai! Atsuki Mirai e Kakeru Tamashii!!",
      "rating": 7.29,
      "classificacao_etaria": "A14",
      "imagem_original": "https://animefire.plus/img/animes/sengoku-basara-two-ryuko-itadaki-no-chikai-atsuki-mirai-e-kakeru-tamashii.webp",
      "imagem_pasta": "https://animefire.plus/img/animes/sengoku-basara-two-ryuko-itadaki-no-chikai-atsuki-mirai-e-kakeru-tamashii/",
      "secao": "legendados",
      "pagina": 70,
      "total_episodios": 1,
      "link_video": "https://animefire.plus/video/sengoku-basara-two-ryuko-itadaki-no-chikai-atsuki-mirai-e-kakeru-tamashii"
    },
    {
      "id": 3332,
      "nome": "Sengoku Basara: Judge End",
      "link": "https://animefire.plus/animes/sengoku-basara-judge-end-todos-os-episodios",
      "texto_original": "Sengoku Basara: Judge End",
      "rating": 6.93,
      "classificacao_etaria": "A14",
      "imagem_original": "https://animefire.plus/img/animes/sengoku-basara-judge-end.webp",
      "imagem_pasta": "https://animefire.plus/img/animes/sengoku-basara-judge-end/",
      "secao": "legendados",
      "pagina": 176,
      "total_episodios": 6,
      "link_video": "https://animefire.plus/video/sengoku-basara-judge-end"
    },
    {
      "id": 3333,
      "nome": "Sengoku Collection",
      "link": "https://animefire.plus/animes/sengoku-collection-todos-os-episodios",
      "texto_original": "Sengoku Collection",
      "rating": 6.45,
      "classificacao_etaria": "A14",
      "imagem_original": "https://animefire.plus/img/animes/sengoku-collection.webp",
      "imagem_pasta": "https://animefire.plus/img/animes/sengoku-collection/",
      "secao": "legendados",
      "pagina": 55,
      "total_episodios": 26,
      "link_video": "https://animefire.plus/video/sengoku-collection"
    },
    {
      "id": 3334,
      "nome": "Sengoku Night Blood",
      "link": "https://animefire.plus/animes/sengoku-night-blood-todos-os-episodios",
      "texto_original": "Sengoku Night Blood",
      "rating": 6.16,
      "classificacao_etaria": "A14",
      "imagem_original": "https://animefire.plus/img/animes/sengoku-night-blood.webp",
      "imagem_pasta": "https://animefire.plus/img/animes/sengoku-night-blood/",
      "secao": "legendados",
      "pagina": 102,
      "total_episodios": 9,
      "link_video": "https://animefire.plus/video/sengoku-night-blood"
    }
  ],
  "pagination": {
    "current_page": 111,
    "per_page": 20,
    "total_items": 2988,
    "total_pages": 150,
    "has_next": true,
    "has_prev": true
  }
}
