{
  "message": "Animes com classificação etária: A14",
  "age_rating": "A14",
  "data": [
    {
      "id": 1094,
      "nome": "Galaxy Angel (Dublado)",
      "link": "https://animefire.plus/animes/galaxy-angel-dublado-todos-os-episodios",
      "texto_original": "Galaxy Angel (Dublado)",
      "rating": 7.02,
      "classificacao_etaria": "A14",
      "imagem_original": "https://animefire.plus/img/animes/galaxy-angel.webp",
      "imagem_pasta": "https://animefire.plus/img/animes/galaxy-angel/",
      "secao": "dublados,legendados",
      "pagina": 17,
      "total_episodios": 26,
      "link_video": "https://animefire.plus/video/galaxy-angel-dublado"
    },
    {
      "id": 1095,
      "nome": "Galaxy Angel Music Collection: Shouen to Shien no Cassoulet",
      "link": "https://animefire.plus/animes/galaxy-angel-music-collection-shouen-to-shien-no-cassoulet-todos-os-episodios",
      "texto_original": "Galaxy Angel Music Collection: Shouen to Shien no Cassoulet",
      "rating": 6.99,
      "classificacao_etaria": "A14",
      "imagem_original": "https://animefire.plus/img/animes/galaxy-angel-music-collection-shouen-to-shien-no-cassoulet.webp",
      "imagem_pasta": "https://animefire.plus/img/animes/galaxy-angel-music-collection-shouen-to-shien-no-cassoulet/",
      "secao": "legendados",
      "pagina": 84,
      "total_episodios": 1,
      "link_video": "https://animefire.plus/video/galaxy-angel-music-collection-shouen-to-shien-no-cassoulet"
    },
    {
      "id": 1100,
      "nome": "Game Center Shoujo to Ibunka Kouryuu",
      "link": "https://animefire.plus/animes/game-center-shoujo-to-ibunka-kouryuu-todos-os-episodios",
      "texto_original": "Game Center Shoujo to Ibunka Kouryuu",
      "rating": 6.84,
      "classificacao_etaria": "A14",
      "imagem_original": "https://animefire.plus/img/animes/game-center-shoujo-to-ibunka-kouryuu.webp",
      "imagem_pasta": "https://animefire.plus/img/animes/game-center-shoujo-to-ibunka-kouryuu/",
      "secao": "legendados,lancamentos",
      "pagina": 2,
      "total_episodios": 5,
      "link_video": "https://animefire.plus/video/game-center-shoujo-to-ibunka-kouryuu"
    },
    {
      "id": 1101,
      "nome": "Gamers!",
      "link": "https://animefire.plus/animes/gamers-todos-os-episodios",
      "texto_original": "Gamers!",
      "rating": 7.15,
      "classificacao_etaria": "A14",
      "imagem_original": "https://animefire.plus/img/animes/gamers.webp",
      "imagem_pasta": "https://animefire.plus/img/animes/gamers/",
      "secao": "legendados",
      "pagina": 178,
      "total_episodios": 12,
      "link_video": "https://animefire.plus/video/gamers"
    },
    {
      "id": 1102,
      "nome": "Ganbare Douki-chan",
      "link": "https://animefire.plus/animes/ganbare-douki-chan-todos-os-episodios",
      "texto_original": "Ganbare Douki-chan",
      "rating": 6.52,
      "classificacao_etaria": "A14",
      "imagem_original": "https://animefire.plus/img/animes/ganbare-douki-chan.webp",
      "imagem_pasta": "https://animefire.plus/img/animes/ganbare-douki-chan/",
      "secao": "legendados",
      "pagina": 39,
      "total_episodios": 12,
      "link_video": "https://animefire.plus/video/ganbare-douki-chan"
    },
    {
      "id": 1103,
      "nome": "Ganbare Douki-chan Special",
      "link": "https://animefire.plus/animes/ganbare-douki-chan-special-todos-os-episodios",
      "texto_original": "Ganbare Douki-chan Special",
      "rating": 6.4,
      "classificacao_etaria": "A14",
      "imagem_original": "https://animefire.plus/img/animes/ganbare-douki-chan-special.webp",
      "imagem_pasta": "https://animefire.plus/img/animes/ganbare-douki-chan-special/",
      "secao": "legendados",
      "pagina": 31,
      "total_episodios": 1,
      "link_video": "https://animefire.plus/video/ganbare-douki-chan-special"
    },
    {
      "id": 1110,
      "nome": "Garo: Guren no Tsuki",
      "link": "https://animefire.plus/animes/garo-guren-no-tsuki-todos-os-episodios",
      "texto_original": "Garo: Guren no Tsuki",
      "rating": 5.9,
      "classificacao_etaria": "A14",
      "imagem_original": "https://animefire.plus/img/animes/garo-guren-no-tsuki.webp",
      "imagem_pasta": "https://animefire.plus/img/animes/garo-guren-no-tsuki/",
      "secao": "legendados",
      "pagina": 63,
      "total_episodios": 24,
      "link_video": "https://animefire.plus/video/garo-guren-no-tsuki"
    },
    {
      "id": 1113,
      "nome": "Gasaraki",
      "link": "https://animefire.plus/animes/gasaraki-todos-os-episodios",
      "texto_original": "Gasaraki",
      "rating": 6.69,
      "classificacao_etaria": "A14",
      "imagem_original": "https://animefire.plus/img/animes/gasaraki.webp",
      "imagem_pasta": "https://animefire.plus/img/animes/gasaraki/",
      "secao": "legendados",
      "pagina": 156,
      "total_episodios": 25,
      "link_video": "https://animefire.plus/video/gasaraki"
    },
    {
      "id": 1114,
      "nome": "Gatchaman Crowds",
      "link": "https://animefire.plus/animes/gatchaman-crowds-todos-os-episodios",
      "texto_original": "Gatchaman Crowds",
      "rating": 7.39,
      "classificacao_etaria": "A14",
      "imagem_original": "https://animefire.plus/img/animes/gatchaman-crowds.webp",
      "imagem_pasta": "https://animefire.plus/img/animes/gatchaman-crowds/",
      "secao": "legendados",
      "pagina": 119,
      "total_episodios": 0,
      "link_video": "https://animefire.plus/video/gatchaman-crowds"
    },
    {
      "id": 1115,
      "nome": "Gatchaman Crowds Insight",
      "link": "https://animefire.plus/animes/gatchaman-crowds-insight-todos-os-episodios",
      "texto_original": "Gatchaman Crowds Insight",
      "rating": 7.36,
      "classificacao_etaria": "A14",
      "imagem_original": "https://animefire.plus/img/animes/gatchaman-crowds-insight.webp",
      "imagem_pasta": "https://animefire.plus/img/animes/gatchaman-crowds-insight/",
      "secao": "legendados",
      "pagina": 101,
      "total_episodios": 0,
      "link_video": "https://animefire.plus/video/gatchaman-crowds-insight"
    },
    {
      "id": 1116,
      "nome": "Gate Keepers",
      "link": "https://animefire.plus/animes/gate-keepers-todos-os-episodios",
      "texto_original": "Gate Keepers",
      "rating": 7.02,
      "classificacao_etaria": "A14",
      "imagem_original": "https://animefire.plus/img/animes/gate-keepers.webp",
      "imagem_pasta": "https://animefire.plus/img/animes/gate-keepers/",
      "secao": "legendados",
      "pagina": 105,
      "total_episodios": 24,
      "link_video": "https://animefire.plus/video/gate-keepers"
    },
    {
      "id": 1117,
      "nome": "Gate Keepers 21",
      "link": "https://animefire.plus/animes/gate-keepers-21-todos-os-episodios",
      "texto_original": "Gate Keepers 21",
      "rating": 6.84,
      "classificacao_etaria": "A14",
      "imagem_original": "https://animefire.plus/img/animes/gate-keepers-21.webp",
      "imagem_pasta": "https://animefire.plus/img/animes/gate-keepers-21/",
      "secao": "legendados",
      "pagina": 101,
      "total_episodios": 6,
      "link_video": "https://animefire.plus/video/gate-keepers-21"
    },
    {
      "id": 1121,
      "nome": "Gekai Elise",
      "link": "https://animefire.plus/animes/gekai-elise-todos-os-episodios",
      "texto_original": "Gekai Elise",
      "rating": 7.26,
      "classificacao_etaria": "A14",
      "imagem_original": "https://animefire.plus/img/animes/gekai-elise.webp",
      "imagem_pasta": "https://animefire.plus/img/animes/gekai-elise/",
      "secao": "legendados",
      "pagina": 18,
      "total_episodios": 12,
      "link_video": "https://animefire.plus/video/gekai-elise"
    },
    {
      "id": 1122,
      "nome": "Gekidol",
      "link": "https://animefire.plus/animes/gekidol-todos-os-episodios",
      "texto_original": "Gekidol",
      "rating": 5.5,
      "classificacao_etaria": "A14",
      "imagem_original": "https://animefire.plus/img/animes/gekidol.webp",
      "imagem_pasta": "https://animefire.plus/img/animes/gekidol/",
      "secao": "legendados",
      "pagina": 48,
      "total_episodios": 12,
      "link_video": "https://animefire.plus/video/gekidol"
    },
    {
      "id": 1123,
      "nome": "Gekiganger 3: The Movie",
      "link": "https://animefire.plus/animes/gekiganger-3-the-movie-todos-os-episodios",
      "texto_original": "Gekiganger 3: The Movie",
      "rating": 6.51,
      "classificacao_etaria": "A14",
      "imagem_original": "https://animefire.plus/img/animes/gekiganger-3-the-movie.webp",
      "imagem_pasta": "https://animefire.plus/img/animes/gekiganger-3-the-movie/",
      "secao": "legendados",
      "pagina": 71,
      "total_episodios": 1,
      "link_video": "https://animefire.plus/video/gekiganger-3-the-movie"
    },
    {
      "id": 1125,
      "nome": "Gekkan Shoujo Nozaki-kun (Dublado)",
      "link": "https://animefire.plus/animes/gekkan-shoujo-nozaki-kun-dublado-todos-os-episodios",
      "texto_original": "Gekkan Shoujo Nozaki-kun (Dublado)",
      "rating": 8.05,
      "classificacao_etaria": "A14",
      "imagem_original": "https://animefire.plus/img/animes/gekkan-shoujo-nozaki-kun.webp",
      "imagem_pasta": "https://animefire.plus/img/animes/gekkan-shoujo-nozaki-kun/",
      "secao": "dublados,legendados",
      "pagina": 23,
      "total_episodios": 12,
      "link_video": "https://animefire.plus/video/gekkan-shoujo-nozaki-kun-dublado"
    },
    {
      "id": 1127,
      "nome": "Generator Gawl",
      "link": "https://animefire.plus/animes/generator-gawl-todos-os-episodios",
      "texto_original": "Generator Gawl",
      "rating": 7.04,
      "classificacao_etaria": "A14",
      "imagem_original": "https://animefire.plus/img/animes/generator-gawl.webp",
      "imagem_pasta": "https://animefire.plus/img/animes/generator-gawl/",
      "secao": "legendados",
      "pagina": 105,
      "total_episodios": 12,
      "link_video": "https://animefire.plus/video/generator-gawl"
    },
    {
      "id": 1128,
      "nome": "Geneshaft",
      "link": "https://animefire.plus/animes/geneshaft-todos-os-episodios",
      "texto_original": "Geneshaft",
      "rating": 6.4,
      "classificacao_etaria": "A14",
      "imagem_original": "https://animefire.plus/img/animes/geneshaft.webp",
      "imagem_pasta": "https://animefire.plus/img/animes/geneshaft/",
      "secao": "legendados",
      "pagina": 70,
      "total_episodios": 13,
      "link_video": "https://animefire.plus/video/geneshaft"
    },
    {
      "id": 1129,
      "nome": "Genji Monogatari Sennenki",
      "link": "https://animefire.plus/animes/genji-monogatari-sennenki-todos-os-episodios",
      "texto_original": "Genji Monogatari Sennenki",
      "rating": 6.95,
      "classificacao_etaria": "A14",
      "imagem_original": "https://animefire.plus/img/animes/genji-monogatari-sennenki.webp",
      "imagem_pasta": "https://animefire.plus/img/animes/genji-monogatari-sennenki/",
      "secao": "legendados",
      "pagina": 66,
      "total_episodios": 11,
      "link_video": "https://animefire.plus/video/genji-monogatari-sennenki"
    },
    {
      "id": 1130,
      "nome": "Genjitsu no Yohane: Sunshine in the Mirror",
      "link": "https://animefire.plus/animes/genjitsu-no-yohane-sunshine-in-the-mirror-todos-os-episodios",
      "texto_original": "Genjitsu no Yohane: Sunshine in the Mirror",
      "rating": 6.85,
      "classificacao_etaria": "A14",
      "imagem_original": "https://animefire.plus/img/animes/genjitsu-no-yohane-sunshine-in-the-mirror.jpg",
      "imagem_pasta": "https://animefire.plus/img/animes/genjitsu-no-yohane-sunshine-in-the-mirror/",
      "secao": "legendados",
      "pagina": 23,
      "total_episodios": 13,
      "link_video": "https://animefire.plus/video/genjitsu-no-yohane-sunshine-in-the-mirror"
    }
  ],
  "pagination": {
    "current_page": 36,
    "per_page": 20,
    "total_items": 2988,
    "total_pages": 150,
    "has_next": true,
    "has_prev": true
  }
}
