{
  "message": "Animes com classificação etária: A14",
  "age_rating": "A14",
  "data": [
    {
      "id": 2979,
      "nome": "Photokano",
      "link": "https://animefire.plus/animes/photokano-todos-os-episodios",
      "texto_original": "Photokano",
      "rating": 6.31,
      "classificacao_etaria": "A14",
      "imagem_original": "https://animefire.plus/img/animes/photokano.webp",
      "imagem_pasta": "https://animefire.plus/img/animes/photokano/",
      "secao": "legendados",
      "pagina": 133,
      "total_episodios": 3,
      "link_video": "https://animefire.plus/video/photokano"
    },
    {
      "id": 2980,
      "nome": "Piace: Watashi no Italian",
      "link": "https://animefire.plus/animes/piace-watashi-no-italian-todos-os-episodios",
      "texto_original": "Piace: Watashi no Italian",
      "rating": 5.89,
      "classificacao_etaria": "A14",
      "imagem_original": "https://animefire.plus/img/animes/piace-watashi-no-italian.webp",
      "imagem_pasta": "https://animefire.plus/img/animes/piace-watashi-no-italian/",
      "secao": "legendados",
      "pagina": 112,
      "total_episodios": 0,
      "link_video": "https://animefire.plus/video/piace-watashi-no-italian"
    },
    {
      "id": 2982,
      "nome": "Piano no Mori (TV) (Dublado)",
      "link": "https://animefire.plus/animes/piano-no-mori-tv-dublado-todos-os-episodios",
      "texto_original": "Piano no Mori (TV) (Dublado)",
      "rating": 7.41,
      "classificacao_etaria": "A14",
      "imagem_original": "https://animefire.plus/img/animes/piano-no-mori-tv.webp",
      "imagem_pasta": "https://animefire.plus/img/animes/piano-no-mori-tv/",
      "secao": "dublados,legendados",
      "pagina": 24,
      "total_episodios": 12,
      "link_video": "https://animefire.plus/video/piano-no-mori-tv-dublado"
    },
    {
      "id": 2983,
      "nome": "Piano no Mori (TV) 2nd Season (Dublado)",
      "link": "https://animefire.plus/animes/piano-no-mori-tv-2nd-season-dublado-todos-os-episodios",
      "texto_original": "Piano no Mori (TV) 2nd Season (Dublado)",
      "rating": 7.4,
      "classificacao_etaria": "A14",
      "imagem_original": "https://animefire.plus/img/animes/piano-no-mori-tv-2nd-season.webp",
      "imagem_pasta": "https://animefire.plus/img/animes/piano-no-mori-tv-2nd-season/",
      "secao": "dublados,legendados",
      "pagina": 23,
      "total_episodios": 12,
      "link_video": "https://animefire.plus/video/piano-no-mori-tv-2nd-season-dublado"
    },
    {
      "id": 2984,
      "nome": "Ping Pong the Animation",
      "link": "https://animefire.plus/animes/ping-pong-the-animation-todos-os-episodios",
      "texto_original": "Ping Pong the Animation",
      "rating": 8.63,
      "classificacao_etaria": "A14",
      "imagem_original": "https://animefire.plus/img/animes/ping-pong-the-animation.webp",
      "imagem_pasta": "https://animefire.plus/img/animes/ping-pong-the-animation/",
      "secao": "legendados",
      "pagina": 147,
      "total_episodios": 10,
      "link_video": "https://animefire.plus/video/ping-pong-the-animation"
    },
    {
      "id": 2987,
      "nome": "Planet With",
      "link": "https://animefire.plus/animes/planet-with-todos-os-episodios",
      "texto_original": "Planet With",
      "rating": 7.37,
      "classificacao_etaria": "A14",
      "imagem_original": "https://animefire.plus/img/animes/planet-with.webp",
      "imagem_pasta": "https://animefire.plus/img/animes/planet-with/",
      "secao": "legendados",
      "pagina": 173,
      "total_episodios": 12,
      "link_video": "https://animefire.plus/video/planet-with"
    },
    {
      "id": 2988,
      "nome": "Planetarian: Chiisana Hoshi no Yume",
      "link": "https://animefire.plus/animes/planetarian-chiisana-hoshi-no-yume-todos-os-episodios",
      "texto_original": "Planetarian: Chiisana Hoshi no Yume",
      "rating": 7.59,
      "classificacao_etaria": "A14",
      "imagem_original": "https://animefire.plus/img/animes/planetarian-chiisana-hoshi-no-yume.webp",
      "imagem_pasta": "https://animefire.plus/img/animes/planetarian-chiisana-hoshi-no-yume/",
      "secao": "legendados",
      "pagina": 144,
      "total_episodios": 5,
      "link_video": "https://animefire.plus/video/planetarian-chiisana-hoshi-no-yume"
    },
    {
      "id": 2989,
      "nome": "Planetes",
      "link": "https://animefire.plus/animes/planetes-todos-os-episodios",
      "texto_original": "Planetes",
      "rating": 8.34,
      "classificacao_etaria": "A14",
      "imagem_original": "https://animefire.plus/img/animes/planetes.webp",
      "imagem_pasta": "https://animefire.plus/img/animes/planetes/",
      "secao": "legendados",
      "pagina": 154,
      "total_episodios": 26,
      "link_video": "https://animefire.plus/video/planetes"
    },
    {
      "id": 2991,
      "nome": "Plastic Memories",
      "link": "https://animefire.plus/animes/plastic-memories-todos-os-episodios",
      "texto_original": "Plastic Memories",
      "rating": 7.97,
      "classificacao_etaria": "A14",
      "imagem_original": "https://animefire.plus/img/animes/plastic-memories.webp",
      "imagem_pasta": "https://animefire.plus/img/animes/plastic-memories/",
      "secao": "legendados",
      "pagina": 79,
      "total_episodios": 13,
      "link_video": "https://animefire.plus/video/plastic-memories"
    },
    {
      "id": 2992,
      "nome": "Plastic Neesan",
      "link": "https://animefire.plus/animes/plastic-neesan-todos-os-episodios",
      "texto_original": "Plastic Neesan",
      "rating": 7.29,
      "classificacao_etaria": "A14",
      "imagem_original": "https://animefire.plus/img/animes/plastic-neesan.webp",
      "imagem_pasta": "https://animefire.plus/img/animes/plastic-neesan/",
      "secao": "legendados",
      "pagina": 67,
      "total_episodios": 1,
      "link_video": "https://animefire.plus/video/plastic-neesan"
    },
    {
      "id": 2994,
      "nome": "Plunderer (Dublado)",
      "link": "https://animefire.plus/animes/plunderer-dublado-todos-os-episodios",
      "texto_original": "Plunderer (Dublado)",
      "rating": 6.56,
      "classificacao_etaria": "A14",
      "imagem_original": "https://animefire.plus/img/animes/plunderer.webp",
      "imagem_pasta": "https://animefire.plus/img/animes/plunderer/",
      "secao": "dublados,legendados",
      "pagina": 14,
      "total_episodios": 24,
      "link_video": "https://animefire.plus/video/plunderer-dublado"
    },
    {
      "id": 2995,
      "nome": "Pluto (Dublado)",
      "link": "https://animefire.plus/animes/pluto-dublado-todos-os-episodios",
      "texto_original": "Pluto (Dublado)",
      "rating": 8.45,
      "classificacao_etaria": "A14",
      "imagem_original": "https://animefire.plus/img/animes/pluto.webp",
      "imagem_pasta": "https://animefire.plus/img/animes/pluto/",
      "secao": "dublados,legendados",
      "pagina": 5,
      "total_episodios": 8,
      "link_video": "https://animefire.plus/video/pluto-dublado"
    },
    {
      "id": 3011,
      "nome": "Pon no Michi",
      "link": "https://animefire.plus/animes/pon-no-michi-todos-os-episodios",
      "texto_original": "Pon no Michi",
      "rating": 6.48,
      "classificacao_etaria": "A14",
      "imagem_original": "https://animefire.plus/img/animes/pon-no-michi.webp",
      "imagem_pasta": "https://animefire.plus/img/animes/pon-no-michi/",
      "secao": "legendados",
      "pagina": 17,
      "total_episodios": 12,
      "link_video": "https://animefire.plus/video/pon-no-michi"
    },
    {
      "id": 3015,
      "nome": "Pops",
      "link": "https://animefire.plus/animes/pops-todos-os-episodios",
      "texto_original": "Pops",
      "rating": 5.61,
      "classificacao_etaria": "A14",
      "imagem_original": "https://animefire.plus/img/animes/pops.webp",
      "imagem_pasta": "https://animefire.plus/img/animes/pops/",
      "secao": "legendados",
      "pagina": 85,
      "total_episodios": 1,
      "link_video": "https://animefire.plus/video/pops"
    },
    {
      "id": 3016,
      "nome": "Poputepipikku",
      "link": "https://animefire.plus/animes/poputepipikku-todos-os-episodios",
      "texto_original": "Poputepipikku",
      "rating": 7.33,
      "classificacao_etaria": "A14",
      "imagem_original": "https://animefire.plus/img/animes/poputepipikku.webp",
      "imagem_pasta": "https://animefire.plus/img/animes/poputepipikku/",
      "secao": "legendados",
      "pagina": 155,
      "total_episodios": 12,
      "link_video": "https://animefire.plus/video/poputepipikku"
    },
    {
      "id": 3017,
      "nome": "Poputepipikku 2nd Season",
      "link": "https://animefire.plus/animes/poputepipikku-2nd-season-todos-os-episodios",
      "texto_original": "Poputepipikku 2nd Season",
      "rating": 7.53,
      "classificacao_etaria": "A14",
      "imagem_original": "https://animefire.plus/img/animes/poputepipikku-2nd-season.webp",
      "imagem_pasta": "https://animefire.plus/img/animes/poputepipikku-2nd-season/",
      "secao": "legendados",
      "pagina": 28,
      "total_episodios": 12,
      "link_video": "https://animefire.plus/video/poputepipikku-2nd-season"
    },
    {
      "id": 3018,
      "nome": "Potion-danomi de Ikinobimasu!",
      "link": "https://animefire.plus/animes/potion-danomi-de-ikinobimasu-todos-os-episodios",
      "texto_original": "Potion-danomi de Ikinobimasu!",
      "rating": 6.55,
      "classificacao_etaria": "A14",
      "imagem_original": "https://animefire.plus/img/animes/potion-danomi-de-ikinobimasu.webp",
      "imagem_pasta": "https://animefire.plus/img/animes/potion-danomi-de-ikinobimasu/",
      "secao": "legendados",
      "pagina": 20,
      "total_episodios": 12,
      "link_video": "https://animefire.plus/video/potion-danomi-de-ikinobimasu"
    },
    {
      "id": 3023,
      "nome": "Prima Doll",
      "link": "https://animefire.plus/animes/prima-doll-todos-os-episodios",
      "texto_original": "Prima Doll",
      "rating": 7.08,
      "classificacao_etaria": "A14",
      "imagem_original": "https://animefire.plus/img/animes/prima-doll.webp",
      "imagem_pasta": "https://animefire.plus/img/animes/prima-doll/",
      "secao": "legendados",
      "pagina": 31,
      "total_episodios": 12,
      "link_video": "https://animefire.plus/video/prima-doll"
    },
    {
      "id": 3024,
      "nome": "Prince of Stride: Alternative",
      "link": "https://animefire.plus/animes/prince-of-stride-alternative-todos-os-episodios",
      "texto_original": "Prince of Stride: Alternative",
      "rating": 7.01,
      "classificacao_etaria": "A14",
      "imagem_original": "https://animefire.plus/img/animes/prince-of-stride-alternative.webp",
      "imagem_pasta": "https://animefire.plus/img/animes/prince-of-stride-alternative/",
      "secao": "legendados",
      "pagina": 149,
      "total_episodios": 12,
      "link_video": "https://animefire.plus/video/prince-of-stride-alternative"
    },
    {
      "id": 3025,
      "nome": "Princess Connect! Re:Dive",
      "link": "https://animefire.plus/animes/princess-connect-re-dive-todos-os-episodios",
      "texto_original": "Princess Connect! Re:Dive",
      "rating": 7.06,
      "classificacao_etaria": "A14",
      "imagem_original": "https://animefire.plus/img/animes/princess-connect-re-dive.webp",
      "imagem_pasta": "https://animefire.plus/img/animes/princess-connect-re-dive/",
      "secao": "legendados",
      "pagina": 81,
      "total_episodios": 1,
      "link_video": "https://animefire.plus/video/princess-connect-re-dive"
    }
  ],
  "pagination": {
    "current_page": 100,
    "per_page": 20,
    "total_items": 2988,
    "total_pages": 150,
    "has_next": true,
    "has_prev": true
  }
}
