{
  "message": "Animes com classificação etária: A14",
  "age_rating": "A14",
  "data": [
    {
      "id": 673,
      "nome": "Cobra The Animation: The Psycho-Gun",
      "link": "https://animefire.plus/animes/cobra-the-animation-the-psycho-gun-todos-os-episodios",
      "texto_original": "Cobra The Animation: The Psycho-Gun",
      "rating": 7.02,
      "classificacao_etaria": "A14",
      "imagem_original": "https://animefire.plus/img/animes/cobra-the-animation-the-psycho-gun.webp",
      "imagem_pasta": "https://animefire.plus/img/animes/cobra-the-animation-the-psycho-gun/",
      "secao": "legendados",
      "pagina": 108,
      "total_episodios": 4,
      "link_video": "https://animefire.plus/video/cobra-the-animation-the-psycho-gun"
    },
    {
      "id": 679,
      "nome": "Code:Realize - Sousei no Himegimi",
      "link": "https://animefire.plus/animes/code-realize---sousei-no-himegimi-todos-os-episodios",
      "texto_original": "Code:Realize - Sousei no Himegimi",
      "rating": 6.7,
      "classificacao_etaria": "A14",
      "imagem_original": "https://animefire.plus/img/animes/code-realize---sousei-no-himegimi.webp",
      "imagem_pasta": "https://animefire.plus/img/animes/code-realize---sousei-no-himegimi/",
      "secao": "legendados",
      "pagina": 94,
      "total_episodios": 12,
      "link_video": "https://animefire.plus/video/code-realize---sousei-no-himegimi"
    },
    {
      "id": 681,
      "nome": "Colorful (Movie)",
      "link": "https://animefire.plus/animes/colorful-movie-todos-os-episodios",
      "texto_original": "Colorful (Movie)",
      "rating": 7.93,
      "classificacao_etaria": "A14",
      "imagem_original": "https://animefire.plus/img/animes/colorful-movie.webp",
      "imagem_pasta": "https://animefire.plus/img/animes/colorful-movie/",
      "secao": "legendados",
      "pagina": 156,
      "total_episodios": 5,
      "link_video": "https://animefire.plus/video/colorful-movie"
    },
    {
      "id": 682,
      "nome": "Comet Lucifer",
      "link": "https://animefire.plus/animes/comet-lucifer-todos-os-episodios",
      "texto_original": "Comet Lucifer",
      "rating": 5.93,
      "classificacao_etaria": "A14",
      "imagem_original": "https://animefire.plus/img/animes/comet-lucifer.webp",
      "imagem_pasta": "https://animefire.plus/img/animes/comet-lucifer/",
      "secao": "legendados",
      "pagina": 111,
      "total_episodios": 12,
      "link_video": "https://animefire.plus/video/comet-lucifer"
    },
    {
      "id": 683,
      "nome": "Comic Girls",
      "link": "https://animefire.plus/animes/comic-girls-todos-os-episodios",
      "texto_original": "Comic Girls",
      "rating": 7.54,
      "classificacao_etaria": "A14",
      "imagem_original": "https://animefire.plus/img/animes/comic-girls.webp",
      "imagem_pasta": "https://animefire.plus/img/animes/comic-girls/",
      "secao": "legendados",
      "pagina": 133,
      "total_episodios": 12,
      "link_video": "https://animefire.plus/video/comic-girls"
    },
    {
      "id": 684,
      "nome": "Comic Party",
      "link": "https://animefire.plus/animes/comic-party-todos-os-episodios",
      "texto_original": "Comic Party",
      "rating": 6.64,
      "classificacao_etaria": "A14",
      "imagem_original": "https://animefire.plus/img/animes/comic-party.webp",
      "imagem_pasta": "https://animefire.plus/img/animes/comic-party/",
      "secao": "legendados",
      "pagina": 99,
      "total_episodios": 13,
      "link_video": "https://animefire.plus/video/comic-party"
    },
    {
      "id": 685,
      "nome": "Comic Party Revolution",
      "link": "https://animefire.plus/animes/comic-party-revolution-todos-os-episodios",
      "texto_original": "Comic Party Revolution",
      "rating": 6.62,
      "classificacao_etaria": "A14",
      "imagem_original": "https://animefire.plus/img/animes/comic-party-revolution.webp",
      "imagem_pasta": "https://animefire.plus/img/animes/comic-party-revolution/",
      "secao": "legendados",
      "pagina": 146,
      "total_episodios": 7,
      "link_video": "https://animefire.plus/video/comic-party-revolution"
    },
    {
      "id": 686,
      "nome": "Conception",
      "link": "https://animefire.plus/animes/conception-todos-os-episodios",
      "texto_original": "Conception",
      "rating": 5.03,
      "classificacao_etaria": "A14",
      "imagem_original": "https://animefire.plus/img/animes/conception.webp",
      "imagem_pasta": "https://animefire.plus/img/animes/conception/",
      "secao": "legendados",
      "pagina": 138,
      "total_episodios": 12,
      "link_video": "https://animefire.plus/video/conception"
    },
    {
      "id": 687,
      "nome": "Concrete Revolutio: Choujin Gensou",
      "link": "https://animefire.plus/animes/concrete-revolutio-choujin-gensou-todos-os-episodios",
      "texto_original": "Concrete Revolutio: Choujin Gensou",
      "rating": 6.77,
      "classificacao_etaria": "A14",
      "imagem_original": "https://animefire.plus/img/animes/concrete-revolutio-choujin-gensou.webp",
      "imagem_pasta": "https://animefire.plus/img/animes/concrete-revolutio-choujin-gensou/",
      "secao": "legendados",
      "pagina": 107,
      "total_episodios": 13,
      "link_video": "https://animefire.plus/video/concrete-revolutio-choujin-gensou"
    },
    {
      "id": 689,
      "nome": "Cool Doji Danshi",
      "link": "https://animefire.plus/animes/cool-doji-danshi-todos-os-episodios",
      "texto_original": "Cool Doji Danshi",
      "rating": 7.86,
      "classificacao_etaria": "A14",
      "imagem_original": "https://animefire.plus/img/animes/cool-doji-danshi.webp",
      "imagem_pasta": "https://animefire.plus/img/animes/cool-doji-danshi/",
      "secao": "legendados",
      "pagina": 29,
      "total_episodios": 24,
      "link_video": "https://animefire.plus/video/cool-doji-danshi"
    },
    {
      "id": 691,
      "nome": "Copihan",
      "link": "https://animefire.plus/animes/copihan-todos-os-episodios",
      "texto_original": "Copihan",
      "rating": 5.49,
      "classificacao_etaria": "A14",
      "imagem_original": "https://animefire.plus/img/animes/copihan.webp",
      "imagem_pasta": "https://animefire.plus/img/animes/copihan/",
      "secao": "legendados",
      "pagina": 172,
      "total_episodios": 3,
      "link_video": "https://animefire.plus/video/copihan"
    },
    {
      "id": 692,
      "nome": "Coppelion",
      "link": "https://animefire.plus/animes/coppelion-todos-os-episodios",
      "texto_original": "Coppelion",
      "rating": 6.53,
      "classificacao_etaria": "A14",
      "imagem_original": "https://animefire.plus/img/animes/coppelion.webp",
      "imagem_pasta": "https://animefire.plus/img/animes/coppelion/",
      "secao": "legendados",
      "pagina": 113,
      "total_episodios": 6,
      "link_video": "https://animefire.plus/video/coppelion"
    },
    {
      "id": 695,
      "nome": "Cosmic Break",
      "link": "https://animefire.plus/animes/cosmic-break-todos-os-episodios",
      "texto_original": "Cosmic Break",
      "rating": 6.09,
      "classificacao_etaria": "A14",
      "imagem_original": "https://animefire.plus/img/animes/cosmic-break.webp",
      "imagem_pasta": "https://animefire.plus/img/animes/cosmic-break/",
      "secao": "legendados",
      "pagina": 141,
      "total_episodios": 3,
      "link_video": "https://animefire.plus/video/cosmic-break"
    },
    {
      "id": 696,
      "nome": "Cosmo Police Justy",
      "link": "https://animefire.plus/animes/cosmo-police-justy-todos-os-episodios",
      "texto_original": "Cosmo Police Justy",
      "rating": 5.54,
      "classificacao_etaria": "A14",
      "imagem_original": "https://animefire.plus/img/animes/cosmo-police-justy.webp",
      "imagem_pasta": "https://animefire.plus/img/animes/cosmo-police-justy/",
      "secao": "legendados",
      "pagina": 65,
      "total_episodios": 1,
      "link_video": "https://animefire.plus/video/cosmo-police-justy"
    },
    {
      "id": 697,
      "nome": "Cosmo Warrior Zero",
      "link": "https://animefire.plus/animes/cosmo-warrior-zero-todos-os-episodios",
      "texto_original": "Cosmo Warrior Zero",
      "rating": 6.63,
      "classificacao_etaria": "A14",
      "imagem_original": "https://animefire.plus/img/animes/cosmo-warrior-zero.webp",
      "imagem_pasta": "https://animefire.plus/img/animes/cosmo-warrior-zero/",
      "secao": "legendados",
      "pagina": 96,
      "total_episodios": 15,
      "link_video": "https://animefire.plus/video/cosmo-warrior-zero"
    },
    {
      "id": 700,
      "nome": "Coyote Ragtime Show",
      "link": "https://animefire.plus/animes/coyote-ragtime-show-todos-os-episodios",
      "texto_original": "Coyote Ragtime Show",
      "rating": 6.7,
      "classificacao_etaria": "A14",
      "imagem_original": "https://animefire.plus/img/animes/coyote-ragtime-show.webp",
      "imagem_pasta": "https://animefire.plus/img/animes/coyote-ragtime-show/",
      "secao": "legendados",
      "pagina": 100,
      "total_episodios": 12,
      "link_video": "https://animefire.plus/video/coyote-ragtime-show"
    },
    {
      "id": 703,
      "nome": "Cross Game",
      "link": "https://animefire.plus/animes/cross-game-todos-os-episodios",
      "texto_original": "Cross Game",
      "rating": 8.46,
      "classificacao_etaria": "A14",
      "imagem_original": "https://animefire.plus/img/animes/cross-game.webp",
      "imagem_pasta": "https://animefire.plus/img/animes/cross-game/",
      "secao": "legendados",
      "pagina": 178,
      "total_episodios": 50,
      "link_video": "https://animefire.plus/video/cross-game"
    },
    {
      "id": 706,
      "nome": "Cue!",
      "link": "https://animefire.plus/animes/cue-todos-os-episodios",
      "texto_original": "Cue!",
      "rating": 6.79,
      "classificacao_etaria": "A14",
      "imagem_original": "https://animefire.plus/img/animes/cue.webp",
      "imagem_pasta": "https://animefire.plus/img/animes/cue/",
      "secao": "legendados",
      "pagina": 35,
      "total_episodios": 24,
      "link_video": "https://animefire.plus/video/cue"
    },
    {
      "id": 707,
      "nome": "Cuticle Tantei Inaba",
      "link": "https://animefire.plus/animes/cuticle-tantei-inaba-todos-os-episodios",
      "texto_original": "Cuticle Tantei Inaba",
      "rating": 7.38,
      "classificacao_etaria": "A14",
      "imagem_original": "https://animefire.plus/img/animes/cuticle-tantei-inaba.webp",
      "imagem_pasta": "https://animefire.plus/img/animes/cuticle-tantei-inaba/",
      "secao": "legendados",
      "pagina": 112,
      "total_episodios": 0,
      "link_video": "https://animefire.plus/video/cuticle-tantei-inaba"
    },
    {
      "id": 710,
      "nome": "Cyclops Shoujo Saipuu",
      "link": "https://animefire.plus/animes/cyclops-shoujo-saipuu-todos-os-episodios",
      "texto_original": "Cyclops Shoujo Saipuu",
      "rating": 5.8,
      "classificacao_etaria": "A14",
      "imagem_original": "https://animefire.plus/img/animes/cyclops-shoujo-saipuu.webp",
      "imagem_pasta": "https://animefire.plus/img/animes/cyclops-shoujo-saipuu/",
      "secao": "legendados",
      "pagina": 43,
      "total_episodios": 12,
      "link_video": "https://animefire.plus/video/cyclops-shoujo-saipuu"
    }
  ],
  "pagination": {
    "current_page": 23,
    "per_page": 20,
    "total_items": 2988,
    "total_pages": 150,
    "has_next": true,
    "has_prev": true
  }
}
