{
  "message": "Animes com classificação etária: A14",
  "age_rating": "A14",
  "data": [
    {
      "id": 2498,
      "nome": "Mikadono Sanshimai wa Angai, Choroi.",
      "link": "https://animefire.plus/animes/mikadono-sanshimai-wa-angai-choroi-todos-os-episodios",
      "texto_original": "Mikadono Sanshimai wa Angai, Choroi.",
      "rating": 7.58,
      "classificacao_etaria": "A14",
      "imagem_original": "https://animefire.plus/img/animes/mikadono-sanshimai-wa-angai-choroi.webp",
      "imagem_pasta": "https://animefire.plus/img/animes/mikadono-sanshimai-wa-angai-choroi/",
      "secao": "legendados,lancamentos",
      "pagina": 2,
      "total_episodios": 5,
      "link_video": "https://animefire.plus/video/mikadono-sanshimai-wa-angai-choroi"
    },
    {
      "id": 2499,
      "nome": "Mikagura Gakuen Kumikyoku",
      "link": "https://animefire.plus/animes/mikagura-gakuen-kumikyoku-todos-os-episodios",
      "texto_original": "Mikagura Gakuen Kumikyoku",
      "rating": 6.7,
      "classificacao_etaria": "A14",
      "imagem_original": "https://animefire.plus/img/animes/mikagura-gakuen-kumikyoku.webp",
      "imagem_pasta": "https://animefire.plus/img/animes/mikagura-gakuen-kumikyoku/",
      "secao": "legendados",
      "pagina": 61,
      "total_episodios": 2,
      "link_video": "https://animefire.plus/video/mikagura-gakuen-kumikyoku"
    },
    {
      "id": 2500,
      "nome": "Mikagura Gakuen Kumikyoku (TV)",
      "link": "https://animefire.plus/animes/mikagura-gakuen-kumikyoku-tv-todos-os-episodios",
      "texto_original": "Mikagura Gakuen Kumikyoku (TV)",
      "rating": 6.78,
      "classificacao_etaria": "A14",
      "imagem_original": "https://animefire.plus/img/animes/mikagura-gakuen-kumikyoku-tv.webp",
      "imagem_pasta": "https://animefire.plus/img/animes/mikagura-gakuen-kumikyoku-tv/",
      "secao": "legendados",
      "pagina": 126,
      "total_episodios": 1,
      "link_video": "https://animefire.plus/video/mikagura-gakuen-kumikyoku-tv"
    },
    {
      "id": 2501,
      "nome": "Mikakunin de Shinkoukei",
      "link": "https://animefire.plus/animes/mikakunin-de-shinkoukei-todos-os-episodios",
      "texto_original": "Mikakunin de Shinkoukei",
      "rating": 7.52,
      "classificacao_etaria": "A14",
      "imagem_original": "https://animefire.plus/img/animes/mikakunin-de-shinkoukei.webp",
      "imagem_pasta": "https://animefire.plus/img/animes/mikakunin-de-shinkoukei/",
      "secao": "legendados",
      "pagina": 167,
      "total_episodios": 12,
      "link_video": "https://animefire.plus/video/mikakunin-de-shinkoukei"
    },
    {
      "id": 2502,
      "nome": "Mikeneko Holmes no Yuurei Joushu",
      "link": "https://animefire.plus/animes/mikeneko-holmes-no-yuurei-joushu-todos-os-episodios",
      "texto_original": "Mikeneko Holmes no Yuurei Joushu",
      "rating": 5.95,
      "classificacao_etaria": "A14",
      "imagem_original": "https://animefire.plus/img/animes/mikeneko-holmes-no-yuurei-joushu.webp",
      "imagem_pasta": "https://animefire.plus/img/animes/mikeneko-holmes-no-yuurei-joushu/",
      "secao": "legendados",
      "pagina": 56,
      "total_episodios": 1,
      "link_video": "https://animefire.plus/video/mikeneko-holmes-no-yuurei-joushu"
    },
    {
      "id": 2503,
      "nome": "Military!",
      "link": "https://animefire.plus/animes/military-todos-os-episodios",
      "texto_original": "Military!",
      "rating": 5.84,
      "classificacao_etaria": "A14",
      "imagem_original": "https://animefire.plus/img/animes/military.webp",
      "imagem_pasta": "https://animefire.plus/img/animes/military/",
      "secao": "legendados",
      "pagina": 64,
      "total_episodios": 12,
      "link_video": "https://animefire.plus/video/military"
    },
    {
      "id": 2504,
      "nome": "Million Doll",
      "link": "https://animefire.plus/animes/million-doll-todos-os-episodios",
      "texto_original": "Million Doll",
      "rating": 4.84,
      "classificacao_etaria": "A14",
      "imagem_original": "https://animefire.plus/img/animes/million-doll.webp",
      "imagem_pasta": "https://animefire.plus/img/animes/million-doll/",
      "secao": "legendados",
      "pagina": 163,
      "total_episodios": 0,
      "link_video": "https://animefire.plus/video/million-doll"
    },
    {
      "id": 2506,
      "nome": "Minami Kamakura Koukou Joshi Jitenshabu",
      "link": "https://animefire.plus/animes/minami-kamakura-koukou-joshi-jitenshabu-todos-os-episodios",
      "texto_original": "Minami Kamakura Koukou Joshi Jitenshabu",
      "rating": 6.26,
      "classificacao_etaria": "A14",
      "imagem_original": "https://animefire.plus/img/animes/minami-kamakura-koukou-joshi-jitenshabu.webp",
      "imagem_pasta": "https://animefire.plus/img/animes/minami-kamakura-koukou-joshi-jitenshabu/",
      "secao": "legendados",
      "pagina": 44,
      "total_episodios": 12,
      "link_video": "https://animefire.plus/video/minami-kamakura-koukou-joshi-jitenshabu"
    },
    {
      "id": 2507,
      "nome": "Minami Kamakura Koukou Joshi Jitenshabu: Kita yo, Taiwan!",
      "link": "https://animefire.plus/animes/minami-kamakura-koukou-joshi-jitenshabu-kita-yo-taiwan-todos-os-episodios",
      "texto_original": "Minami Kamakura Koukou Joshi Jitenshabu: Kita yo, Taiwan!",
      "rating": 6.5,
      "classificacao_etaria": "A14",
      "imagem_original": "https://animefire.plus/img/animes/minami-kamakura-koukou-joshi-jitenshabu-kita-yo-taiwan.webp",
      "imagem_pasta": "https://animefire.plus/img/animes/minami-kamakura-koukou-joshi-jitenshabu-kita-yo-taiwan/",
      "secao": "legendados",
      "pagina": 44,
      "total_episodios": 1,
      "link_video": "https://animefire.plus/video/minami-kamakura-koukou-joshi-jitenshabu-kita-yo-taiwan"
    },
    {
      "id": 2508,
      "nome": "Minami-ke",
      "link": "https://animefire.plus/animes/minami-ke-todos-os-episodios",
      "texto_original": "Minami-ke",
      "rating": 7.74,
      "classificacao_etaria": "A14",
      "imagem_original": "https://animefire.plus/img/animes/minami-ke.webp",
      "imagem_pasta": "https://animefire.plus/img/animes/minami-ke/",
      "secao": "legendados",
      "pagina": 176,
      "total_episodios": 13,
      "link_video": "https://animefire.plus/video/minami-ke"
    },
    {
      "id": 2509,
      "nome": "Minami-ke Natsuyasumi",
      "link": "https://animefire.plus/animes/minami-ke-natsuyasumi-todos-os-episodios",
      "texto_original": "Minami-ke Natsuyasumi",
      "rating": 7.4,
      "classificacao_etaria": "A14",
      "imagem_original": "https://animefire.plus/img/animes/minami-ke-natsuyasumi.webp",
      "imagem_pasta": "https://animefire.plus/img/animes/minami-ke-natsuyasumi/",
      "secao": "legendados",
      "pagina": 55,
      "total_episodios": 1,
      "link_video": "https://animefire.plus/video/minami-ke-natsuyasumi"
    },
    {
      "id": 2510,
      "nome": "Minami-ke Okaeri",
      "link": "https://animefire.plus/animes/minami-ke-okaeri-todos-os-episodios",
      "texto_original": "Minami-ke Okaeri",
      "rating": 7.62,
      "classificacao_etaria": "A14",
      "imagem_original": "https://animefire.plus/img/animes/minami-ke-okaeri.webp",
      "imagem_pasta": "https://animefire.plus/img/animes/minami-ke-okaeri/",
      "secao": "legendados",
      "pagina": 126,
      "total_episodios": 13,
      "link_video": "https://animefire.plus/video/minami-ke-okaeri"
    },
    {
      "id": 2511,
      "nome": "Minami-ke Okawari",
      "link": "https://animefire.plus/animes/minami-ke-okawari-todos-os-episodios",
      "texto_original": "Minami-ke Okawari",
      "rating": 7.39,
      "classificacao_etaria": "A14",
      "imagem_original": "https://animefire.plus/img/animes/minami-ke-okawari.webp",
      "imagem_pasta": "https://animefire.plus/img/animes/minami-ke-okawari/",
      "secao": "legendados",
      "pagina": 114,
      "total_episodios": 13,
      "link_video": "https://animefire.plus/video/minami-ke-okawari"
    },
    {
      "id": 2512,
      "nome": "Minami-ke Omatase",
      "link": "https://animefire.plus/animes/minami-ke-omatase-todos-os-episodios",
      "texto_original": "Minami-ke Omatase",
      "rating": 7.42,
      "classificacao_etaria": "A14",
      "imagem_original": "https://animefire.plus/img/animes/minami-ke-omatase.webp",
      "imagem_pasta": "https://animefire.plus/img/animes/minami-ke-omatase/",
      "secao": "legendados",
      "pagina": 55,
      "total_episodios": 1,
      "link_video": "https://animefire.plus/video/minami-ke-omatase"
    },
    {
      "id": 2513,
      "nome": "Minami-ke Tadaima",
      "link": "https://animefire.plus/animes/minami-ke-tadaima-todos-os-episodios",
      "texto_original": "Minami-ke Tadaima",
      "rating": 7.74,
      "classificacao_etaria": "A14",
      "imagem_original": "https://animefire.plus/img/animes/minami-ke-tadaima.webp",
      "imagem_pasta": "https://animefire.plus/img/animes/minami-ke-tadaima/",
      "secao": "legendados",
      "pagina": 178,
      "total_episodios": 0,
      "link_video": "https://animefire.plus/video/minami-ke-tadaima"
    },
    {
      "id": 2514,
      "nome": "Mini Dragon",
      "link": "https://animefire.plus/animes/mini-dragon-todos-os-episodios",
      "texto_original": "Mini Dragon",
      "rating": 7.34,
      "classificacao_etaria": "A14",
      "imagem_original": "https://animefire.plus/img/animes/mini-dragon.webp",
      "imagem_pasta": "https://animefire.plus/img/animes/mini-dragon/",
      "secao": "legendados",
      "pagina": 46,
      "total_episodios": 13,
      "link_video": "https://animefire.plus/video/mini-dragon"
    },
    {
      "id": 2517,
      "nome": "Mini Yuri",
      "link": "https://animefire.plus/animes/mini-yuri-todos-os-episodios",
      "texto_original": "Mini Yuri",
      "rating": 6.74,
      "classificacao_etaria": "A14",
      "imagem_original": "https://animefire.plus/img/animes/mini-yuri.webp",
      "imagem_pasta": "https://animefire.plus/img/animes/mini-yuri/",
      "secao": "legendados",
      "pagina": 84,
      "total_episodios": 4,
      "link_video": "https://animefire.plus/video/mini-yuri"
    },
    {
      "id": 2518,
      "nome": "Minna Atsumare! Falcom Gakuen",
      "link": "https://animefire.plus/animes/minna-atsumare-falcom-gakuen-todos-os-episodios",
      "texto_original": "Minna Atsumare! Falcom Gakuen",
      "rating": 5.89,
      "classificacao_etaria": "A14",
      "imagem_original": "https://animefire.plus/img/animes/minna-atsumare-falcom-gakuen.webp",
      "imagem_pasta": "https://animefire.plus/img/animes/minna-atsumare-falcom-gakuen/",
      "secao": "legendados",
      "pagina": 108,
      "total_episodios": 13,
      "link_video": "https://animefire.plus/video/minna-atsumare-falcom-gakuen"
    },
    {
      "id": 2522,
      "nome": "Miru Tights",
      "link": "https://animefire.plus/animes/miru-tights-todos-os-episodios",
      "texto_original": "Miru Tights",
      "rating": 6.58,
      "classificacao_etaria": "A14",
      "imagem_original": "https://animefire.plus/img/animes/miru-tights.webp",
      "imagem_pasta": "https://animefire.plus/img/animes/miru-tights/",
      "secao": "legendados",
      "pagina": 112,
      "total_episodios": 0,
      "link_video": "https://animefire.plus/video/miru-tights"
    },
    {
      "id": 2523,
      "nome": "Miru Tights: Cosplay Satsuei Tights",
      "link": "https://animefire.plus/animes/miru-tights-cosplay-satsuei-tights-todos-os-episodios",
      "texto_original": "Miru Tights: Cosplay Satsuei Tights",
      "rating": 6.59,
      "classificacao_etaria": "A14",
      "imagem_original": "https://animefire.plus/img/animes/miru-tights-cosplay-satsuei-tights.webp",
      "imagem_pasta": "https://animefire.plus/img/animes/miru-tights-cosplay-satsuei-tights/",
      "secao": "legendados",
      "pagina": 88,
      "total_episodios": 1,
      "link_video": "https://animefire.plus/video/miru-tights-cosplay-satsuei-tights"
    }
  ],
  "pagination": {
    "current_page": 83,
    "per_page": 20,
    "total_items": 2988,
    "total_pages": 150,
    "has_next": true,
    "has_prev": true
  }
}
