{
  "message": "Animes com classificação etária: A14",
  "age_rating": "A14",
  "data": [
    {
      "id": 2700,
      "nome": "Nazotoki wa Dinner no Ato de (Dublado)",
      "link": "https://animefire.plus/animes/nazotoki-wa-dinner-no-ato-de-dublado-todos-os-episodios",
      "texto_original": "Nazotoki wa Dinner no Ato de (Dublado)",
      "rating": 6.48,
      "classificacao_etaria": "A14",
      "imagem_original": "https://animefire.plus/img/animes/nazotoki-wa-dinner-no-ato-de.webp",
      "imagem_pasta": "https://animefire.plus/img/animes/nazotoki-wa-dinner-no-ato-de/",
      "secao": "dublados,legendados",
      "pagina": 1,
      "total_episodios": 12,
      "link_video": "https://animefire.plus/video/nazotoki-wa-dinner-no-ato-de-dublado"
    },
    {
      "id": 2701,
      "nome": "Nazotokine",
      "link": "https://animefire.plus/animes/nazotokine-todos-os-episodios",
      "texto_original": "Nazotokine",
      "rating": 4.9,
      "classificacao_etaria": "A14",
      "imagem_original": "https://animefire.plus/img/animes/nazotokine.webp",
      "imagem_pasta": "https://animefire.plus/img/animes/nazotokine/",
      "secao": "legendados",
      "pagina": 168,
      "total_episodios": 3,
      "link_video": "https://animefire.plus/video/nazotokine"
    },
    {
      "id": 2702,
      "nome": "Necronomico no Cosmic Horror Show",
      "link": "https://animefire.plus/animes/necronomico-no-cosmic-horror-show-todos-os-episodios",
      "texto_original": "Necronomico no Cosmic Horror Show",
      "rating": 5.5,
      "classificacao_etaria": "A14",
      "imagem_original": "https://animefire.plus/img/animes/necronomico-no-cosmic-horror-show.webp",
      "imagem_pasta": "https://animefire.plus/img/animes/necronomico-no-cosmic-horror-show/",
      "secao": "legendados,lancamentos",
      "pagina": 1,
      "total_episodios": 5,
      "link_video": "https://animefire.plus/video/necronomico-no-cosmic-horror-show"
    },
    {
      "id": 2704,
      "nome": "NEET Kunoichi to Nazeka Dousei Hajimemashita",
      "link": "https://animefire.plus/animes/neet-kunoichi-to-nazeka-dousei-hajimemashita-todos-os-episodios",
      "texto_original": "NEET Kunoichi to Nazeka Dousei Hajimemashita",
      "rating": 6.12,
      "classificacao_etaria": "A14",
      "imagem_original": "https://animefire.plus/img/animes/neet-kunoichi-to-nazeka-dousei-hajimemashita.webp",
      "imagem_pasta": "https://animefire.plus/img/animes/neet-kunoichi-to-nazeka-dousei-hajimemashita/",
      "secao": "legendados,lancamentos",
      "pagina": 8,
      "total_episodios": 13,
      "link_video": "https://animefire.plus/video/neet-kunoichi-to-nazeka-dousei-hajimemashita"
    },
    {
      "id": 2705,
      "nome": "NegaPosi Angler",
      "link": "https://animefire.plus/animes/negaposi-angler-todos-os-episodios",
      "texto_original": "NegaPosi Angler",
      "rating": 7.37,
      "classificacao_etaria": "A14",
      "imagem_original": "https://animefire.plus/img/animes/negaposi-angler.webp",
      "imagem_pasta": "https://animefire.plus/img/animes/negaposi-angler/",
      "secao": "legendados",
      "pagina": 10,
      "total_episodios": 12,
      "link_video": "https://animefire.plus/video/negaposi-angler"
    },
    {
      "id": 2707,
      "nome": "Neko Hiki no Oruorane",
      "link": "https://animefire.plus/animes/neko-hiki-no-oruorane-todos-os-episodios",
      "texto_original": "Neko Hiki no Oruorane",
      "rating": 6.33,
      "classificacao_etaria": "A14",
      "imagem_original": "https://animefire.plus/img/animes/neko-hiki-no-oruorane.webp",
      "imagem_pasta": "https://animefire.plus/img/animes/neko-hiki-no-oruorane/",
      "secao": "legendados",
      "pagina": 85,
      "total_episodios": 1,
      "link_video": "https://animefire.plus/video/neko-hiki-no-oruorane"
    },
    {
      "id": 2709,
      "nome": "Nekogami Yaoyorozu",
      "link": "https://animefire.plus/animes/nekogami-yaoyorozu-todos-os-episodios",
      "texto_original": "Nekogami Yaoyorozu",
      "rating": 6.68,
      "classificacao_etaria": "A14",
      "imagem_original": "https://animefire.plus/img/animes/nekogami-yaoyorozu.webp",
      "imagem_pasta": "https://animefire.plus/img/animes/nekogami-yaoyorozu/",
      "secao": "legendados",
      "pagina": 112,
      "total_episodios": 12,
      "link_video": "https://animefire.plus/video/nekogami-yaoyorozu"
    },
    {
      "id": 2710,
      "nome": "Nekojiru-sou",
      "link": "https://animefire.plus/animes/nekojiru-sou-todos-os-episodios",
      "texto_original": "Nekojiru-sou",
      "rating": 7.34,
      "classificacao_etaria": "A14",
      "imagem_original": "https://animefire.plus/img/animes/nekojiru-sou.webp",
      "imagem_pasta": "https://animefire.plus/img/animes/nekojiru-sou/",
      "secao": "legendados",
      "pagina": 56,
      "total_episodios": 1,
      "link_video": "https://animefire.plus/video/nekojiru-sou"
    },
    {
      "id": 2712,
      "nome": "Nekopara",
      "link": "https://animefire.plus/animes/nekopara-todos-os-episodios",
      "texto_original": "Nekopara",
      "rating": 6.76,
      "classificacao_etaria": "A14",
      "imagem_original": "https://animefire.plus/img/animes/nekopara.webp",
      "imagem_pasta": "https://animefire.plus/img/animes/nekopara/",
      "secao": "legendados",
      "pagina": 93,
      "total_episodios": 2,
      "link_video": "https://animefire.plus/video/nekopara"
    },
    {
      "id": 2713,
      "nome": "Nekopara: Koneko no Hi no Yakusoku",
      "link": "https://animefire.plus/animes/nekopara-koneko-no-hi-no-yakusoku-todos-os-episodios",
      "texto_original": "Nekopara: Koneko no Hi no Yakusoku",
      "rating": 7.13,
      "classificacao_etaria": "A14",
      "imagem_original": "https://animefire.plus/img/animes/nekopara-koneko-no-hi-no-yakusoku.webp",
      "imagem_pasta": "https://animefire.plus/img/animes/nekopara-koneko-no-hi-no-yakusoku/",
      "secao": "legendados",
      "pagina": 67,
      "total_episodios": 1,
      "link_video": "https://animefire.plus/video/nekopara-koneko-no-hi-no-yakusoku"
    },
    {
      "id": 2714,
      "nome": "Neo Angelique Abyss: Second Age",
      "link": "https://animefire.plus/animes/neo-angelique-abyss-second-age-todos-os-episodios",
      "texto_original": "Neo Angelique Abyss: Second Age",
      "rating": 7.14,
      "classificacao_etaria": "A14",
      "imagem_original": "https://animefire.plus/img/animes/neo-angelique-abyss-second-age.webp",
      "imagem_pasta": "https://animefire.plus/img/animes/neo-angelique-abyss-second-age/",
      "secao": "legendados",
      "pagina": 133,
      "total_episodios": 13,
      "link_video": "https://animefire.plus/video/neo-angelique-abyss-second-age"
    },
    {
      "id": 2715,
      "nome": "Neon Genesis Evangelion (Dublado)",
      "link": "https://animefire.plus/animes/neon-genesis-evangelion-dublado-todos-os-episodios",
      "texto_original": "Neon Genesis Evangelion (Dublado)",
      "rating": 8.34,
      "classificacao_etaria": "A14",
      "imagem_original": "https://animefire.plus/img/animes/neon-genesis-evangelion.webp",
      "imagem_pasta": "https://animefire.plus/img/animes/neon-genesis-evangelion/",
      "secao": "dublados,legendados",
      "pagina": 26,
      "total_episodios": 26,
      "link_video": "https://animefire.plus/video/neon-genesis-evangelion-dublado"
    },
    {
      "id": 2717,
      "nome": "Net-juu no Susume (Dublado)",
      "link": "https://animefire.plus/animes/net-juu-no-susume-dublado-todos-os-episodios",
      "texto_original": "Net-juu no Susume (Dublado)",
      "rating": 7.76,
      "classificacao_etaria": "A14",
      "imagem_original": "https://animefire.plus/img/animes/net-juu-no-susume.webp",
      "imagem_pasta": "https://animefire.plus/img/animes/net-juu-no-susume/",
      "secao": "dublados,legendados",
      "pagina": 26,
      "total_episodios": 11,
      "link_video": "https://animefire.plus/video/net-juu-no-susume-dublado"
    },
    {
      "id": 2718,
      "nome": "Net-juu no Susume Special (Dublado)",
      "link": "https://animefire.plus/animes/net-juu-no-susume-special-dublado-todos-os-episodios",
      "texto_original": "Net-juu no Susume Special (Dublado)",
      "rating": 7.46,
      "classificacao_etaria": "A14",
      "imagem_original": "https://animefire.plus/img/animes/net-juu-no-susume-special.webp",
      "imagem_pasta": "https://animefire.plus/img/animes/net-juu-no-susume-special/",
      "secao": "dublados,legendados",
      "pagina": 24,
      "total_episodios": 1,
      "link_video": "https://animefire.plus/video/net-juu-no-susume-special-dublado"
    },
    {
      "id": 2719,
      "nome": "Netoge no Yome wa Onnanoko ja Nai to Omotta?",
      "link": "https://animefire.plus/animes/netoge-no-yome-wa-onnanoko-ja-nai-to-omotta-todos-os-episodios",
      "texto_original": "Netoge no Yome wa Onnanoko ja Nai to Omotta?",
      "rating": 7.02,
      "classificacao_etaria": "A14",
      "imagem_original": "https://animefire.plus/img/animes/netoge-no-yome-wa-onnanoko-ja-nai-to-omotta.webp",
      "imagem_pasta": "https://animefire.plus/img/animes/netoge-no-yome-wa-onnanoko-ja-nai-to-omotta/",
      "secao": "legendados",
      "pagina": 147,
      "total_episodios": 5,
      "link_video": "https://animefire.plus/video/netoge-no-yome-wa-onnanoko-ja-nai-to-omotta"
    },
    {
      "id": 2721,
      "nome": "New Game!",
      "link": "https://animefire.plus/animes/new-game-todos-os-episodios",
      "texto_original": "New Game!",
      "rating": 7.66,
      "classificacao_etaria": "A14",
      "imagem_original": "https://animefire.plus/img/animes/new-game.webp",
      "imagem_pasta": "https://animefire.plus/img/animes/new-game/",
      "secao": "legendados",
      "pagina": 57,
      "total_episodios": 12,
      "link_video": "https://animefire.plus/video/new-game"
    },
    {
      "id": 2724,
      "nome": "Ni Zhuan Ci Yuan: AI Jue Qi",
      "link": "https://animefire.plus/animes/ni-zhuan-ci-yuan-ai-jue-qi-todos-os-episodios",
      "texto_original": "Ni Zhuan Ci Yuan: AI Jue Qi",
      "rating": null,
      "classificacao_etaria": "A14",
      "imagem_original": "https://animefire.plus/img/animes/ni-zhuan-ci-yuan-ai-jue-qi.webp",
      "imagem_pasta": "https://animefire.plus/img/animes/ni-zhuan-ci-yuan-ai-jue-qi/",
      "secao": "legendados",
      "pagina": 80,
      "total_episodios": 12,
      "link_video": "https://animefire.plus/video/ni-zhuan-ci-yuan-ai-jue-qi"
    },
    {
      "id": 2725,
      "nome": "Nichijou",
      "link": "https://animefire.plus/animes/nichijou-todos-os-episodios",
      "texto_original": "Nichijou",
      "rating": 8.51,
      "classificacao_etaria": "A14",
      "imagem_original": "https://animefire.plus/img/animes/nichijou.webp",
      "imagem_pasta": "https://animefire.plus/img/animes/nichijou/",
      "secao": "legendados",
      "pagina": 174,
      "total_episodios": 26,
      "link_video": "https://animefire.plus/video/nichijou"
    },
    {
      "id": 2726,
      "nome": "Niehime to Kemono no Ou",
      "link": "https://animefire.plus/animes/niehime-to-kemono-no-ou-todos-os-episodios",
      "texto_original": "Niehime to Kemono no Ou",
      "rating": 7.93,
      "classificacao_etaria": "A14",
      "imagem_original": "https://animefire.plus/img/animes/niehime-to-kemono-no-ou.jpg",
      "imagem_pasta": "https://animefire.plus/img/animes/niehime-to-kemono-no-ou/",
      "secao": "legendados",
      "pagina": 23,
      "total_episodios": 24,
      "link_video": "https://animefire.plus/video/niehime-to-kemono-no-ou"
    },
    {
      "id": 2727,
      "nome": "NieR:Automata Ver1.1a (Dublado)",
      "link": "https://animefire.plus/animes/nier-automata-ver1-1a-dublado-todos-os-episodios",
      "texto_original": "NieR:Automata Ver1.1a (Dublado)",
      "rating": 7.51,
      "classificacao_etaria": "A14",
      "imagem_original": "https://animefire.plus/img/animes/nier-automata-ver1-1a.webp",
      "imagem_pasta": "https://animefire.plus/img/animes/nier-automata-ver1-1a/",
      "secao": "dublados,legendados",
      "pagina": 7,
      "total_episodios": 12,
      "link_video": "https://animefire.plus/video/nier-automata-ver1-1a-dublado"
    }
  ],
  "pagination": {
    "current_page": 90,
    "per_page": 20,
    "total_items": 2988,
    "total_pages": 150,
    "has_next": true,
    "has_prev": true
  }
}
