{
  "message": "Animes com classificação etária: A14",
  "age_rating": "A14",
  "data": [
    {
      "id": 1131,
      "nome": "Genjitsu Shugi Yuusha no Oukoku Saikenki (Dublado)",
      "link": "https://animefire.plus/animes/genjitsu-shugi-yuusha-no-oukoku-saikenki-dublado-todos-os-episodios",
      "texto_original": "Genjitsu Shugi Yuusha no Oukoku Saikenki (Dublado)",
      "rating": 7.25,
      "classificacao_etaria": "A14",
      "imagem_original": "https://animefire.plus/img/animes/genjitsu-shugi-yuusha-no-oukoku-saikenki.webp",
      "imagem_pasta": "https://animefire.plus/img/animes/genjitsu-shugi-yuusha-no-oukoku-saikenki/",
      "secao": "dublados,legendados",
      "pagina": 16,
      "total_episodios": 13,
      "link_video": "https://animefire.plus/video/genjitsu-shugi-yuusha-no-oukoku-saikenki-dublado"
    },
    {
      "id": 1132,
      "nome": "Genjitsu Shugi Yuusha no Oukoku Saikenki 2nd Season",
      "link": "https://animefire.plus/animes/genjitsu-shugi-yuusha-no-oukoku-saikenki-2nd-season-todos-os-episodios",
      "texto_original": "Genjitsu Shugi Yuusha no Oukoku Saikenki 2nd Season",
      "rating": 7.43,
      "classificacao_etaria": "A14",
      "imagem_original": "https://animefire.plus/img/animes/genjitsu-shugi-yuusha-no-oukoku-saikenki-2nd-season.webp",
      "imagem_pasta": "https://animefire.plus/img/animes/genjitsu-shugi-yuusha-no-oukoku-saikenki-2nd-season/",
      "secao": "legendados",
      "pagina": 37,
      "total_episodios": 13,
      "link_video": "https://animefire.plus/video/genjitsu-shugi-yuusha-no-oukoku-saikenki-2nd-season"
    },
    {
      "id": 1133,
      "nome": "Genjitsu Shugi Yuusha no Oukoku Saikenki Part 2 (Dublado)",
      "link": "https://animefire.plus/animes/genjitsu-shugi-yuusha-no-oukoku-saikenki-part-2-dublado-todos-os-episodios",
      "texto_original": "Genjitsu Shugi Yuusha no Oukoku Saikenki Part 2 (Dublado)",
      "rating": 7.43,
      "classificacao_etaria": "A14",
      "imagem_original": "https://animefire.plus/img/animes/genjitsu-shugi-yuusha-no-oukoku-saikenki-part-2.webp",
      "imagem_pasta": "https://animefire.plus/img/animes/genjitsu-shugi-yuusha-no-oukoku-saikenki-part-2/",
      "secao": "dublados",
      "pagina": 12,
      "total_episodios": 12,
      "link_video": "https://animefire.plus/video/genjitsu-shugi-yuusha-no-oukoku-saikenki-part-2-dublado"
    },
    {
      "id": 1134,
      "nome": "Genma Taisen: Shinwa Zenya no Shou (Dublado)",
      "link": "https://animefire.plus/animes/genma-taisen-shinwa-zenya-no-shou-dublado-todos-os-episodios",
      "texto_original": "Genma Taisen: Shinwa Zenya no Shou (Dublado)",
      "rating": 5.22,
      "classificacao_etaria": "A14",
      "imagem_original": "https://animefire.plus/img/animes/genma-taisen-shinwa-zenya-no-shou.webp",
      "imagem_pasta": "https://animefire.plus/img/animes/genma-taisen-shinwa-zenya-no-shou/",
      "secao": "dublados,legendados",
      "pagina": 26,
      "total_episodios": 0,
      "link_video": "https://animefire.plus/video/genma-taisen-shinwa-zenya-no-shou-dublado"
    },
    {
      "id": 1136,
      "nome": "Genshiken",
      "link": "https://animefire.plus/animes/genshiken-todos-os-episodios",
      "texto_original": "Genshiken",
      "rating": 7.68,
      "classificacao_etaria": "A14",
      "imagem_original": "https://animefire.plus/img/animes/genshiken.webp",
      "imagem_pasta": "https://animefire.plus/img/animes/genshiken/",
      "secao": "legendados",
      "pagina": 79,
      "total_episodios": 12,
      "link_video": "https://animefire.plus/video/genshiken"
    },
    {
      "id": 1141,
      "nome": "Gensou Jotan Ellcia (Dublado)",
      "link": "https://animefire.plus/animes/gensou-jotan-ellcia-dublado-todos-os-episodios",
      "texto_original": "Gensou Jotan Ellcia (Dublado)",
      "rating": 6.02,
      "classificacao_etaria": "A14",
      "imagem_original": "https://animefire.plus/img/animes/gensou-jotan-ellcia.webp",
      "imagem_pasta": "https://animefire.plus/img/animes/gensou-jotan-ellcia/",
      "secao": "dublados",
      "pagina": 22,
      "total_episodios": 4,
      "link_video": "https://animefire.plus/video/gensou-jotan-ellcia-dublado"
    },
    {
      "id": 1142,
      "nome": "Gensou Sangokushi: Tengen Reishinki",
      "link": "https://animefire.plus/animes/gensou-sangokushi-tengen-reishinki-todos-os-episodios",
      "texto_original": "Gensou Sangokushi: Tengen Reishinki",
      "rating": 5.31,
      "classificacao_etaria": "A14",
      "imagem_original": "https://animefire.plus/img/animes/gensou-sangokushi-tengen-reishinki.webp",
      "imagem_pasta": "https://animefire.plus/img/animes/gensou-sangokushi-tengen-reishinki/",
      "secao": "legendados",
      "pagina": 36,
      "total_episodios": 12,
      "link_video": "https://animefire.plus/video/gensou-sangokushi-tengen-reishinki"
    },
    {
      "id": 1144,
      "nome": "Gensoumaden Saiyuuki OVA",
      "link": "https://animefire.plus/animes/gensoumaden-saiyuuki-ova-todos-os-episodios",
      "texto_original": "Gensoumaden Saiyuuki OVA",
      "rating": 7.13,
      "classificacao_etaria": "A14",
      "imagem_original": "https://animefire.plus/img/animes/gensoumaden-saiyuuki-ova.webp",
      "imagem_pasta": "https://animefire.plus/img/animes/gensoumaden-saiyuuki-ova/",
      "secao": "legendados",
      "pagina": 84,
      "total_episodios": 2,
      "link_video": "https://animefire.plus/video/gensoumaden-saiyuuki-ova"
    },
    {
      "id": 1145,
      "nome": "GetBackers",
      "link": "https://animefire.plus/animes/getbackers-todos-os-episodios",
      "texto_original": "GetBackers",
      "rating": 7.67,
      "classificacao_etaria": "A14",
      "imagem_original": "https://animefire.plus/img/animes/getbackers.webp",
      "imagem_pasta": "https://animefire.plus/img/animes/getbackers/",
      "secao": "legendados",
      "pagina": 134,
      "total_episodios": 49,
      "link_video": "https://animefire.plus/video/getbackers"
    },
    {
      "id": 1146,
      "nome": "Getsumen To Heiki Mina",
      "link": "https://animefire.plus/animes/getsumen-to-heiki-mina-todos-os-episodios",
      "texto_original": "Getsumen To Heiki Mina",
      "rating": 6.33,
      "classificacao_etaria": "A14",
      "imagem_original": "https://animefire.plus/img/animes/getsumen-to-heiki-mina.webp",
      "imagem_pasta": "https://animefire.plus/img/animes/getsumen-to-heiki-mina/",
      "secao": "legendados",
      "pagina": 103,
      "total_episodios": 11,
      "link_video": "https://animefire.plus/video/getsumen-to-heiki-mina"
    },
    {
      "id": 1147,
      "nome": "Getsuyoubi no Tawawa",
      "link": "https://animefire.plus/animes/getsuyoubi-no-tawawa-todos-os-episodios",
      "texto_original": "Getsuyoubi no Tawawa",
      "rating": 6.52,
      "classificacao_etaria": "A14",
      "imagem_original": "https://animefire.plus/img/animes/getsuyoubi-no-tawawa.webp",
      "imagem_pasta": "https://animefire.plus/img/animes/getsuyoubi-no-tawawa/",
      "secao": "legendados",
      "pagina": 122,
      "total_episodios": 12,
      "link_video": "https://animefire.plus/video/getsuyoubi-no-tawawa"
    },
    {
      "id": 1148,
      "nome": "Getsuyoubi no Tawawa 2",
      "link": "https://animefire.plus/animes/getsuyoubi-no-tawawa-2-todos-os-episodios",
      "texto_original": "Getsuyoubi no Tawawa 2",
      "rating": 6.61,
      "classificacao_etaria": "A14",
      "imagem_original": "https://animefire.plus/img/animes/getsuyoubi-no-tawawa-2.webp",
      "imagem_pasta": "https://animefire.plus/img/animes/getsuyoubi-no-tawawa-2/",
      "secao": "legendados",
      "pagina": 38,
      "total_episodios": 12,
      "link_video": "https://animefire.plus/video/getsuyoubi-no-tawawa-2"
    },
    {
      "id": 1149,
      "nome": "Getter Robo Arc",
      "link": "https://animefire.plus/animes/getter-robo-arc-todos-os-episodios",
      "texto_original": "Getter Robo Arc",
      "rating": 6.16,
      "classificacao_etaria": "A14",
      "imagem_original": "https://animefire.plus/img/animes/getter-robo-arc.webp",
      "imagem_pasta": "https://animefire.plus/img/animes/getter-robo-arc/",
      "secao": "legendados",
      "pagina": 40,
      "total_episodios": 13,
      "link_video": "https://animefire.plus/video/getter-robo-arc"
    },
    {
      "id": 1150,
      "nome": "Ghost Hunt",
      "link": "https://animefire.plus/animes/ghost-hunt-todos-os-episodios",
      "texto_original": "Ghost Hunt",
      "rating": 7.89,
      "classificacao_etaria": "A14",
      "imagem_original": "https://animefire.plus/img/animes/ghost-hunt.webp",
      "imagem_pasta": "https://animefire.plus/img/animes/ghost-hunt/",
      "secao": "legendados",
      "pagina": 160,
      "total_episodios": 0,
      "link_video": "https://animefire.plus/video/ghost-hunt"
    },
    {
      "id": 1151,
      "nome": "Gi(a)rlish Number",
      "link": "https://animefire.plus/animes/gi-a-rlish-number-todos-os-episodios",
      "texto_original": "Gi(a)rlish Number",
      "rating": 6.95,
      "classificacao_etaria": "A14",
      "imagem_original": "https://animefire.plus/img/animes/gi-a-rlish-number.webp",
      "imagem_pasta": "https://animefire.plus/img/animes/gi-a-rlish-number/",
      "secao": "legendados",
      "pagina": 119,
      "total_episodios": 3,
      "link_video": "https://animefire.plus/video/gi-a-rlish-number"
    },
    {
      "id": 1152,
      "nome": "Giant Killing",
      "link": "https://animefire.plus/animes/giant-killing-todos-os-episodios",
      "texto_original": "Giant Killing",
      "rating": 7.6,
      "classificacao_etaria": "A14",
      "imagem_original": "https://animefire.plus/img/animes/giant-killing.webp",
      "imagem_pasta": "https://animefire.plus/img/animes/giant-killing/",
      "secao": "legendados",
      "pagina": 67,
      "total_episodios": 26,
      "link_video": "https://animefire.plus/video/giant-killing"
    },
    {
      "id": 1154,
      "nome": "Gift: Eternal Rainbow",
      "link": "https://animefire.plus/animes/gift-eternal-rainbow-todos-os-episodios",
      "texto_original": "Gift: Eternal Rainbow",
      "rating": 6.7,
      "classificacao_etaria": "A14",
      "imagem_original": "https://animefire.plus/img/animes/gift-eternal-rainbow.webp",
      "imagem_pasta": "https://animefire.plus/img/animes/gift-eternal-rainbow/",
      "secao": "legendados",
      "pagina": 105,
      "total_episodios": 12,
      "link_video": "https://animefire.plus/video/gift-eternal-rainbow"
    },
    {
      "id": 1155,
      "nome": "Giji Harem",
      "link": "https://animefire.plus/animes/giji-harem-todos-os-episodios",
      "texto_original": "Giji Harem",
      "rating": 7.83,
      "classificacao_etaria": "A14",
      "imagem_original": "https://animefire.plus/img/animes/giji-harem.webp",
      "imagem_pasta": "https://animefire.plus/img/animes/giji-harem/",
      "secao": "legendados",
      "pagina": 13,
      "total_episodios": 12,
      "link_video": "https://animefire.plus/video/giji-harem"
    },
    {
      "id": 1157,
      "nome": "Gimai Seikatsu",
      "link": "https://animefire.plus/animes/gimai-seikatsu-todos-os-episodios",
      "texto_original": "Gimai Seikatsu",
      "rating": 7.33,
      "classificacao_etaria": "A14",
      "imagem_original": "https://animefire.plus/img/animes/gimai-seikatsu.webp",
      "imagem_pasta": "https://animefire.plus/img/animes/gimai-seikatsu/",
      "secao": "legendados",
      "pagina": 13,
      "total_episodios": 12,
      "link_video": "https://animefire.plus/video/gimai-seikatsu"
    },
    {
      "id": 1158,
      "nome": "Gin no Guardian",
      "link": "https://animefire.plus/animes/gin-no-guardian-todos-os-episodios",
      "texto_original": "Gin no Guardian",
      "rating": 6.35,
      "classificacao_etaria": "A14",
      "imagem_original": "https://animefire.plus/img/animes/gin-no-guardian.webp",
      "imagem_pasta": "https://animefire.plus/img/animes/gin-no-guardian/",
      "secao": "legendados",
      "pagina": 135,
      "total_episodios": 12,
      "link_video": "https://animefire.plus/video/gin-no-guardian"
    }
  ],
  "pagination": {
    "current_page": 37,
    "per_page": 20,
    "total_items": 2988,
    "total_pages": 150,
    "has_next": true,
    "has_prev": true
  }
}
