{
  "message": "Animes com classificação etária: A14",
  "age_rating": "A14",
  "data": [
    {
      "id": 3383,
      "nome": "Shaman King (2021) (Dublado)",
      "link": "https://animefire.plus/animes/shaman-king-2021-dublado-todos-os-episodios",
      "texto_original": "Shaman King (2021) (Dublado)",
      "rating": 6.9,
      "classificacao_etaria": "A14",
      "imagem_original": "https://animefire.plus/img/animes/shaman-king-2021.webp",
      "imagem_pasta": "https://animefire.plus/img/animes/shaman-king-2021/",
      "secao": "dublados,legendados",
      "pagina": 16,
      "total_episodios": 52,
      "link_video": "https://animefire.plus/video/shaman-king-2021-dublado"
    },
    {
      "id": 3384,
      "nome": "Shaman King (Dublado)",
      "link": "https://animefire.plus/animes/shaman-king-dublado-todos-os-episodios",
      "texto_original": "Shaman King (Dublado)",
      "rating": 7.79,
      "classificacao_etaria": "A14",
      "imagem_original": "https://animefire.plus/img/animes/shaman-king.webp",
      "imagem_pasta": "https://animefire.plus/img/animes/shaman-king/",
      "secao": "dublados,legendados",
      "pagina": 22,
      "total_episodios": 64,
      "link_video": "https://animefire.plus/video/shaman-king-dublado"
    },
    {
      "id": 3385,
      "nome": "Shaman King: Flowers (Dublado)",
      "link": "https://animefire.plus/animes/shaman-king-flowers-dublado-todos-os-episodios",
      "texto_original": "Shaman King: Flowers (Dublado)",
      "rating": 6.57,
      "classificacao_etaria": "A14",
      "imagem_original": "https://animefire.plus/img/animes/shaman-king-flowers.webp",
      "imagem_pasta": "https://animefire.plus/img/animes/shaman-king-flowers/",
      "secao": "dublados,legendados,lancamentos",
      "pagina": 3,
      "total_episodios": 12,
      "link_video": "https://animefire.plus/video/shaman-king-flowers-dublado"
    },
    {
      "id": 3386,
      "nome": "Shangri-La",
      "link": "https://animefire.plus/animes/shangri-la-todos-os-episodios",
      "texto_original": "Shangri-La",
      "rating": 7.11,
      "classificacao_etaria": "A14",
      "imagem_original": "https://animefire.plus/img/animes/shangri-la.webp",
      "imagem_pasta": "https://animefire.plus/img/animes/shangri-la/",
      "secao": "legendados",
      "pagina": 151,
      "total_episodios": 24,
      "link_video": "https://animefire.plus/video/shangri-la"
    },
    {
      "id": 3387,
      "nome": "Shangri-La Frontier: Kusoge Hunter, Kamige ni Idoman to su (Dublado)",
      "link": "https://animefire.plus/animes/shangri-la-frontier-kusoge-hunter-kamige-ni-idoman-to-su-dublado-todos-os-episodios",
      "texto_original": "Shangri-La Frontier: Kusoge Hunter, Kamige ni Idoman to su (Dublado)",
      "rating": 8.1,
      "classificacao_etaria": "A14",
      "imagem_original": "https://animefire.plus/img/animes/shangri-la-frontier-kusoge-hunter-kamige-ni-idoman-to-su.webp",
      "imagem_pasta": "https://animefire.plus/img/animes/shangri-la-frontier-kusoge-hunter-kamige-ni-idoman-to-su/",
      "secao": "dublados,legendados",
      "pagina": 3,
      "total_episodios": 25,
      "link_video": "https://animefire.plus/video/shangri-la-frontier-kusoge-hunter-kamige-ni-idoman-to-su-dublado"
    },
    {
      "id": 3388,
      "nome": "Shangri-La Frontier: Kusoge Hunter, Kamige ni Idoman to su 2nd Season (Dublado)",
      "link": "https://animefire.plus/animes/shangri-la-frontier-kusoge-hunter-kamige-ni-idoman-to-su-2nd-season-dublado-todos-os-episodios",
      "texto_original": "Shangri-La Frontier: Kusoge Hunter, Kamige ni Idoman to su 2nd Season (Dublado)",
      "rating": 8.27,
      "classificacao_etaria": "A14",
      "imagem_original": "https://animefire.plus/img/animes/shangri-la-frontier-kusoge-hunter-kamige-ni-idoman-to-su-2nd-season.webp",
      "imagem_pasta": "https://animefire.plus/img/animes/shangri-la-frontier-kusoge-hunter-kamige-ni-idoman-to-su-2nd-season/",
      "secao": "dublados,legendados,lancamentos",
      "pagina": 2,
      "total_episodios": 25,
      "link_video": "https://animefire.plus/video/shangri-la-frontier-kusoge-hunter-kamige-ni-idoman-to-su-2nd-season-dublado"
    },
    {
      "id": 3389,
      "nome": "Shao Nu Qian Xian Ren Xing Xiao Ju Chang",
      "link": "https://animefire.plus/animes/shao-nu-qian-xian-ren-xing-xiao-ju-chang-todos-os-episodios",
      "texto_original": "Shao Nu Qian Xian Ren Xing Xiao Ju Chang",
      "rating": 6.73,
      "classificacao_etaria": "A14",
      "imagem_original": "https://animefire.plus/img/animes/shao-nu-qian-xian-ren-xing-xiao-ju-chang.webp",
      "imagem_pasta": "https://animefire.plus/img/animes/shao-nu-qian-xian-ren-xing-xiao-ju-chang/",
      "secao": "legendados",
      "pagina": 80,
      "total_episodios": 12,
      "link_video": "https://animefire.plus/video/shao-nu-qian-xian-ren-xing-xiao-ju-chang"
    },
    {
      "id": 3391,
      "nome": "Shen Ming Zhi Zhou",
      "link": "https://animefire.plus/animes/shen-ming-zhi-zhou-todos-os-episodios",
      "texto_original": "Shen Ming Zhi Zhou",
      "rating": 6.51,
      "classificacao_etaria": "A14",
      "imagem_original": "https://animefire.plus/img/animes/shen-ming-zhi-zhou.webp",
      "imagem_pasta": "https://animefire.plus/img/animes/shen-ming-zhi-zhou/",
      "secao": "legendados",
      "pagina": 149,
      "total_episodios": 12,
      "link_video": "https://animefire.plus/video/shen-ming-zhi-zhou"
    },
    {
      "id": 3393,
      "nome": "Shi Cao Lao Long Bei Guan Yi E Long Zhi Ming 2nd Season",
      "link": "https://animefire.plus/animes/shi-cao-lao-long-bei-guan-yi-e-long-zhi-ming-2nd-season-todos-os-episodios",
      "texto_original": "Shi Cao Lao Long Bei Guan Yi E Long Zhi Ming 2nd Season",
      "rating": 6.79,
      "classificacao_etaria": "A14",
      "imagem_original": "https://animefire.plus/img/animes/shi-cao-lao-long-bei-guan-yi-e-long-zhi-ming-2nd-season.webp",
      "imagem_pasta": "https://animefire.plus/img/animes/shi-cao-lao-long-bei-guan-yi-e-long-zhi-ming-2nd-season/",
      "secao": "legendados,lancamentos",
      "pagina": 9,
      "total_episodios": 4,
      "link_video": "https://animefire.plus/video/shi-cao-lao-long-bei-guan-yi-e-long-zhi-ming-2nd-season"
    },
    {
      "id": 3395,
      "nome": "Shi Yi Chang An: Ming Yue Ji Shi You",
      "link": "https://animefire.plus/animes/shi-yi-chang-an-ming-yue-ji-shi-you-todos-os-episodios",
      "texto_original": "Shi Yi Chang An: Ming Yue Ji Shi You",
      "rating": null,
      "classificacao_etaria": "A14",
      "imagem_original": "https://animefire.plus/img/animes/shi-yi-chang-an-ming-yue-ji-shi-you.webp",
      "imagem_pasta": "https://animefire.plus/img/animes/shi-yi-chang-an-ming-yue-ji-shi-you/",
      "secao": "legendados,lancamentos",
      "pagina": 50,
      "total_episodios": 7,
      "link_video": "https://animefire.plus/video/shi-yi-chang-an-ming-yue-ji-shi-you"
    },
    {
      "id": 3397,
      "nome": "Shichisei no Subaru",
      "link": "https://animefire.plus/animes/shichisei-no-subaru-todos-os-episodios",
      "texto_original": "Shichisei no Subaru",
      "rating": 6.26,
      "classificacao_etaria": "A14",
      "imagem_original": "https://animefire.plus/img/animes/shichisei-no-subaru.webp",
      "imagem_pasta": "https://animefire.plus/img/animes/shichisei-no-subaru/",
      "secao": "legendados",
      "pagina": 144,
      "total_episodios": 12,
      "link_video": "https://animefire.plus/video/shichisei-no-subaru"
    },
    {
      "id": 3398,
      "nome": "Shigatsu Wa Kimi No Uso",
      "link": "https://animefire.plus/animes/shigatsu-wa-kimi-no-uso-todos-os-episodios",
      "texto_original": "Shigatsu Wa Kimi No Uso",
      "rating": 8.84,
      "classificacao_etaria": "A14",
      "imagem_original": "https://animefire.plus/img/animes/shigatsu-wa-kimi-no-uso.webp",
      "imagem_pasta": "https://animefire.plus/img/animes/shigatsu-wa-kimi-no-uso/",
      "secao": "legendados",
      "pagina": 97,
      "total_episodios": 0,
      "link_video": "https://animefire.plus/video/shigatsu-wa-kimi-no-uso"
    },
    {
      "id": 3399,
      "nome": "Shigatsu wa Kimi no Uso: Moments",
      "link": "https://animefire.plus/animes/shigatsu-wa-kimi-no-uso-moments-todos-os-episodios",
      "texto_original": "Shigatsu wa Kimi no Uso: Moments",
      "rating": 7.73,
      "classificacao_etaria": "A14",
      "imagem_original": "https://animefire.plus/img/animes/shigatsu-wa-kimi-no-uso-moments.webp",
      "imagem_pasta": "https://animefire.plus/img/animes/shigatsu-wa-kimi-no-uso-moments/",
      "secao": "legendados",
      "pagina": 54,
      "total_episodios": 1,
      "link_video": "https://animefire.plus/video/shigatsu-wa-kimi-no-uso-moments"
    },
    {
      "id": 3401,
      "nome": "Shiguang Dailiren: Yingdu Pian",
      "link": "https://animefire.plus/animes/shiguang-dailiren-yingdu-pian-todos-os-episodios",
      "texto_original": "Shiguang Dailiren: Yingdu Pian",
      "rating": 8.31,
      "classificacao_etaria": "A14",
      "imagem_original": "https://animefire.plus/img/animes/shiguang-dailiren-yingdu-pian.webp",
      "imagem_pasta": "https://animefire.plus/img/animes/shiguang-dailiren-yingdu-pian/",
      "secao": "legendados",
      "pagina": 7,
      "total_episodios": 6,
      "link_video": "https://animefire.plus/video/shiguang-dailiren-yingdu-pian"
    },
    {
      "id": 3404,
      "nome": "Shijou Saikyou no Daimaou, Murabito A ni Tensei suru (Dublado)",
      "link": "https://animefire.plus/animes/shijou-saikyou-no-daimaou-murabito-a-ni-tensei-suru-dublado-todos-os-episodios",
      "texto_original": "Shijou Saikyou no Daimaou, Murabito A ni Tensei suru (Dublado)",
      "rating": 6.29,
      "classificacao_etaria": "A14",
      "imagem_original": "https://animefire.plus/img/animes/shijou-saikyou-no-daimaou-murabito-a-ni-tensei-suru.webp",
      "imagem_pasta": "https://animefire.plus/img/animes/shijou-saikyou-no-daimaou-murabito-a-ni-tensei-suru/",
      "secao": "dublados,legendados",
      "pagina": 11,
      "total_episodios": 12,
      "link_video": "https://animefire.plus/video/shijou-saikyou-no-daimaou-murabito-a-ni-tensei-suru-dublado"
    },
    {
      "id": 3405,
      "nome": "Shijou Saikyou no Deshi Kenichi (Dublado)",
      "link": "https://animefire.plus/animes/shijou-saikyou-no-deshi-kenichi-dublado-todos-os-episodios",
      "texto_original": "Shijou Saikyou no Deshi Kenichi (Dublado)",
      "rating": 8.05,
      "classificacao_etaria": "A14",
      "imagem_original": "https://animefire.plus/img/animes/shijou-saikyou-no-deshi-kenichi.webp",
      "imagem_pasta": "https://animefire.plus/img/animes/shijou-saikyou-no-deshi-kenichi/",
      "secao": "dublados,legendados",
      "pagina": 3,
      "total_episodios": 41,
      "link_video": "https://animefire.plus/video/shijou-saikyou-no-deshi-kenichi-dublado"
    },
    {
      "id": 3409,
      "nome": "Shikanoko Nokonoko Koshitantan (Dublado)",
      "link": "https://animefire.plus/animes/shikanoko-nokonoko-koshitantan-dublado-todos-os-episodios",
      "texto_original": "Shikanoko Nokonoko Koshitantan (Dublado)",
      "rating": 6.98,
      "classificacao_etaria": "A14",
      "imagem_original": "https://animefire.plus/img/animes/shikanoko-nokonoko-koshitantan.webp",
      "imagem_pasta": "https://animefire.plus/img/animes/shikanoko-nokonoko-koshitantan/",
      "secao": "dublados,legendados,lancamentos",
      "pagina": 2,
      "total_episodios": 12,
      "link_video": "https://animefire.plus/video/shikanoko-nokonoko-koshitantan-dublado"
    },
    {
      "id": 3411,
      "nome": "Shikizakura",
      "link": "https://animefire.plus/animes/shikizakura-todos-os-episodios",
      "texto_original": "Shikizakura",
      "rating": 5.83,
      "classificacao_etaria": "A14",
      "imagem_original": "https://animefire.plus/img/animes/shikizakura.webp",
      "imagem_pasta": "https://animefire.plus/img/animes/shikizakura/",
      "secao": "legendados",
      "pagina": 37,
      "total_episodios": 12,
      "link_video": "https://animefire.plus/video/shikizakura"
    },
    {
      "id": 3412,
      "nome": "Shikkakumon no Saikyou Kenja (Dublado)",
      "link": "https://animefire.plus/animes/shikkakumon-no-saikyou-kenja-dublado-todos-os-episodios",
      "texto_original": "Shikkakumon no Saikyou Kenja (Dublado)",
      "rating": 6.22,
      "classificacao_etaria": "A14",
      "imagem_original": "https://animefire.plus/img/animes/shikkakumon-no-saikyou-kenja.webp",
      "imagem_pasta": "https://animefire.plus/img/animes/shikkakumon-no-saikyou-kenja/",
      "secao": "dublados,legendados",
      "pagina": 12,
      "total_episodios": 12,
      "link_video": "https://animefire.plus/video/shikkakumon-no-saikyou-kenja-dublado"
    },
    {
      "id": 3414,
      "nome": "Shin Chuuka Ichiban!",
      "link": "https://animefire.plus/animes/shin-chuuka-ichiban-todos-os-episodios",
      "texto_original": "Shin Chuuka Ichiban!",
      "rating": 6.4,
      "classificacao_etaria": "A14",
      "imagem_original": "https://animefire.plus/img/animes/shin-chuuka-ichiban.webp",
      "imagem_pasta": "https://animefire.plus/img/animes/shin-chuuka-ichiban/",
      "secao": "legendados",
      "pagina": 110,
      "total_episodios": 0,
      "link_video": "https://animefire.plus/video/shin-chuuka-ichiban"
    }
  ],
  "pagination": {
    "current_page": 114,
    "per_page": 20,
    "total_items": 2988,
    "total_pages": 150,
    "has_next": true,
    "has_prev": true
  }
}
