{
  "message": "Animes com classificação etária: A14",
  "age_rating": "A14",
  "data": [
    {
      "id": 1846,
      "nome": "Kamichama Karin",
      "link": "https://animefire.plus/animes/kamichama-karin-todos-os-episodios",
      "texto_original": "Kamichama Karin",
      "rating": 7.42,
      "classificacao_etaria": "A14",
      "imagem_original": "https://animefire.plus/img/animes/kamichama-karin.webp",
      "imagem_pasta": "https://animefire.plus/img/animes/kamichama-karin/",
      "secao": "legendados",
      "pagina": 115,
      "total_episodios": 26,
      "link_video": "https://animefire.plus/video/kamichama-karin"
    },
    {
      "id": 1848,
      "nome": "Kamierabi",
      "link": "https://animefire.plus/animes/kamierabi-todos-os-episodios",
      "texto_original": "Kamierabi",
      "rating": 5.82,
      "classificacao_etaria": "A14",
      "imagem_original": "https://animefire.plus/img/animes/kamierabi.webp",
      "imagem_pasta": "https://animefire.plus/img/animes/kamierabi/",
      "secao": "legendados",
      "pagina": 20,
      "total_episodios": 12,
      "link_video": "https://animefire.plus/video/kamierabi"
    },
    {
      "id": 1849,
      "nome": "Kamierabi 2nd Season",
      "link": "https://animefire.plus/animes/kamierabi-2nd-season-todos-os-episodios",
      "texto_original": "Kamierabi 2nd Season",
      "rating": 6.19,
      "classificacao_etaria": "A14",
      "imagem_original": "https://animefire.plus/img/animes/kamierabi-2nd-season.webp",
      "imagem_pasta": "https://animefire.plus/img/animes/kamierabi-2nd-season/",
      "secao": "legendados",
      "pagina": 10,
      "total_episodios": 12,
      "link_video": "https://animefire.plus/video/kamierabi-2nd-season"
    },
    {
      "id": 1850,
      "nome": "Kamigami no Asobi",
      "link": "https://animefire.plus/animes/kamigami-no-asobi-todos-os-episodios",
      "texto_original": "Kamigami no Asobi",
      "rating": 7.26,
      "classificacao_etaria": "A14",
      "imagem_original": "https://animefire.plus/img/animes/kamigami-no-asobi.webp",
      "imagem_pasta": "https://animefire.plus/img/animes/kamigami-no-asobi/",
      "secao": "legendados",
      "pagina": 156,
      "total_episodios": 0,
      "link_video": "https://animefire.plus/video/kamigami-no-asobi"
    },
    {
      "id": 1851,
      "nome": "Kamikaze Kaitou Jeanne",
      "link": "https://animefire.plus/animes/kamikaze-kaitou-jeanne-todos-os-episodios",
      "texto_original": "Kamikaze Kaitou Jeanne",
      "rating": 7.52,
      "classificacao_etaria": "A14",
      "imagem_original": "https://animefire.plus/img/animes/kamikaze-kaitou-jeanne.webp",
      "imagem_pasta": "https://animefire.plus/img/animes/kamikaze-kaitou-jeanne/",
      "secao": "legendados",
      "pagina": 114,
      "total_episodios": 0,
      "link_video": "https://animefire.plus/video/kamikaze-kaitou-jeanne"
    },
    {
      "id": 1854,
      "nome": "Kamisama Hajimemashita (Dublado)",
      "link": "https://animefire.plus/animes/kamisama-hajimemashita-dublado-todos-os-episodios",
      "texto_original": "Kamisama Hajimemashita (Dublado)",
      "rating": 8.1,
      "classificacao_etaria": "A14",
      "imagem_original": "https://animefire.plus/img/animes/kamisama-hajimemashita.webp",
      "imagem_pasta": "https://animefire.plus/img/animes/kamisama-hajimemashita/",
      "secao": "dublados,legendados",
      "pagina": 4,
      "total_episodios": 5,
      "link_video": "https://animefire.plus/video/kamisama-hajimemashita-dublado"
    },
    {
      "id": 1855,
      "nome": "Kamisama Hajimemashita: Kako-hen",
      "link": "https://animefire.plus/animes/kamisama-hajimemashita-kako-hen-todos-os-episodios",
      "texto_original": "Kamisama Hajimemashita: Kako-hen",
      "rating": 8.4,
      "classificacao_etaria": "A14",
      "imagem_original": "https://animefire.plus/img/animes/kamisama-hajimemashita-kako-hen.webp",
      "imagem_pasta": "https://animefire.plus/img/animes/kamisama-hajimemashita-kako-hen/",
      "secao": "legendados",
      "pagina": 56,
      "total_episodios": 1,
      "link_video": "https://animefire.plus/video/kamisama-hajimemashita-kako-hen"
    },
    {
      "id": 1856,
      "nome": "Kamisama Hajimemashita◎",
      "link": "https://animefire.plus/animes/kamisama-kiss-season-2-todos-os-episodios",
      "texto_original": "Kamisama Hajimemashita◎",
      "rating": 8.19,
      "classificacao_etaria": "A14",
      "imagem_original": "https://animefire.plus/img/animes/kamisama-kiss-season-2.webp",
      "imagem_pasta": "https://animefire.plus/img/animes/kamisama-kiss-season-2/",
      "secao": "legendados",
      "pagina": 72,
      "total_episodios": 12,
      "link_video": "https://animefire.plus/video/kamisama-kiss-season-2"
    },
    {
      "id": 1857,
      "nome": "Kamisama Kazoku",
      "link": "https://animefire.plus/animes/kamisama-kazoku-todos-os-episodios",
      "texto_original": "Kamisama Kazoku",
      "rating": 7.2,
      "classificacao_etaria": "A14",
      "imagem_original": "https://animefire.plus/img/animes/kamisama-kazoku.webp",
      "imagem_pasta": "https://animefire.plus/img/animes/kamisama-kazoku/",
      "secao": "legendados",
      "pagina": 144,
      "total_episodios": 13,
      "link_video": "https://animefire.plus/video/kamisama-kazoku"
    },
    {
      "id": 1859,
      "nome": "Kamisama ni Natta Hi",
      "link": "https://animefire.plus/animes/kamisama-ni-natta-hi-todos-os-episodios",
      "texto_original": "Kamisama ni Natta Hi",
      "rating": null,
      "classificacao_etaria": "A14",
      "imagem_original": "https://animefire.plus/img/animes/kamisama-ni-natta-hi.webp",
      "imagem_pasta": "https://animefire.plus/img/animes/kamisama-ni-natta-hi/",
      "secao": "legendados",
      "pagina": 52,
      "total_episodios": 12,
      "link_video": "https://animefire.plus/video/kamisama-ni-natta-hi"
    },
    {
      "id": 1862,
      "nome": "Kamitsubaki-shi Kensetsuchuu.",
      "link": "https://animefire.plus/animes/kamitsubaki-shi-kensetsuchuu-todos-os-episodios",
      "texto_original": "Kamitsubaki-shi Kensetsuchuu.",
      "rating": 5.5,
      "classificacao_etaria": "A14",
      "imagem_original": "https://animefire.plus/img/animes/kamitsubaki-shi-kensetsuchuu.webp",
      "imagem_pasta": "https://animefire.plus/img/animes/kamitsubaki-shi-kensetsuchuu/",
      "secao": "legendados,lancamentos",
      "pagina": 1,
      "total_episodios": 4,
      "link_video": "https://animefire.plus/video/kamitsubaki-shi-kensetsuchuu"
    },
    {
      "id": 1863,
      "nome": "Kamonohashi Ron no Kindan Suiri",
      "link": "https://animefire.plus/animes/kamonohashi-ron-no-kindan-suiri-todos-os-episodios",
      "texto_original": "Kamonohashi Ron no Kindan Suiri",
      "rating": 7.5,
      "classificacao_etaria": "A14",
      "imagem_original": "https://animefire.plus/img/animes/kamonohashi-ron-no-kindan-suiri.webp",
      "imagem_pasta": "https://animefire.plus/img/animes/kamonohashi-ron-no-kindan-suiri/",
      "secao": "legendados",
      "pagina": 20,
      "total_episodios": 13,
      "link_video": "https://animefire.plus/video/kamonohashi-ron-no-kindan-suiri"
    },
    {
      "id": 1864,
      "nome": "Kamonohashi Ron no Kindan Suiri 2nd Season",
      "link": "https://animefire.plus/animes/kamonohashi-ron-no-kindan-suiri-2nd-season-todos-os-episodios",
      "texto_original": "Kamonohashi Ron no Kindan Suiri 2nd Season",
      "rating": 7.61,
      "classificacao_etaria": "A14",
      "imagem_original": "https://animefire.plus/img/animes/kamonohashi-ron-no-kindan-suiri-2nd-season.webp",
      "imagem_pasta": "https://animefire.plus/img/animes/kamonohashi-ron-no-kindan-suiri-2nd-season/",
      "secao": "legendados",
      "pagina": 9,
      "total_episodios": 13,
      "link_video": "https://animefire.plus/video/kamonohashi-ron-no-kindan-suiri-2nd-season"
    },
    {
      "id": 1865,
      "nome": "Kämpfer",
      "link": "https://animefire.plus/animes/kaempfer-todos-os-episodios",
      "texto_original": "Kämpfer",
      "rating": 6.59,
      "classificacao_etaria": "A14",
      "imagem_original": "https://animefire.plus/img/animes/kaempfer.webp",
      "imagem_pasta": "https://animefire.plus/img/animes/kaempfer/",
      "secao": "legendados",
      "pagina": 116,
      "total_episodios": 12,
      "link_video": "https://animefire.plus/video/kaempfer"
    },
    {
      "id": 1866,
      "nome": "Kanamemo",
      "link": "https://animefire.plus/animes/kanamemo-todos-os-episodios",
      "texto_original": "Kanamemo",
      "rating": 6.94,
      "classificacao_etaria": "A14",
      "imagem_original": "https://animefire.plus/img/animes/kanamemo.webp",
      "imagem_pasta": "https://animefire.plus/img/animes/kanamemo/",
      "secao": "legendados",
      "pagina": 104,
      "total_episodios": 0,
      "link_video": "https://animefire.plus/video/kanamemo"
    },
    {
      "id": 1867,
      "nome": "Kanata no Astra",
      "link": "https://animefire.plus/animes/kanata-no-astra-todos-os-episodios",
      "texto_original": "Kanata no Astra",
      "rating": 8.17,
      "classificacao_etaria": "A14",
      "imagem_original": "https://animefire.plus/img/animes/kanata-no-astra.webp",
      "imagem_pasta": "https://animefire.plus/img/animes/kanata-no-astra/",
      "secao": "legendados",
      "pagina": 144,
      "total_episodios": 6,
      "link_video": "https://animefire.plus/video/kanata-no-astra"
    },
    {
      "id": 1868,
      "nome": "Kanchigai no Atelier Meister: Eiyuu Party no Moto Zatsuyougakari ga, Jitsu wa Sentou Igai ga SSS Rank Datta to Iu Yoku Aru Hanashi (Dublado)",
      "link": "https://animefire.plus/animes/kanchigai-no-atelier-meister-eiyuu-party-no-moto-zatsuyougakari-ga-jitsu-wa-sentou-igai-ga-sss-rank-datta-to-iu-yoku-aru-hanashi-dublado-todos-os-episodios",
      "texto_original": "Kanchigai no Atelier Meister: Eiyuu Party no Moto Zatsuyougakari ga, Jitsu wa Sentou Igai ga SSS Rank Datta to Iu Yoku Aru Hanashi (Dublado)",
      "rating": 6.45,
      "classificacao_etaria": "A14",
      "imagem_original": "https://animefire.plus/img/animes/kanchigai-no-atelier-meister-eiyuu-party-no-moto-zatsuyougakari-ga-jitsu-wa-sentou-igai-ga-sss-rank-datta-to-iu-yoku-aru-hanashi.webp",
      "imagem_pasta": "https://animefire.plus/img/animes/kanchigai-no-atelier-meister-eiyuu-party-no-moto-zatsuyougakari-ga-jitsu-wa-sentou-igai-ga-sss-rank-datta-to-iu-yoku-aru-hanashi/",
      "secao": "dublados,legendados,lancamentos",
      "pagina": 1,
      "total_episodios": 12,
      "link_video": "https://animefire.plus/video/kanchigai-no-atelier-meister-eiyuu-party-no-moto-zatsuyougakari-ga-jitsu-wa-sentou-igai-ga-sss-rank-datta-to-iu-yoku-aru-hanashi-dublado"
    },
    {
      "id": 1869,
      "nome": "KanColle: Itsuka Ano Umi de",
      "link": "https://animefire.plus/animes/kancolle-itsuka-ano-umi-de-todos-os-episodios",
      "texto_original": "KanColle: Itsuka Ano Umi de",
      "rating": 6.26,
      "classificacao_etaria": "A14",
      "imagem_original": "https://animefire.plus/img/animes/kancolle-itsuka-ano-umi-de.webp",
      "imagem_pasta": "https://animefire.plus/img/animes/kancolle-itsuka-ano-umi-de/",
      "secao": "legendados,lancamentos",
      "pagina": 30,
      "total_episodios": 6,
      "link_video": "https://animefire.plus/video/kancolle-itsuka-ano-umi-de"
    },
    {
      "id": 1871,
      "nome": "Kandagawa Jet Girls OVA",
      "link": "https://animefire.plus/animes/kandagawa-jet-girls-ova-todos-os-episodios",
      "texto_original": "Kandagawa Jet Girls OVA",
      "rating": 5.6,
      "classificacao_etaria": "A14",
      "imagem_original": "https://animefire.plus/img/animes/kandagawa-jet-girls-ova.webp",
      "imagem_pasta": "https://animefire.plus/img/animes/kandagawa-jet-girls-ova/",
      "secao": "legendados",
      "pagina": 69,
      "total_episodios": 1,
      "link_video": "https://animefire.plus/video/kandagawa-jet-girls-ova"
    },
    {
      "id": 1872,
      "nome": "Kandagawa Jet Girls Recap",
      "link": "https://animefire.plus/animes/kandagawa-jet-girls-recap-todos-os-episodios",
      "texto_original": "Kandagawa Jet Girls Recap",
      "rating": 5.27,
      "classificacao_etaria": "A14",
      "imagem_original": "https://animefire.plus/img/animes/kandagawa-jet-girls-recap.webp",
      "imagem_pasta": "https://animefire.plus/img/animes/kandagawa-jet-girls-recap/",
      "secao": "legendados",
      "pagina": 86,
      "total_episodios": 1,
      "link_video": "https://animefire.plus/video/kandagawa-jet-girls-recap"
    }
  ],
  "pagination": {
    "current_page": 60,
    "per_page": 20,
    "total_items": 2988,
    "total_pages": 150,
    "has_next": true,
    "has_prev": true
  }
}
