{
  "message": "Animes com classificação etária: A14",
  "age_rating": "A14",
  "data": [
    {
      "id": 534,
      "nome": "Busou Renkin",
      "link": "https://animefire.plus/animes/busou-renkin-todos-os-episodios",
      "texto_original": "Busou Renkin",
      "rating": 7.43,
      "classificacao_etaria": "A14",
      "imagem_original": "https://animefire.plus/img/animes/busou-renkin.webp",
      "imagem_pasta": "https://animefire.plus/img/animes/busou-renkin/",
      "secao": "legendados",
      "pagina": 132,
      "total_episodios": 26,
      "link_video": "https://animefire.plus/video/busou-renkin"
    },
    {
      "id": 535,
      "nome": "Busou Shinki",
      "link": "https://animefire.plus/animes/busou-shinki-todos-os-episodios",
      "texto_original": "Busou Shinki",
      "rating": 6.36,
      "classificacao_etaria": "A14",
      "imagem_original": "https://animefire.plus/img/animes/busou-shinki.webp",
      "imagem_pasta": "https://animefire.plus/img/animes/busou-shinki/",
      "secao": "legendados",
      "pagina": 134,
      "total_episodios": 12,
      "link_video": "https://animefire.plus/video/busou-shinki"
    },
    {
      "id": 536,
      "nome": "Busou Shoujo Machiavellianism",
      "link": "https://animefire.plus/animes/busou-shoujo-machiavellianism-todos-os-episodios",
      "texto_original": "Busou Shoujo Machiavellianism",
      "rating": 7.11,
      "classificacao_etaria": "A14",
      "imagem_original": "https://animefire.plus/img/animes/busou-shoujo-machiavellianism.webp",
      "imagem_pasta": "https://animefire.plus/img/animes/busou-shoujo-machiavellianism/",
      "secao": "legendados",
      "pagina": 145,
      "total_episodios": 12,
      "link_video": "https://animefire.plus/video/busou-shoujo-machiavellianism"
    },
    {
      "id": 537,
      "nome": "Busu ni Hanataba wo.",
      "link": "https://animefire.plus/animes/busu-ni-hanataba-wo-todos-os-episodios",
      "texto_original": "Busu ni Hanataba wo.",
      "rating": 6.69,
      "classificacao_etaria": "A14",
      "imagem_original": "https://animefire.plus/img/animes/busu-ni-hanataba-wo.webp",
      "imagem_pasta": "https://animefire.plus/img/animes/busu-ni-hanataba-wo/",
      "secao": "legendados,lancamentos",
      "pagina": 2,
      "total_episodios": 1,
      "link_video": "https://animefire.plus/video/busu-ni-hanataba-wo"
    },
    {
      "id": 538,
      "nome": "Buta no Liver wa Kanetsu Shiro",
      "link": "https://animefire.plus/animes/buta-no-liver-wa-kanetsu-shiro-todos-os-episodios",
      "texto_original": "Buta no Liver wa Kanetsu Shiro",
      "rating": 6.29,
      "classificacao_etaria": "A14",
      "imagem_original": "https://animefire.plus/img/animes/buta-no-liver-wa-kanetsu-shiro.webp",
      "imagem_pasta": "https://animefire.plus/img/animes/buta-no-liver-wa-kanetsu-shiro/",
      "secao": "legendados",
      "pagina": 20,
      "total_episodios": 12,
      "link_video": "https://animefire.plus/video/buta-no-liver-wa-kanetsu-shiro"
    },
    {
      "id": 539,
      "nome": "Butlers: Chitose Momotose Monogatari",
      "link": "https://animefire.plus/animes/butlers-chitose-momotose-monogatari-todos-os-episodios",
      "texto_original": "Butlers: Chitose Momotose Monogatari",
      "rating": 5.72,
      "classificacao_etaria": "A14",
      "imagem_original": "https://animefire.plus/img/animes/butlers-chitose-momotose-monogatari.webp",
      "imagem_pasta": "https://animefire.plus/img/animes/butlers-chitose-momotose-monogatari/",
      "secao": "legendados",
      "pagina": 138,
      "total_episodios": 12,
      "link_video": "https://animefire.plus/video/butlers-chitose-momotose-monogatari"
    },
    {
      "id": 541,
      "nome": "Buzzer Beater",
      "link": "https://animefire.plus/animes/buzzer-beater-todos-os-episodios",
      "texto_original": "Buzzer Beater",
      "rating": 6.63,
      "classificacao_etaria": "A14",
      "imagem_original": "https://animefire.plus/img/animes/buzzer-beater.webp",
      "imagem_pasta": "https://animefire.plus/img/animes/buzzer-beater/",
      "secao": "legendados",
      "pagina": 105,
      "total_episodios": 13,
      "link_video": "https://animefire.plus/video/buzzer-beater"
    },
    {
      "id": 542,
      "nome": "Buzzer Beater 2nd Season",
      "link": "https://animefire.plus/animes/buzzer-beater-2nd-season-todos-os-episodios",
      "texto_original": "Buzzer Beater 2nd Season",
      "rating": 6.86,
      "classificacao_etaria": "A14",
      "imagem_original": "https://animefire.plus/img/animes/buzzer-beater-2nd-season.webp",
      "imagem_pasta": "https://animefire.plus/img/animes/buzzer-beater-2nd-season/",
      "secao": "legendados",
      "pagina": 75,
      "total_episodios": 13,
      "link_video": "https://animefire.plus/video/buzzer-beater-2nd-season"
    },
    {
      "id": 543,
      "nome": "Bye Bye, Earth",
      "link": "https://animefire.plus/animes/bye-bye-earth-todos-os-episodios",
      "texto_original": "Bye Bye, Earth",
      "rating": 6.06,
      "classificacao_etaria": "A14",
      "imagem_original": "https://animefire.plus/img/animes/bye-bye-earth.webp",
      "imagem_pasta": "https://animefire.plus/img/animes/bye-bye-earth/",
      "secao": "legendados",
      "pagina": 12,
      "total_episodios": 10,
      "link_video": "https://animefire.plus/video/bye-bye-earth"
    },
    {
      "id": 544,
      "nome": "Bye Bye, Earth 2nd Season",
      "link": "https://animefire.plus/animes/bye-bye-earth-2nd-season-todos-os-episodios",
      "texto_original": "Bye Bye, Earth 2nd Season",
      "rating": 6.2,
      "classificacao_etaria": "A14",
      "imagem_original": "https://animefire.plus/img/animes/bye-bye-earth-2nd-season.webp",
      "imagem_pasta": "https://animefire.plus/img/animes/bye-bye-earth-2nd-season/",
      "secao": "legendados",
      "pagina": 5,
      "total_episodios": 10,
      "link_video": "https://animefire.plus/video/bye-bye-earth-2nd-season"
    },
    {
      "id": 546,
      "nome": "C: The Money Of Soul And Possibility Control",
      "link": "https://animefire.plus/animes/c-the-money-of-soul-and-possibility-control-todos-os-episodios",
      "texto_original": "C: The Money Of Soul And Possibility Control",
      "rating": 7.33,
      "classificacao_etaria": "A14",
      "imagem_original": "https://animefire.plus/img/animes/c-the-money-of-soul-and-possibility-control.webp",
      "imagem_pasta": "https://animefire.plus/img/animes/c-the-money-of-soul-and-possibility-control/",
      "secao": "legendados",
      "pagina": 96,
      "total_episodios": 11,
      "link_video": "https://animefire.plus/video/c-the-money-of-soul-and-possibility-control"
    },
    {
      "id": 547,
      "nome": "Caligula",
      "link": "https://animefire.plus/animes/caligula-todos-os-episodios",
      "texto_original": "Caligula",
      "rating": 6.17,
      "classificacao_etaria": "A14",
      "imagem_original": "https://animefire.plus/img/animes/caligula.webp",
      "imagem_pasta": "https://animefire.plus/img/animes/caligula/",
      "secao": "legendados",
      "pagina": 117,
      "total_episodios": 12,
      "link_video": "https://animefire.plus/video/caligula"
    },
    {
      "id": 548,
      "nome": "Campione!: Matsurowanu Kamigami to Kamigoroshi no Maou",
      "link": "https://animefire.plus/animes/campione-matsurowanu-kamigami-to-kamigoroshi-no-maou-todos-os-episodios",
      "texto_original": "Campione!: Matsurowanu Kamigami to Kamigoroshi no Maou",
      "rating": 7.23,
      "classificacao_etaria": "A14",
      "imagem_original": "https://animefire.plus/img/animes/campione-matsurowanu-kamigami-to-kamigoroshi-no-maou.webp",
      "imagem_pasta": "https://animefire.plus/img/animes/campione-matsurowanu-kamigami-to-kamigoroshi-no-maou/",
      "secao": "legendados",
      "pagina": 128,
      "total_episodios": 0,
      "link_video": "https://animefire.plus/video/campione-matsurowanu-kamigami-to-kamigoroshi-no-maou"
    },
    {
      "id": 550,
      "nome": "Candy Boy Episode: EX01 - Mirai Yohouzu",
      "link": "https://animefire.plus/animes/candy-boy-episode-ex01---mirai-yohouzu-todos-os-episodios",
      "texto_original": "Candy Boy Episode: EX01 - Mirai Yohouzu",
      "rating": 6.89,
      "classificacao_etaria": "A14",
      "imagem_original": "https://animefire.plus/img/animes/candy-boy-episode-ex01---mirai-yohouzu.webp",
      "imagem_pasta": "https://animefire.plus/img/animes/candy-boy-episode-ex01---mirai-yohouzu/",
      "secao": "legendados",
      "pagina": 63,
      "total_episodios": 1,
      "link_video": "https://animefire.plus/video/candy-boy-episode-ex01---mirai-yohouzu"
    },
    {
      "id": 551,
      "nome": "Candy Boy Episode: EX02 - Shiawase Kyouyuu Riron",
      "link": "https://animefire.plus/animes/candy-boy-episode-ex02---shiawase-kyouyuu-riron-todos-os-episodios",
      "texto_original": "Candy Boy Episode: EX02 - Shiawase Kyouyuu Riron",
      "rating": 6.85,
      "classificacao_etaria": "A14",
      "imagem_original": "https://animefire.plus/img/animes/candy-boy-episode-ex02---shiawase-kyouyuu-riron.webp",
      "imagem_pasta": "https://animefire.plus/img/animes/candy-boy-episode-ex02---shiawase-kyouyuu-riron/",
      "secao": "legendados",
      "pagina": 63,
      "total_episodios": 1,
      "link_video": "https://animefire.plus/video/candy-boy-episode-ex02---shiawase-kyouyuu-riron"
    },
    {
      "id": 552,
      "nome": "Candy Boy: Nonchalant Talk of the Certain Twin Sisters in Daily Life",
      "link": "https://animefire.plus/animes/candy-boy-nonchalant-talk-of-the-certain-twin-sisters-in-daily-life-todos-os-episodios",
      "texto_original": "Candy Boy: Nonchalant Talk of the Certain Twin Sisters in Daily Life",
      "rating": 6.98,
      "classificacao_etaria": "A14",
      "imagem_original": "https://animefire.plus/img/animes/candy-boy-nonchalant-talk-of-the-certain-twin-sisters-in-daily-life.webp",
      "imagem_pasta": "https://animefire.plus/img/animes/candy-boy-nonchalant-talk-of-the-certain-twin-sisters-in-daily-life/",
      "secao": "legendados",
      "pagina": 118,
      "total_episodios": 0,
      "link_video": "https://animefire.plus/video/candy-boy-nonchalant-talk-of-the-certain-twin-sisters-in-daily-life"
    },
    {
      "id": 553,
      "nome": "Candy☆Boy: Side Story For Archive",
      "link": "https://animefire.plus/animes/candy-boy-side-story-for-archive-todos-os-episodios",
      "texto_original": "Candy☆Boy: Side Story For Archive",
      "rating": 6.88,
      "classificacao_etaria": "A14",
      "imagem_original": "https://animefire.plus/img/animes/candy-boy-side-story-for-archive.webp",
      "imagem_pasta": "https://animefire.plus/img/animes/candy-boy-side-story-for-archive/",
      "secao": "legendados",
      "pagina": 63,
      "total_episodios": 1,
      "link_video": "https://animefire.plus/video/candy-boy-side-story-for-archive"
    },
    {
      "id": 556,
      "nome": "Captain Earth",
      "link": "https://animefire.plus/animes/captain-earth-todos-os-episodios",
      "texto_original": "Captain Earth",
      "rating": 6.46,
      "classificacao_etaria": "A14",
      "imagem_original": "https://animefire.plus/img/animes/captain-earth.webp",
      "imagem_pasta": "https://animefire.plus/img/animes/captain-earth/",
      "secao": "legendados",
      "pagina": 124,
      "total_episodios": 25,
      "link_video": "https://animefire.plus/video/captain-earth"
    },
    {
      "id": 560,
      "nome": "Caramel Honey",
      "link": "https://animefire.plus/animes/caramel-honey-todos-os-episodios",
      "texto_original": "Caramel Honey",
      "rating": 6.86,
      "classificacao_etaria": "A14",
      "imagem_original": "https://animefire.plus/img/animes/caramel-honey.webp",
      "imagem_pasta": "https://animefire.plus/img/animes/caramel-honey/",
      "secao": "legendados",
      "pagina": 59,
      "total_episodios": 3,
      "link_video": "https://animefire.plus/video/caramel-honey"
    },
    {
      "id": 563,
      "nome": "Cardfight!! Vanguard (2018)",
      "link": "https://animefire.plus/animes/cardfight-vanguard-2018-todos-os-episodios",
      "texto_original": "Cardfight!! Vanguard (2018)",
      "rating": 7.1,
      "classificacao_etaria": "A14",
      "imagem_original": "https://animefire.plus/img/animes/cardfight-vanguard-2018.webp",
      "imagem_pasta": "https://animefire.plus/img/animes/cardfight-vanguard-2018/",
      "secao": "legendados",
      "pagina": 143,
      "total_episodios": 52,
      "link_video": "https://animefire.plus/video/cardfight-vanguard-2018"
    }
  ],
  "pagination": {
    "current_page": 18,
    "per_page": 20,
    "total_items": 2988,
    "total_pages": 150,
    "has_next": true,
    "has_prev": true
  }
}
