{
  "message": "Animes com classificação etária: A14",
  "age_rating": "A14",
  "data": [
    {
      "id": 3277,
      "nome": "School Rumble San Gakki",
      "link": "https://animefire.plus/animes/school-rumble-san-gakki-todos-os-episodios",
      "texto_original": "School Rumble San Gakki",
      "rating": 7.33,
      "classificacao_etaria": "A14",
      "imagem_original": "https://animefire.plus/img/animes/school-rumble-san-gakki.webp",
      "imagem_pasta": "https://animefire.plus/img/animes/school-rumble-san-gakki/",
      "secao": "legendados",
      "pagina": 74,
      "total_episodios": 2,
      "link_video": "https://animefire.plus/video/school-rumble-san-gakki"
    },
    {
      "id": 3278,
      "nome": "Schoolgirl Strikers: Animation Channel",
      "link": "https://animefire.plus/animes/schoolgirl-strikers-animation-channel-todos-os-episodios",
      "texto_original": "Schoolgirl Strikers: Animation Channel",
      "rating": 5.72,
      "classificacao_etaria": "A14",
      "imagem_original": "https://animefire.plus/img/animes/schoolgirl-strikers-animation-channel.webp",
      "imagem_pasta": "https://animefire.plus/img/animes/schoolgirl-strikers-animation-channel/",
      "secao": "legendados",
      "pagina": 118,
      "total_episodios": 13,
      "link_video": "https://animefire.plus/video/schoolgirl-strikers-animation-channel"
    },
    {
      "id": 3280,
      "nome": "Scrapped Princess",
      "link": "https://animefire.plus/animes/scrapped-princess-todos-os-episodios",
      "texto_original": "Scrapped Princess",
      "rating": 7.46,
      "classificacao_etaria": "A14",
      "imagem_original": "https://animefire.plus/img/animes/scrapped-princess.webp",
      "imagem_pasta": "https://animefire.plus/img/animes/scrapped-princess/",
      "secao": "legendados",
      "pagina": 125,
      "total_episodios": 24,
      "link_video": "https://animefire.plus/video/scrapped-princess"
    },
    {
      "id": 3283,
      "nome": "Seihou Tenshi Angel Links",
      "link": "https://animefire.plus/animes/seihou-tenshi-angel-links-todos-os-episodios",
      "texto_original": "Seihou Tenshi Angel Links",
      "rating": 6.01,
      "classificacao_etaria": "A14",
      "imagem_original": "https://animefire.plus/img/animes/seihou-tenshi-angel-links.webp",
      "imagem_pasta": "https://animefire.plus/img/animes/seihou-tenshi-angel-links/",
      "secao": "legendados",
      "pagina": 162,
      "total_episodios": 13,
      "link_video": "https://animefire.plus/video/seihou-tenshi-angel-links"
    },
    {
      "id": 3284,
      "nome": "Seija Musou: Salaryman, Isekai de Ikinokoru Tame ni Ayumu Mic",
      "link": "https://animefire.plus/animes/seija-musou-salaryman-isekai-de-ikinokoru-tame-ni-ayumu-michi-todos-os-episodios",
      "texto_original": "Seija Musou: Salaryman, Isekai de Ikinokoru Tame ni Ayumu Mic",
      "rating": 7.11,
      "classificacao_etaria": "A14",
      "imagem_original": "https://animefire.plus/img/animes/seija-musou-salaryman-isekai-de-ikinokoru-tame-ni-ayumu-michi.jpg",
      "imagem_pasta": "https://animefire.plus/img/animes/seija-musou-salaryman-isekai-de-ikinokoru-tame-ni-ayumu-michi/",
      "secao": "legendados",
      "pagina": 22,
      "total_episodios": 12,
      "link_video": "https://animefire.plus/video/seija-musou-salaryman-isekai-de-ikinokoru-tame-ni-ayumu-michi"
    },
    {
      "id": 3285,
      "nome": "Seija Musou: Salaryman, Isekai de Ikinokoru Tame ni Ayumu Michi",
      "link": "https://animefire.plus/animes/the-great-cleric-todos-os-episodios",
      "texto_original": "Seija Musou: Salaryman, Isekai de Ikinokoru Tame ni Ayumu Michi",
      "rating": 7.11,
      "classificacao_etaria": "A14",
      "imagem_original": "https://animefire.plus/img/animes/the-great-cleric.webp",
      "imagem_pasta": "https://animefire.plus/img/animes/the-great-cleric/",
      "secao": "legendados,lancamentos",
      "pagina": 21,
      "total_episodios": 0,
      "link_video": "https://animefire.plus/video/the-great-cleric"
    },
    {
      "id": 3286,
      "nome": "Seijo no Maryoku wa Bannou Desu (Dublado)",
      "link": "https://animefire.plus/animes/seijo-no-maryoku-wa-bannou-desu-dublado-todos-os-episodios",
      "texto_original": "Seijo no Maryoku wa Bannou Desu (Dublado)",
      "rating": 7.31,
      "classificacao_etaria": "A14",
      "imagem_original": "https://animefire.plus/img/animes/seijo-no-maryoku-wa-bannou-desu.webp",
      "imagem_pasta": "https://animefire.plus/img/animes/seijo-no-maryoku-wa-bannou-desu/",
      "secao": "dublados,legendados",
      "pagina": 14,
      "total_episodios": 12,
      "link_video": "https://animefire.plus/video/seijo-no-maryoku-wa-bannou-desu-dublado"
    },
    {
      "id": 3287,
      "nome": "Seijo no Maryoku wa Bannou desu Season 2",
      "link": "https://animefire.plus/animes/seijo-no-maryoku-wa-bannou-desu-season-2-todos-os-episodios",
      "texto_original": "Seijo no Maryoku wa Bannou desu Season 2",
      "rating": 7.44,
      "classificacao_etaria": "A14",
      "imagem_original": "https://animefire.plus/img/animes/seijo-no-maryoku-wa-bannou-desu-season-2.webp",
      "imagem_pasta": "https://animefire.plus/img/animes/seijo-no-maryoku-wa-bannou-desu-season-2/",
      "secao": "legendados",
      "pagina": 19,
      "total_episodios": 12,
      "link_video": "https://animefire.plus/video/seijo-no-maryoku-wa-bannou-desu-season-2"
    },
    {
      "id": 3288,
      "nome": "Seikai no Senki",
      "link": "https://animefire.plus/animes/seikai-no-senki-todos-os-episodios",
      "texto_original": "Seikai no Senki",
      "rating": 7.73,
      "classificacao_etaria": "A14",
      "imagem_original": "https://animefire.plus/img/animes/seikai-no-senki.webp",
      "imagem_pasta": "https://animefire.plus/img/animes/seikai-no-senki/",
      "secao": "legendados",
      "pagina": 54,
      "total_episodios": 13,
      "link_video": "https://animefire.plus/video/seikai-no-senki"
    },
    {
      "id": 3289,
      "nome": "Seikai no Senki II",
      "link": "https://animefire.plus/animes/seikai-no-senki-ii-todos-os-episodios",
      "texto_original": "Seikai no Senki II",
      "rating": 7.85,
      "classificacao_etaria": "A14",
      "imagem_original": "https://animefire.plus/img/animes/seikai-no-senki-ii.webp",
      "imagem_pasta": "https://animefire.plus/img/animes/seikai-no-senki-ii/",
      "secao": "legendados",
      "pagina": 54,
      "total_episodios": 10,
      "link_video": "https://animefire.plus/video/seikai-no-senki-ii"
    },
    {
      "id": 3290,
      "nome": "Seikai no Senki III",
      "link": "https://animefire.plus/animes/seikai-no-senki-iii-todos-os-episodios",
      "texto_original": "Seikai no Senki III",
      "rating": 7.71,
      "classificacao_etaria": "A14",
      "imagem_original": "https://animefire.plus/img/animes/seikai-no-senki-iii.webp",
      "imagem_pasta": "https://animefire.plus/img/animes/seikai-no-senki-iii/",
      "secao": "legendados",
      "pagina": 54,
      "total_episodios": 1,
      "link_video": "https://animefire.plus/video/seikai-no-senki-iii"
    },
    {
      "id": 3291,
      "nome": "Seikaisuru Kado",
      "link": "https://animefire.plus/animes/seikaisuru-kado-todos-os-episodios",
      "texto_original": "Seikaisuru Kado",
      "rating": 6.87,
      "classificacao_etaria": "A14",
      "imagem_original": "https://animefire.plus/img/animes/seikaisuru-kado.webp",
      "imagem_pasta": "https://animefire.plus/img/animes/seikaisuru-kado/",
      "secao": "legendados",
      "pagina": 73,
      "total_episodios": 12,
      "link_video": "https://animefire.plus/video/seikaisuru-kado"
    },
    {
      "id": 3292,
      "nome": "Seiken Densetsu: Legend of Mana - The Teardrop Crystal",
      "link": "https://animefire.plus/animes/seiken-densetsu-legend-of-mana---the-teardrop-crystal-todos-os-episodios",
      "texto_original": "Seiken Densetsu: Legend of Mana - The Teardrop Crystal",
      "rating": 5.47,
      "classificacao_etaria": "A14",
      "imagem_original": "https://animefire.plus/img/animes/seiken-densetsu-legend-of-mana---the-teardrop-crystal.webp",
      "imagem_pasta": "https://animefire.plus/img/animes/seiken-densetsu-legend-of-mana---the-teardrop-crystal/",
      "secao": "legendados",
      "pagina": 28,
      "total_episodios": 12,
      "link_video": "https://animefire.plus/video/seiken-densetsu-legend-of-mana---the-teardrop-crystal"
    },
    {
      "id": 3293,
      "nome": "Seiken Gakuin no Makentsukai",
      "link": "https://animefire.plus/animes/seiken-gakuin-no-makentsukai-todos-os-episodios",
      "texto_original": "Seiken Gakuin no Makentsukai",
      "rating": 6.2,
      "classificacao_etaria": "A14",
      "imagem_original": "https://animefire.plus/img/animes/seiken-gakuin-no-makentsukai.webp",
      "imagem_pasta": "https://animefire.plus/img/animes/seiken-gakuin-no-makentsukai/",
      "secao": "legendados",
      "pagina": 21,
      "total_episodios": 12,
      "link_video": "https://animefire.plus/video/seiken-gakuin-no-makentsukai"
    },
    {
      "id": 3300,
      "nome": "Seirei Gensouki (Dublado)",
      "link": "https://animefire.plus/animes/seirei-gensouki-dublado-todos-os-episodios",
      "texto_original": "Seirei Gensouki (Dublado)",
      "rating": 7.07,
      "classificacao_etaria": "A14",
      "imagem_original": "https://animefire.plus/img/animes/seirei-gensouki.webp",
      "imagem_pasta": "https://animefire.plus/img/animes/seirei-gensouki/",
      "secao": "dublados,legendados",
      "pagina": 13,
      "total_episodios": 12,
      "link_video": "https://animefire.plus/video/seirei-gensouki-dublado"
    },
    {
      "id": 3301,
      "nome": "Seirei Gensouki 2 (Dublado)",
      "link": "https://animefire.plus/animes/seirei-gensouki-2-dublado-todos-os-episodios",
      "texto_original": "Seirei Gensouki 2 (Dublado)",
      "rating": 6.87,
      "classificacao_etaria": "A14",
      "imagem_original": "https://animefire.plus/img/animes/seirei-gensouki-2.webp",
      "imagem_pasta": "https://animefire.plus/img/animes/seirei-gensouki-2/",
      "secao": "dublados,legendados,lancamentos",
      "pagina": 2,
      "total_episodios": 12,
      "link_video": "https://animefire.plus/video/seirei-gensouki-2-dublado"
    },
    {
      "id": 3302,
      "nome": "Seirei no Moribito",
      "link": "https://animefire.plus/animes/seirei-no-moribito-todos-os-episodios",
      "texto_original": "Seirei no Moribito",
      "rating": 8.19,
      "classificacao_etaria": "A14",
      "imagem_original": "https://animefire.plus/img/animes/seirei-no-moribito.webp",
      "imagem_pasta": "https://animefire.plus/img/animes/seirei-no-moribito/",
      "secao": "legendados",
      "pagina": 157,
      "total_episodios": 26,
      "link_video": "https://animefire.plus/video/seirei-no-moribito"
    },
    {
      "id": 3303,
      "nome": "Seireitsukai no Blade Dance",
      "link": "https://animefire.plus/animes/seireitsukai-no-blade-dance-todos-os-episodios",
      "texto_original": "Seireitsukai no Blade Dance",
      "rating": 7.04,
      "classificacao_etaria": "A14",
      "imagem_original": "https://animefire.plus/img/animes/seireitsukai-no-blade-dance.webp",
      "imagem_pasta": "https://animefire.plus/img/animes/seireitsukai-no-blade-dance/",
      "secao": "legendados",
      "pagina": 118,
      "total_episodios": 3,
      "link_video": "https://animefire.plus/video/seireitsukai-no-blade-dance"
    },
    {
      "id": 3304,
      "nome": "Seiren",
      "link": "https://animefire.plus/animes/seiren-todos-os-episodios",
      "texto_original": "Seiren",
      "rating": 6.38,
      "classificacao_etaria": "A14",
      "imagem_original": "https://animefire.plus/img/animes/seiren.webp",
      "imagem_pasta": "https://animefire.plus/img/animes/seiren/",
      "secao": "legendados",
      "pagina": 128,
      "total_episodios": 0,
      "link_video": "https://animefire.plus/video/seiren"
    },
    {
      "id": 3306,
      "nome": "Seisenshi Dunbine",
      "link": "https://animefire.plus/animes/seisenshi-dunbine-todos-os-episodios",
      "texto_original": "Seisenshi Dunbine",
      "rating": 7.16,
      "classificacao_etaria": "A14",
      "imagem_original": "https://animefire.plus/img/animes/seisenshi-dunbine.webp",
      "imagem_pasta": "https://animefire.plus/img/animes/seisenshi-dunbine/",
      "secao": "legendados",
      "pagina": 115,
      "total_episodios": 49,
      "link_video": "https://animefire.plus/video/seisenshi-dunbine"
    }
  ],
  "pagination": {
    "current_page": 110,
    "per_page": 20,
    "total_items": 2988,
    "total_pages": 150,
    "has_next": true,
    "has_prev": true
  }
}
