{
  "message": "Animes com classificação etária: A14",
  "age_rating": "A14",
  "data": [
    {
      "id": 1402,
      "nome": "Hazurewaku no \"Joutai Ijou Skill\" de Saikyou ni Natta Ore ga Subete wo Juurin suru made",
      "link": "https://animefire.plus/animes/hazurewaku-no-joutai-ijou-skill-de-saikyou-ni-natta-ore-ga-subete-wo-juurin-suru-made-todos-os-episodios",
      "texto_original": "Hazurewaku no \"Joutai Ijou Skill\" de Saikyou ni Natta Ore ga Subete wo Juurin suru made",
      "rating": 6.48,
      "classificacao_etaria": "A14",
      "imagem_original": "https://animefire.plus/img/animes/hazurewaku-no-joutai-ijou-skill-de-saikyou-ni-natta-ore-ga-subete-wo-juurin-suru-made.webp",
      "imagem_pasta": "https://animefire.plus/img/animes/hazurewaku-no-joutai-ijou-skill-de-saikyou-ni-natta-ore-ga-subete-wo-juurin-suru-made/",
      "secao": "legendados",
      "pagina": 13,
      "total_episodios": 12,
      "link_video": "https://animefire.plus/video/hazurewaku-no-joutai-ijou-skill-de-saikyou-ni-natta-ore-ga-subete-wo-juurin-suru-made"
    },
    {
      "id": 1403,
      "nome": "Healer Girl",
      "link": "https://animefire.plus/animes/healer-girl-todos-os-episodios",
      "texto_original": "Healer Girl",
      "rating": 7.3,
      "classificacao_etaria": "A14",
      "imagem_original": "https://animefire.plus/img/animes/healer-girl.webp",
      "imagem_pasta": "https://animefire.plus/img/animes/healer-girl/",
      "secao": "legendados",
      "pagina": 33,
      "total_episodios": 12,
      "link_video": "https://animefire.plus/video/healer-girl"
    },
    {
      "id": 1406,
      "nome": "Heavy Object",
      "link": "https://animefire.plus/animes/heavy-object-todos-os-episodios",
      "texto_original": "Heavy Object",
      "rating": 7.35,
      "classificacao_etaria": "A14",
      "imagem_original": "https://animefire.plus/img/animes/heavy-object.webp",
      "imagem_pasta": "https://animefire.plus/img/animes/heavy-object/",
      "secao": "legendados",
      "pagina": 108,
      "total_episodios": 24,
      "link_video": "https://animefire.plus/video/heavy-object"
    },
    {
      "id": 1407,
      "nome": "Heibai Wushang",
      "link": "https://animefire.plus/animes/heibai-wushang-todos-os-episodios",
      "texto_original": "Heibai Wushang",
      "rating": 6.39,
      "classificacao_etaria": "A14",
      "imagem_original": "https://animefire.plus/img/animes/heibai-wushang.webp",
      "imagem_pasta": "https://animefire.plus/img/animes/heibai-wushang/",
      "secao": "legendados",
      "pagina": 143,
      "total_episodios": 12,
      "link_video": "https://animefire.plus/video/heibai-wushang"
    },
    {
      "id": 1408,
      "nome": "Heibai Wushang 2nd Season",
      "link": "https://animefire.plus/animes/heibai-wushang-2nd-season-todos-os-episodios",
      "texto_original": "Heibai Wushang 2nd Season",
      "rating": 6.6,
      "classificacao_etaria": "A14",
      "imagem_original": "https://animefire.plus/img/animes/heibai-wushang-2nd-season.webp",
      "imagem_pasta": "https://animefire.plus/img/animes/heibai-wushang-2nd-season/",
      "secao": "legendados",
      "pagina": 136,
      "total_episodios": 12,
      "link_video": "https://animefire.plus/video/heibai-wushang-2nd-season"
    },
    {
      "id": 1409,
      "nome": "Heike Monogatari",
      "link": "https://animefire.plus/animes/heike-monogatari-todos-os-episodios",
      "texto_original": "Heike Monogatari",
      "rating": 7.79,
      "classificacao_etaria": "A14",
      "imagem_original": "https://animefire.plus/img/animes/heike-monogatari.webp",
      "imagem_pasta": "https://animefire.plus/img/animes/heike-monogatari/",
      "secao": "legendados",
      "pagina": 38,
      "total_episodios": 11,
      "link_video": "https://animefire.plus/video/heike-monogatari"
    },
    {
      "id": 1411,
      "nome": "Helck",
      "link": "https://animefire.plus/animes/helck-todos-os-episodios",
      "texto_original": "Helck",
      "rating": 7.28,
      "classificacao_etaria": "A14",
      "imagem_original": "https://animefire.plus/img/animes/helck.webp",
      "imagem_pasta": "https://animefire.plus/img/animes/helck/",
      "secao": "legendados",
      "pagina": 22,
      "total_episodios": 24,
      "link_video": "https://animefire.plus/video/helck"
    },
    {
      "id": 1413,
      "nome": "Hello!! Kiniro Mosaic",
      "link": "https://animefire.plus/animes/hello-kiniro-mosaic-todos-os-episodios",
      "texto_original": "Hello!! Kiniro Mosaic",
      "rating": 7.59,
      "classificacao_etaria": "A14",
      "imagem_original": "https://animefire.plus/img/animes/hello-kiniro-mosaic.webp",
      "imagem_pasta": "https://animefire.plus/img/animes/hello-kiniro-mosaic/",
      "secao": "legendados",
      "pagina": 95,
      "total_episodios": 12,
      "link_video": "https://animefire.plus/video/hello-kiniro-mosaic"
    },
    {
      "id": 1417,
      "nome": "Henjin no Salad Bowl",
      "link": "https://animefire.plus/animes/henjin-no-salad-bowl-todos-os-episodios",
      "texto_original": "Henjin no Salad Bowl",
      "rating": 7.27,
      "classificacao_etaria": "A14",
      "imagem_original": "https://animefire.plus/img/animes/henjin-no-salad-bowl.webp",
      "imagem_pasta": "https://animefire.plus/img/animes/henjin-no-salad-bowl/",
      "secao": "legendados",
      "pagina": 14,
      "total_episodios": 12,
      "link_video": "https://animefire.plus/video/henjin-no-salad-bowl"
    },
    {
      "id": 1418,
      "nome": "Henkei Shoujo",
      "link": "https://animefire.plus/animes/henkei-shoujo-todos-os-episodios",
      "texto_original": "Henkei Shoujo",
      "rating": 5.73,
      "classificacao_etaria": "A14",
      "imagem_original": "https://animefire.plus/img/animes/henkei-shoujo.webp",
      "imagem_pasta": "https://animefire.plus/img/animes/henkei-shoujo/",
      "secao": "legendados",
      "pagina": 159,
      "total_episodios": 5,
      "link_video": "https://animefire.plus/video/henkei-shoujo"
    },
    {
      "id": 1419,
      "nome": "Hentai Ouji to Warawanai Neko.",
      "link": "https://animefire.plus/animes/hentai-ouji-to-warawanai-neko-todos-os-episodios",
      "texto_original": "Hentai Ouji to Warawanai Neko.",
      "rating": 7.35,
      "classificacao_etaria": "A14",
      "imagem_original": "https://animefire.plus/img/animes/hentai-ouji-to-warawanai-neko.webp",
      "imagem_pasta": "https://animefire.plus/img/animes/hentai-ouji-to-warawanai-neko/",
      "secao": "legendados",
      "pagina": 156,
      "total_episodios": 12,
      "link_video": "https://animefire.plus/video/hentai-ouji-to-warawanai-neko"
    },
    {
      "id": 1425,
      "nome": "Heroic Age",
      "link": "https://animefire.plus/animes/heroic-age-todos-os-episodios",
      "texto_original": "Heroic Age",
      "rating": 7.61,
      "classificacao_etaria": "A14",
      "imagem_original": "https://animefire.plus/img/animes/heroic-age.webp",
      "imagem_pasta": "https://animefire.plus/img/animes/heroic-age/",
      "secao": "legendados",
      "pagina": 145,
      "total_episodios": 26,
      "link_video": "https://animefire.plus/video/heroic-age"
    },
    {
      "id": 1426,
      "nome": "Heroine Tarumono! Kiraware Heroine to Naisho no Oshigoto",
      "link": "https://animefire.plus/animes/heroine-tarumono-kiraware-heroine-to-naisho-no-oshigoto-todos-os-episodios",
      "texto_original": "Heroine Tarumono! Kiraware Heroine to Naisho no Oshigoto",
      "rating": 7.27,
      "classificacao_etaria": "A14",
      "imagem_original": "https://animefire.plus/img/animes/heroine-tarumono-kiraware-heroine-to-naisho-no-oshigoto.webp",
      "imagem_pasta": "https://animefire.plus/img/animes/heroine-tarumono-kiraware-heroine-to-naisho-no-oshigoto/",
      "secao": "legendados",
      "pagina": 33,
      "total_episodios": 12,
      "link_video": "https://animefire.plus/video/heroine-tarumono-kiraware-heroine-to-naisho-no-oshigoto"
    },
    {
      "id": 1427,
      "nome": "Heroman",
      "link": "https://animefire.plus/animes/heroman-todos-os-episodios",
      "texto_original": "Heroman",
      "rating": 6.86,
      "classificacao_etaria": "A14",
      "imagem_original": "https://animefire.plus/img/animes/heroman.webp",
      "imagem_pasta": "https://animefire.plus/img/animes/heroman/",
      "secao": "legendados",
      "pagina": 71,
      "total_episodios": 26,
      "link_video": "https://animefire.plus/video/heroman"
    },
    {
      "id": 1428,
      "nome": "Hetalia Axis Powers",
      "link": "https://animefire.plus/animes/hetalia-axis-powers-todos-os-episodios",
      "texto_original": "Hetalia Axis Powers",
      "rating": 7.62,
      "classificacao_etaria": "A14",
      "imagem_original": "https://animefire.plus/img/animes/hetalia-axis-powers.webp",
      "imagem_pasta": "https://animefire.plus/img/animes/hetalia-axis-powers/",
      "secao": "legendados",
      "pagina": 138,
      "total_episodios": 0,
      "link_video": "https://animefire.plus/video/hetalia-axis-powers"
    },
    {
      "id": 1429,
      "nome": "Hetalia Axis Powers Fan Disc",
      "link": "https://animefire.plus/animes/hetalia-axis-powers-fan-disc-todos-os-episodios",
      "texto_original": "Hetalia Axis Powers Fan Disc",
      "rating": 7.43,
      "classificacao_etaria": "A14",
      "imagem_original": "https://animefire.plus/img/animes/hetalia-axis-powers-fan-disc.webp",
      "imagem_pasta": "https://animefire.plus/img/animes/hetalia-axis-powers-fan-disc/",
      "secao": "legendados",
      "pagina": 111,
      "total_episodios": 3,
      "link_video": "https://animefire.plus/video/hetalia-axis-powers-fan-disc"
    },
    {
      "id": 1430,
      "nome": "Hetalia World Series Specials",
      "link": "https://animefire.plus/animes/hetalia-world-series-specials-todos-os-episodios",
      "texto_original": "Hetalia World Series Specials",
      "rating": 7.73,
      "classificacao_etaria": "A14",
      "imagem_original": "https://animefire.plus/img/animes/hetalia-world-series-specials.webp",
      "imagem_pasta": "https://animefire.plus/img/animes/hetalia-world-series-specials/",
      "secao": "legendados",
      "pagina": 160,
      "total_episodios": 4,
      "link_video": "https://animefire.plus/video/hetalia-world-series-specials"
    },
    {
      "id": 1431,
      "nome": "Hetalia World★Stars",
      "link": "https://animefire.plus/animes/hetalia-world-stars-todos-os-episodios",
      "texto_original": "Hetalia World★Stars",
      "rating": 6.86,
      "classificacao_etaria": "A14",
      "imagem_original": "https://animefire.plus/img/animes/hetalia-world-stars.webp",
      "imagem_pasta": "https://animefire.plus/img/animes/hetalia-world-stars/",
      "secao": "legendados",
      "pagina": 46,
      "total_episodios": 12,
      "link_video": "https://animefire.plus/video/hetalia-world-stars"
    },
    {
      "id": 1432,
      "nome": "Hetalia: The Beautiful World Specials",
      "link": "https://animefire.plus/animes/hetalia-the-beautiful-world-specials-todos-os-episodios",
      "texto_original": "Hetalia: The Beautiful World Specials",
      "rating": 7.78,
      "classificacao_etaria": "A14",
      "imagem_original": "https://animefire.plus/img/animes/hetalia-the-beautiful-world-specials.webp",
      "imagem_pasta": "https://animefire.plus/img/animes/hetalia-the-beautiful-world-specials/",
      "secao": "legendados",
      "pagina": 153,
      "total_episodios": 4,
      "link_video": "https://animefire.plus/video/hetalia-the-beautiful-world-specials"
    },
    {
      "id": 1433,
      "nome": "Hetalia: The World Twinkle",
      "link": "https://animefire.plus/animes/hetalia-the-world-twinkle-todos-os-episodios",
      "texto_original": "Hetalia: The World Twinkle",
      "rating": 7.53,
      "classificacao_etaria": "A14",
      "imagem_original": "https://animefire.plus/img/animes/hetalia-the-world-twinkle.webp",
      "imagem_pasta": "https://animefire.plus/img/animes/hetalia-the-world-twinkle/",
      "secao": "legendados",
      "pagina": 174,
      "total_episodios": 15,
      "link_video": "https://animefire.plus/video/hetalia-the-world-twinkle"
    }
  ],
  "pagination": {
    "current_page": 46,
    "per_page": 20,
    "total_items": 2988,
    "total_pages": 150,
    "has_next": true,
    "has_prev": true
  }
}
