{
  "message": "Animes com classificação etária: A14",
  "age_rating": "A14",
  "data": [
    {
      "id": 2028,
      "nome": "Kitsune no Koe",
      "link": "https://animefire.plus/animes/kitsune-no-koe-todos-os-episodios",
      "texto_original": "Kitsune no Koe",
      "rating": 6.62,
      "classificacao_etaria": "A14",
      "imagem_original": "https://animefire.plus/img/animes/kitsune-no-koe.webp",
      "imagem_pasta": "https://animefire.plus/img/animes/kitsune-no-koe/",
      "secao": "legendados",
      "pagina": 158,
      "total_episodios": 12,
      "link_video": "https://animefire.plus/video/kitsune-no-koe"
    },
    {
      "id": 2030,
      "nome": "Kizetsu Yuusha to Ansatsu Hime",
      "link": "https://animefire.plus/animes/kizetsu-yuusha-to-ansatsu-hime-todos-os-episodios",
      "texto_original": "Kizetsu Yuusha to Ansatsu Hime",
      "rating": 6.38,
      "classificacao_etaria": "A14",
      "imagem_original": "https://animefire.plus/img/animes/kizetsu-yuusha-to-ansatsu-hime.webp",
      "imagem_pasta": "https://animefire.plus/img/animes/kizetsu-yuusha-to-ansatsu-hime/",
      "secao": "legendados,lancamentos",
      "pagina": 2,
      "total_episodios": 5,
      "link_video": "https://animefire.plus/video/kizetsu-yuusha-to-ansatsu-hime"
    },
    {
      "id": 2031,
      "nome": "Kiznaiver",
      "link": "https://animefire.plus/animes/kiznaiver-todos-os-episodios",
      "texto_original": "Kiznaiver",
      "rating": 7.54,
      "classificacao_etaria": "A14",
      "imagem_original": "https://animefire.plus/img/animes/kiznaiver.webp",
      "imagem_pasta": "https://animefire.plus/img/animes/kiznaiver/",
      "secao": "legendados",
      "pagina": 139,
      "total_episodios": 12,
      "link_video": "https://animefire.plus/video/kiznaiver"
    },
    {
      "id": 2032,
      "nome": "Kizu darake Seijo yori Houfuku wo Komete",
      "link": "https://animefire.plus/animes/kizu-darake-seijo-yori-houfuku-wo-komete-todos-os-episodios",
      "texto_original": "Kizu darake Seijo yori Houfuku wo Komete",
      "rating": 5.59,
      "classificacao_etaria": "A14",
      "imagem_original": "https://animefire.plus/img/animes/kizu-darake-seijo-yori-houfuku-wo-komete.webp",
      "imagem_pasta": "https://animefire.plus/img/animes/kizu-darake-seijo-yori-houfuku-wo-komete/",
      "secao": "legendados,lancamentos",
      "pagina": 1,
      "total_episodios": 0,
      "link_video": "https://animefire.plus/video/kizu-darake-seijo-yori-houfuku-wo-komete"
    },
    {
      "id": 2033,
      "nome": "KJ File (Zoku-hen)",
      "link": "https://animefire.plus/animes/kj-file-zoku-hen-todos-os-episodios",
      "texto_original": "KJ File (Zoku-hen)",
      "rating": 5.23,
      "classificacao_etaria": "A14",
      "imagem_original": "https://animefire.plus/img/animes/kj-file-zoku-hen.webp",
      "imagem_pasta": "https://animefire.plus/img/animes/kj-file-zoku-hen/",
      "secao": "legendados,lancamentos",
      "pagina": 26,
      "total_episodios": 0,
      "link_video": "https://animefire.plus/video/kj-file-zoku-hen"
    },
    {
      "id": 2034,
      "nome": "Knight's & Magic",
      "link": "https://animefire.plus/animes/knight-s-magic-todos-os-episodios",
      "texto_original": "Knight's & Magic",
      "rating": 7.28,
      "classificacao_etaria": "A14",
      "imagem_original": "https://animefire.plus/img/animes/knight-s-magic.webp",
      "imagem_pasta": "https://animefire.plus/img/animes/knight-s-magic/",
      "secao": "legendados",
      "pagina": 101,
      "total_episodios": 13,
      "link_video": "https://animefire.plus/video/knight-s-magic"
    },
    {
      "id": 2035,
      "nome": "Knights of the Zodiac: Saint Seiya - Battle for Sanctuary (Dublado)",
      "link": "https://animefire.plus/animes/knights-of-the-zodiac-saint-seiya---battle-for-sanctuary-dublado-todos-os-episodios",
      "texto_original": "Knights of the Zodiac: Saint Seiya - Battle for Sanctuary (Dublado)",
      "rating": 6.22,
      "classificacao_etaria": "A14",
      "imagem_original": "https://animefire.plus/img/animes/knights-of-the-zodiac-saint-seiya---battle-for-sanctuary.webp",
      "imagem_pasta": "https://animefire.plus/img/animes/knights-of-the-zodiac-saint-seiya---battle-for-sanctuary/",
      "secao": "dublados,legendados,lancamentos",
      "pagina": 8,
      "total_episodios": 12,
      "link_video": "https://animefire.plus/video/knights-of-the-zodiac-saint-seiya---battle-for-sanctuary-dublado"
    },
    {
      "id": 2036,
      "nome": "Knights of the Zodiac: Saint Seiya (Dublado)",
      "link": "https://animefire.plus/animes/knights-of-the-zodiac-saint-seiya-dublado-todos-os-episodios",
      "texto_original": "Knights of the Zodiac: Saint Seiya (Dublado)",
      "rating": 5.15,
      "classificacao_etaria": "A14",
      "imagem_original": "https://animefire.plus/img/animes/knights-of-the-zodiac-saint-seiya.webp",
      "imagem_pasta": "https://animefire.plus/img/animes/knights-of-the-zodiac-saint-seiya/",
      "secao": "dublados",
      "pagina": 24,
      "total_episodios": 12,
      "link_video": "https://animefire.plus/video/knights-of-the-zodiac-saint-seiya-dublado"
    },
    {
      "id": 2037,
      "nome": "Kobato.",
      "link": "https://animefire.plus/animes/kobato-todos-os-episodios",
      "texto_original": "Kobato.",
      "rating": 8.04,
      "classificacao_etaria": "A14",
      "imagem_original": "https://animefire.plus/img/animes/kobato.webp",
      "imagem_pasta": "https://animefire.plus/img/animes/kobato/",
      "secao": "legendados",
      "pagina": 123,
      "total_episodios": 23,
      "link_video": "https://animefire.plus/video/kobato"
    },
    {
      "id": 2038,
      "nome": "Kobayashi-san Chi no Maid Dragon (Dublado)",
      "link": "https://animefire.plus/animes/kobayashi-san-chi-no-maid-dragon-dublado-todos-os-episodios",
      "texto_original": "Kobayashi-san Chi no Maid Dragon (Dublado)",
      "rating": 8.14,
      "classificacao_etaria": "A14",
      "imagem_original": "https://animefire.plus/img/animes/kobayashi-san-chi-no-maid-dragon.webp",
      "imagem_pasta": "https://animefire.plus/img/animes/kobayashi-san-chi-no-maid-dragon/",
      "secao": "dublados,legendados",
      "pagina": 26,
      "total_episodios": 0,
      "link_video": "https://animefire.plus/video/kobayashi-san-chi-no-maid-dragon-dublado"
    },
    {
      "id": 2039,
      "nome": "Kobayashi-san Chi no Maid Dragon S (Dublado)",
      "link": "https://animefire.plus/animes/kobayashi-san-chi-no-maid-dragon-s-dublado-todos-os-episodios",
      "texto_original": "Kobayashi-san Chi no Maid Dragon S (Dublado)",
      "rating": 8.22,
      "classificacao_etaria": "A14",
      "imagem_original": "https://animefire.plus/img/animes/kobayashi-san-chi-no-maid-dragon-s.webp",
      "imagem_pasta": "https://animefire.plus/img/animes/kobayashi-san-chi-no-maid-dragon-s/",
      "secao": "dublados,legendados",
      "pagina": 16,
      "total_episodios": 12,
      "link_video": "https://animefire.plus/video/kobayashi-san-chi-no-maid-dragon-s-dublado"
    },
    {
      "id": 2040,
      "nome": "Kobayashi-san Chi no Maid Dragon S: Nippon no Omotenashi - Attend wa Dragon Desu (Dublado)",
      "link": "https://animefire.plus/animes/kobayashi-san-chi-no-maid-dragon-s-nippon-no-omotenashi---attend-wa-dragon-desu-dublado-todos-os-episodios",
      "texto_original": "Kobayashi-san Chi no Maid Dragon S: Nippon no Omotenashi - Attend wa Dragon Desu (Dublado)",
      "rating": 7.79,
      "classificacao_etaria": "A14",
      "imagem_original": "https://animefire.plus/img/animes/kobayashi-san-chi-no-maid-dragon-s-nippon-no-omotenashi---attend-wa-dragon-desu.webp",
      "imagem_pasta": "https://animefire.plus/img/animes/kobayashi-san-chi-no-maid-dragon-s-nippon-no-omotenashi---attend-wa-dragon-desu/",
      "secao": "dublados",
      "pagina": 10,
      "total_episodios": 1,
      "link_video": "https://animefire.plus/video/kobayashi-san-chi-no-maid-dragon-s-nippon-no-omotenashi---attend-wa-dragon-desu-dublado"
    },
    {
      "id": 2041,
      "nome": "Kobayashi-san Chi no OO Dragon",
      "link": "https://animefire.plus/animes/kobayashi-san-chi-no-oo-dragon-todos-os-episodios",
      "texto_original": "Kobayashi-san Chi no OO Dragon",
      "rating": 7.26,
      "classificacao_etaria": "A14",
      "imagem_original": "https://animefire.plus/img/animes/kobayashi-san-chi-no-oo-dragon.webp",
      "imagem_pasta": "https://animefire.plus/img/animes/kobayashi-san-chi-no-oo-dragon/",
      "secao": "legendados",
      "pagina": 54,
      "total_episodios": 1,
      "link_video": "https://animefire.plus/video/kobayashi-san-chi-no-oo-dragon"
    },
    {
      "id": 2042,
      "nome": "Kochouki: Wakaki Nobunaga",
      "link": "https://animefire.plus/animes/kochouki-wakaki-nobunaga-todos-os-episodios",
      "texto_original": "Kochouki: Wakaki Nobunaga",
      "rating": 6.51,
      "classificacao_etaria": "A14",
      "imagem_original": "https://animefire.plus/img/animes/kochouki-wakaki-nobunaga.webp",
      "imagem_pasta": "https://animefire.plus/img/animes/kochouki-wakaki-nobunaga/",
      "secao": "legendados",
      "pagina": 155,
      "total_episodios": 6,
      "link_video": "https://animefire.plus/video/kochouki-wakaki-nobunaga"
    },
    {
      "id": 2045,
      "nome": "Kodomo no Omocha (TV)",
      "link": "https://animefire.plus/animes/kodomo-no-omocha-tv-todos-os-episodios",
      "texto_original": "Kodomo no Omocha (TV)",
      "rating": 8.07,
      "classificacao_etaria": "A14",
      "imagem_original": "https://animefire.plus/img/animes/kodomo-no-omocha-tv.webp",
      "imagem_pasta": "https://animefire.plus/img/animes/kodomo-no-omocha-tv/",
      "secao": "legendados",
      "pagina": 68,
      "total_episodios": 102,
      "link_video": "https://animefire.plus/video/kodomo-no-omocha-tv"
    },
    {
      "id": 2049,
      "nome": "Koi to Producer: EVOL×LOVE",
      "link": "https://animefire.plus/animes/koi-to-producer-evol-love-todos-os-episodios",
      "texto_original": "Koi to Producer: EVOL×LOVE",
      "rating": null,
      "classificacao_etaria": "A14",
      "imagem_original": "https://animefire.plus/img/animes/koi-to-producer-evol-love.webp",
      "imagem_pasta": "https://animefire.plus/img/animes/koi-to-producer-evol-love/",
      "secao": "legendados",
      "pagina": 57,
      "total_episodios": 12,
      "link_video": "https://animefire.plus/video/koi-to-producer-evol-love"
    },
    {
      "id": 2050,
      "nome": "Koi to Senkyo to Chocolate",
      "link": "https://animefire.plus/animes/koi-to-senkyo-to-chocolate-todos-os-episodios",
      "texto_original": "Koi to Senkyo to Chocolate",
      "rating": 7.21,
      "classificacao_etaria": "A14",
      "imagem_original": "https://animefire.plus/img/animes/koi-to-senkyo-to-chocolate.webp",
      "imagem_pasta": "https://animefire.plus/img/animes/koi-to-senkyo-to-chocolate/",
      "secao": "legendados",
      "pagina": 162,
      "total_episodios": 5,
      "link_video": "https://animefire.plus/video/koi-to-senkyo-to-chocolate"
    },
    {
      "id": 2051,
      "nome": "Koi to Senkyo to Chocolate: Koi Imouto!",
      "link": "https://animefire.plus/animes/koi-to-senkyo-to-chocolate-koi-imouto-todos-os-episodios",
      "texto_original": "Koi to Senkyo to Chocolate: Koi Imouto!",
      "rating": 6.91,
      "classificacao_etaria": "A14",
      "imagem_original": "https://animefire.plus/img/animes/koi-to-senkyo-to-chocolate-koi-imouto.webp",
      "imagem_pasta": "https://animefire.plus/img/animes/koi-to-senkyo-to-chocolate-koi-imouto/",
      "secao": "legendados",
      "pagina": 54,
      "total_episodios": 1,
      "link_video": "https://animefire.plus/video/koi-to-senkyo-to-chocolate-koi-imouto"
    },
    {
      "id": 2052,
      "nome": "Koi to Uso",
      "link": "https://animefire.plus/animes/koi-to-uso-todos-os-episodios",
      "texto_original": "Koi to Uso",
      "rating": 6.75,
      "classificacao_etaria": "A14",
      "imagem_original": "https://animefire.plus/img/animes/koi-to-uso.webp",
      "imagem_pasta": "https://animefire.plus/img/animes/koi-to-uso/",
      "secao": "legendados",
      "pagina": 118,
      "total_episodios": 12,
      "link_video": "https://animefire.plus/video/koi-to-uso"
    },
    {
      "id": 2053,
      "nome": "Koi to Uso OVA",
      "link": "https://animefire.plus/animes/koi-to-uso-ova-todos-os-episodios",
      "texto_original": "Koi to Uso OVA",
      "rating": 6.46,
      "classificacao_etaria": "A14",
      "imagem_original": "https://animefire.plus/img/animes/koi-to-uso-ova.webp",
      "imagem_pasta": "https://animefire.plus/img/animes/koi-to-uso-ova/",
      "secao": "legendados",
      "pagina": 78,
      "total_episodios": 1,
      "link_video": "https://animefire.plus/video/koi-to-uso-ova"
    }
  ],
  "pagination": {
    "current_page": 66,
    "per_page": 20,
    "total_items": 2988,
    "total_pages": 150,
    "has_next": true,
    "has_prev": true
  }
}
