{
  "message": "Animes com classificação etária: A14",
  "age_rating": "A14",
  "data": [
    {
      "id": 502,
      "nome": "Brotherhood: Final Fantasy XV",
      "link": "https://animefire.plus/animes/brotherhood-final-fantasy-xv-todos-os-episodios",
      "texto_original": "Brotherhood: Final Fantasy XV",
      "rating": 6.96,
      "classificacao_etaria": "A14",
      "imagem_original": "https://animefire.plus/img/animes/brotherhood-final-fantasy-xv.webp",
      "imagem_pasta": "https://animefire.plus/img/animes/brotherhood-final-fantasy-xv/",
      "secao": "legendados",
      "pagina": 42,
      "total_episodios": 1,
      "link_video": "https://animefire.plus/video/brotherhood-final-fantasy-xv"
    },
    {
      "id": 503,
      "nome": "Brothers Conflict",
      "link": "https://animefire.plus/animes/brothers-conflict-todos-os-episodios",
      "texto_original": "Brothers Conflict",
      "rating": 6.46,
      "classificacao_etaria": "A14",
      "imagem_original": "https://animefire.plus/img/animes/brothers-conflict.webp",
      "imagem_pasta": "https://animefire.plus/img/animes/brothers-conflict/",
      "secao": "legendados",
      "pagina": 138,
      "total_episodios": 0,
      "link_video": "https://animefire.plus/video/brothers-conflict"
    },
    {
      "id": 505,
      "nome": "Bubble (Dublado)",
      "link": "https://animefire.plus/animes/bubble-dublado-todos-os-episodios",
      "texto_original": "Bubble (Dublado)",
      "rating": 7.24,
      "classificacao_etaria": "A14",
      "imagem_original": "https://animefire.plus/img/animes/bubble.webp",
      "imagem_pasta": "https://animefire.plus/img/animes/bubble/",
      "secao": "dublados,legendados",
      "pagina": 11,
      "total_episodios": 1,
      "link_video": "https://animefire.plus/video/bubble-dublado"
    },
    {
      "id": 507,
      "nome": "Bubuki Buranki",
      "link": "https://animefire.plus/animes/bubuki-buranki-todos-os-episodios",
      "texto_original": "Bubuki Buranki",
      "rating": 6.37,
      "classificacao_etaria": "A14",
      "imagem_original": "https://animefire.plus/img/animes/bubuki-buranki.webp",
      "imagem_pasta": "https://animefire.plus/img/animes/bubuki-buranki/",
      "secao": "legendados",
      "pagina": 108,
      "total_episodios": 12,
      "link_video": "https://animefire.plus/video/bubuki-buranki"
    },
    {
      "id": 508,
      "nome": "Bubuki Buranki: Hoshi no Kyojin",
      "link": "https://animefire.plus/animes/bubuki-buranki-hoshi-no-kyojin-todos-os-episodios",
      "texto_original": "Bubuki Buranki: Hoshi no Kyojin",
      "rating": 6.93,
      "classificacao_etaria": "A14",
      "imagem_original": "https://animefire.plus/img/animes/bubuki-buranki-hoshi-no-kyojin.webp",
      "imagem_pasta": "https://animefire.plus/img/animes/bubuki-buranki-hoshi-no-kyojin/",
      "secao": "legendados",
      "pagina": 150,
      "total_episodios": 9,
      "link_video": "https://animefire.plus/video/bubuki-buranki-hoshi-no-kyojin"
    },
    {
      "id": 509,
      "nome": "Bucchigire!",
      "link": "https://animefire.plus/animes/bucchigire-todos-os-episodios",
      "texto_original": "Bucchigire!",
      "rating": 5.99,
      "classificacao_etaria": "A14",
      "imagem_original": "https://animefire.plus/img/animes/bucchigire.webp",
      "imagem_pasta": "https://animefire.plus/img/animes/bucchigire/",
      "secao": "legendados",
      "pagina": 31,
      "total_episodios": 12,
      "link_video": "https://animefire.plus/video/bucchigire"
    },
    {
      "id": 511,
      "nome": "Bucchigiri?! (Dublado)",
      "link": "https://animefire.plus/animes/bucchigiri-dublado-todos-os-episodios",
      "texto_original": "Bucchigiri?! (Dublado)",
      "rating": 6.51,
      "classificacao_etaria": "A14",
      "imagem_original": "https://animefire.plus/img/animes/bucchigiri.webp",
      "imagem_pasta": "https://animefire.plus/img/animes/bucchigiri/",
      "secao": "dublados,legendados",
      "pagina": 3,
      "total_episodios": 12,
      "link_video": "https://animefire.plus/video/bucchigiri-dublado"
    },
    {
      "id": 512,
      "nome": "Buddy Complex",
      "link": "https://animefire.plus/animes/buddy-complex-todos-os-episodios",
      "texto_original": "Buddy Complex",
      "rating": 7.25,
      "classificacao_etaria": "A14",
      "imagem_original": "https://animefire.plus/img/animes/buddy-complex.webp",
      "imagem_pasta": "https://animefire.plus/img/animes/buddy-complex/",
      "secao": "legendados",
      "pagina": 144,
      "total_episodios": 13,
      "link_video": "https://animefire.plus/video/buddy-complex"
    },
    {
      "id": 513,
      "nome": "Buddy Complex: Kanketsu-hen - Ano Sora ni Kaeru Mirai de",
      "link": "https://animefire.plus/animes/buddy-complex-kanketsu-hen---ano-sora-ni-kaeru-mirai-de-todos-os-episodios",
      "texto_original": "Buddy Complex: Kanketsu-hen - Ano Sora ni Kaeru Mirai de",
      "rating": 7.36,
      "classificacao_etaria": "A14",
      "imagem_original": "https://animefire.plus/img/animes/buddy-complex-kanketsu-hen---ano-sora-ni-kaeru-mirai-de.webp",
      "imagem_pasta": "https://animefire.plus/img/animes/buddy-complex-kanketsu-hen---ano-sora-ni-kaeru-mirai-de/",
      "secao": "legendados",
      "pagina": 145,
      "total_episodios": 2,
      "link_video": "https://animefire.plus/video/buddy-complex-kanketsu-hen---ano-sora-ni-kaeru-mirai-de"
    },
    {
      "id": 514,
      "nome": "Buddy Daddies",
      "link": "https://animefire.plus/animes/buddy-daddies-todos-os-episodios",
      "texto_original": "Buddy Daddies",
      "rating": 8.12,
      "classificacao_etaria": "A14",
      "imagem_original": "https://animefire.plus/img/animes/buddy-daddies.webp",
      "imagem_pasta": "https://animefire.plus/img/animes/buddy-daddies/",
      "secao": "legendados",
      "pagina": 26,
      "total_episodios": 12,
      "link_video": "https://animefire.plus/video/buddy-daddies"
    },
    {
      "id": 515,
      "nome": "Build Divide: Code Black",
      "link": "https://animefire.plus/animes/build-divide-code-black-todos-os-episodios",
      "texto_original": "Build Divide: Code Black",
      "rating": 6.39,
      "classificacao_etaria": "A14",
      "imagem_original": "https://animefire.plus/img/animes/build-divide-code-black.webp",
      "imagem_pasta": "https://animefire.plus/img/animes/build-divide-code-black/",
      "secao": "legendados",
      "pagina": 39,
      "total_episodios": 12,
      "link_video": "https://animefire.plus/video/build-divide-code-black"
    },
    {
      "id": 516,
      "nome": "Build Divide: Code White",
      "link": "https://animefire.plus/animes/build-divide-code-white-todos-os-episodios",
      "texto_original": "Build Divide: Code White",
      "rating": 6.64,
      "classificacao_etaria": "A14",
      "imagem_original": "https://animefire.plus/img/animes/build-divide-code-white.webp",
      "imagem_pasta": "https://animefire.plus/img/animes/build-divide-code-white/",
      "secao": "legendados,lancamentos",
      "pagina": 34,
      "total_episodios": 3,
      "link_video": "https://animefire.plus/video/build-divide-code-white"
    },
    {
      "id": 517,
      "nome": "Bullbuster",
      "link": "https://animefire.plus/animes/bullbuster-todos-os-episodios",
      "texto_original": "Bullbuster",
      "rating": 6.18,
      "classificacao_etaria": "A14",
      "imagem_original": "https://animefire.plus/img/animes/bullbuster.webp",
      "imagem_pasta": "https://animefire.plus/img/animes/bullbuster/",
      "secao": "legendados",
      "pagina": 20,
      "total_episodios": 12,
      "link_video": "https://animefire.plus/video/bullbuster"
    },
    {
      "id": 524,
      "nome": "Bungou Stray Dogs Wan!",
      "link": "https://animefire.plus/animes/bungou-stray-dogs-wan-todos-os-episodios",
      "texto_original": "Bungou Stray Dogs Wan!",
      "rating": 7.98,
      "classificacao_etaria": "A14",
      "imagem_original": "https://animefire.plus/img/animes/bungou-stray-dogs-wan.webp",
      "imagem_pasta": "https://animefire.plus/img/animes/bungou-stray-dogs-wan/",
      "secao": "legendados",
      "pagina": 49,
      "total_episodios": 12,
      "link_video": "https://animefire.plus/video/bungou-stray-dogs-wan"
    },
    {
      "id": 525,
      "nome": "Bungou Stray Dogs: Hitori Ayumu (Dublado)",
      "link": "https://animefire.plus/animes/bungou-stray-dogs-hitori-ayumu-dublado-todos-os-episodios",
      "texto_original": "Bungou Stray Dogs: Hitori Ayumu (Dublado)",
      "rating": 7.71,
      "classificacao_etaria": "A14",
      "imagem_original": "https://animefire.plus/img/animes/bungou-stray-dogs-hitori-ayumu.webp",
      "imagem_pasta": "https://animefire.plus/img/animes/bungou-stray-dogs-hitori-ayumu/",
      "secao": "dublados,legendados",
      "pagina": 24,
      "total_episodios": 1,
      "link_video": "https://animefire.plus/video/bungou-stray-dogs-hitori-ayumu-dublado"
    },
    {
      "id": 526,
      "nome": "Bungou to Alchemist: Shinpan no Haguruma",
      "link": "https://animefire.plus/animes/bungou-to-alchemist-shinpan-no-haguruma-todos-os-episodios",
      "texto_original": "Bungou to Alchemist: Shinpan no Haguruma",
      "rating": 6.34,
      "classificacao_etaria": "A14",
      "imagem_original": "https://animefire.plus/img/animes/bungou-to-alchemist-shinpan-no-haguruma.webp",
      "imagem_pasta": "https://animefire.plus/img/animes/bungou-to-alchemist-shinpan-no-haguruma/",
      "secao": "legendados",
      "pagina": 81,
      "total_episodios": 2,
      "link_video": "https://animefire.plus/video/bungou-to-alchemist-shinpan-no-haguruma"
    },
    {
      "id": 527,
      "nome": "Burn the Witch #0.8",
      "link": "https://animefire.plus/animes/burn-the-witch-0-8-todos-os-episodios",
      "texto_original": "Burn the Witch #0.8",
      "rating": 7.46,
      "classificacao_etaria": "A14",
      "imagem_original": "https://animefire.plus/img/animes/burn-the-witch-0-8.webp",
      "imagem_pasta": "https://animefire.plus/img/animes/burn-the-witch-0-8/",
      "secao": "legendados",
      "pagina": 17,
      "total_episodios": 1,
      "link_video": "https://animefire.plus/video/burn-the-witch-0-8"
    },
    {
      "id": 528,
      "nome": "Burn Up Excess",
      "link": "https://animefire.plus/animes/burn-up-excess-todos-os-episodios",
      "texto_original": "Burn Up Excess",
      "rating": 6.64,
      "classificacao_etaria": "A14",
      "imagem_original": "https://animefire.plus/img/animes/burn-up-excess.webp",
      "imagem_pasta": "https://animefire.plus/img/animes/burn-up-excess/",
      "secao": "legendados",
      "pagina": 132,
      "total_episodios": 13,
      "link_video": "https://animefire.plus/video/burn-up-excess"
    },
    {
      "id": 532,
      "nome": "Bus Gamer",
      "link": "https://animefire.plus/animes/bus-gamer-todos-os-episodios",
      "texto_original": "Bus Gamer",
      "rating": 6.6,
      "classificacao_etaria": "A14",
      "imagem_original": "https://animefire.plus/img/animes/bus-gamer.webp",
      "imagem_pasta": "https://animefire.plus/img/animes/bus-gamer/",
      "secao": "legendados",
      "pagina": 127,
      "total_episodios": 3,
      "link_video": "https://animefire.plus/video/bus-gamer"
    },
    {
      "id": 533,
      "nome": "Busamen Gachi Fighter",
      "link": "https://animefire.plus/animes/busamen-gachi-fighter-todos-os-episodios",
      "texto_original": "Busamen Gachi Fighter",
      "rating": 6.5,
      "classificacao_etaria": "A14",
      "imagem_original": "https://animefire.plus/img/animes/busamen-gachi-fighter.webp",
      "imagem_pasta": "https://animefire.plus/img/animes/busamen-gachi-fighter/",
      "secao": "legendados,lancamentos",
      "pagina": 2,
      "total_episodios": 5,
      "link_video": "https://animefire.plus/video/busamen-gachi-fighter"
    }
  ],
  "pagination": {
    "current_page": 17,
    "per_page": 20,
    "total_items": 2988,
    "total_pages": 150,
    "has_next": true,
    "has_prev": true
  }
}
