{
  "message": "Animes com classificação etária: A14",
  "age_rating": "A14",
  "data": [
    {
      "id": 2807,
      "nome": "Odd Taxi (Dublado)",
      "link": "https://animefire.plus/animes/odd-taxi-dublado-todos-os-episodios",
      "texto_original": "Odd Taxi (Dublado)",
      "rating": 8.64,
      "classificacao_etaria": "A14",
      "imagem_original": "https://animefire.plus/img/animes/odd-taxi.webp",
      "imagem_pasta": "https://animefire.plus/img/animes/odd-taxi/",
      "secao": "dublados,legendados",
      "pagina": 4,
      "total_episodios": 13,
      "link_video": "https://animefire.plus/video/odd-taxi-dublado"
    },
    {
      "id": 2808,
      "nome": "Oemojisangjuui (Dublado)",
      "link": "https://animefire.plus/animes/oemojisangjuui-dublado-todos-os-episodios",
      "texto_original": "Oemojisangjuui (Dublado)",
      "rating": 7.41,
      "classificacao_etaria": "A14",
      "imagem_original": "https://animefire.plus/img/animes/oemojisangjuui.webp",
      "imagem_pasta": "https://animefire.plus/img/animes/oemojisangjuui/",
      "secao": "dublados",
      "pagina": 8,
      "total_episodios": 8,
      "link_video": "https://animefire.plus/video/oemojisangjuui-dublado"
    },
    {
      "id": 2809,
      "nome": "Oide yo Mahou Shoujo Mura (Fuhou Senkyo)",
      "link": "https://animefire.plus/animes/oide-yo-mahou-shoujo-mura-fuhou-senkyo-todos-os-episodios",
      "texto_original": "Oide yo Mahou Shoujo Mura (Fuhou Senkyo)",
      "rating": null,
      "classificacao_etaria": "A14",
      "imagem_original": "https://animefire.plus/img/animes/oide-yo-mahou-shoujo-mura-fuhou-senkyo.webp",
      "imagem_pasta": "https://animefire.plus/img/animes/oide-yo-mahou-shoujo-mura-fuhou-senkyo/",
      "secao": "legendados,lancamentos",
      "pagina": 3,
      "total_episodios": 0,
      "link_video": "https://animefire.plus/video/oide-yo-mahou-shoujo-mura-fuhou-senkyo"
    },
    {
      "id": 2811,
      "nome": "Ojisan to Marshmallow",
      "link": "https://animefire.plus/animes/ojisan-to-marshmallow-todos-os-episodios",
      "texto_original": "Ojisan to Marshmallow",
      "rating": 6.63,
      "classificacao_etaria": "A14",
      "imagem_original": "https://animefire.plus/img/animes/ojisan-to-marshmallow.webp",
      "imagem_pasta": "https://animefire.plus/img/animes/ojisan-to-marshmallow/",
      "secao": "legendados",
      "pagina": 62,
      "total_episodios": 1,
      "link_video": "https://animefire.plus/video/ojisan-to-marshmallow"
    },
    {
      "id": 2812,
      "nome": "Ojou to Banken-kun",
      "link": "https://animefire.plus/animes/ojou-to-banken-kun-todos-os-episodios",
      "texto_original": "Ojou to Banken-kun",
      "rating": 5.67,
      "classificacao_etaria": "A14",
      "imagem_original": "https://animefire.plus/img/animes/ojou-to-banken-kun.webp",
      "imagem_pasta": "https://animefire.plus/img/animes/ojou-to-banken-kun/",
      "secao": "legendados",
      "pagina": 21,
      "total_episodios": 13,
      "link_video": "https://animefire.plus/video/ojou-to-banken-kun"
    },
    {
      "id": 2813,
      "nome": "Okashi na Tensei",
      "link": "https://animefire.plus/animes/okashi-na-tensei-todos-os-episodios",
      "texto_original": "Okashi na Tensei",
      "rating": 6.7,
      "classificacao_etaria": "A14",
      "imagem_original": "https://animefire.plus/img/animes/okashi-na-tensei.jpg",
      "imagem_pasta": "https://animefire.plus/img/animes/okashi-na-tensei/",
      "secao": "legendados",
      "pagina": 22,
      "total_episodios": 12,
      "link_video": "https://animefire.plus/video/okashi-na-tensei"
    },
    {
      "id": 2814,
      "nome": "Okinawa de Suki ni Natta Ko ga Hougen Sugite Tsurasugiru",
      "link": "https://animefire.plus/animes/okinawa-de-suki-ni-natta-ko-ga-hougen-sugite-tsurasugiru-todos-os-episodios",
      "texto_original": "Okinawa de Suki ni Natta Ko ga Hougen Sugite Tsurasugiru",
      "rating": 7.1,
      "classificacao_etaria": "A14",
      "imagem_original": "https://animefire.plus/img/animes/okinawa-de-suki-ni-natta-ko-ga-hougen-sugite-tsurasugiru.webp",
      "imagem_pasta": "https://animefire.plus/img/animes/okinawa-de-suki-ni-natta-ko-ga-hougen-sugite-tsurasugiru/",
      "secao": "legendados",
      "pagina": 8,
      "total_episodios": 12,
      "link_video": "https://animefire.plus/video/okinawa-de-suki-ni-natta-ko-ga-hougen-sugite-tsurasugiru"
    },
    {
      "id": 2818,
      "nome": "Okusama wa Joshikousei (TV)",
      "link": "https://animefire.plus/animes/okusama-wa-joshikousei-tv-todos-os-episodios",
      "texto_original": "Okusama wa Joshikousei (TV)",
      "rating": 6.41,
      "classificacao_etaria": "A14",
      "imagem_original": "https://animefire.plus/img/animes/okusama-wa-joshikousei-tv.webp",
      "imagem_pasta": "https://animefire.plus/img/animes/okusama-wa-joshikousei-tv/",
      "secao": "legendados",
      "pagina": 159,
      "total_episodios": 13,
      "link_video": "https://animefire.plus/video/okusama-wa-joshikousei-tv"
    },
    {
      "id": 2819,
      "nome": "Okusama wa Mahou Shoujo",
      "link": "https://animefire.plus/animes/okusama-wa-mahou-shoujo-todos-os-episodios",
      "texto_original": "Okusama wa Mahou Shoujo",
      "rating": 6.36,
      "classificacao_etaria": "A14",
      "imagem_original": "https://animefire.plus/img/animes/okusama-wa-mahou-shoujo.webp",
      "imagem_pasta": "https://animefire.plus/img/animes/okusama-wa-mahou-shoujo/",
      "secao": "legendados",
      "pagina": 146,
      "total_episodios": 13,
      "link_video": "https://animefire.plus/video/okusama-wa-mahou-shoujo"
    },
    {
      "id": 2820,
      "nome": "Olympia Kyklos",
      "link": "https://animefire.plus/animes/olympia-kyklos-todos-os-episodios",
      "texto_original": "Olympia Kyklos",
      "rating": 7.02,
      "classificacao_etaria": "A14",
      "imagem_original": "https://animefire.plus/img/animes/olympia-kyklos.webp",
      "imagem_pasta": "https://animefire.plus/img/animes/olympia-kyklos/",
      "secao": "legendados,lancamentos",
      "pagina": 79,
      "total_episodios": 0,
      "link_video": "https://animefire.plus/video/olympia-kyklos"
    },
    {
      "id": 2821,
      "nome": "Omae wa Mada Gunma wo Shiranai",
      "link": "https://animefire.plus/animes/omae-wa-mada-gunma-wo-shiranai-todos-os-episodios",
      "texto_original": "Omae wa Mada Gunma wo Shiranai",
      "rating": 5.26,
      "classificacao_etaria": "A14",
      "imagem_original": "https://animefire.plus/img/animes/omae-wa-mada-gunma-wo-shiranai.webp",
      "imagem_pasta": "https://animefire.plus/img/animes/omae-wa-mada-gunma-wo-shiranai/",
      "secao": "legendados",
      "pagina": 136,
      "total_episodios": 12,
      "link_video": "https://animefire.plus/video/omae-wa-mada-gunma-wo-shiranai"
    },
    {
      "id": 2824,
      "nome": "Omoi No Kakera",
      "link": "https://animefire.plus/animes/omoi-no-kakera-todos-os-episodios",
      "texto_original": "Omoi No Kakera",
      "rating": 6.58,
      "classificacao_etaria": "A14",
      "imagem_original": "https://animefire.plus/img/animes/omoi-no-kakera.webp",
      "imagem_pasta": "https://animefire.plus/img/animes/omoi-no-kakera/",
      "secao": "legendados",
      "pagina": 101,
      "total_episodios": 1,
      "link_video": "https://animefire.plus/video/omoi-no-kakera"
    },
    {
      "id": 2825,
      "nome": "One Outs",
      "link": "https://animefire.plus/animes/one-outs-todos-os-episodios",
      "texto_original": "One Outs",
      "rating": 8.39,
      "classificacao_etaria": "A14",
      "imagem_original": "https://animefire.plus/img/animes/one-outs.webp",
      "imagem_pasta": "https://animefire.plus/img/animes/one-outs/",
      "secao": "legendados",
      "pagina": 114,
      "total_episodios": 25,
      "link_video": "https://animefire.plus/video/one-outs"
    },
    {
      "id": 2826,
      "nome": "One Piece (Dublado)",
      "link": "https://animefire.plus/animes/one-piece-dublado-todos-os-episodios",
      "texto_original": "One Piece (Dublado)",
      "rating": 8.49,
      "classificacao_etaria": "A14",
      "imagem_original": "https://animefire.plus/img/animes/one-piece.webp",
      "imagem_pasta": "https://animefire.plus/img/animes/one-piece/",
      "secao": "dublados,legendados,lancamentos",
      "pagina": 20,
      "total_episodios": 834,
      "link_video": "https://animefire.plus/video/one-piece-dublado"
    },
    {
      "id": 2827,
      "nome": "One Piece 3D2Y: Ace no shi wo Koete! Luffy Nakama Tono Chikai",
      "link": "https://animefire.plus/animes/one-piece-3d2y-ace-no-shi-wo-koete-luffy-nakama-tono-chikai-todos-os-episodios",
      "texto_original": "One Piece 3D2Y: Ace no shi wo Koete! Luffy Nakama Tono Chikai",
      "rating": 7.97,
      "classificacao_etaria": "A14",
      "imagem_original": "https://animefire.plus/img/animes/one-piece-3d2y-ace-no-shi-wo-koete-luffy-nakama-tono-chikai.webp",
      "imagem_pasta": "https://animefire.plus/img/animes/one-piece-3d2y-ace-no-shi-wo-koete-luffy-nakama-tono-chikai/",
      "secao": "legendados",
      "pagina": 77,
      "total_episodios": 1,
      "link_video": "https://animefire.plus/video/one-piece-3d2y-ace-no-shi-wo-koete-luffy-nakama-tono-chikai"
    },
    {
      "id": 2828,
      "nome": "One Piece Film: Strong World Episode 0",
      "link": "https://animefire.plus/animes/one-piece-film-strong-world-episode-0-todos-os-episodios",
      "texto_original": "One Piece Film: Strong World Episode 0",
      "rating": 8.04,
      "classificacao_etaria": "A14",
      "imagem_original": "https://animefire.plus/img/animes/one-piece-film-strong-world-episode-0.webp",
      "imagem_pasta": "https://animefire.plus/img/animes/one-piece-film-strong-world-episode-0/",
      "secao": "legendados",
      "pagina": 77,
      "total_episodios": 1,
      "link_video": "https://animefire.plus/video/one-piece-film-strong-world-episode-0"
    },
    {
      "id": 2829,
      "nome": "One Piece: Adventure of Nebulandia",
      "link": "https://animefire.plus/animes/one-piece-adventure-of-nebulandia-todos-os-episodios",
      "texto_original": "One Piece: Adventure of Nebulandia",
      "rating": 7.34,
      "classificacao_etaria": "A14",
      "imagem_original": "https://animefire.plus/img/animes/one-piece-adventure-of-nebulandia.webp",
      "imagem_pasta": "https://animefire.plus/img/animes/one-piece-adventure-of-nebulandia/",
      "secao": "legendados",
      "pagina": 74,
      "total_episodios": 0,
      "link_video": "https://animefire.plus/video/one-piece-adventure-of-nebulandia"
    },
    {
      "id": 2830,
      "nome": "One Piece: Episode of Luffy - Hand Island no Bouken",
      "link": "https://animefire.plus/animes/one-piece-episode-of-luffy---hand-island-no-bouken-todos-os-episodios",
      "texto_original": "One Piece: Episode of Luffy - Hand Island no Bouken",
      "rating": 7.7,
      "classificacao_etaria": "A14",
      "imagem_original": "https://animefire.plus/img/animes/one-piece-episode-of-luffy---hand-island-no-bouken.webp",
      "imagem_pasta": "https://animefire.plus/img/animes/one-piece-episode-of-luffy---hand-island-no-bouken/",
      "secao": "legendados",
      "pagina": 75,
      "total_episodios": 0,
      "link_video": "https://animefire.plus/video/one-piece-episode-of-luffy---hand-island-no-bouken"
    },
    {
      "id": 2831,
      "nome": "One Piece: Episode of Merry - Mou Hitori no Nakama no Monogatari",
      "link": "https://animefire.plus/animes/one-piece-episode-of-merry---mou-hitori-no-nakama-no-monogatari-todos-os-episodios",
      "texto_original": "One Piece: Episode of Merry - Mou Hitori no Nakama no Monogatari",
      "rating": 8.22,
      "classificacao_etaria": "A14",
      "imagem_original": "https://animefire.plus/img/animes/one-piece-episode-of-merry---mou-hitori-no-nakama-no-monogatari.webp",
      "imagem_pasta": "https://animefire.plus/img/animes/one-piece-episode-of-merry---mou-hitori-no-nakama-no-monogatari/",
      "secao": "legendados",
      "pagina": 75,
      "total_episodios": 0,
      "link_video": "https://animefire.plus/video/one-piece-episode-of-merry---mou-hitori-no-nakama-no-monogatari"
    },
    {
      "id": 2832,
      "nome": "One Piece: Episode of Nami - Koukaishi no Namida to Nakama no Kizuna",
      "link": "https://animefire.plus/animes/one-piece-episode-of-nami---koukaishi-no-namida-to-nakama-no-kizuna-todos-os-episodios",
      "texto_original": "One Piece: Episode of Nami - Koukaishi no Namida to Nakama no Kizuna",
      "rating": 8.17,
      "classificacao_etaria": "A14",
      "imagem_original": "https://animefire.plus/img/animes/one-piece-episode-of-nami---koukaishi-no-namida-to-nakama-no-kizuna.webp",
      "imagem_pasta": "https://animefire.plus/img/animes/one-piece-episode-of-nami---koukaishi-no-namida-to-nakama-no-kizuna/",
      "secao": "legendados",
      "pagina": 74,
      "total_episodios": 0,
      "link_video": "https://animefire.plus/video/one-piece-episode-of-nami---koukaishi-no-namida-to-nakama-no-kizuna"
    }
  ],
  "pagination": {
    "current_page": 94,
    "per_page": 20,
    "total_items": 2988,
    "total_pages": 150,
    "has_next": true,
    "has_prev": true
  }
}
