{
  "message": "Animes com classificação etária: A14",
  "age_rating": "A14",
  "data": [
    {
      "id": 366,
      "nome": "Beatless",
      "link": "https://animefire.plus/animes/beatless-todos-os-episodios",
      "texto_original": "Beatless",
      "rating": 6.27,
      "classificacao_etaria": "A14",
      "imagem_original": "https://animefire.plus/img/animes/beatless.webp",
      "imagem_pasta": "https://animefire.plus/img/animes/beatless/",
      "secao": "legendados",
      "pagina": 113,
      "total_episodios": 18,
      "link_video": "https://animefire.plus/video/beatless"
    },
    {
      "id": 367,
      "nome": "Beatless Final Stage",
      "link": "https://animefire.plus/animes/beatless-final-stage-todos-os-episodios",
      "texto_original": "Beatless Final Stage",
      "rating": 6.87,
      "classificacao_etaria": "A14",
      "imagem_original": "https://animefire.plus/img/animes/beatless-final-stage.webp",
      "imagem_pasta": "https://animefire.plus/img/animes/beatless-final-stage/",
      "secao": "legendados",
      "pagina": 159,
      "total_episodios": 4,
      "link_video": "https://animefire.plus/video/beatless-final-stage"
    },
    {
      "id": 368,
      "nome": "Beatless Intermission",
      "link": "https://animefire.plus/animes/beatless-intermission-todos-os-episodios",
      "texto_original": "Beatless Intermission",
      "rating": 5.35,
      "classificacao_etaria": "A14",
      "imagem_original": "https://animefire.plus/img/animes/beatless-intermission.webp",
      "imagem_pasta": "https://animefire.plus/img/animes/beatless-intermission/",
      "secao": "legendados",
      "pagina": 134,
      "total_episodios": 4,
      "link_video": "https://animefire.plus/video/beatless-intermission"
    },
    {
      "id": 370,
      "nome": "Beelzebub",
      "link": "https://animefire.plus/animes/beelzebub-todos-os-episodios",
      "texto_original": "Beelzebub",
      "rating": 8.01,
      "classificacao_etaria": "A14",
      "imagem_original": "https://animefire.plus/img/animes/beelzebub.webp",
      "imagem_pasta": "https://animefire.plus/img/animes/beelzebub/",
      "secao": "legendados",
      "pagina": 158,
      "total_episodios": 53,
      "link_video": "https://animefire.plus/video/beelzebub"
    },
    {
      "id": 371,
      "nome": "Beelzebub-jou no Okinimesu mama.",
      "link": "https://animefire.plus/animes/beelzebub-jou-no-okinimesu-mama-todos-os-episodios",
      "texto_original": "Beelzebub-jou no Okinimesu mama.",
      "rating": 7.35,
      "classificacao_etaria": "A14",
      "imagem_original": "https://animefire.plus/img/animes/beelzebub-jou-no-okinimesu-mama.webp",
      "imagem_pasta": "https://animefire.plus/img/animes/beelzebub-jou-no-okinimesu-mama/",
      "secao": "legendados",
      "pagina": 145,
      "total_episodios": 12,
      "link_video": "https://animefire.plus/video/beelzebub-jou-no-okinimesu-mama"
    },
    {
      "id": 372,
      "nome": "Ben-To",
      "link": "https://animefire.plus/animes/ben-to-todos-os-episodios",
      "texto_original": "Ben-To",
      "rating": 7.38,
      "classificacao_etaria": "A14",
      "imagem_original": "https://animefire.plus/img/animes/ben-to.webp",
      "imagem_pasta": "https://animefire.plus/img/animes/ben-to/",
      "secao": "legendados",
      "pagina": 165,
      "total_episodios": 0,
      "link_video": "https://animefire.plus/video/ben-to"
    },
    {
      "id": 374,
      "nome": "Bermuda Triangle: Colorful Pastrale",
      "link": "https://animefire.plus/animes/bermuda-triangle-colorful-pastrale-todos-os-episodios",
      "texto_original": "Bermuda Triangle: Colorful Pastrale",
      "rating": 5.46,
      "classificacao_etaria": "A14",
      "imagem_original": "https://animefire.plus/img/animes/bermuda-triangle-colorful-pastrale.webp",
      "imagem_pasta": "https://animefire.plus/img/animes/bermuda-triangle-colorful-pastrale/",
      "secao": "legendados",
      "pagina": 99,
      "total_episodios": 12,
      "link_video": "https://animefire.plus/video/bermuda-triangle-colorful-pastrale"
    },
    {
      "id": 375,
      "nome": "Bernard-jou Iwaku.",
      "link": "https://animefire.plus/animes/bernard-jou-iwaku-todos-os-episodios",
      "texto_original": "Bernard-jou Iwaku.",
      "rating": 6.01,
      "classificacao_etaria": "A14",
      "imagem_original": "https://animefire.plus/img/animes/bernard-jou-iwaku.webp",
      "imagem_pasta": "https://animefire.plus/img/animes/bernard-jou-iwaku/",
      "secao": "legendados",
      "pagina": 179,
      "total_episodios": 3,
      "link_video": "https://animefire.plus/video/bernard-jou-iwaku"
    },
    {
      "id": 385,
      "nome": "Bihada Ichizoku",
      "link": "https://animefire.plus/animes/bihada-ichizoku-todos-os-episodios",
      "texto_original": "Bihada Ichizoku",
      "rating": 5.8,
      "classificacao_etaria": "A14",
      "imagem_original": "https://animefire.plus/img/animes/bihada-ichizoku.webp",
      "imagem_pasta": "https://animefire.plus/img/animes/bihada-ichizoku/",
      "secao": "legendados",
      "pagina": 139,
      "total_episodios": 12,
      "link_video": "https://animefire.plus/video/bihada-ichizoku"
    },
    {
      "id": 387,
      "nome": "Binan Koukou Chikyuu Bouei-bu Haikara!",
      "link": "https://animefire.plus/animes/binan-koukou-chikyuu-bouei-bu-haikara-todos-os-episodios",
      "texto_original": "Binan Koukou Chikyuu Bouei-bu Haikara!",
      "rating": null,
      "classificacao_etaria": "A14",
      "imagem_original": "https://animefire.plus/img/animes/binan-koukou-chikyuu-bouei-bu-haikara.webp",
      "imagem_pasta": "https://animefire.plus/img/animes/binan-koukou-chikyuu-bouei-bu-haikara/",
      "secao": "legendados,lancamentos",
      "pagina": 1,
      "total_episodios": 0,
      "link_video": "https://animefire.plus/video/binan-koukou-chikyuu-bouei-bu-haikara"
    },
    {
      "id": 388,
      "nome": "Binan Koukou Chikyuu Boueibu Happy Kiss!",
      "link": "https://animefire.plus/animes/binan-koukou-chikyuu-boueibu-happy-kiss-todos-os-episodios",
      "texto_original": "Binan Koukou Chikyuu Boueibu Happy Kiss!",
      "rating": 6.58,
      "classificacao_etaria": "A14",
      "imagem_original": "https://animefire.plus/img/animes/binan-koukou-chikyuu-boueibu-happy-kiss.webp",
      "imagem_pasta": "https://animefire.plus/img/animes/binan-koukou-chikyuu-boueibu-happy-kiss/",
      "secao": "legendados",
      "pagina": 160,
      "total_episodios": 11,
      "link_video": "https://animefire.plus/video/binan-koukou-chikyuu-boueibu-happy-kiss"
    },
    {
      "id": 389,
      "nome": "Binan Koukou Chikyuu Boueibu LOVE!",
      "link": "https://animefire.plus/animes/binan-koukou-chikyuu-boueibu-love-todos-os-episodios",
      "texto_original": "Binan Koukou Chikyuu Boueibu LOVE!",
      "rating": 7,
      "classificacao_etaria": "A14",
      "imagem_original": "https://animefire.plus/img/animes/binan-koukou-chikyuu-boueibu-love.webp",
      "imagem_pasta": "https://animefire.plus/img/animes/binan-koukou-chikyuu-boueibu-love/",
      "secao": "legendados",
      "pagina": 143,
      "total_episodios": 8,
      "link_video": "https://animefire.plus/video/binan-koukou-chikyuu-boueibu-love"
    },
    {
      "id": 391,
      "nome": "Binbougami ga!",
      "link": "https://animefire.plus/animes/binbougami-ga-todos-os-episodios",
      "texto_original": "Binbougami ga!",
      "rating": 7.8,
      "classificacao_etaria": "A14",
      "imagem_original": "https://animefire.plus/img/animes/binbougami-ga.webp",
      "imagem_pasta": "https://animefire.plus/img/animes/binbougami-ga/",
      "secao": "legendados",
      "pagina": 119,
      "total_episodios": 12,
      "link_video": "https://animefire.plus/video/binbougami-ga"
    },
    {
      "id": 395,
      "nome": "Birdie Wing: Golf Girls' Story",
      "link": "https://animefire.plus/animes/birdie-wing-golf-girls-story-todos-os-episodios",
      "texto_original": "Birdie Wing: Golf Girls' Story",
      "rating": 7.48,
      "classificacao_etaria": "A14",
      "imagem_original": "https://animefire.plus/img/animes/birdie-wing-golf-girls-story.webp",
      "imagem_pasta": "https://animefire.plus/img/animes/birdie-wing-golf-girls-story/",
      "secao": "legendados",
      "pagina": 33,
      "total_episodios": 13,
      "link_video": "https://animefire.plus/video/birdie-wing-golf-girls-story"
    },
    {
      "id": 396,
      "nome": "Bishoujo Senshi Sailor Moon (Dublado)",
      "link": "https://animefire.plus/animes/bishoujo-senshi-sailor-moon-dublado-todos-os-episodios",
      "texto_original": "Bishoujo Senshi Sailor Moon (Dublado)",
      "rating": 7.74,
      "classificacao_etaria": "A14",
      "imagem_original": "https://animefire.plus/img/animes/bishoujo-senshi-sailor-moon.webp",
      "imagem_pasta": "https://animefire.plus/img/animes/bishoujo-senshi-sailor-moon/",
      "secao": "dublados,legendados",
      "pagina": 28,
      "total_episodios": 0,
      "link_video": "https://animefire.plus/video/bishoujo-senshi-sailor-moon-dublado"
    },
    {
      "id": 397,
      "nome": "Bishoujo Senshi Sailor Moon Crystal",
      "link": "https://animefire.plus/animes/bishoujo-senshi-sailor-moon-crystal-todos-os-episodios",
      "texto_original": "Bishoujo Senshi Sailor Moon Crystal",
      "rating": 7.05,
      "classificacao_etaria": "A14",
      "imagem_original": "https://animefire.plus/img/animes/bishoujo-senshi-sailor-moon-crystal.webp",
      "imagem_pasta": "https://animefire.plus/img/animes/bishoujo-senshi-sailor-moon-crystal/",
      "secao": "legendados",
      "pagina": 96,
      "total_episodios": 3,
      "link_video": "https://animefire.plus/video/bishoujo-senshi-sailor-moon-crystal"
    },
    {
      "id": 398,
      "nome": "Bishoujo Senshi Sailor Moon R",
      "link": "https://animefire.plus/animes/bishoujo-senshi-sailor-moon-r-todos-os-episodios",
      "texto_original": "Bishoujo Senshi Sailor Moon R",
      "rating": 7.7,
      "classificacao_etaria": "A14",
      "imagem_original": "https://animefire.plus/img/animes/bishoujo-senshi-sailor-moon-r.webp",
      "imagem_pasta": "https://animefire.plus/img/animes/bishoujo-senshi-sailor-moon-r/",
      "secao": "legendados",
      "pagina": 72,
      "total_episodios": 43,
      "link_video": "https://animefire.plus/video/bishoujo-senshi-sailor-moon-r"
    },
    {
      "id": 399,
      "nome": "Bishoujo Senshi Sailor Moon S",
      "link": "https://animefire.plus/animes/bishoujo-senshi-sailor-moon-s-todos-os-episodios",
      "texto_original": "Bishoujo Senshi Sailor Moon S",
      "rating": 7.86,
      "classificacao_etaria": "A14",
      "imagem_original": "https://animefire.plus/img/animes/bishoujo-senshi-sailor-moon-s.webp",
      "imagem_pasta": "https://animefire.plus/img/animes/bishoujo-senshi-sailor-moon-s/",
      "secao": "legendados",
      "pagina": 72,
      "total_episodios": 38,
      "link_video": "https://animefire.plus/video/bishoujo-senshi-sailor-moon-s"
    },
    {
      "id": 400,
      "nome": "Bishoujo Senshi Sailor Moon SuperS",
      "link": "https://animefire.plus/animes/bishoujo-senshi-sailor-moon-supers-todos-os-episodios",
      "texto_original": "Bishoujo Senshi Sailor Moon SuperS",
      "rating": 7.65,
      "classificacao_etaria": "A14",
      "imagem_original": "https://animefire.plus/img/animes/bishoujo-senshi-sailor-moon-supers.webp",
      "imagem_pasta": "https://animefire.plus/img/animes/bishoujo-senshi-sailor-moon-supers/",
      "secao": "legendados",
      "pagina": 133,
      "total_episodios": 39,
      "link_video": "https://animefire.plus/video/bishoujo-senshi-sailor-moon-supers"
    },
    {
      "id": 401,
      "nome": "Bishoujo Senshi Sailor Moon: Sailor Stars",
      "link": "https://animefire.plus/animes/bishoujo-senshi-sailor-moon-sailor-stars-todos-os-episodios",
      "texto_original": "Bishoujo Senshi Sailor Moon: Sailor Stars",
      "rating": 7.99,
      "classificacao_etaria": "A14",
      "imagem_original": "https://animefire.plus/img/animes/bishoujo-senshi-sailor-moon-sailor-stars.webp",
      "imagem_pasta": "https://animefire.plus/img/animes/bishoujo-senshi-sailor-moon-sailor-stars/",
      "secao": "legendados",
      "pagina": 131,
      "total_episodios": 0,
      "link_video": "https://animefire.plus/video/bishoujo-senshi-sailor-moon-sailor-stars"
    }
  ],
  "pagination": {
    "current_page": 13,
    "per_page": 20,
    "total_items": 2988,
    "total_pages": 150,
    "has_next": true,
    "has_prev": true
  }
}
