{
  "message": "Animes com classificação etária: A14",
  "age_rating": "A14",
  "data": [
    {
      "id": 3026,
      "nome": "Princess Connect! Re:Dive Season 2",
      "link": "https://animefire.plus/animes/princess-connect-re-dive-season-2-todos-os-episodios",
      "texto_original": "Princess Connect! Re:Dive Season 2",
      "rating": 7.77,
      "classificacao_etaria": "A14",
      "imagem_original": "https://animefire.plus/img/animes/princess-connect-re-dive-season-2.webp",
      "imagem_pasta": "https://animefire.plus/img/animes/princess-connect-re-dive-season-2/",
      "secao": "legendados",
      "pagina": 36,
      "total_episodios": 12,
      "link_video": "https://animefire.plus/video/princess-connect-re-dive-season-2"
    },
    {
      "id": 3029,
      "nome": "Princess Princess",
      "link": "https://animefire.plus/animes/princess-princess-todos-os-episodios",
      "texto_original": "Princess Princess",
      "rating": 7.11,
      "classificacao_etaria": "A14",
      "imagem_original": "https://animefire.plus/img/animes/princess-princess.webp",
      "imagem_pasta": "https://animefire.plus/img/animes/princess-princess/",
      "secao": "legendados",
      "pagina": 118,
      "total_episodios": 12,
      "link_video": "https://animefire.plus/video/princess-princess"
    },
    {
      "id": 3031,
      "nome": "Princess Tutu",
      "link": "https://animefire.plus/animes/princess-tutu-todos-os-episodios",
      "texto_original": "Princess Tutu",
      "rating": 8.17,
      "classificacao_etaria": "A14",
      "imagem_original": "https://animefire.plus/img/animes/princess-tutu.webp",
      "imagem_pasta": "https://animefire.plus/img/animes/princess-tutu/",
      "secao": "legendados",
      "pagina": 61,
      "total_episodios": 26,
      "link_video": "https://animefire.plus/video/princess-tutu"
    },
    {
      "id": 3032,
      "nome": "Princession Orchestra",
      "link": "https://animefire.plus/animes/princession-orchestra-todos-os-episodios",
      "texto_original": "Princession Orchestra",
      "rating": null,
      "classificacao_etaria": "A14",
      "imagem_original": "https://animefire.plus/img/animes/princession-orchestra.webp",
      "imagem_pasta": "https://animefire.plus/img/animes/princession-orchestra/",
      "secao": "legendados,lancamentos",
      "pagina": 4,
      "total_episodios": 0,
      "link_video": "https://animefire.plus/video/princession-orchestra"
    },
    {
      "id": 3037,
      "nome": "Project Scard: Praeter no Kizu",
      "link": "https://animefire.plus/animes/project-scard-praeter-no-kizu-todos-os-episodios",
      "texto_original": "Project Scard: Praeter no Kizu",
      "rating": 5.93,
      "classificacao_etaria": "A14",
      "imagem_original": "https://animefire.plus/img/animes/project-scard-praeter-no-kizu.webp",
      "imagem_pasta": "https://animefire.plus/img/animes/project-scard-praeter-no-kizu/",
      "secao": "legendados,lancamentos",
      "pagina": 48,
      "total_episodios": 3,
      "link_video": "https://animefire.plus/video/project-scard-praeter-no-kizu"
    },
    {
      "id": 3038,
      "nome": "Promare: Galo-hen",
      "link": "https://animefire.plus/animes/promare-galo-hen-todos-os-episodios",
      "texto_original": "Promare: Galo-hen",
      "rating": 6.92,
      "classificacao_etaria": "A14",
      "imagem_original": "https://animefire.plus/img/animes/promare-galo-hen.webp",
      "imagem_pasta": "https://animefire.plus/img/animes/promare-galo-hen/",
      "secao": "legendados",
      "pagina": 90,
      "total_episodios": 0,
      "link_video": "https://animefire.plus/video/promare-galo-hen"
    },
    {
      "id": 3039,
      "nome": "Promare: Lio-hen",
      "link": "https://animefire.plus/animes/promare-lio-hen-todos-os-episodios",
      "texto_original": "Promare: Lio-hen",
      "rating": 7.06,
      "classificacao_etaria": "A14",
      "imagem_original": "https://animefire.plus/img/animes/promare-lio-hen.webp",
      "imagem_pasta": "https://animefire.plus/img/animes/promare-lio-hen/",
      "secao": "legendados",
      "pagina": 90,
      "total_episodios": 0,
      "link_video": "https://animefire.plus/video/promare-lio-hen"
    },
    {
      "id": 3044,
      "nome": "Pugyuru",
      "link": "https://animefire.plus/animes/pugyuru-todos-os-episodios",
      "texto_original": "Pugyuru",
      "rating": 5.79,
      "classificacao_etaria": "A14",
      "imagem_original": "https://animefire.plus/img/animes/pugyuru.webp",
      "imagem_pasta": "https://animefire.plus/img/animes/pugyuru/",
      "secao": "legendados",
      "pagina": 169,
      "total_episodios": 13,
      "link_video": "https://animefire.plus/video/pugyuru"
    },
    {
      "id": 3046,
      "nome": "Punch Line",
      "link": "https://animefire.plus/animes/punch-line-todos-os-episodios",
      "texto_original": "Punch Line",
      "rating": 7.05,
      "classificacao_etaria": "A14",
      "imagem_original": "https://animefire.plus/img/animes/punch-line.webp",
      "imagem_pasta": "https://animefire.plus/img/animes/punch-line/",
      "secao": "legendados",
      "pagina": 64,
      "total_episodios": 12,
      "link_video": "https://animefire.plus/video/punch-line"
    },
    {
      "id": 3048,
      "nome": "Puniru wa Kawaii Slime 2nd Season",
      "link": "https://animefire.plus/animes/puniru-wa-kawaii-slime-2nd-season-todos-os-episodios",
      "texto_original": "Puniru wa Kawaii Slime 2nd Season",
      "rating": 7.03,
      "classificacao_etaria": "A14",
      "imagem_original": "https://animefire.plus/img/animes/puniru-wa-kawaii-slime-2nd-season.webp",
      "imagem_pasta": "https://animefire.plus/img/animes/puniru-wa-kawaii-slime-2nd-season/",
      "secao": "legendados,lancamentos",
      "pagina": 1,
      "total_episodios": 5,
      "link_video": "https://animefire.plus/video/puniru-wa-kawaii-slime-2nd-season"
    },
    {
      "id": 3051,
      "nome": "Puraore! Pride of Orange",
      "link": "https://animefire.plus/animes/puraore-pride-of-orange-todos-os-episodios",
      "texto_original": "Puraore! Pride of Orange",
      "rating": 6.23,
      "classificacao_etaria": "A14",
      "imagem_original": "https://animefire.plus/img/animes/puraore-pride-of-orange.webp",
      "imagem_pasta": "https://animefire.plus/img/animes/puraore-pride-of-orange/",
      "secao": "legendados",
      "pagina": 38,
      "total_episodios": 12,
      "link_video": "https://animefire.plus/video/puraore-pride-of-orange"
    },
    {
      "id": 3052,
      "nome": "Qualidea Code",
      "link": "https://animefire.plus/animes/qualidea-code-todos-os-episodios",
      "texto_original": "Qualidea Code",
      "rating": 6.58,
      "classificacao_etaria": "A14",
      "imagem_original": "https://animefire.plus/img/animes/qualidea-code.webp",
      "imagem_pasta": "https://animefire.plus/img/animes/qualidea-code/",
      "secao": "legendados",
      "pagina": 80,
      "total_episodios": 12,
      "link_video": "https://animefire.plus/video/qualidea-code"
    },
    {
      "id": 3053,
      "nome": "Quanzhi Fashi",
      "link": "https://animefire.plus/animes/quanzhi-fashi-todos-os-episodios",
      "texto_original": "Quanzhi Fashi",
      "rating": 7.47,
      "classificacao_etaria": "A14",
      "imagem_original": "https://animefire.plus/img/animes/quanzhi-fashi.webp",
      "imagem_pasta": "https://animefire.plus/img/animes/quanzhi-fashi/",
      "secao": "legendados",
      "pagina": 104,
      "total_episodios": 42,
      "link_video": "https://animefire.plus/video/quanzhi-fashi"
    },
    {
      "id": 3054,
      "nome": "Quanzhi Fashi 2nd Season",
      "link": "https://animefire.plus/animes/quanzhi-fashi-2nd-season-todos-os-episodios",
      "texto_original": "Quanzhi Fashi 2nd Season",
      "rating": 6.76,
      "classificacao_etaria": "A14",
      "imagem_original": "https://animefire.plus/img/animes/quanzhi-fashi-2nd-season.webp",
      "imagem_pasta": "https://animefire.plus/img/animes/quanzhi-fashi-2nd-season/",
      "secao": "legendados",
      "pagina": 177,
      "total_episodios": 12,
      "link_video": "https://animefire.plus/video/quanzhi-fashi-2nd-season"
    },
    {
      "id": 3055,
      "nome": "Quanzhi Fashi 3rd Season",
      "link": "https://animefire.plus/animes/quanzhi-fashi-3rd-season-todos-os-episodios",
      "texto_original": "Quanzhi Fashi 3rd Season",
      "rating": 7.56,
      "classificacao_etaria": "A14",
      "imagem_original": "https://animefire.plus/img/animes/quanzhi-fashi-3rd-season.webp",
      "imagem_pasta": "https://animefire.plus/img/animes/quanzhi-fashi-3rd-season/",
      "secao": "legendados",
      "pagina": 85,
      "total_episodios": 12,
      "link_video": "https://animefire.plus/video/quanzhi-fashi-3rd-season"
    },
    {
      "id": 3056,
      "nome": "Quanzhi Fashi 4th Season",
      "link": "https://animefire.plus/animes/quanzhi-fashi-4th-season-todos-os-episodios",
      "texto_original": "Quanzhi Fashi 4th Season",
      "rating": 7.34,
      "classificacao_etaria": "A14",
      "imagem_original": "https://animefire.plus/img/animes/quanzhi-fashi-4th-season.webp",
      "imagem_pasta": "https://animefire.plus/img/animes/quanzhi-fashi-4th-season/",
      "secao": "legendados",
      "pagina": 61,
      "total_episodios": 12,
      "link_video": "https://animefire.plus/video/quanzhi-fashi-4th-season"
    },
    {
      "id": 3057,
      "nome": "Quanzhi Gaoshou",
      "link": "https://animefire.plus/animes/quanzhi-gaoshou-todos-os-episodios",
      "texto_original": "Quanzhi Gaoshou",
      "rating": 8.09,
      "classificacao_etaria": "A14",
      "imagem_original": "https://animefire.plus/img/animes/quanzhi-gaoshou.webp",
      "imagem_pasta": "https://animefire.plus/img/animes/quanzhi-gaoshou/",
      "secao": "legendados",
      "pagina": 162,
      "total_episodios": 12,
      "link_video": "https://animefire.plus/video/quanzhi-gaoshou"
    },
    {
      "id": 3058,
      "nome": "Quanzhi Gaoshou 2",
      "link": "https://animefire.plus/animes/quanzhi-gaoshou-2-todos-os-episodios",
      "texto_original": "Quanzhi Gaoshou 2",
      "rating": 8.04,
      "classificacao_etaria": "A14",
      "imagem_original": "https://animefire.plus/img/animes/quanzhi-gaoshou-2.webp",
      "imagem_pasta": "https://animefire.plus/img/animes/quanzhi-gaoshou-2/",
      "secao": "legendados",
      "pagina": 53,
      "total_episodios": 12,
      "link_video": "https://animefire.plus/video/quanzhi-gaoshou-2"
    },
    {
      "id": 3063,
      "nome": "Radiant (Dublado)",
      "link": "https://animefire.plus/animes/radiant-dublado-todos-os-episodios",
      "texto_original": "Radiant (Dublado)",
      "rating": 6.88,
      "classificacao_etaria": "A14",
      "imagem_original": "https://animefire.plus/img/animes/radiant.webp",
      "imagem_pasta": "https://animefire.plus/img/animes/radiant/",
      "secao": "dublados,legendados",
      "pagina": 18,
      "total_episodios": 21,
      "link_video": "https://animefire.plus/video/radiant-dublado"
    },
    {
      "id": 3064,
      "nome": "Radiant 2nd Season",
      "link": "https://animefire.plus/animes/radiant-2nd-season-todos-os-episodios",
      "texto_original": "Radiant 2nd Season",
      "rating": 7.63,
      "classificacao_etaria": "A14",
      "imagem_original": "https://animefire.plus/img/animes/radiant-2nd-season.webp",
      "imagem_pasta": "https://animefire.plus/img/animes/radiant-2nd-season/",
      "secao": "legendados",
      "pagina": 111,
      "total_episodios": 21,
      "link_video": "https://animefire.plus/video/radiant-2nd-season"
    }
  ],
  "pagination": {
    "current_page": 101,
    "per_page": 20,
    "total_items": 2988,
    "total_pages": 150,
    "has_next": true,
    "has_prev": true
  }
}
