{
  "message": "Animes com classificação etária: A14",
  "age_rating": "A14",
  "data": [
    {
      "id": 1531,
      "nome": "Hoshifuru Oukoku no Nina (Dublado)",
      "link": "https://animefire.plus/animes/hoshifuru-oukoku-no-nina-dublado-todos-os-episodios",
      "texto_original": "Hoshifuru Oukoku no Nina (Dublado)",
      "rating": 7.38,
      "classificacao_etaria": "A14",
      "imagem_original": "https://animefire.plus/img/animes/hoshifuru-oukoku-no-nina.webp",
      "imagem_pasta": "https://animefire.plus/img/animes/hoshifuru-oukoku-no-nina/",
      "secao": "dublados,legendados,lancamentos",
      "pagina": 2,
      "total_episodios": 12,
      "link_video": "https://animefire.plus/video/hoshifuru-oukoku-no-nina-dublado"
    },
    {
      "id": 1532,
      "nome": "Hoshikuzu Paradise",
      "link": "https://animefire.plus/animes/hoshikuzu-paradise-todos-os-episodios",
      "texto_original": "Hoshikuzu Paradise",
      "rating": 5.59,
      "classificacao_etaria": "A14",
      "imagem_original": "https://animefire.plus/img/animes/hoshikuzu-paradise.webp",
      "imagem_pasta": "https://animefire.plus/img/animes/hoshikuzu-paradise/",
      "secao": "legendados",
      "pagina": 69,
      "total_episodios": 1,
      "link_video": "https://animefire.plus/video/hoshikuzu-paradise"
    },
    {
      "id": 1533,
      "nome": "Hoshikuzu Telepath",
      "link": "https://animefire.plus/animes/hoshikuzu-telepath-todos-os-episodios",
      "texto_original": "Hoshikuzu Telepath",
      "rating": 7.15,
      "classificacao_etaria": "A14",
      "imagem_original": "https://animefire.plus/img/animes/hoshikuzu-telepath.webp",
      "imagem_pasta": "https://animefire.plus/img/animes/hoshikuzu-telepath/",
      "secao": "legendados",
      "pagina": 19,
      "total_episodios": 12,
      "link_video": "https://animefire.plus/video/hoshikuzu-telepath"
    },
    {
      "id": 1537,
      "nome": "Hotel Inhumans",
      "link": "https://animefire.plus/animes/hotel-inhumans-todos-os-episodios",
      "texto_original": "Hotel Inhumans",
      "rating": 6.54,
      "classificacao_etaria": "A14",
      "imagem_original": "https://animefire.plus/img/animes/hotel-inhumans.webp",
      "imagem_pasta": "https://animefire.plus/img/animes/hotel-inhumans/",
      "secao": "legendados,lancamentos",
      "pagina": 1,
      "total_episodios": 5,
      "link_video": "https://animefire.plus/video/hotel-inhumans"
    },
    {
      "id": 1539,
      "nome": "Houkago Saikoro Club",
      "link": "https://animefire.plus/animes/houkago-saikoro-club-todos-os-episodios",
      "texto_original": "Houkago Saikoro Club",
      "rating": 6.72,
      "classificacao_etaria": "A14",
      "imagem_original": "https://animefire.plus/img/animes/houkago-saikoro-club.webp",
      "imagem_pasta": "https://animefire.plus/img/animes/houkago-saikoro-club/",
      "secao": "legendados",
      "pagina": 111,
      "total_episodios": 0,
      "link_video": "https://animefire.plus/video/houkago-saikoro-club"
    },
    {
      "id": 1540,
      "nome": "Houkago Shounen Hanako-kun",
      "link": "https://animefire.plus/animes/houkago-shounen-hanako-kun-todos-os-episodios",
      "texto_original": "Houkago Shounen Hanako-kun",
      "rating": 7.1,
      "classificacao_etaria": "A14",
      "imagem_original": "https://animefire.plus/img/animes/houkago-shounen-hanako-kun.webp",
      "imagem_pasta": "https://animefire.plus/img/animes/houkago-shounen-hanako-kun/",
      "secao": "legendados",
      "pagina": 19,
      "total_episodios": 4,
      "link_video": "https://animefire.plus/video/houkago-shounen-hanako-kun"
    },
    {
      "id": 1541,
      "nome": "Houkago Shounen Hanako-kun Part 2",
      "link": "https://animefire.plus/animes/houkago-shounen-hanako-kun-part-2-todos-os-episodios",
      "texto_original": "Houkago Shounen Hanako-kun Part 2",
      "rating": 7.09,
      "classificacao_etaria": "A14",
      "imagem_original": "https://animefire.plus/img/animes/houkago-shounen-hanako-kun-part-2.webp",
      "imagem_pasta": "https://animefire.plus/img/animes/houkago-shounen-hanako-kun-part-2/",
      "secao": "legendados",
      "pagina": 10,
      "total_episodios": 4,
      "link_video": "https://animefire.plus/video/houkago-shounen-hanako-kun-part-2"
    },
    {
      "id": 1542,
      "nome": "Houkago Teibou Nisshi",
      "link": "https://animefire.plus/animes/houkago-teibou-nisshi-todos-os-episodios",
      "texto_original": "Houkago Teibou Nisshi",
      "rating": 7.38,
      "classificacao_etaria": "A14",
      "imagem_original": "https://animefire.plus/img/animes/houkago-teibou-nisshi.webp",
      "imagem_pasta": "https://animefire.plus/img/animes/houkago-teibou-nisshi/",
      "secao": "legendados",
      "pagina": 81,
      "total_episodios": 0,
      "link_video": "https://animefire.plus/video/houkago-teibou-nisshi"
    },
    {
      "id": 1543,
      "nome": "Hourou Musuko",
      "link": "https://animefire.plus/animes/hourou-musuko-todos-os-episodios",
      "texto_original": "Hourou Musuko",
      "rating": 7.79,
      "classificacao_etaria": "A14",
      "imagem_original": "https://animefire.plus/img/animes/hourou-musuko.webp",
      "imagem_pasta": "https://animefire.plus/img/animes/hourou-musuko/",
      "secao": "legendados",
      "pagina": 102,
      "total_episodios": 11,
      "link_video": "https://animefire.plus/video/hourou-musuko"
    },
    {
      "id": 1544,
      "nome": "Houseki no Kuni",
      "link": "https://animefire.plus/animes/houseki-no-kuni-todos-os-episodios",
      "texto_original": "Houseki no Kuni",
      "rating": 6.54,
      "classificacao_etaria": "A14",
      "imagem_original": "https://animefire.plus/img/animes/houseki-no-kuni.webp",
      "imagem_pasta": "https://animefire.plus/img/animes/houseki-no-kuni/",
      "secao": "legendados",
      "pagina": 62,
      "total_episodios": 12,
      "link_video": "https://animefire.plus/video/houseki-no-kuni"
    },
    {
      "id": 1545,
      "nome": "Housekishou Richard-shi no Nazo Kantei",
      "link": "https://animefire.plus/animes/housekishou-richard-shi-no-nazo-kantei-todos-os-episodios",
      "texto_original": "Housekishou Richard-shi no Nazo Kantei",
      "rating": 7.16,
      "classificacao_etaria": "A14",
      "imagem_original": "https://animefire.plus/img/animes/housekishou-richard-shi-no-nazo-kantei.webp",
      "imagem_pasta": "https://animefire.plus/img/animes/housekishou-richard-shi-no-nazo-kantei/",
      "secao": "legendados",
      "pagina": 92,
      "total_episodios": 1,
      "link_video": "https://animefire.plus/video/housekishou-richard-shi-no-nazo-kantei"
    },
    {
      "id": 1547,
      "nome": "Human Bug Daigaku",
      "link": "https://animefire.plus/animes/human-bug-daigaku-todos-os-episodios",
      "texto_original": "Human Bug Daigaku",
      "rating": 6.68,
      "classificacao_etaria": "A14",
      "imagem_original": "https://animefire.plus/img/animes/human-bug-daigaku.webp",
      "imagem_pasta": "https://animefire.plus/img/animes/human-bug-daigaku/",
      "secao": "legendados",
      "pagina": 28,
      "total_episodios": 12,
      "link_video": "https://animefire.plus/video/human-bug-daigaku"
    },
    {
      "id": 1548,
      "nome": "Hundred",
      "link": "https://animefire.plus/animes/hundred-todos-os-episodios",
      "texto_original": "Hundred",
      "rating": 6.56,
      "classificacao_etaria": "A14",
      "imagem_original": "https://animefire.plus/img/animes/hundred.webp",
      "imagem_pasta": "https://animefire.plus/img/animes/hundred/",
      "secao": "legendados",
      "pagina": 174,
      "total_episodios": 12,
      "link_video": "https://animefire.plus/video/hundred"
    },
    {
      "id": 1549,
      "nome": "Hunter x Hunter (2011) (Dublado)",
      "link": "https://animefire.plus/animes/hunter-x-hunter-2011-dublado-todos-os-episodios",
      "texto_original": "Hunter x Hunter (2011) (Dublado)",
      "rating": 9.04,
      "classificacao_etaria": "A14",
      "imagem_original": "https://animefire.plus/img/animes/hunter-x-hunter-2011.webp",
      "imagem_pasta": "https://animefire.plus/img/animes/hunter-x-hunter-2011/",
      "secao": "dublados,legendados",
      "pagina": 6,
      "total_episodios": 148,
      "link_video": "https://animefire.plus/video/hunter-x-hunter-2011-dublado"
    },
    {
      "id": 1550,
      "nome": "Hunter x Hunter (Dublado)",
      "link": "https://animefire.plus/animes/hunter-x-hunter-dublado-todos-os-episodios",
      "texto_original": "Hunter x Hunter (Dublado)",
      "rating": 8.43,
      "classificacao_etaria": "A14",
      "imagem_original": "https://animefire.plus/img/animes/hunter-x-hunter.webp",
      "imagem_pasta": "https://animefire.plus/img/animes/hunter-x-hunter/",
      "secao": "dublados",
      "pagina": 22,
      "total_episodios": 92,
      "link_video": "https://animefire.plus/video/hunter-x-hunter-dublado"
    },
    {
      "id": 1551,
      "nome": "Hunter x Hunter Pilot",
      "link": "https://animefire.plus/animes/hunter-x-hunter-pilot-todos-os-episodios",
      "texto_original": "Hunter x Hunter Pilot",
      "rating": 7.22,
      "classificacao_etaria": "A14",
      "imagem_original": "https://animefire.plus/img/animes/hunter-x-hunter-pilot.webp",
      "imagem_pasta": "https://animefire.plus/img/animes/hunter-x-hunter-pilot/",
      "secao": "legendados",
      "pagina": 69,
      "total_episodios": 1,
      "link_video": "https://animefire.plus/video/hunter-x-hunter-pilot"
    },
    {
      "id": 1552,
      "nome": "Hunter x Hunter: Greed Island",
      "link": "https://animefire.plus/animes/hunter-x-hunter-greed-island-todos-os-episodios",
      "texto_original": "Hunter x Hunter: Greed Island",
      "rating": 8.2,
      "classificacao_etaria": "A14",
      "imagem_original": "https://animefire.plus/img/animes/hunter-x-hunter-greed-island.webp",
      "imagem_pasta": "https://animefire.plus/img/animes/hunter-x-hunter-greed-island/",
      "secao": "legendados",
      "pagina": 43,
      "total_episodios": 8,
      "link_video": "https://animefire.plus/video/hunter-x-hunter-greed-island"
    },
    {
      "id": 1553,
      "nome": "Hunter x Hunter: Greed Island Final",
      "link": "https://animefire.plus/animes/hunter-x-hunter-greed-island-final-todos-os-episodios",
      "texto_original": "Hunter x Hunter: Greed Island Final",
      "rating": 8.28,
      "classificacao_etaria": "A14",
      "imagem_original": "https://animefire.plus/img/animes/hunter-x-hunter-greed-island-final.webp",
      "imagem_pasta": "https://animefire.plus/img/animes/hunter-x-hunter-greed-island-final/",
      "secao": "legendados",
      "pagina": 43,
      "total_episodios": 14,
      "link_video": "https://animefire.plus/video/hunter-x-hunter-greed-island-final"
    },
    {
      "id": 1554,
      "nome": "Huyao Xiao Hongniang",
      "link": "https://animefire.plus/animes/huyao-xiao-hongniang-todos-os-episodios",
      "texto_original": "Huyao Xiao Hongniang",
      "rating": 7.28,
      "classificacao_etaria": "A14",
      "imagem_original": "https://animefire.plus/img/animes/huyao-xiao-hongniang.webp",
      "imagem_pasta": "https://animefire.plus/img/animes/huyao-xiao-hongniang/",
      "secao": "legendados",
      "pagina": 85,
      "total_episodios": 13,
      "link_video": "https://animefire.plus/video/huyao-xiao-hongniang"
    },
    {
      "id": 1555,
      "nome": "Huyao Xiao Hongniang: Nan Guo",
      "link": "https://animefire.plus/animes/huyao-xiao-hongniang-nan-guo-todos-os-episodios",
      "texto_original": "Huyao Xiao Hongniang: Nan Guo",
      "rating": 7.61,
      "classificacao_etaria": "A14",
      "imagem_original": "https://animefire.plus/img/animes/huyao-xiao-hongniang-nan-guo.webp",
      "imagem_pasta": "https://animefire.plus/img/animes/huyao-xiao-hongniang-nan-guo/",
      "secao": "legendados",
      "pagina": 132,
      "total_episodios": 26,
      "link_video": "https://animefire.plus/video/huyao-xiao-hongniang-nan-guo"
    }
  ],
  "pagination": {
    "current_page": 50,
    "per_page": 20,
    "total_items": 2988,
    "total_pages": 150,
    "has_next": true,
    "has_prev": true
  }
}
