{
  "message": "Animes com classificação etária: A14",
  "age_rating": "A14",
  "data": [
    {
      "id": 2383,
      "nome": "Major S3",
      "link": "https://animefire.plus/animes/major-s3-todos-os-episodios",
      "texto_original": "Major S3",
      "rating": 8.34,
      "classificacao_etaria": "A14",
      "imagem_original": "https://animefire.plus/img/animes/major-s3.webp",
      "imagem_pasta": "https://animefire.plus/img/animes/major-s3/",
      "secao": "legendados",
      "pagina": 155,
      "total_episodios": 26,
      "link_video": "https://animefire.plus/video/major-s3"
    },
    {
      "id": 2384,
      "nome": "Major S4",
      "link": "https://animefire.plus/animes/major-s4-todos-os-episodios",
      "texto_original": "Major S4",
      "rating": 8.3,
      "classificacao_etaria": "A14",
      "imagem_original": "https://animefire.plus/img/animes/major-s4.webp",
      "imagem_pasta": "https://animefire.plus/img/animes/major-s4/",
      "secao": "legendados",
      "pagina": 129,
      "total_episodios": 26,
      "link_video": "https://animefire.plus/video/major-s4"
    },
    {
      "id": 2385,
      "nome": "Major S5",
      "link": "https://animefire.plus/animes/major-s5-todos-os-episodios",
      "texto_original": "Major S5",
      "rating": 8.48,
      "classificacao_etaria": "A14",
      "imagem_original": "https://animefire.plus/img/animes/major-s5.webp",
      "imagem_pasta": "https://animefire.plus/img/animes/major-s5/",
      "secao": "legendados",
      "pagina": 125,
      "total_episodios": 25,
      "link_video": "https://animefire.plus/video/major-s5"
    },
    {
      "id": 2386,
      "nome": "Major S6",
      "link": "https://animefire.plus/animes/major-s6-todos-os-episodios",
      "texto_original": "Major S6",
      "rating": 8.4,
      "classificacao_etaria": "A14",
      "imagem_original": "https://animefire.plus/img/animes/major-s6.webp",
      "imagem_pasta": "https://animefire.plus/img/animes/major-s6/",
      "secao": "legendados",
      "pagina": 118,
      "total_episodios": 25,
      "link_video": "https://animefire.plus/video/major-s6"
    },
    {
      "id": 2387,
      "nome": "Major: Message",
      "link": "https://animefire.plus/animes/major-message-todos-os-episodios",
      "texto_original": "Major: Message",
      "rating": 8.25,
      "classificacao_etaria": "A14",
      "imagem_original": "https://animefire.plus/img/animes/major-message.webp",
      "imagem_pasta": "https://animefire.plus/img/animes/major-message/",
      "secao": "legendados",
      "pagina": 73,
      "total_episodios": 1,
      "link_video": "https://animefire.plus/video/major-message"
    },
    {
      "id": 2388,
      "nome": "Major: World Series",
      "link": "https://animefire.plus/animes/major-world-series-todos-os-episodios",
      "texto_original": "Major: World Series",
      "rating": 8.38,
      "classificacao_etaria": "A14",
      "imagem_original": "https://animefire.plus/img/animes/major-world-series.webp",
      "imagem_pasta": "https://animefire.plus/img/animes/major-world-series/",
      "secao": "legendados",
      "pagina": 73,
      "total_episodios": 2,
      "link_video": "https://animefire.plus/video/major-world-series"
    },
    {
      "id": 2389,
      "nome": "Majutsushi Orphen",
      "link": "https://animefire.plus/animes/majutsushi-orphen-todos-os-episodios",
      "texto_original": "Majutsushi Orphen",
      "rating": 7.26,
      "classificacao_etaria": "A14",
      "imagem_original": "https://animefire.plus/img/animes/majutsushi-orphen.webp",
      "imagem_pasta": "https://animefire.plus/img/animes/majutsushi-orphen/",
      "secao": "legendados",
      "pagina": 152,
      "total_episodios": 24,
      "link_video": "https://animefire.plus/video/majutsushi-orphen"
    },
    {
      "id": 2390,
      "nome": "Majutsushi Orphen Hagure Tabi",
      "link": "https://animefire.plus/animes/majutsushi-orphen-hagure-tabi-todos-os-episodios",
      "texto_original": "Majutsushi Orphen Hagure Tabi",
      "rating": 5.78,
      "classificacao_etaria": "A14",
      "imagem_original": "https://animefire.plus/img/animes/majutsushi-orphen-hagure-tabi.webp",
      "imagem_pasta": "https://animefire.plus/img/animes/majutsushi-orphen-hagure-tabi/",
      "secao": "legendados,lancamentos",
      "pagina": 93,
      "total_episodios": 0,
      "link_video": "https://animefire.plus/video/majutsushi-orphen-hagure-tabi"
    },
    {
      "id": 2391,
      "nome": "Majutsushi Orphen Hagure Tabi: Kimluck-hen",
      "link": "https://animefire.plus/animes/majutsushi-orphen-hagure-tabi-kimluck-hen-todos-os-episodios",
      "texto_original": "Majutsushi Orphen Hagure Tabi: Kimluck-hen",
      "rating": 6.2,
      "classificacao_etaria": "A14",
      "imagem_original": "https://animefire.plus/img/animes/majutsushi-orphen-hagure-tabi-kimluck-hen.webp",
      "imagem_pasta": "https://animefire.plus/img/animes/majutsushi-orphen-hagure-tabi-kimluck-hen/",
      "secao": "legendados",
      "pagina": 49,
      "total_episodios": 11,
      "link_video": "https://animefire.plus/video/majutsushi-orphen-hagure-tabi-kimluck-hen"
    },
    {
      "id": 2392,
      "nome": "Majutsushi Orphen Hagure Tabi: Tennin no Isan",
      "link": "https://animefire.plus/animes/majutsushi-orphen-hagure-tabi-tennin-no-isan-todos-os-episodios",
      "texto_original": "Majutsushi Orphen Hagure Tabi: Tennin no Isan",
      "rating": 6.11,
      "classificacao_etaria": "A14",
      "imagem_original": "https://animefire.plus/img/animes/majutsushi-orphen-hagure-tabi-tennin-no-isan.webp",
      "imagem_pasta": "https://animefire.plus/img/animes/majutsushi-orphen-hagure-tabi-tennin-no-isan/",
      "secao": "legendados",
      "pagina": 81,
      "total_episodios": 0,
      "link_video": "https://animefire.plus/video/majutsushi-orphen-hagure-tabi-tennin-no-isan"
    },
    {
      "id": 2393,
      "nome": "Majutsushi Orphen Hagure Tabi: Urbanrama-hen",
      "link": "https://animefire.plus/animes/majutsushi-orphen-hagure-tabi-urbanrama-hen-todos-os-episodios",
      "texto_original": "Majutsushi Orphen Hagure Tabi: Urbanrama-hen",
      "rating": 6.15,
      "classificacao_etaria": "A14",
      "imagem_original": "https://animefire.plus/img/animes/majutsushi-orphen-hagure-tabi-urbanrama-hen.webp",
      "imagem_pasta": "https://animefire.plus/img/animes/majutsushi-orphen-hagure-tabi-urbanrama-hen/",
      "secao": "legendados,lancamentos",
      "pagina": 25,
      "total_episodios": 4,
      "link_video": "https://animefire.plus/video/majutsushi-orphen-hagure-tabi-urbanrama-hen"
    },
    {
      "id": 2394,
      "nome": "Makai Ouji: Devils And Realist",
      "link": "https://animefire.plus/animes/makai-ouji-devils-and-realist-todos-os-episodios",
      "texto_original": "Makai Ouji: Devils And Realist",
      "rating": 7.11,
      "classificacao_etaria": "A14",
      "imagem_original": "https://animefire.plus/img/animes/makai-ouji-devils-and-realist.webp",
      "imagem_pasta": "https://animefire.plus/img/animes/makai-ouji-devils-and-realist/",
      "secao": "legendados",
      "pagina": 80,
      "total_episodios": 12,
      "link_video": "https://animefire.plus/video/makai-ouji-devils-and-realist"
    },
    {
      "id": 2395,
      "nome": "Makai Senki Disgaea",
      "link": "https://animefire.plus/animes/makai-senki-disgaea-todos-os-episodios",
      "texto_original": "Makai Senki Disgaea",
      "rating": 6.82,
      "classificacao_etaria": "A14",
      "imagem_original": "https://animefire.plus/img/animes/makai-senki-disgaea.webp",
      "imagem_pasta": "https://animefire.plus/img/animes/makai-senki-disgaea/",
      "secao": "legendados",
      "pagina": 143,
      "total_episodios": 12,
      "link_video": "https://animefire.plus/video/makai-senki-disgaea"
    },
    {
      "id": 2396,
      "nome": "Make Heroine ga Oosugiru!",
      "link": "https://animefire.plus/animes/make-heroine-ga-oosugiru-todos-os-episodios",
      "texto_original": "Make Heroine ga Oosugiru!",
      "rating": 8.11,
      "classificacao_etaria": "A14",
      "imagem_original": "https://animefire.plus/img/animes/make-heroine-ga-oosugiru.webp",
      "imagem_pasta": "https://animefire.plus/img/animes/make-heroine-ga-oosugiru/",
      "secao": "legendados",
      "pagina": 13,
      "total_episodios": 12,
      "link_video": "https://animefire.plus/video/make-heroine-ga-oosugiru"
    },
    {
      "id": 2400,
      "nome": "Makura no Danshi",
      "link": "https://animefire.plus/animes/makura-no-danshi-todos-os-episodios",
      "texto_original": "Makura no Danshi",
      "rating": 4.69,
      "classificacao_etaria": "A14",
      "imagem_original": "https://animefire.plus/img/animes/makura-no-danshi.webp",
      "imagem_pasta": "https://animefire.plus/img/animes/makura-no-danshi/",
      "secao": "legendados",
      "pagina": 135,
      "total_episodios": 12,
      "link_video": "https://animefire.plus/video/makura-no-danshi"
    },
    {
      "id": 2401,
      "nome": "Mamahaha no Tsurego ga Motokano datta",
      "link": "https://animefire.plus/animes/mamahaha-no-tsurego-ga-motokano-datta-todos-os-episodios",
      "texto_original": "Mamahaha no Tsurego ga Motokano datta",
      "rating": 6.73,
      "classificacao_etaria": "A14",
      "imagem_original": "https://animefire.plus/img/animes/mamahaha-no-tsurego-ga-motokano-datta.webp",
      "imagem_pasta": "https://animefire.plus/img/animes/mamahaha-no-tsurego-ga-motokano-datta/",
      "secao": "legendados",
      "pagina": 32,
      "total_episodios": 12,
      "link_video": "https://animefire.plus/video/mamahaha-no-tsurego-ga-motokano-datta"
    },
    {
      "id": 2402,
      "nome": "Mamoru-kun ni Megami no Shukufuku wo!",
      "link": "https://animefire.plus/animes/mamoru-kun-ni-megami-no-shukufuku-wo-todos-os-episodios",
      "texto_original": "Mamoru-kun ni Megami no Shukufuku wo!",
      "rating": 7.14,
      "classificacao_etaria": "A14",
      "imagem_original": "https://animefire.plus/img/animes/mamoru-kun-ni-megami-no-shukufuku-wo.webp",
      "imagem_pasta": "https://animefire.plus/img/animes/mamoru-kun-ni-megami-no-shukufuku-wo/",
      "secao": "legendados",
      "pagina": 153,
      "total_episodios": 24,
      "link_video": "https://animefire.plus/video/mamoru-kun-ni-megami-no-shukufuku-wo"
    },
    {
      "id": 2403,
      "nome": "Mamotte! Lollipop",
      "link": "https://animefire.plus/animes/mamotte-lollipop-todos-os-episodios",
      "texto_original": "Mamotte! Lollipop",
      "rating": 6.86,
      "classificacao_etaria": "A14",
      "imagem_original": "https://animefire.plus/img/animes/mamotte-lollipop.webp",
      "imagem_pasta": "https://animefire.plus/img/animes/mamotte-lollipop/",
      "secao": "legendados",
      "pagina": 99,
      "total_episodios": 5,
      "link_video": "https://animefire.plus/video/mamotte-lollipop"
    },
    {
      "id": 2404,
      "nome": "Manaria Friends",
      "link": "https://animefire.plus/animes/manaria-friends-todos-os-episodios",
      "texto_original": "Manaria Friends",
      "rating": 6.63,
      "classificacao_etaria": "A14",
      "imagem_original": "https://animefire.plus/img/animes/manaria-friends.webp",
      "imagem_pasta": "https://animefire.plus/img/animes/manaria-friends/",
      "secao": "legendados",
      "pagina": 108,
      "total_episodios": 10,
      "link_video": "https://animefire.plus/video/manaria-friends"
    },
    {
      "id": 2405,
      "nome": "Mangaka-san to Assistant-san to The Animation",
      "link": "https://animefire.plus/animes/mangaka-san-to-assistant-san-to-the-animation-todos-os-episodios",
      "texto_original": "Mangaka-san to Assistant-san to The Animation",
      "rating": 7.25,
      "classificacao_etaria": "A14",
      "imagem_original": "https://animefire.plus/img/animes/mangaka-san-to-assistant-san-to-the-animation.webp",
      "imagem_pasta": "https://animefire.plus/img/animes/mangaka-san-to-assistant-san-to-the-animation/",
      "secao": "legendados",
      "pagina": 79,
      "total_episodios": 12,
      "link_video": "https://animefire.plus/video/mangaka-san-to-assistant-san-to-the-animation"
    }
  ],
  "pagination": {
    "current_page": 79,
    "per_page": 20,
    "total_items": 2988,
    "total_pages": 150,
    "has_next": true,
    "has_prev": true
  }
}
