{
  "message": "Animes com classificação etária: A14",
  "age_rating": "A14",
  "data": [
    {
      "id": 3454,
      "nome": "Shinigami Bocchan to Kuro Maid 2nd Season (Dublado)",
      "link": "https://animefire.plus/animes/shinigami-bocchan-to-kuro-maid-2nd-season-dublado-todos-os-episodios",
      "texto_original": "Shinigami Bocchan to Kuro Maid 2nd Season (Dublado)",
      "rating": 7.62,
      "classificacao_etaria": "A14",
      "imagem_original": "https://animefire.plus/img/animes/shinigami-bocchan-to-kuro-maid-2nd-season.webp",
      "imagem_pasta": "https://animefire.plus/img/animes/shinigami-bocchan-to-kuro-maid-2nd-season/",
      "secao": "dublados,legendados",
      "pagina": 4,
      "total_episodios": 12,
      "link_video": "https://animefire.plus/video/shinigami-bocchan-to-kuro-maid-2nd-season-dublado"
    },
    {
      "id": 3455,
      "nome": "Shinigami Bocchan to Kuro Maid 3rd Season",
      "link": "https://animefire.plus/animes/shinigami-bocchan-to-kuro-maid-3rd-season-todos-os-episodios",
      "texto_original": "Shinigami Bocchan to Kuro Maid 3rd Season",
      "rating": 8.13,
      "classificacao_etaria": "A14",
      "imagem_original": "https://animefire.plus/img/animes/shinigami-bocchan-to-kuro-maid-3rd-season.webp",
      "imagem_pasta": "https://animefire.plus/img/animes/shinigami-bocchan-to-kuro-maid-3rd-season/",
      "secao": "legendados",
      "pagina": 15,
      "total_episodios": 12,
      "link_video": "https://animefire.plus/video/shinigami-bocchan-to-kuro-maid-3rd-season"
    },
    {
      "id": 3456,
      "nome": "Shinigami no Ballad.",
      "link": "https://animefire.plus/animes/shinigami-no-ballad-todos-os-episodios",
      "texto_original": "Shinigami no Ballad.",
      "rating": 6.98,
      "classificacao_etaria": "A14",
      "imagem_original": "https://animefire.plus/img/animes/shinigami-no-ballad.webp",
      "imagem_pasta": "https://animefire.plus/img/animes/shinigami-no-ballad/",
      "secao": "legendados",
      "pagina": 171,
      "total_episodios": 6,
      "link_video": "https://animefire.plus/video/shinigami-no-ballad"
    },
    {
      "id": 3457,
      "nome": "Shining Hearts: Shiawase No Pan",
      "link": "https://animefire.plus/animes/shining-hearts-shiawase-no-pan-todos-os-episodios",
      "texto_original": "Shining Hearts: Shiawase No Pan",
      "rating": 6.18,
      "classificacao_etaria": "A14",
      "imagem_original": "https://animefire.plus/img/animes/shining-hearts-shiawase-no-pan.webp",
      "imagem_pasta": "https://animefire.plus/img/animes/shining-hearts-shiawase-no-pan/",
      "secao": "legendados",
      "pagina": 105,
      "total_episodios": 0,
      "link_video": "https://animefire.plus/video/shining-hearts-shiawase-no-pan"
    },
    {
      "id": 3458,
      "nome": "Shining Tears X Wind",
      "link": "https://animefire.plus/animes/shining-tears-x-wind-todos-os-episodios",
      "texto_original": "Shining Tears X Wind",
      "rating": 6.59,
      "classificacao_etaria": "A14",
      "imagem_original": "https://animefire.plus/img/animes/shining-tears-x-wind.webp",
      "imagem_pasta": "https://animefire.plus/img/animes/shining-tears-x-wind/",
      "secao": "legendados",
      "pagina": 132,
      "total_episodios": 13,
      "link_video": "https://animefire.plus/video/shining-tears-x-wind"
    },
    {
      "id": 3459,
      "nome": "Shinka no Mi: Shiranai Uchi ni Kachigumi Jinsei (Dublado)",
      "link": "https://animefire.plus/animes/shinka-no-mi-shiranai-uchi-ni-kachigumi-jinsei-dublado-todos-os-episodios",
      "texto_original": "Shinka no Mi: Shiranai Uchi ni Kachigumi Jinsei (Dublado)",
      "rating": 6.17,
      "classificacao_etaria": "A14",
      "imagem_original": "https://animefire.plus/img/animes/shinka-no-mi-shiranai-uchi-ni-kachigumi-jinsei.webp",
      "imagem_pasta": "https://animefire.plus/img/animes/shinka-no-mi-shiranai-uchi-ni-kachigumi-jinsei/",
      "secao": "dublados,legendados",
      "pagina": 14,
      "total_episodios": 12,
      "link_video": "https://animefire.plus/video/shinka-no-mi-shiranai-uchi-ni-kachigumi-jinsei-dublado"
    },
    {
      "id": 3460,
      "nome": "Shinkon Gattai Godannar!!",
      "link": "https://animefire.plus/animes/shinkon-gattai-godannar-todos-os-episodios",
      "texto_original": "Shinkon Gattai Godannar!!",
      "rating": 6.77,
      "classificacao_etaria": "A14",
      "imagem_original": "https://animefire.plus/img/animes/shinkon-gattai-godannar.webp",
      "imagem_pasta": "https://animefire.plus/img/animes/shinkon-gattai-godannar/",
      "secao": "legendados",
      "pagina": 132,
      "total_episodios": 13,
      "link_video": "https://animefire.plus/video/shinkon-gattai-godannar"
    },
    {
      "id": 3461,
      "nome": "Shinkon Gattai Godannar!! 2nd Season",
      "link": "https://animefire.plus/animes/shinkon-gattai-godannar-2nd-season-todos-os-episodios",
      "texto_original": "Shinkon Gattai Godannar!! 2nd Season",
      "rating": 7,
      "classificacao_etaria": "A14",
      "imagem_original": "https://animefire.plus/img/animes/shinkon-gattai-godannar-2nd-season.webp",
      "imagem_pasta": "https://animefire.plus/img/animes/shinkon-gattai-godannar-2nd-season/",
      "secao": "legendados",
      "pagina": 69,
      "total_episodios": 13,
      "link_video": "https://animefire.plus/video/shinkon-gattai-godannar-2nd-season"
    },
    {
      "id": 3462,
      "nome": "Shinkyoku Soukai Polyphonica",
      "link": "https://animefire.plus/animes/shinkyoku-soukai-polyphonica-todos-os-episodios",
      "texto_original": "Shinkyoku Soukai Polyphonica",
      "rating": 6.9,
      "classificacao_etaria": "A14",
      "imagem_original": "https://animefire.plus/img/animes/shinkyoku-soukai-polyphonica.webp",
      "imagem_pasta": "https://animefire.plus/img/animes/shinkyoku-soukai-polyphonica/",
      "secao": "legendados",
      "pagina": 150,
      "total_episodios": 12,
      "link_video": "https://animefire.plus/video/shinkyoku-soukai-polyphonica"
    },
    {
      "id": 3463,
      "nome": "Shinkyoku Soukai Polyphonica Crimson S",
      "link": "https://animefire.plus/animes/shinkyoku-soukai-polyphonica-crimson-s-todos-os-episodios",
      "texto_original": "Shinkyoku Soukai Polyphonica Crimson S",
      "rating": 7.25,
      "classificacao_etaria": "A14",
      "imagem_original": "https://animefire.plus/img/animes/shinkyoku-soukai-polyphonica-crimson-s.webp",
      "imagem_pasta": "https://animefire.plus/img/animes/shinkyoku-soukai-polyphonica-crimson-s/",
      "secao": "legendados",
      "pagina": 137,
      "total_episodios": 0,
      "link_video": "https://animefire.plus/video/shinkyoku-soukai-polyphonica-crimson-s"
    },
    {
      "id": 3467,
      "nome": "Shinmai Ossan Boukensha, Saikyou Party ni Shinu hodo Kitaerarete Muteki ni Naru.",
      "link": "https://animefire.plus/animes/shinmai-ossan-boukensha-saikyou-party-ni-shinu-hodo-kitaerarete-muteki-ni-naru-todos-os-episodios",
      "texto_original": "Shinmai Ossan Boukensha, Saikyou Party ni Shinu hodo Kitaerarete Muteki ni Naru.",
      "rating": 7.37,
      "classificacao_etaria": "A14",
      "imagem_original": "https://animefire.plus/img/animes/shinmai-ossan-boukensha-saikyou-party-ni-shinu-hodo-kitaerarete-muteki-ni-naru.webp",
      "imagem_pasta": "https://animefire.plus/img/animes/shinmai-ossan-boukensha-saikyou-party-ni-shinu-hodo-kitaerarete-muteki-ni-naru/",
      "secao": "legendados",
      "pagina": 12,
      "total_episodios": 12,
      "link_video": "https://animefire.plus/video/shinmai-ossan-boukensha-saikyou-party-ni-shinu-hodo-kitaerarete-muteki-ni-naru"
    },
    {
      "id": 3468,
      "nome": "Shinmai Renkinjutsushi no Tenpo Keiei",
      "link": "https://animefire.plus/animes/shinmai-renkinjutsushi-no-tenpo-keiei-todos-os-episodios",
      "texto_original": "Shinmai Renkinjutsushi no Tenpo Keiei",
      "rating": 6.62,
      "classificacao_etaria": "A14",
      "imagem_original": "https://animefire.plus/img/animes/shinmai-renkinjutsushi-no-tenpo-keiei.webp",
      "imagem_pasta": "https://animefire.plus/img/animes/shinmai-renkinjutsushi-no-tenpo-keiei/",
      "secao": "legendados",
      "pagina": 29,
      "total_episodios": 12,
      "link_video": "https://animefire.plus/video/shinmai-renkinjutsushi-no-tenpo-keiei"
    },
    {
      "id": 3469,
      "nome": "Shinobi no Ittoki (Dublado)",
      "link": "https://animefire.plus/animes/shinobi-no-ittoki-dublado-todos-os-episodios",
      "texto_original": "Shinobi no Ittoki (Dublado)",
      "rating": 6.06,
      "classificacao_etaria": "A14",
      "imagem_original": "https://animefire.plus/img/animes/shinobi-no-ittoki.webp",
      "imagem_pasta": "https://animefire.plus/img/animes/shinobi-no-ittoki/",
      "secao": "dublados,legendados",
      "pagina": 9,
      "total_episodios": 12,
      "link_video": "https://animefire.plus/video/shinobi-no-ittoki-dublado"
    },
    {
      "id": 3470,
      "nome": "Shinrei Tantei Yakumo",
      "link": "https://animefire.plus/animes/shinrei-tantei-yakumo-todos-os-episodios",
      "texto_original": "Shinrei Tantei Yakumo",
      "rating": 7.41,
      "classificacao_etaria": "A14",
      "imagem_original": "https://animefire.plus/img/animes/shinrei-tantei-yakumo.webp",
      "imagem_pasta": "https://animefire.plus/img/animes/shinrei-tantei-yakumo/",
      "secao": "legendados",
      "pagina": 129,
      "total_episodios": 13,
      "link_video": "https://animefire.plus/video/shinrei-tantei-yakumo"
    },
    {
      "id": 3471,
      "nome": "Shinreigari (Dublado)",
      "link": "https://animefire.plus/animes/shinreigari-dublado-todos-os-episodios",
      "texto_original": "Shinreigari (Dublado)",
      "rating": 7.47,
      "classificacao_etaria": "A14",
      "imagem_original": "https://animefire.plus/img/animes/shinreigari.webp",
      "imagem_pasta": "https://animefire.plus/img/animes/shinreigari/",
      "secao": "dublados,legendados",
      "pagina": 20,
      "total_episodios": 22,
      "link_video": "https://animefire.plus/video/shinreigari-dublado"
    },
    {
      "id": 3472,
      "nome": "Shinryaku! Ika Musume (Dublado)",
      "link": "https://animefire.plus/animes/shinryaku-ika-musume-dublado-todos-os-episodios",
      "texto_original": "Shinryaku! Ika Musume (Dublado)",
      "rating": 7.41,
      "classificacao_etaria": "A14",
      "imagem_original": "https://animefire.plus/img/animes/shinryaku-ika-musume.webp",
      "imagem_pasta": "https://animefire.plus/img/animes/shinryaku-ika-musume/",
      "secao": "dublados,legendados",
      "pagina": 5,
      "total_episodios": 12,
      "link_video": "https://animefire.plus/video/shinryaku-ika-musume-dublado"
    },
    {
      "id": 3473,
      "nome": "Shinryaku!? Ika Musume (Dublado)",
      "link": "https://animefire.plus/animes/the-invader-comes-from-the-bottom-of-the-sea-dublado-todos-os-episodios",
      "texto_original": "Shinryaku!? Ika Musume (Dublado)",
      "rating": 7.47,
      "classificacao_etaria": "A14",
      "imagem_original": "https://animefire.plus/img/animes/the-invader-comes-from-the-bottom-of-the-sea.webp",
      "imagem_pasta": "https://animefire.plus/img/animes/the-invader-comes-from-the-bottom-of-the-sea/",
      "secao": "dublados",
      "pagina": 4,
      "total_episodios": 12,
      "link_video": "https://animefire.plus/video/the-invader-comes-from-the-bottom-of-the-sea-dublado"
    },
    {
      "id": 3476,
      "nome": "Shion no Ou",
      "link": "https://animefire.plus/animes/shion-no-ou-todos-os-episodios",
      "texto_original": "Shion no Ou",
      "rating": 7.61,
      "classificacao_etaria": "A14",
      "imagem_original": "https://animefire.plus/img/animes/shion-no-ou.webp",
      "imagem_pasta": "https://animefire.plus/img/animes/shion-no-ou/",
      "secao": "legendados",
      "pagina": 128,
      "total_episodios": 22,
      "link_video": "https://animefire.plus/video/shion-no-ou"
    },
    {
      "id": 3477,
      "nome": "Shiro Seijo to Kuro Bokushi",
      "link": "https://animefire.plus/animes/shiro-seijo-to-kuro-bokushi-todos-os-episodios",
      "texto_original": "Shiro Seijo to Kuro Bokushi",
      "rating": 7.37,
      "classificacao_etaria": "A14",
      "imagem_original": "https://animefire.plus/img/animes/shiro-seijo-to-kuro-bokushi.webp",
      "imagem_pasta": "https://animefire.plus/img/animes/shiro-seijo-to-kuro-bokushi/",
      "secao": "legendados",
      "pagina": 22,
      "total_episodios": 12,
      "link_video": "https://animefire.plus/video/shiro-seijo-to-kuro-bokushi"
    },
    {
      "id": 3478,
      "nome": "Shirobako",
      "link": "https://animefire.plus/animes/shirobako-todos-os-episodios",
      "texto_original": "Shirobako",
      "rating": 8.41,
      "classificacao_etaria": "A14",
      "imagem_original": "https://animefire.plus/img/animes/shirobako.webp",
      "imagem_pasta": "https://animefire.plus/img/animes/shirobako/",
      "secao": "legendados",
      "pagina": 97,
      "total_episodios": 21,
      "link_video": "https://animefire.plus/video/shirobako"
    }
  ],
  "pagination": {
    "current_page": 116,
    "per_page": 20,
    "total_items": 2988,
    "total_pages": 150,
    "has_next": true,
    "has_prev": true
  }
}
