{
  "message": "Animes com classificação etária: A14",
  "age_rating": "A14",
  "data": [
    {
      "id": 2224,
      "nome": "Ling Yu",
      "link": "https://animefire.plus/animes/ling-yu-todos-os-episodios",
      "texto_original": "Ling Yu",
      "rating": 6.81,
      "classificacao_etaria": "A14",
      "imagem_original": "https://animefire.plus/img/animes/ling-yu.webp",
      "imagem_pasta": "https://animefire.plus/img/animes/ling-yu/",
      "secao": "legendados",
      "pagina": 114,
      "total_episodios": 10,
      "link_video": "https://animefire.plus/video/ling-yu"
    },
    {
      "id": 2225,
      "nome": "Ling Yu 2nd Season",
      "link": "https://animefire.plus/animes/ling-yu-2nd-season-todos-os-episodios",
      "texto_original": "Ling Yu 2nd Season",
      "rating": 7,
      "classificacao_etaria": "A14",
      "imagem_original": "https://animefire.plus/img/animes/ling-yu-2nd-season.webp",
      "imagem_pasta": "https://animefire.plus/img/animes/ling-yu-2nd-season/",
      "secao": "legendados",
      "pagina": 140,
      "total_episodios": 10,
      "link_video": "https://animefire.plus/video/ling-yu-2nd-season"
    },
    {
      "id": 2226,
      "nome": "Ling Yu: Di San Ji",
      "link": "https://animefire.plus/animes/ling-yu-di-san-ji-todos-os-episodios",
      "texto_original": "Ling Yu: Di San Ji",
      "rating": 6.91,
      "classificacao_etaria": "A14",
      "imagem_original": "https://animefire.plus/img/animes/ling-yu-di-san-ji.webp",
      "imagem_pasta": "https://animefire.plus/img/animes/ling-yu-di-san-ji/",
      "secao": "legendados",
      "pagina": 115,
      "total_episodios": 5,
      "link_video": "https://animefire.plus/video/ling-yu-di-san-ji"
    },
    {
      "id": 2227,
      "nome": "Listeners",
      "link": "https://animefire.plus/animes/listeners-todos-os-episodios",
      "texto_original": "Listeners",
      "rating": 5.38,
      "classificacao_etaria": "A14",
      "imagem_original": "https://animefire.plus/img/animes/listeners.webp",
      "imagem_pasta": "https://animefire.plus/img/animes/listeners/",
      "secao": "legendados",
      "pagina": 60,
      "total_episodios": 8,
      "link_video": "https://animefire.plus/video/listeners"
    },
    {
      "id": 2228,
      "nome": "Litchi DE Hikari Club",
      "link": "https://animefire.plus/animes/litchi-de-hikari-club-todos-os-episodios",
      "texto_original": "Litchi DE Hikari Club",
      "rating": 5.28,
      "classificacao_etaria": "A14",
      "imagem_original": "https://animefire.plus/img/animes/litchi-de-hikari-club.webp",
      "imagem_pasta": "https://animefire.plus/img/animes/litchi-de-hikari-club/",
      "secao": "legendados",
      "pagina": 177,
      "total_episodios": 8,
      "link_video": "https://animefire.plus/video/litchi-de-hikari-club"
    },
    {
      "id": 2229,
      "nome": "Little Busters!",
      "link": "https://animefire.plus/animes/little-busters-todos-os-episodios",
      "texto_original": "Little Busters!",
      "rating": 7.6,
      "classificacao_etaria": "A14",
      "imagem_original": "https://animefire.plus/img/animes/little-busters.webp",
      "imagem_pasta": "https://animefire.plus/img/animes/little-busters/",
      "secao": "legendados",
      "pagina": 116,
      "total_episodios": 0,
      "link_video": "https://animefire.plus/video/little-busters"
    },
    {
      "id": 2230,
      "nome": "Little Busters!: EX",
      "link": "https://animefire.plus/animes/little-busters-ex-todos-os-episodios",
      "texto_original": "Little Busters!: EX",
      "rating": 7.79,
      "classificacao_etaria": "A14",
      "imagem_original": "https://animefire.plus/img/animes/little-busters-ex.webp",
      "imagem_pasta": "https://animefire.plus/img/animes/little-busters-ex/",
      "secao": "legendados",
      "pagina": 75,
      "total_episodios": 9,
      "link_video": "https://animefire.plus/video/little-busters-ex"
    },
    {
      "id": 2231,
      "nome": "Little Busters!: Refrain",
      "link": "https://animefire.plus/animes/little-busters-refrain-todos-os-episodios",
      "texto_original": "Little Busters!: Refrain",
      "rating": 8.3,
      "classificacao_etaria": "A14",
      "imagem_original": "https://animefire.plus/img/animes/little-busters-refrain.webp",
      "imagem_pasta": "https://animefire.plus/img/animes/little-busters-refrain/",
      "secao": "legendados",
      "pagina": 143,
      "total_episodios": 4,
      "link_video": "https://animefire.plus/video/little-busters-refrain"
    },
    {
      "id": 2233,
      "nome": "Lodoss-tou Senki: Eiyuu Kishi Den",
      "link": "https://animefire.plus/animes/lodoss-tou-senki-eiyuu-kishi-den-todos-os-episodios",
      "texto_original": "Lodoss-tou Senki: Eiyuu Kishi Den",
      "rating": 7.21,
      "classificacao_etaria": "A14",
      "imagem_original": "https://animefire.plus/img/animes/lodoss-tou-senki-eiyuu-kishi-den.webp",
      "imagem_pasta": "https://animefire.plus/img/animes/lodoss-tou-senki-eiyuu-kishi-den/",
      "secao": "legendados",
      "pagina": 128,
      "total_episodios": 27,
      "link_video": "https://animefire.plus/video/lodoss-tou-senki-eiyuu-kishi-den"
    },
    {
      "id": 2234,
      "nome": "Log Horizon",
      "link": "https://animefire.plus/animes/log-horizon-todos-os-episodios",
      "texto_original": "Log Horizon",
      "rating": 8.06,
      "classificacao_etaria": "A14",
      "imagem_original": "https://animefire.plus/img/animes/log-horizon.webp",
      "imagem_pasta": "https://animefire.plus/img/animes/log-horizon/",
      "secao": "legendados",
      "pagina": 121,
      "total_episodios": 4,
      "link_video": "https://animefire.plus/video/log-horizon"
    },
    {
      "id": 2235,
      "nome": "Log Horizon 2nd Season",
      "link": "https://animefire.plus/animes/log-horizon-2nd-season-todos-os-episodios",
      "texto_original": "Log Horizon 2nd Season",
      "rating": 7.64,
      "classificacao_etaria": "A14",
      "imagem_original": "https://animefire.plus/img/animes/log-horizon-2nd-season.webp",
      "imagem_pasta": "https://animefire.plus/img/animes/log-horizon-2nd-season/",
      "secao": "legendados",
      "pagina": 81,
      "total_episodios": 25,
      "link_video": "https://animefire.plus/video/log-horizon-2nd-season"
    },
    {
      "id": 2236,
      "nome": "Log Horizon: Entaku Houkai (Dublado)",
      "link": "https://animefire.plus/animes/log-horizon-entaku-houkai-dublado-todos-os-episodios",
      "texto_original": "Log Horizon: Entaku Houkai (Dublado)",
      "rating": 7.07,
      "classificacao_etaria": "A14",
      "imagem_original": "https://animefire.plus/img/animes/log-horizon-entaku-houkai.webp",
      "imagem_pasta": "https://animefire.plus/img/animes/log-horizon-entaku-houkai/",
      "secao": "dublados,legendados",
      "pagina": 13,
      "total_episodios": 12,
      "link_video": "https://animefire.plus/video/log-horizon-entaku-houkai-dublado"
    },
    {
      "id": 2237,
      "nome": "Long Riders!",
      "link": "https://animefire.plus/animes/long-riders-todos-os-episodios",
      "texto_original": "Long Riders!",
      "rating": 6.65,
      "classificacao_etaria": "A14",
      "imagem_original": "https://animefire.plus/img/animes/long-riders.webp",
      "imagem_pasta": "https://animefire.plus/img/animes/long-riders/",
      "secao": "legendados",
      "pagina": 119,
      "total_episodios": 2,
      "link_video": "https://animefire.plus/video/long-riders"
    },
    {
      "id": 2238,
      "nome": "Long Zu",
      "link": "https://animefire.plus/animes/long-zu-todos-os-episodios",
      "texto_original": "Long Zu",
      "rating": 7.27,
      "classificacao_etaria": "A14",
      "imagem_original": "https://animefire.plus/img/animes/long-zu.webp",
      "imagem_pasta": "https://animefire.plus/img/animes/long-zu/",
      "secao": "legendados",
      "pagina": 13,
      "total_episodios": 0,
      "link_video": "https://animefire.plus/video/long-zu"
    },
    {
      "id": 2239,
      "nome": "Loop 7-kaime no Akuyaku Reijou wa, Moto Tekikoku de Jiyuu Kimama na Hanayome Seikatsu wo Mankitsu suru",
      "link": "https://animefire.plus/animes/loop-7-kaime-no-akuyaku-reijou-wa-moto-tekikoku-de-jiyuu-kimama-na-hanayome-seikatsu-wo-mankitsu-suru-todos-os-episodios",
      "texto_original": "Loop 7-kaime no Akuyaku Reijou wa, Moto Tekikoku de Jiyuu Kimama na Hanayome Seikatsu wo Mankitsu suru",
      "rating": 7.52,
      "classificacao_etaria": "A14",
      "imagem_original": "https://animefire.plus/img/animes/loop-7-kaime-no-akuyaku-reijou-wa-moto-tekikoku-de-jiyuu-kimama-na-hanayome-seikatsu-wo-mankitsu-suru.webp",
      "imagem_pasta": "https://animefire.plus/img/animes/loop-7-kaime-no-akuyaku-reijou-wa-moto-tekikoku-de-jiyuu-kimama-na-hanayome-seikatsu-wo-mankitsu-suru/",
      "secao": "legendados",
      "pagina": 16,
      "total_episodios": 12,
      "link_video": "https://animefire.plus/video/loop-7-kaime-no-akuyaku-reijou-wa-moto-tekikoku-de-jiyuu-kimama-na-hanayome-seikatsu-wo-mankitsu-suru"
    },
    {
      "id": 2241,
      "nome": "Lord of Vermilion: Guren no Ou",
      "link": "https://animefire.plus/animes/lord-of-vermilion-guren-no-ou-todos-os-episodios",
      "texto_original": "Lord of Vermilion: Guren no Ou",
      "rating": 5.44,
      "classificacao_etaria": "A14",
      "imagem_original": "https://animefire.plus/img/animes/lord-of-vermilion-guren-no-ou.webp",
      "imagem_pasta": "https://animefire.plus/img/animes/lord-of-vermilion-guren-no-ou/",
      "secao": "legendados",
      "pagina": 177,
      "total_episodios": 12,
      "link_video": "https://animefire.plus/video/lord-of-vermilion-guren-no-ou"
    },
    {
      "id": 2242,
      "nome": "Lost Song (Dublado)",
      "link": "https://animefire.plus/animes/lost-song-dublado-todos-os-episodios",
      "texto_original": "Lost Song (Dublado)",
      "rating": 7.16,
      "classificacao_etaria": "A14",
      "imagem_original": "https://animefire.plus/img/animes/lost-song.webp",
      "imagem_pasta": "https://animefire.plus/img/animes/lost-song/",
      "secao": "dublados,legendados",
      "pagina": 24,
      "total_episodios": 12,
      "link_video": "https://animefire.plus/video/lost-song-dublado"
    },
    {
      "id": 2243,
      "nome": "Lost Universe",
      "link": "https://animefire.plus/animes/lost-universe-todos-os-episodios",
      "texto_original": "Lost Universe",
      "rating": 7.06,
      "classificacao_etaria": "A14",
      "imagem_original": "https://animefire.plus/img/animes/lost-universe.webp",
      "imagem_pasta": "https://animefire.plus/img/animes/lost-universe/",
      "secao": "legendados",
      "pagina": 167,
      "total_episodios": 26,
      "link_video": "https://animefire.plus/video/lost-universe"
    },
    {
      "id": 2246,
      "nome": "Love All Play",
      "link": "https://animefire.plus/animes/love-all-play-todos-os-episodios",
      "texto_original": "Love All Play",
      "rating": 6.54,
      "classificacao_etaria": "A14",
      "imagem_original": "https://animefire.plus/img/animes/love-all-play.webp",
      "imagem_pasta": "https://animefire.plus/img/animes/love-all-play/",
      "secao": "legendados",
      "pagina": 34,
      "total_episodios": 24,
      "link_video": "https://animefire.plus/video/love-all-play"
    },
    {
      "id": 2247,
      "nome": "Love Hina",
      "link": "https://animefire.plus/animes/love-hina-todos-os-episodios",
      "texto_original": "Love Hina",
      "rating": 7.22,
      "classificacao_etaria": "A14",
      "imagem_original": "https://animefire.plus/img/animes/love-hina.webp",
      "imagem_pasta": "https://animefire.plus/img/animes/love-hina/",
      "secao": "legendados",
      "pagina": 150,
      "total_episodios": 24,
      "link_video": "https://animefire.plus/video/love-hina"
    }
  ],
  "pagination": {
    "current_page": 73,
    "per_page": 20,
    "total_items": 2988,
    "total_pages": 150,
    "has_next": true,
    "has_prev": true
  }
}
