{
  "message": "Animes com classificação etária: A14",
  "age_rating": "A14",
  "data": [
    {
      "id": 787,
      "nome": "Delico's Nursery",
      "link": "https://animefire.plus/animes/delico-s-nursery-todos-os-episodios",
      "texto_original": "Delico's Nursery",
      "rating": 6.79,
      "classificacao_etaria": "A14",
      "imagem_original": "https://animefire.plus/img/animes/delico-s-nursery.webp",
      "imagem_pasta": "https://animefire.plus/img/animes/delico-s-nursery/",
      "secao": "legendados",
      "pagina": 11,
      "total_episodios": 13,
      "link_video": "https://animefire.plus/video/delico-s-nursery"
    },
    {
      "id": 788,
      "nome": "Deltora Quest",
      "link": "https://animefire.plus/animes/deltora-quest-todos-os-episodios",
      "texto_original": "Deltora Quest",
      "rating": 7.11,
      "classificacao_etaria": "A14",
      "imagem_original": "https://animefire.plus/img/animes/deltora-quest.webp",
      "imagem_pasta": "https://animefire.plus/img/animes/deltora-quest/",
      "secao": "legendados",
      "pagina": 168,
      "total_episodios": 65,
      "link_video": "https://animefire.plus/video/deltora-quest"
    },
    {
      "id": 789,
      "nome": "Demi-chan wa Kataritai (Dublado)",
      "link": "https://animefire.plus/animes/demi-chan-wa-kataritai-dublado-todos-os-episodios",
      "texto_original": "Demi-chan wa Kataritai (Dublado)",
      "rating": 7.7,
      "classificacao_etaria": "A14",
      "imagem_original": "https://animefire.plus/img/animes/demi-chan-wa-kataritai.webp",
      "imagem_pasta": "https://animefire.plus/img/animes/demi-chan-wa-kataritai/",
      "secao": "dublados,legendados",
      "pagina": 24,
      "total_episodios": 12,
      "link_video": "https://animefire.plus/video/demi-chan-wa-kataritai-dublado"
    },
    {
      "id": 790,
      "nome": "Demi-chan wa Kataritai: Demi-chan no Natsuyasumi (Dublado)",
      "link": "https://animefire.plus/animes/demi-chan-wa-kataritai-demi-chan-no-natsuyasumi-dublado-todos-os-episodios",
      "texto_original": "Demi-chan wa Kataritai: Demi-chan no Natsuyasumi (Dublado)",
      "rating": 7.57,
      "classificacao_etaria": "A14",
      "imagem_original": "https://animefire.plus/img/animes/demi-chan-wa-kataritai-demi-chan-no-natsuyasumi.webp",
      "imagem_pasta": "https://animefire.plus/img/animes/demi-chan-wa-kataritai-demi-chan-no-natsuyasumi/",
      "secao": "dublados",
      "pagina": 24,
      "total_episodios": 1,
      "link_video": "https://animefire.plus/video/demi-chan-wa-kataritai-demi-chan-no-natsuyasumi-dublado"
    },
    {
      "id": 791,
      "nome": "Denki-gai no Honya-san",
      "link": "https://animefire.plus/animes/denki-gai-no-honya-san-todos-os-episodios",
      "texto_original": "Denki-gai no Honya-san",
      "rating": 7.26,
      "classificacao_etaria": "A14",
      "imagem_original": "https://animefire.plus/img/animes/denki-gai-no-honya-san.webp",
      "imagem_pasta": "https://animefire.plus/img/animes/denki-gai-no-honya-san/",
      "secao": "legendados",
      "pagina": 124,
      "total_episodios": 0,
      "link_video": "https://animefire.plus/video/denki-gai-no-honya-san"
    },
    {
      "id": 793,
      "nome": "Denpa Kyoushi",
      "link": "https://animefire.plus/animes/denpa-kyoushi-todos-os-episodios",
      "texto_original": "Denpa Kyoushi",
      "rating": 6.42,
      "classificacao_etaria": "A14",
      "imagem_original": "https://animefire.plus/img/animes/denpa-kyoushi.webp",
      "imagem_pasta": "https://animefire.plus/img/animes/denpa-kyoushi/",
      "secao": "legendados",
      "pagina": 72,
      "total_episodios": 6,
      "link_video": "https://animefire.plus/video/denpa-kyoushi"
    },
    {
      "id": 794,
      "nome": "Denpa Kyoushi (TV)",
      "link": "https://animefire.plus/animes/denpa-kyoushi-tv-todos-os-episodios",
      "texto_original": "Denpa Kyoushi (TV)",
      "rating": 6.96,
      "classificacao_etaria": "A14",
      "imagem_original": "https://animefire.plus/img/animes/denpa-kyoushi-tv.webp",
      "imagem_pasta": "https://animefire.plus/img/animes/denpa-kyoushi-tv/",
      "secao": "legendados",
      "pagina": 94,
      "total_episodios": 6,
      "link_video": "https://animefire.plus/video/denpa-kyoushi-tv"
    },
    {
      "id": 795,
      "nome": "Denpa Onna To Seishun Otoko",
      "link": "https://animefire.plus/animes/denpa-onna-to-seishun-otoko-todos-os-episodios",
      "texto_original": "Denpa Onna To Seishun Otoko",
      "rating": 7.24,
      "classificacao_etaria": "A14",
      "imagem_original": "https://animefire.plus/img/animes/denpa-onna-to-seishun-otoko.webp",
      "imagem_pasta": "https://animefire.plus/img/animes/denpa-onna-to-seishun-otoko/",
      "secao": "legendados",
      "pagina": 105,
      "total_episodios": 12,
      "link_video": "https://animefire.plus/video/denpa-onna-to-seishun-otoko"
    },
    {
      "id": 798,
      "nome": "Detective Conan: Black History",
      "link": "https://animefire.plus/animes/detective-conan-black-history-todos-os-episodios",
      "texto_original": "Detective Conan: Black History",
      "rating": 7.63,
      "classificacao_etaria": "A14",
      "imagem_original": "https://animefire.plus/img/animes/detective-conan-black-history.webp",
      "imagem_pasta": "https://animefire.plus/img/animes/detective-conan-black-history/",
      "secao": "legendados",
      "pagina": 87,
      "total_episodios": 1,
      "link_video": "https://animefire.plus/video/detective-conan-black-history"
    },
    {
      "id": 799,
      "nome": "Detective Conan: The Fugitive Kogorou Mouri",
      "link": "https://animefire.plus/animes/detective-conan-the-fugitive-kogorou-mouri-todos-os-episodios",
      "texto_original": "Detective Conan: The Fugitive Kogorou Mouri",
      "rating": 7,
      "classificacao_etaria": "A14",
      "imagem_original": "https://animefire.plus/img/animes/detective-conan-the-fugitive-kogorou-mouri.webp",
      "imagem_pasta": "https://animefire.plus/img/animes/detective-conan-the-fugitive-kogorou-mouri/",
      "secao": "legendados",
      "pagina": 83,
      "total_episodios": 1,
      "link_video": "https://animefire.plus/video/detective-conan-the-fugitive-kogorou-mouri"
    },
    {
      "id": 809,
      "nome": "Di Wang Gong Lue",
      "link": "https://animefire.plus/animes/di-wang-gong-lue-todos-os-episodios",
      "texto_original": "Di Wang Gong Lue",
      "rating": 6.65,
      "classificacao_etaria": "A14",
      "imagem_original": "https://animefire.plus/img/animes/di-wang-gong-lue.webp",
      "imagem_pasta": "https://animefire.plus/img/animes/di-wang-gong-lue/",
      "secao": "legendados",
      "pagina": 155,
      "total_episodios": 20,
      "link_video": "https://animefire.plus/video/di-wang-gong-lue"
    },
    {
      "id": 812,
      "nome": "Diamond no Ace: Act II",
      "link": "https://animefire.plus/animes/diamond-no-ace-act-ii-todos-os-episodios",
      "texto_original": "Diamond no Ace: Act II",
      "rating": 8.23,
      "classificacao_etaria": "A14",
      "imagem_original": "https://animefire.plus/img/animes/diamond-no-ace-act-ii.webp",
      "imagem_pasta": "https://animefire.plus/img/animes/diamond-no-ace-act-ii/",
      "secao": "legendados",
      "pagina": 164,
      "total_episodios": 0,
      "link_video": "https://animefire.plus/video/diamond-no-ace-act-ii"
    },
    {
      "id": 813,
      "nome": "Diamond no Ace: Second Season OVA",
      "link": "https://animefire.plus/animes/diamond-no-ace-second-season-ova-todos-os-episodios",
      "texto_original": "Diamond no Ace: Second Season OVA",
      "rating": 7.57,
      "classificacao_etaria": "A14",
      "imagem_original": "https://animefire.plus/img/animes/diamond-no-ace-second-season-ova.webp",
      "imagem_pasta": "https://animefire.plus/img/animes/diamond-no-ace-second-season-ova/",
      "secao": "legendados",
      "pagina": 83,
      "total_episodios": 2,
      "link_video": "https://animefire.plus/video/diamond-no-ace-second-season-ova"
    },
    {
      "id": 819,
      "nome": "Digimon Adventure tri. 6: Bokura no Mirai",
      "link": "https://animefire.plus/animes/digimon-adventure-tri-6-bokura-no-mirai-todos-os-episodios",
      "texto_original": "Digimon Adventure tri. 6: Bokura no Mirai",
      "rating": 7.3,
      "classificacao_etaria": "A14",
      "imagem_original": "https://animefire.plus/img/animes/digimon-adventure-tri-6-bokura-no-mirai.webp",
      "imagem_pasta": "https://animefire.plus/img/animes/digimon-adventure-tri-6-bokura-no-mirai/",
      "secao": "legendados",
      "pagina": 148,
      "total_episodios": 5,
      "link_video": "https://animefire.plus/video/digimon-adventure-tri-6-bokura-no-mirai"
    },
    {
      "id": 822,
      "nome": "Digimon Ghost Game",
      "link": "https://animefire.plus/animes/digimon-ghost-game-todos-os-episodios",
      "texto_original": "Digimon Ghost Game",
      "rating": 6.73,
      "classificacao_etaria": "A14",
      "imagem_original": "https://animefire.plus/img/animes/digimon-ghost-game.webp",
      "imagem_pasta": "https://animefire.plus/img/animes/digimon-ghost-game/",
      "secao": "legendados",
      "pagina": 38,
      "total_episodios": 67,
      "link_video": "https://animefire.plus/video/digimon-ghost-game"
    },
    {
      "id": 831,
      "nome": "Dive!!",
      "link": "https://animefire.plus/animes/dive-todos-os-episodios",
      "texto_original": "Dive!!",
      "rating": 6.15,
      "classificacao_etaria": "A14",
      "imagem_original": "https://animefire.plus/img/animes/dive.webp",
      "imagem_pasta": "https://animefire.plus/img/animes/dive/",
      "secao": "legendados",
      "pagina": 138,
      "total_episodios": 12,
      "link_video": "https://animefire.plus/video/dive"
    },
    {
      "id": 833,
      "nome": "Divergence Eve 2: Misaki Chronicles",
      "link": "https://animefire.plus/animes/divergence-eve-2-misaki-chronicles-todos-os-episodios",
      "texto_original": "Divergence Eve 2: Misaki Chronicles",
      "rating": 6.35,
      "classificacao_etaria": "A14",
      "imagem_original": "https://animefire.plus/img/animes/divergence-eve-2-misaki-chronicles.webp",
      "imagem_pasta": "https://animefire.plus/img/animes/divergence-eve-2-misaki-chronicles/",
      "secao": "legendados",
      "pagina": 108,
      "total_episodios": 13,
      "link_video": "https://animefire.plus/video/divergence-eve-2-misaki-chronicles"
    },
    {
      "id": 834,
      "nome": "Divine Gate",
      "link": "https://animefire.plus/animes/divine-gate-todos-os-episodios",
      "texto_original": "Divine Gate",
      "rating": 5.75,
      "classificacao_etaria": "A14",
      "imagem_original": "https://animefire.plus/img/animes/divine-gate.webp",
      "imagem_pasta": "https://animefire.plus/img/animes/divine-gate/",
      "secao": "legendados",
      "pagina": 114,
      "total_episodios": 0,
      "link_video": "https://animefire.plus/video/divine-gate"
    },
    {
      "id": 835,
      "nome": "DNA² (Dublado)",
      "link": "https://animefire.plus/animes/dna-dublado-todos-os-episodios",
      "texto_original": "DNA² (Dublado)",
      "rating": 6.73,
      "classificacao_etaria": "A14",
      "imagem_original": "https://animefire.plus/img/animes/dna.webp",
      "imagem_pasta": "https://animefire.plus/img/animes/dna/",
      "secao": "dublados,legendados",
      "pagina": 25,
      "total_episodios": 12,
      "link_video": "https://animefire.plus/video/dna-dublado"
    },
    {
      "id": 836,
      "nome": "Do It Yourself!!",
      "link": "https://animefire.plus/animes/do-it-yourself-todos-os-episodios",
      "texto_original": "Do It Yourself!!",
      "rating": 7.45,
      "classificacao_etaria": "A14",
      "imagem_original": "https://animefire.plus/img/animes/do-it-yourself.webp",
      "imagem_pasta": "https://animefire.plus/img/animes/do-it-yourself/",
      "secao": "legendados",
      "pagina": 29,
      "total_episodios": 12,
      "link_video": "https://animefire.plus/video/do-it-yourself"
    }
  ],
  "pagination": {
    "current_page": 26,
    "per_page": 20,
    "total_items": 2988,
    "total_pages": 150,
    "has_next": true,
    "has_prev": true
  }
}
