{
  "message": "Animes com classificação etária: A14",
  "age_rating": "A14",
  "data": [
    {
      "id": 4352,
      "nome": "Zetsumetsu Kigu Shoujo: Amazing Twins",
      "link": "https://animefire.plus/animes/zetsumetsu-kigu-shoujo-amazing-twins-todos-os-episodios",
      "texto_original": "Zetsumetsu Kigu Shoujo: Amazing Twins",
      "rating": 6.42,
      "classificacao_etaria": "A14",
      "imagem_original": "https://animefire.plus/img/animes/zetsumetsu-kigu-shoujo-amazing-twins.webp",
      "imagem_pasta": "https://animefire.plus/img/animes/zetsumetsu-kigu-shoujo-amazing-twins/",
      "secao": "legendados",
      "pagina": 114,
      "total_episodios": 2,
      "link_video": "https://animefire.plus/video/zetsumetsu-kigu-shoujo-amazing-twins"
    },
    {
      "id": 4353,
      "nome": "Zettai Bouei Leviathan",
      "link": "https://animefire.plus/animes/zettai-bouei-leviathan-todos-os-episodios",
      "texto_original": "Zettai Bouei Leviathan",
      "rating": 6.36,
      "classificacao_etaria": "A14",
      "imagem_original": "https://animefire.plus/img/animes/zettai-bouei-leviathan.webp",
      "imagem_pasta": "https://animefire.plus/img/animes/zettai-bouei-leviathan/",
      "secao": "legendados",
      "pagina": 113,
      "total_episodios": 13,
      "link_video": "https://animefire.plus/video/zettai-bouei-leviathan"
    },
    {
      "id": 4356,
      "nome": "Zhen Hun Jie",
      "link": "https://animefire.plus/animes/zhen-hun-jie-todos-os-episodios",
      "texto_original": "Zhen Hun Jie",
      "rating": 7.82,
      "classificacao_etaria": "A14",
      "imagem_original": "https://animefire.plus/img/animes/zhen-hun-jie.webp",
      "imagem_pasta": "https://animefire.plus/img/animes/zhen-hun-jie/",
      "secao": "legendados",
      "pagina": 89,
      "total_episodios": 24,
      "link_video": "https://animefire.plus/video/zhen-hun-jie"
    },
    {
      "id": 4358,
      "nome": "Zoku Natsume Yuujinchou",
      "link": "https://animefire.plus/animes/zoku-natsume-yuujinchou-todos-os-episodios",
      "texto_original": "Zoku Natsume Yuujinchou",
      "rating": 8.61,
      "classificacao_etaria": "A14",
      "imagem_original": "https://animefire.plus/img/animes/zoku-natsume-yuujinchou.webp",
      "imagem_pasta": "https://animefire.plus/img/animes/zoku-natsume-yuujinchou/",
      "secao": "legendados",
      "pagina": 130,
      "total_episodios": 13,
      "link_video": "https://animefire.plus/video/zoku-natsume-yuujinchou"
    },
    {
      "id": 4361,
      "nome": "Zoku Touken Ranbu: Hanamaru",
      "link": "https://animefire.plus/animes/zoku-touken-ranbu-hanamaru-todos-os-episodios",
      "texto_original": "Zoku Touken Ranbu: Hanamaru",
      "rating": 7.4,
      "classificacao_etaria": "A14",
      "imagem_original": "https://animefire.plus/img/animes/zoku-touken-ranbu-hanamaru.webp",
      "imagem_pasta": "https://animefire.plus/img/animes/zoku-touken-ranbu-hanamaru/",
      "secao": "legendados",
      "pagina": 102,
      "total_episodios": 12,
      "link_video": "https://animefire.plus/video/zoku-touken-ranbu-hanamaru"
    },
    {
      "id": 4366,
      "nome": "Zone of the Enders: Dolores, I",
      "link": "https://animefire.plus/animes/zone-of-the-enders-dolores-i-todos-os-episodios",
      "texto_original": "Zone of the Enders: Dolores, I",
      "rating": 7.02,
      "classificacao_etaria": "A14",
      "imagem_original": "https://animefire.plus/img/animes/zone-of-the-enders-dolores-i.webp",
      "imagem_pasta": "https://animefire.plus/img/animes/zone-of-the-enders-dolores-i/",
      "secao": "legendados",
      "pagina": 174,
      "total_episodios": 26,
      "link_video": "https://animefire.plus/video/zone-of-the-enders-dolores-i"
    },
    {
      "id": 4367,
      "nome": "Zuoshou Shanglan",
      "link": "https://animefire.plus/animes/zuoshou-shanglan-todos-os-episodios",
      "texto_original": "Zuoshou Shanglan",
      "rating": 7.18,
      "classificacao_etaria": "A14",
      "imagem_original": "https://animefire.plus/img/animes/zuoshou-shanglan.webp",
      "imagem_pasta": "https://animefire.plus/img/animes/zuoshou-shanglan/",
      "secao": "legendados",
      "pagina": 18,
      "total_episodios": 3,
      "link_video": "https://animefire.plus/video/zuoshou-shanglan"
    },
    {
      "id": 4368,
      "nome": "Zutaboro Reijou wa Ane no Moto Konyakusha ni Dekiai sareru",
      "link": "https://animefire.plus/animes/zutaboro-reijou-wa-ane-no-moto-konyakusha-ni-dekiai-sareru-todos-os-episodios",
      "texto_original": "Zutaboro Reijou wa Ane no Moto Konyakusha ni Dekiai sareru",
      "rating": 7.21,
      "classificacao_etaria": "A14",
      "imagem_original": "https://animefire.plus/img/animes/zutaboro-reijou-wa-ane-no-moto-konyakusha-ni-dekiai-sareru.webp",
      "imagem_pasta": "https://animefire.plus/img/animes/zutaboro-reijou-wa-ane-no-moto-konyakusha-ni-dekiai-sareru/",
      "secao": "legendados,lancamentos",
      "pagina": 2,
      "total_episodios": 5,
      "link_video": "https://animefire.plus/video/zutaboro-reijou-wa-ane-no-moto-konyakusha-ni-dekiai-sareru"
    }
  ],
  "pagination": {
    "current_page": 150,
    "per_page": 20,
    "total_items": 2988,
    "total_pages": 150,
    "has_next": false,
    "has_prev": true
  }
}
