{
  "message": "Animes com classificação etária: A14",
  "age_rating": "A14",
  "data": [
    {
      "id": 2947,
      "nome": "Pandora Hearts",
      "link": "https://animefire.plus/animes/pandora-hearts-todos-os-episodios",
      "texto_original": "Pandora Hearts",
      "rating": 7.81,
      "classificacao_etaria": "A14",
      "imagem_original": "https://animefire.plus/img/animes/pandora-hearts.webp",
      "imagem_pasta": "https://animefire.plus/img/animes/pandora-hearts/",
      "secao": "legendados",
      "pagina": 162,
      "total_episodios": 25,
      "link_video": "https://animefire.plus/video/pandora-hearts"
    },
    {
      "id": 2949,
      "nome": "Paniponi Dash!",
      "link": "https://animefire.plus/animes/paniponi-dash-todos-os-episodios",
      "texto_original": "Paniponi Dash!",
      "rating": 7.47,
      "classificacao_etaria": "A14",
      "imagem_original": "https://animefire.plus/img/animes/paniponi-dash.webp",
      "imagem_pasta": "https://animefire.plus/img/animes/paniponi-dash/",
      "secao": "legendados",
      "pagina": 56,
      "total_episodios": 26,
      "link_video": "https://animefire.plus/video/paniponi-dash"
    },
    {
      "id": 2951,
      "nome": "Papa no Iukoto wo Kikinasai!",
      "link": "https://animefire.plus/animes/papa-no-iukoto-wo-kikinasai-todos-os-episodios",
      "texto_original": "Papa no Iukoto wo Kikinasai!",
      "rating": 7.42,
      "classificacao_etaria": "A14",
      "imagem_original": "https://animefire.plus/img/animes/papa-no-iukoto-wo-kikinasai.webp",
      "imagem_pasta": "https://animefire.plus/img/animes/papa-no-iukoto-wo-kikinasai/",
      "secao": "legendados",
      "pagina": 132,
      "total_episodios": 3,
      "link_video": "https://animefire.plus/video/papa-no-iukoto-wo-kikinasai"
    },
    {
      "id": 2953,
      "nome": "Paradox Live the Animation",
      "link": "https://animefire.plus/animes/paradox-live-the-animation-todos-os-episodios",
      "texto_original": "Paradox Live the Animation",
      "rating": 6.86,
      "classificacao_etaria": "A14",
      "imagem_original": "https://animefire.plus/img/animes/paradox-live-the-animation.webp",
      "imagem_pasta": "https://animefire.plus/img/animes/paradox-live-the-animation/",
      "secao": "legendados",
      "pagina": 19,
      "total_episodios": 12,
      "link_video": "https://animefire.plus/video/paradox-live-the-animation"
    },
    {
      "id": 2954,
      "nome": "Paripi Koumei",
      "link": "https://animefire.plus/animes/paripi-koumei-todos-os-episodios",
      "texto_original": "Paripi Koumei",
      "rating": 8.11,
      "classificacao_etaria": "A14",
      "imagem_original": "https://animefire.plus/img/animes/paripi-koumei.webp",
      "imagem_pasta": "https://animefire.plus/img/animes/paripi-koumei/",
      "secao": "legendados",
      "pagina": 34,
      "total_episodios": 12,
      "link_video": "https://animefire.plus/video/paripi-koumei"
    },
    {
      "id": 2955,
      "nome": "Party kara Tsuihou sareta Sono Chiyushi, Jitsu wa Saikyou ni Tsuki (Dublado)",
      "link": "https://animefire.plus/animes/party-kara-tsuihou-sareta-sono-chiyushi-jitsu-wa-saikyou-ni-tsuki-dublado-todos-os-episodios",
      "texto_original": "Party kara Tsuihou sareta Sono Chiyushi, Jitsu wa Saikyou ni Tsuki (Dublado)",
      "rating": 5.7,
      "classificacao_etaria": "A14",
      "imagem_original": "https://animefire.plus/img/animes/party-kara-tsuihou-sareta-sono-chiyushi-jitsu-wa-saikyou-ni-tsuki.webp",
      "imagem_pasta": "https://animefire.plus/img/animes/party-kara-tsuihou-sareta-sono-chiyushi-jitsu-wa-saikyou-ni-tsuki/",
      "secao": "dublados,legendados,lancamentos",
      "pagina": 2,
      "total_episodios": 12,
      "link_video": "https://animefire.plus/video/party-kara-tsuihou-sareta-sono-chiyushi-jitsu-wa-saikyou-ni-tsuki-dublado"
    },
    {
      "id": 2956,
      "nome": "Pastel Life",
      "link": "https://animefire.plus/animes/pastel-life-todos-os-episodios",
      "texto_original": "Pastel Life",
      "rating": 6.62,
      "classificacao_etaria": "A14",
      "imagem_original": "https://animefire.plus/img/animes/pastel-life.webp",
      "imagem_pasta": "https://animefire.plus/img/animes/pastel-life/",
      "secao": "legendados",
      "pagina": 67,
      "total_episodios": 6,
      "link_video": "https://animefire.plus/video/pastel-life"
    },
    {
      "id": 2957,
      "nome": "Pastel Memories",
      "link": "https://animefire.plus/animes/pastel-memories-todos-os-episodios",
      "texto_original": "Pastel Memories",
      "rating": 5.12,
      "classificacao_etaria": "A14",
      "imagem_original": "https://animefire.plus/img/animes/pastel-memories.webp",
      "imagem_pasta": "https://animefire.plus/img/animes/pastel-memories/",
      "secao": "legendados",
      "pagina": 107,
      "total_episodios": 12,
      "link_video": "https://animefire.plus/video/pastel-memories"
    },
    {
      "id": 2958,
      "nome": "Patalliro Saiyuuki!",
      "link": "https://animefire.plus/animes/patalliro-saiyuuki-todos-os-episodios",
      "texto_original": "Patalliro Saiyuuki!",
      "rating": 6.58,
      "classificacao_etaria": "A14",
      "imagem_original": "https://animefire.plus/img/animes/patalliro-saiyuuki.webp",
      "imagem_pasta": "https://animefire.plus/img/animes/patalliro-saiyuuki/",
      "secao": "legendados",
      "pagina": 44,
      "total_episodios": 9,
      "link_video": "https://animefire.plus/video/patalliro-saiyuuki"
    },
    {
      "id": 2959,
      "nome": "Patalliro!",
      "link": "https://animefire.plus/animes/patalliro-todos-os-episodios",
      "texto_original": "Patalliro!",
      "rating": 7.24,
      "classificacao_etaria": "A14",
      "imagem_original": "https://animefire.plus/img/animes/patalliro.webp",
      "imagem_pasta": "https://animefire.plus/img/animes/patalliro/",
      "secao": "legendados",
      "pagina": 43,
      "total_episodios": 35,
      "link_video": "https://animefire.plus/video/patalliro"
    },
    {
      "id": 2962,
      "nome": "Peach Girl",
      "link": "https://animefire.plus/animes/peach-girl-todos-os-episodios",
      "texto_original": "Peach Girl",
      "rating": 7.11,
      "classificacao_etaria": "A14",
      "imagem_original": "https://animefire.plus/img/animes/peach-girl.webp",
      "imagem_pasta": "https://animefire.plus/img/animes/peach-girl/",
      "secao": "legendados",
      "pagina": 165,
      "total_episodios": 25,
      "link_video": "https://animefire.plus/video/peach-girl"
    },
    {
      "id": 2965,
      "nome": "Persona 4 the Animation",
      "link": "https://animefire.plus/animes/persona-4-the-animation-todos-os-episodios",
      "texto_original": "Persona 4 the Animation",
      "rating": 7.59,
      "classificacao_etaria": "A14",
      "imagem_original": "https://animefire.plus/img/animes/persona-4-the-animation.webp",
      "imagem_pasta": "https://animefire.plus/img/animes/persona-4-the-animation/",
      "secao": "legendados",
      "pagina": 165,
      "total_episodios": 15,
      "link_video": "https://animefire.plus/video/persona-4-the-animation"
    },
    {
      "id": 2966,
      "nome": "Persona 4 the Golden Animation",
      "link": "https://animefire.plus/animes/persona-4-the-golden-animation-todos-os-episodios",
      "texto_original": "Persona 4 the Golden Animation",
      "rating": 6.67,
      "classificacao_etaria": "A14",
      "imagem_original": "https://animefire.plus/img/animes/persona-4-the-golden-animation.webp",
      "imagem_pasta": "https://animefire.plus/img/animes/persona-4-the-golden-animation/",
      "secao": "legendados",
      "pagina": 74,
      "total_episodios": 12,
      "link_video": "https://animefire.plus/video/persona-4-the-golden-animation"
    },
    {
      "id": 2968,
      "nome": "Persona: Trinity Soul",
      "link": "https://animefire.plus/animes/persona-trinity-soul-todos-os-episodios",
      "texto_original": "Persona: Trinity Soul",
      "rating": 6.66,
      "classificacao_etaria": "A14",
      "imagem_original": "https://animefire.plus/img/animes/persona-trinity-soul.webp",
      "imagem_pasta": "https://animefire.plus/img/animes/persona-trinity-soul/",
      "secao": "legendados",
      "pagina": 136,
      "total_episodios": 26,
      "link_video": "https://animefire.plus/video/persona-trinity-soul"
    },
    {
      "id": 2972,
      "nome": "Phantasy Star Online 2 The Animation",
      "link": "https://animefire.plus/animes/phantasy-star-online-2-the-animation-todos-os-episodios",
      "texto_original": "Phantasy Star Online 2 The Animation",
      "rating": 6.43,
      "classificacao_etaria": "A14",
      "imagem_original": "https://animefire.plus/img/animes/phantasy-star-online-2-the-animation.webp",
      "imagem_pasta": "https://animefire.plus/img/animes/phantasy-star-online-2-the-animation/",
      "secao": "legendados",
      "pagina": 165,
      "total_episodios": 1,
      "link_video": "https://animefire.plus/video/phantasy-star-online-2-the-animation"
    },
    {
      "id": 2973,
      "nome": "Phantasy Star Online 2: Episode Oracle",
      "link": "https://animefire.plus/animes/phantasy-star-online-2-episode-oracle-todos-os-episodios",
      "texto_original": "Phantasy Star Online 2: Episode Oracle",
      "rating": 6.55,
      "classificacao_etaria": "A14",
      "imagem_original": "https://animefire.plus/img/animes/phantasy-star-online-2-episode-oracle.webp",
      "imagem_pasta": "https://animefire.plus/img/animes/phantasy-star-online-2-episode-oracle/",
      "secao": "legendados",
      "pagina": 110,
      "total_episodios": 1,
      "link_video": "https://animefire.plus/video/phantasy-star-online-2-episode-oracle"
    },
    {
      "id": 2974,
      "nome": "Phantom in the Twilight",
      "link": "https://animefire.plus/animes/phantom-in-the-twilight-todos-os-episodios",
      "texto_original": "Phantom in the Twilight",
      "rating": 6.52,
      "classificacao_etaria": "A14",
      "imagem_original": "https://animefire.plus/img/animes/phantom-in-the-twilight.webp",
      "imagem_pasta": "https://animefire.plus/img/animes/phantom-in-the-twilight/",
      "secao": "legendados",
      "pagina": 121,
      "total_episodios": 12,
      "link_video": "https://animefire.plus/video/phantom-in-the-twilight"
    },
    {
      "id": 2976,
      "nome": "Phi Brain: Kami no Puzzle",
      "link": "https://animefire.plus/animes/phi-brain-kami-no-puzzle-todos-os-episodios",
      "texto_original": "Phi Brain: Kami no Puzzle",
      "rating": 7.26,
      "classificacao_etaria": "A14",
      "imagem_original": "https://animefire.plus/img/animes/phi-brain-kami-no-puzzle.webp",
      "imagem_pasta": "https://animefire.plus/img/animes/phi-brain-kami-no-puzzle/",
      "secao": "legendados",
      "pagina": 124,
      "total_episodios": 0,
      "link_video": "https://animefire.plus/video/phi-brain-kami-no-puzzle"
    },
    {
      "id": 2977,
      "nome": "Phi Brain: Kami no Puzzle - Orpheus Order-hen",
      "link": "https://animefire.plus/animes/phi-brain-kami-no-puzzle---orpheus-order-hen-todos-os-episodios",
      "texto_original": "Phi Brain: Kami no Puzzle - Orpheus Order-hen",
      "rating": 7.36,
      "classificacao_etaria": "A14",
      "imagem_original": "https://animefire.plus/img/animes/phi-brain-kami-no-puzzle---orpheus-order-hen.webp",
      "imagem_pasta": "https://animefire.plus/img/animes/phi-brain-kami-no-puzzle---orpheus-order-hen/",
      "secao": "legendados",
      "pagina": 154,
      "total_episodios": 5,
      "link_video": "https://animefire.plus/video/phi-brain-kami-no-puzzle---orpheus-order-hen"
    },
    {
      "id": 2978,
      "nome": "Phi Brain: Kami no Puzzle - Shukuteki! Rätsel-hen",
      "link": "https://animefire.plus/animes/phi-brain-kami-no-puzzle---shukuteki-raetsel-hen-todos-os-episodios",
      "texto_original": "Phi Brain: Kami no Puzzle - Shukuteki! Rätsel-hen",
      "rating": 7.36,
      "classificacao_etaria": "A14",
      "imagem_original": "https://animefire.plus/img/animes/phi-brain-kami-no-puzzle---shukuteki-raetsel-hen.webp",
      "imagem_pasta": "https://animefire.plus/img/animes/phi-brain-kami-no-puzzle---shukuteki-raetsel-hen/",
      "secao": "legendados",
      "pagina": 148,
      "total_episodios": 5,
      "link_video": "https://animefire.plus/video/phi-brain-kami-no-puzzle---shukuteki-raetsel-hen"
    }
  ],
  "pagination": {
    "current_page": 99,
    "per_page": 20,
    "total_items": 2988,
    "total_pages": 150,
    "has_next": true,
    "has_prev": true
  }
}
