{
  "message": "Animes com classificação etária: A14",
  "age_rating": "A14",
  "data": [
    {
      "id": 4017,
      "nome": "Uma Musume: Pretty Derby Season 2",
      "link": "https://animefire.plus/animes/uma-musume-pretty-derby-season-2-todos-os-episodios",
      "texto_original": "Uma Musume: Pretty Derby Season 2",
      "rating": 8.06,
      "classificacao_etaria": "A14",
      "imagem_original": "https://animefire.plus/img/animes/uma-musume-pretty-derby-season-2.webp",
      "imagem_pasta": "https://animefire.plus/img/animes/uma-musume-pretty-derby-season-2/",
      "secao": "legendados",
      "pagina": 49,
      "total_episodios": 13,
      "link_video": "https://animefire.plus/video/uma-musume-pretty-derby-season-2"
    },
    {
      "id": 4018,
      "nome": "Umayon",
      "link": "https://animefire.plus/animes/umayon-todos-os-episodios",
      "texto_original": "Umayon",
      "rating": null,
      "classificacao_etaria": "A14",
      "imagem_original": "https://animefire.plus/img/animes/umayon.webp",
      "imagem_pasta": "https://animefire.plus/img/animes/umayon/",
      "secao": "legendados",
      "pagina": 58,
      "total_episodios": 1,
      "link_video": "https://animefire.plus/video/umayon"
    },
    {
      "id": 4019,
      "nome": "Umi Monogatari: Anata ga Ite Kureta Koto",
      "link": "https://animefire.plus/animes/umi-monogatari-anata-ga-ite-kureta-koto-todos-os-episodios",
      "texto_original": "Umi Monogatari: Anata ga Ite Kureta Koto",
      "rating": 6.71,
      "classificacao_etaria": "A14",
      "imagem_original": "https://animefire.plus/img/animes/umi-monogatari-anata-ga-ite-kureta-koto.webp",
      "imagem_pasta": "https://animefire.plus/img/animes/umi-monogatari-anata-ga-ite-kureta-koto/",
      "secao": "legendados",
      "pagina": 149,
      "total_episodios": 12,
      "link_video": "https://animefire.plus/video/umi-monogatari-anata-ga-ite-kureta-koto"
    },
    {
      "id": 4025,
      "nome": "UniteUp!",
      "link": "https://animefire.plus/animes/uniteup-todos-os-episodios",
      "texto_original": "UniteUp!",
      "rating": 7.02,
      "classificacao_etaria": "A14",
      "imagem_original": "https://animefire.plus/img/animes/uniteup.webp",
      "imagem_pasta": "https://animefire.plus/img/animes/uniteup/",
      "secao": "legendados",
      "pagina": 25,
      "total_episodios": 12,
      "link_video": "https://animefire.plus/video/uniteup"
    },
    {
      "id": 4026,
      "nome": "UniteUp! Uni:Birth",
      "link": "https://animefire.plus/animes/uniteup-uni-birth-todos-os-episodios",
      "texto_original": "UniteUp! Uni:Birth",
      "rating": 6.75,
      "classificacao_etaria": "A14",
      "imagem_original": "https://animefire.plus/img/animes/uniteup-uni-birth.webp",
      "imagem_pasta": "https://animefire.plus/img/animes/uniteup-uni-birth/",
      "secao": "legendados,lancamentos",
      "pagina": 7,
      "total_episodios": 13,
      "link_video": "https://animefire.plus/video/uniteup-uni-birth"
    },
    {
      "id": 4027,
      "nome": "Unnamed Memory",
      "link": "https://animefire.plus/animes/unnamed-memory-todos-os-episodios",
      "texto_original": "Unnamed Memory",
      "rating": 6.77,
      "classificacao_etaria": "A14",
      "imagem_original": "https://animefire.plus/img/animes/unnamed-memory.webp",
      "imagem_pasta": "https://animefire.plus/img/animes/unnamed-memory/",
      "secao": "legendados",
      "pagina": 15,
      "total_episodios": 12,
      "link_video": "https://animefire.plus/video/unnamed-memory"
    },
    {
      "id": 4028,
      "nome": "Unnamed Memory Act.2",
      "link": "https://animefire.plus/animes/unnamed-memory-act-2-todos-os-episodios",
      "texto_original": "Unnamed Memory Act.2",
      "rating": 7.11,
      "classificacao_etaria": "A14",
      "imagem_original": "https://animefire.plus/img/animes/unnamed-memory-act-2.webp",
      "imagem_pasta": "https://animefire.plus/img/animes/unnamed-memory-act-2/",
      "secao": "legendados",
      "pagina": 7,
      "total_episodios": 12,
      "link_video": "https://animefire.plus/video/unnamed-memory-act-2"
    },
    {
      "id": 4029,
      "nome": "Upotte!!",
      "link": "https://animefire.plus/animes/upotte-todos-os-episodios",
      "texto_original": "Upotte!!",
      "rating": 6.55,
      "classificacao_etaria": "A14",
      "imagem_original": "https://animefire.plus/img/animes/upotte.webp",
      "imagem_pasta": "https://animefire.plus/img/animes/upotte/",
      "secao": "legendados",
      "pagina": 91,
      "total_episodios": 0,
      "link_video": "https://animefire.plus/video/upotte"
    },
    {
      "id": 4030,
      "nome": "UQ Holder!: Mahou Sensei Negima! 2",
      "link": "https://animefire.plus/animes/uq-holder-mahou-sensei-negima-2-todos-os-episodios",
      "texto_original": "UQ Holder!: Mahou Sensei Negima! 2",
      "rating": 7.15,
      "classificacao_etaria": "A14",
      "imagem_original": "https://animefire.plus/img/animes/uq-holder-mahou-sensei-negima-2.webp",
      "imagem_pasta": "https://animefire.plus/img/animes/uq-holder-mahou-sensei-negima-2/",
      "secao": "legendados",
      "pagina": 114,
      "total_episodios": 12,
      "link_video": "https://animefire.plus/video/uq-holder-mahou-sensei-negima-2"
    },
    {
      "id": 4032,
      "nome": "Urahara",
      "link": "https://animefire.plus/animes/urahara-todos-os-episodios",
      "texto_original": "Urahara",
      "rating": 5.82,
      "classificacao_etaria": "A14",
      "imagem_original": "https://animefire.plus/img/animes/urahara.webp",
      "imagem_pasta": "https://animefire.plus/img/animes/urahara/",
      "secao": "legendados",
      "pagina": 73,
      "total_episodios": 12,
      "link_video": "https://animefire.plus/video/urahara"
    },
    {
      "id": 4033,
      "nome": "Uramichi Oniisan (Dublado)",
      "link": "https://animefire.plus/animes/uramichi-oniisan-dublado-todos-os-episodios",
      "texto_original": "Uramichi Oniisan (Dublado)",
      "rating": 7.7,
      "classificacao_etaria": "A14",
      "imagem_original": "https://animefire.plus/img/animes/uramichi-oniisan.webp",
      "imagem_pasta": "https://animefire.plus/img/animes/uramichi-oniisan/",
      "secao": "dublados,legendados",
      "pagina": 12,
      "total_episodios": 13,
      "link_video": "https://animefire.plus/video/uramichi-oniisan-dublado"
    },
    {
      "id": 4034,
      "nome": "Urara Meirochou",
      "link": "https://animefire.plus/animes/urara-meirochou-todos-os-episodios",
      "texto_original": "Urara Meirochou",
      "rating": 7.2,
      "classificacao_etaria": "A14",
      "imagem_original": "https://animefire.plus/img/animes/urara-meirochou.webp",
      "imagem_pasta": "https://animefire.plus/img/animes/urara-meirochou/",
      "secao": "legendados",
      "pagina": 115,
      "total_episodios": 1,
      "link_video": "https://animefire.plus/video/urara-meirochou"
    },
    {
      "id": 4036,
      "nome": "Urashimasakatasen no Nichijou",
      "link": "https://animefire.plus/animes/urashimasakatasen-no-nichijou-todos-os-episodios",
      "texto_original": "Urashimasakatasen no Nichijou",
      "rating": 5.96,
      "classificacao_etaria": "A14",
      "imagem_original": "https://animefire.plus/img/animes/urashimasakatasen-no-nichijou.webp",
      "imagem_pasta": "https://animefire.plus/img/animes/urashimasakatasen-no-nichijou/",
      "secao": "legendados",
      "pagina": 111,
      "total_episodios": 0,
      "link_video": "https://animefire.plus/video/urashimasakatasen-no-nichijou"
    },
    {
      "id": 4038,
      "nome": "Urusei Yatsura",
      "link": "https://animefire.plus/animes/urusei-yatsura-todos-os-episodios",
      "texto_original": "Urusei Yatsura",
      "rating": 7.75,
      "classificacao_etaria": "A14",
      "imagem_original": "https://animefire.plus/img/animes/urusei-yatsura.webp",
      "imagem_pasta": "https://animefire.plus/img/animes/urusei-yatsura/",
      "secao": "legendados",
      "pagina": 168,
      "total_episodios": 195,
      "link_video": "https://animefire.plus/video/urusei-yatsura"
    },
    {
      "id": 4039,
      "nome": "Urusei Yatsura (2022)",
      "link": "https://animefire.plus/animes/urusei-yatsura-2022-todos-os-episodios",
      "texto_original": "Urusei Yatsura (2022)",
      "rating": 7.4,
      "classificacao_etaria": "A14",
      "imagem_original": "https://animefire.plus/img/animes/urusei-yatsura-2022.webp",
      "imagem_pasta": "https://animefire.plus/img/animes/urusei-yatsura-2022/",
      "secao": "legendados",
      "pagina": 29,
      "total_episodios": 23,
      "link_video": "https://animefire.plus/video/urusei-yatsura-2022"
    },
    {
      "id": 4040,
      "nome": "Urusei Yatsura (2022) 2nd Season",
      "link": "https://animefire.plus/animes/urusei-yatsura-2022-2nd-season-todos-os-episodios",
      "texto_original": "Urusei Yatsura (2022) 2nd Season",
      "rating": 7.84,
      "classificacao_etaria": "A14",
      "imagem_original": "https://animefire.plus/img/animes/urusei-yatsura-2022-2nd-season.webp",
      "imagem_pasta": "https://animefire.plus/img/animes/urusei-yatsura-2022-2nd-season/",
      "secao": "legendados",
      "pagina": 17,
      "total_episodios": 23,
      "link_video": "https://animefire.plus/video/urusei-yatsura-2022-2nd-season"
    },
    {
      "id": 4041,
      "nome": "Usagi Drop",
      "link": "https://animefire.plus/animes/usagi-drop-todos-os-episodios",
      "texto_original": "Usagi Drop",
      "rating": 8.49,
      "classificacao_etaria": "A14",
      "imagem_original": "https://animefire.plus/img/animes/usagi-drop.webp",
      "imagem_pasta": "https://animefire.plus/img/animes/usagi-drop/",
      "secao": "legendados",
      "pagina": 169,
      "total_episodios": 0,
      "link_video": "https://animefire.plus/video/usagi-drop"
    },
    {
      "id": 4043,
      "nome": "Usakame",
      "link": "https://animefire.plus/animes/usakame-todos-os-episodios",
      "texto_original": "Usakame",
      "rating": 5.83,
      "classificacao_etaria": "A14",
      "imagem_original": "https://animefire.plus/img/animes/usakame.webp",
      "imagem_pasta": "https://animefire.plus/img/animes/usakame/",
      "secao": "legendados",
      "pagina": 159,
      "total_episodios": 9,
      "link_video": "https://animefire.plus/video/usakame"
    },
    {
      "id": 4044,
      "nome": "Ushinawareta Mirai wo Motomete",
      "link": "https://animefire.plus/animes/ushinawareta-mirai-wo-motomete-todos-os-episodios",
      "texto_original": "Ushinawareta Mirai wo Motomete",
      "rating": 6.83,
      "classificacao_etaria": "A14",
      "imagem_original": "https://animefire.plus/img/animes/ushinawareta-mirai-wo-motomete.webp",
      "imagem_pasta": "https://animefire.plus/img/animes/ushinawareta-mirai-wo-motomete/",
      "secao": "legendados",
      "pagina": 148,
      "total_episodios": 2,
      "link_video": "https://animefire.plus/video/ushinawareta-mirai-wo-motomete"
    },
    {
      "id": 4045,
      "nome": "Ushio To Tora (TV)",
      "link": "https://animefire.plus/animes/ushio-to-tora-tv-todos-os-episodios",
      "texto_original": "Ushio To Tora (TV)",
      "rating": 7.65,
      "classificacao_etaria": "A14",
      "imagem_original": "https://animefire.plus/img/animes/ushio-to-tora-tv.webp",
      "imagem_pasta": "https://animefire.plus/img/animes/ushio-to-tora-tv/",
      "secao": "legendados",
      "pagina": 100,
      "total_episodios": 2,
      "link_video": "https://animefire.plus/video/ushio-to-tora-tv"
    }
  ],
  "pagination": {
    "current_page": 137,
    "per_page": 20,
    "total_items": 2988,
    "total_pages": 150,
    "has_next": true,
    "has_prev": true
  }
}
