{
  "message": "Animes com classificação etária: A14",
  "age_rating": "A14",
  "data": [
    {
      "id": 2833,
      "nome": "One Piece: Episode of Sorajima",
      "link": "https://animefire.plus/animes/one-piece-episode-of-sorajima-todos-os-episodios",
      "texto_original": "One Piece: Episode of Sorajima",
      "rating": 7.13,
      "classificacao_etaria": "A14",
      "imagem_original": "https://animefire.plus/img/animes/one-piece-episode-of-sorajima.webp",
      "imagem_pasta": "https://animefire.plus/img/animes/one-piece-episode-of-sorajima/",
      "secao": "legendados",
      "pagina": 75,
      "total_episodios": 0,
      "link_video": "https://animefire.plus/video/one-piece-episode-of-sorajima"
    },
    {
      "id": 2834,
      "nome": "One Piece: Gyojin Tou-hen",
      "link": "https://animefire.plus/animes/one-piece-gyojin-tou-hen-todos-os-episodios",
      "texto_original": "One Piece: Gyojin Tou-hen",
      "rating": 7.92,
      "classificacao_etaria": "A14",
      "imagem_original": "https://animefire.plus/img/animes/one-piece-gyojin-tou-hen.webp",
      "imagem_pasta": "https://animefire.plus/img/animes/one-piece-gyojin-tou-hen/",
      "secao": "legendados",
      "pagina": 8,
      "total_episodios": 21,
      "link_video": "https://animefire.plus/video/one-piece-gyojin-tou-hen"
    },
    {
      "id": 2835,
      "nome": "One Piece: Heart of Gold",
      "link": "https://animefire.plus/animes/one-piece-heart-of-gold-todos-os-episodios",
      "texto_original": "One Piece: Heart of Gold",
      "rating": 7.58,
      "classificacao_etaria": "A14",
      "imagem_original": "https://animefire.plus/img/animes/one-piece-heart-of-gold.webp",
      "imagem_pasta": "https://animefire.plus/img/animes/one-piece-heart-of-gold/",
      "secao": "legendados",
      "pagina": 78,
      "total_episodios": 1,
      "link_video": "https://animefire.plus/video/one-piece-heart-of-gold"
    },
    {
      "id": 2837,
      "nome": "One Pound Gospel",
      "link": "https://animefire.plus/animes/one-pound-gospel-todos-os-episodios",
      "texto_original": "One Pound Gospel",
      "rating": 6.5,
      "classificacao_etaria": "A14",
      "imagem_original": "https://animefire.plus/img/animes/one-pound-gospel.webp",
      "imagem_pasta": "https://animefire.plus/img/animes/one-pound-gospel/",
      "secao": "legendados",
      "pagina": 66,
      "total_episodios": 1,
      "link_video": "https://animefire.plus/video/one-pound-gospel"
    },
    {
      "id": 2842,
      "nome": "One Room",
      "link": "https://animefire.plus/animes/one-room-todos-os-episodios",
      "texto_original": "One Room",
      "rating": 5.7,
      "classificacao_etaria": "A14",
      "imagem_original": "https://animefire.plus/img/animes/one-room.webp",
      "imagem_pasta": "https://animefire.plus/img/animes/one-room/",
      "secao": "legendados",
      "pagina": 155,
      "total_episodios": 12,
      "link_video": "https://animefire.plus/video/one-room"
    },
    {
      "id": 2843,
      "nome": "One Room 2nd Season",
      "link": "https://animefire.plus/animes/one-room-2nd-season-todos-os-episodios",
      "texto_original": "One Room 2nd Season",
      "rating": 6.33,
      "classificacao_etaria": "A14",
      "imagem_original": "https://animefire.plus/img/animes/one-room-2nd-season.webp",
      "imagem_pasta": "https://animefire.plus/img/animes/one-room-2nd-season/",
      "secao": "legendados",
      "pagina": 162,
      "total_episodios": 12,
      "link_video": "https://animefire.plus/video/one-room-2nd-season"
    },
    {
      "id": 2844,
      "nome": "One Room Third Season",
      "link": "https://animefire.plus/animes/one-room-third-season-todos-os-episodios",
      "texto_original": "One Room Third Season",
      "rating": null,
      "classificacao_etaria": "A14",
      "imagem_original": "https://animefire.plus/img/animes/one-room-third-season.webp",
      "imagem_pasta": "https://animefire.plus/img/animes/one-room-third-season/",
      "secao": "legendados",
      "pagina": 51,
      "total_episodios": 12,
      "link_video": "https://animefire.plus/video/one-room-third-season"
    },
    {
      "id": 2845,
      "nome": "One Room, Hiatari Futsuu, Tenshi-tsuki.",
      "link": "https://animefire.plus/animes/one-room-hiatari-futsuu-tenshi-tsuki-todos-os-episodios",
      "texto_original": "One Room, Hiatari Futsuu, Tenshi-tsuki.",
      "rating": 7.03,
      "classificacao_etaria": "A14",
      "imagem_original": "https://animefire.plus/img/animes/one-room-hiatari-futsuu-tenshi-tsuki.webp",
      "imagem_pasta": "https://animefire.plus/img/animes/one-room-hiatari-futsuu-tenshi-tsuki/",
      "secao": "legendados",
      "pagina": 14,
      "total_episodios": 12,
      "link_video": "https://animefire.plus/video/one-room-hiatari-futsuu-tenshi-tsuki"
    },
    {
      "id": 2846,
      "nome": "Oneechan ga Kita",
      "link": "https://animefire.plus/animes/oneechan-ga-kita-todos-os-episodios",
      "texto_original": "Oneechan ga Kita",
      "rating": 6.46,
      "classificacao_etaria": "A14",
      "imagem_original": "https://animefire.plus/img/animes/oneechan-ga-kita.webp",
      "imagem_pasta": "https://animefire.plus/img/animes/oneechan-ga-kita/",
      "secao": "legendados",
      "pagina": 171,
      "total_episodios": 12,
      "link_video": "https://animefire.plus/video/oneechan-ga-kita"
    },
    {
      "id": 2847,
      "nome": "Onegai☆Teacher",
      "link": "https://animefire.plus/animes/onegai-teacher-todos-os-episodios",
      "texto_original": "Onegai☆Teacher",
      "rating": 7.27,
      "classificacao_etaria": "A14",
      "imagem_original": "https://animefire.plus/img/animes/onegai-teacher.webp",
      "imagem_pasta": "https://animefire.plus/img/animes/onegai-teacher/",
      "secao": "legendados",
      "pagina": 112,
      "total_episodios": 12,
      "link_video": "https://animefire.plus/video/onegai-teacher"
    },
    {
      "id": 2848,
      "nome": "Onegai☆Twins",
      "link": "https://animefire.plus/animes/onegai-twins-todos-os-episodios",
      "texto_original": "Onegai☆Twins",
      "rating": 6.96,
      "classificacao_etaria": "A14",
      "imagem_original": "https://animefire.plus/img/animes/onegai-twins.webp",
      "imagem_pasta": "https://animefire.plus/img/animes/onegai-twins/",
      "secao": "legendados",
      "pagina": 178,
      "total_episodios": 12,
      "link_video": "https://animefire.plus/video/onegai-twins"
    },
    {
      "id": 2849,
      "nome": "Ongaku Shoujo (TV)",
      "link": "https://animefire.plus/animes/ongaku-shoujo-tv-todos-os-episodios",
      "texto_original": "Ongaku Shoujo (TV)",
      "rating": 6.02,
      "classificacao_etaria": "A14",
      "imagem_original": "https://animefire.plus/img/animes/ongaku-shoujo-tv.webp",
      "imagem_pasta": "https://animefire.plus/img/animes/ongaku-shoujo-tv/",
      "secao": "legendados",
      "pagina": 127,
      "total_episodios": 12,
      "link_video": "https://animefire.plus/video/ongaku-shoujo-tv"
    },
    {
      "id": 2850,
      "nome": "Onigiri",
      "link": "https://animefire.plus/animes/onigiri-todos-os-episodios",
      "texto_original": "Onigiri",
      "rating": 5.42,
      "classificacao_etaria": "A14",
      "imagem_original": "https://animefire.plus/img/animes/onigiri.webp",
      "imagem_pasta": "https://animefire.plus/img/animes/onigiri/",
      "secao": "legendados",
      "pagina": 127,
      "total_episodios": 10,
      "link_video": "https://animefire.plus/video/onigiri"
    },
    {
      "id": 2854,
      "nome": "Oniichan no Koto nanka Zenzen Suki ja Nai n da kara ne!!",
      "link": "https://animefire.plus/animes/oniichan-no-koto-nanka-zenzen-suki-ja-nai-n-da-kara-ne-todos-os-episodios",
      "texto_original": "Oniichan no Koto nanka Zenzen Suki ja Nai n da kara ne!!",
      "rating": 6.24,
      "classificacao_etaria": "A14",
      "imagem_original": "https://animefire.plus/img/animes/oniichan-no-koto-nanka-zenzen-suki-ja-nai-n-da-kara-ne.webp",
      "imagem_pasta": "https://animefire.plus/img/animes/oniichan-no-koto-nanka-zenzen-suki-ja-nai-n-da-kara-ne/",
      "secao": "legendados",
      "pagina": 142,
      "total_episodios": 13,
      "link_video": "https://animefire.plus/video/oniichan-no-koto-nanka-zenzen-suki-ja-nai-n-da-kara-ne"
    },
    {
      "id": 2855,
      "nome": "Oniichan wa Oshimai!",
      "link": "https://animefire.plus/animes/oniichan-wa-oshimai-todos-os-episodios",
      "texto_original": "Oniichan wa Oshimai!",
      "rating": 7.65,
      "classificacao_etaria": "A14",
      "imagem_original": "https://animefire.plus/img/animes/oniichan-wa-oshimai.webp",
      "imagem_pasta": "https://animefire.plus/img/animes/oniichan-wa-oshimai/",
      "secao": "legendados",
      "pagina": 27,
      "total_episodios": 12,
      "link_video": "https://animefire.plus/video/oniichan-wa-oshimai"
    },
    {
      "id": 2856,
      "nome": "Oniisama e...",
      "link": "https://animefire.plus/animes/oniisama-e-todos-os-episodios",
      "texto_original": "Oniisama e...",
      "rating": 7.78,
      "classificacao_etaria": "A14",
      "imagem_original": "https://animefire.plus/img/animes/oniisama-e.webp",
      "imagem_pasta": "https://animefire.plus/img/animes/oniisama-e/",
      "secao": "legendados",
      "pagina": 55,
      "total_episodios": 39,
      "link_video": "https://animefire.plus/video/oniisama-e"
    },
    {
      "id": 2859,
      "nome": "Onmyou Kaiten Re:Birth",
      "link": "https://animefire.plus/animes/onmyou-kaiten-re-birth-todos-os-episodios",
      "texto_original": "Onmyou Kaiten Re:Birth",
      "rating": 6.51,
      "classificacao_etaria": "A14",
      "imagem_original": "https://animefire.plus/img/animes/onmyou-kaiten-re-birth.webp",
      "imagem_pasta": "https://animefire.plus/img/animes/onmyou-kaiten-re-birth/",
      "secao": "legendados,lancamentos",
      "pagina": 1,
      "total_episodios": 5,
      "link_video": "https://animefire.plus/video/onmyou-kaiten-re-birth"
    },
    {
      "id": 2860,
      "nome": "Onmyou Taisenki",
      "link": "https://animefire.plus/animes/onmyou-taisenki-todos-os-episodios",
      "texto_original": "Onmyou Taisenki",
      "rating": 7.26,
      "classificacao_etaria": "A14",
      "imagem_original": "https://animefire.plus/img/animes/onmyou-taisenki.webp",
      "imagem_pasta": "https://animefire.plus/img/animes/onmyou-taisenki/",
      "secao": "legendados",
      "pagina": 178,
      "total_episodios": 4,
      "link_video": "https://animefire.plus/video/onmyou-taisenki"
    },
    {
      "id": 2861,
      "nome": "Onmyouji (Dublado)",
      "link": "https://animefire.plus/animes/onmyouji-dublado-todos-os-episodios",
      "texto_original": "Onmyouji (Dublado)",
      "rating": 6.98,
      "classificacao_etaria": "A14",
      "imagem_original": "https://animefire.plus/img/animes/onmyouji.webp",
      "imagem_pasta": "https://animefire.plus/img/animes/onmyouji/",
      "secao": "dublados,legendados",
      "pagina": 4,
      "total_episodios": 13,
      "link_video": "https://animefire.plus/video/onmyouji-dublado"
    },
    {
      "id": 2862,
      "nome": "Onsen Yousei Hakone-chan",
      "link": "https://animefire.plus/animes/onsen-yousei-hakone-chan-todos-os-episodios",
      "texto_original": "Onsen Yousei Hakone-chan",
      "rating": 5.9,
      "classificacao_etaria": "A14",
      "imagem_original": "https://animefire.plus/img/animes/onsen-yousei-hakone-chan.webp",
      "imagem_pasta": "https://animefire.plus/img/animes/onsen-yousei-hakone-chan/",
      "secao": "legendados",
      "pagina": 107,
      "total_episodios": 13,
      "link_video": "https://animefire.plus/video/onsen-yousei-hakone-chan"
    }
  ],
  "pagination": {
    "current_page": 95,
    "per_page": 20,
    "total_items": 2988,
    "total_pages": 150,
    "has_next": true,
    "has_prev": true
  }
}
