{
  "message": "Animes com classificação etária: A14",
  "age_rating": "A14",
  "data": [
    {
      "id": 122,
      "nome": "Akebi-chan no Sailor-fuku",
      "link": "https://animefire.plus/animes/akebi-chan-no-sailor-fuku-todos-os-episodios",
      "texto_original": "Akebi-chan no Sailor-fuku",
      "rating": 7.65,
      "classificacao_etaria": "A14",
      "imagem_original": "https://animefire.plus/img/animes/akebi-chan-no-sailor-fuku.webp",
      "imagem_pasta": "https://animefire.plus/img/animes/akebi-chan-no-sailor-fuku/",
      "secao": "legendados",
      "pagina": 36,
      "total_episodios": 12,
      "link_video": "https://animefire.plus/video/akebi-chan-no-sailor-fuku"
    },
    {
      "id": 125,
      "nome": "Akiba's Trip The Animation",
      "link": "https://animefire.plus/animes/akiba-s-trip-the-animation-todos-os-episodios",
      "texto_original": "Akiba's Trip The Animation",
      "rating": 6.68,
      "classificacao_etaria": "A14",
      "imagem_original": "https://animefire.plus/img/animes/akiba-s-trip-the-animation.webp",
      "imagem_pasta": "https://animefire.plus/img/animes/akiba-s-trip-the-animation/",
      "secao": "legendados",
      "pagina": 156,
      "total_episodios": 13,
      "link_video": "https://animefire.plus/video/akiba-s-trip-the-animation"
    },
    {
      "id": 126,
      "nome": "Akihabara Dennou-gumi",
      "link": "https://animefire.plus/animes/akihabara-dennou-gumi-todos-os-episodios",
      "texto_original": "Akihabara Dennou-gumi",
      "rating": 6.64,
      "classificacao_etaria": "A14",
      "imagem_original": "https://animefire.plus/img/animes/akihabara-dennou-gumi.webp",
      "imagem_pasta": "https://animefire.plus/img/animes/akihabara-dennou-gumi/",
      "secao": "legendados",
      "pagina": 140,
      "total_episodios": 26,
      "link_video": "https://animefire.plus/video/akihabara-dennou-gumi"
    },
    {
      "id": 127,
      "nome": "Akikan!",
      "link": "https://animefire.plus/animes/akikan-todos-os-episodios",
      "texto_original": "Akikan!",
      "rating": 6.29,
      "classificacao_etaria": "A14",
      "imagem_original": "https://animefire.plus/img/animes/akikan.webp",
      "imagem_pasta": "https://animefire.plus/img/animes/akikan/",
      "secao": "legendados",
      "pagina": 169,
      "total_episodios": 9,
      "link_video": "https://animefire.plus/video/akikan"
    },
    {
      "id": 128,
      "nome": "Akkun to Kanojo",
      "link": "https://animefire.plus/animes/akkun-to-kanojo-todos-os-episodios",
      "texto_original": "Akkun to Kanojo",
      "rating": 6.9,
      "classificacao_etaria": "A14",
      "imagem_original": "https://animefire.plus/img/animes/akkun-to-kanojo.webp",
      "imagem_pasta": "https://animefire.plus/img/animes/akkun-to-kanojo/",
      "secao": "legendados",
      "pagina": 131,
      "total_episodios": 25,
      "link_video": "https://animefire.plus/video/akkun-to-kanojo"
    },
    {
      "id": 131,
      "nome": "Akuemon",
      "link": "https://animefire.plus/animes/akuemon-todos-os-episodios",
      "texto_original": "Akuemon",
      "rating": 6.04,
      "classificacao_etaria": "A14",
      "imagem_original": "https://animefire.plus/img/animes/akuemon.webp",
      "imagem_pasta": "https://animefire.plus/img/animes/akuemon/",
      "secao": "legendados",
      "pagina": 77,
      "total_episodios": 1,
      "link_video": "https://animefire.plus/video/akuemon"
    },
    {
      "id": 134,
      "nome": "Akuyaku Reijou Level 99: Watashi wa Ura-Boss desu ga Maou dewa Arimasen",
      "link": "https://animefire.plus/animes/akuyaku-reijou-level-99-watashi-wa-ura-boss-desu-ga-maou-dewa-arimasen-todos-os-episodios",
      "texto_original": "Akuyaku Reijou Level 99: Watashi wa Ura-Boss desu ga Maou dewa Arimasen",
      "rating": 7.13,
      "classificacao_etaria": "A14",
      "imagem_original": "https://animefire.plus/img/animes/akuyaku-reijou-level-99-watashi-wa-ura-boss-desu-ga-maou-dewa-arimasen.webp",
      "imagem_pasta": "https://animefire.plus/img/animes/akuyaku-reijou-level-99-watashi-wa-ura-boss-desu-ga-maou-dewa-arimasen/",
      "secao": "legendados",
      "pagina": 17,
      "total_episodios": 12,
      "link_video": "https://animefire.plus/video/akuyaku-reijou-level-99-watashi-wa-ura-boss-desu-ga-maou-dewa-arimasen"
    },
    {
      "id": 135,
      "nome": "Akuyaku Reijou nanode Last Boss wo Kattemimashita (Dublado)",
      "link": "https://animefire.plus/animes/akuyaku-reijou-nanode-last-boss-wo-kattemimashita-dublado-todos-os-episodios",
      "texto_original": "Akuyaku Reijou nanode Last Boss wo Kattemimashita (Dublado)",
      "rating": 7.2,
      "classificacao_etaria": "A14",
      "imagem_original": "https://animefire.plus/img/animes/akuyaku-reijou-nanode-last-boss-wo-kattemimashita.webp",
      "imagem_pasta": "https://animefire.plus/img/animes/akuyaku-reijou-nanode-last-boss-wo-kattemimashita/",
      "secao": "dublados,legendados",
      "pagina": 9,
      "total_episodios": 12,
      "link_video": "https://animefire.plus/video/akuyaku-reijou-nanode-last-boss-wo-kattemimashita-dublado"
    },
    {
      "id": 136,
      "nome": "Akuyaku Reijou Tensei Ojisan",
      "link": "https://animefire.plus/animes/akuyaku-reijou-tensei-ojisan-todos-os-episodios",
      "texto_original": "Akuyaku Reijou Tensei Ojisan",
      "rating": 7.38,
      "classificacao_etaria": "A14",
      "imagem_original": "https://animefire.plus/img/animes/akuyaku-reijou-tensei-ojisan.webp",
      "imagem_pasta": "https://animefire.plus/img/animes/akuyaku-reijou-tensei-ojisan/",
      "secao": "legendados",
      "pagina": 7,
      "total_episodios": 12,
      "link_video": "https://animefire.plus/video/akuyaku-reijou-tensei-ojisan"
    },
    {
      "id": 139,
      "nome": "Alice Gear Aegis Expansion",
      "link": "https://animefire.plus/animes/alice-gear-aegis-expansion-todos-os-episodios",
      "texto_original": "Alice Gear Aegis Expansion",
      "rating": 5.72,
      "classificacao_etaria": "A14",
      "imagem_original": "https://animefire.plus/img/animes/alice-gear-aegis-expansion.jpg",
      "imagem_pasta": "https://animefire.plus/img/animes/alice-gear-aegis-expansion/",
      "secao": "legendados",
      "pagina": 24,
      "total_episodios": 12,
      "link_video": "https://animefire.plus/video/alice-gear-aegis-expansion"
    },
    {
      "id": 140,
      "nome": "Alice in Deadly School",
      "link": "https://animefire.plus/animes/alice-in-deadly-school-todos-os-episodios",
      "texto_original": "Alice in Deadly School",
      "rating": 5.18,
      "classificacao_etaria": "A14",
      "imagem_original": "https://animefire.plus/img/animes/alice-in-deadly-school.webp",
      "imagem_pasta": "https://animefire.plus/img/animes/alice-in-deadly-school/",
      "secao": "legendados",
      "pagina": 46,
      "total_episodios": 0,
      "link_video": "https://animefire.plus/video/alice-in-deadly-school"
    },
    {
      "id": 141,
      "nome": "Alice or Alice: Siscon Niisan to Futago no Imouto",
      "link": "https://animefire.plus/animes/alice-or-alice-siscon-niisan-to-futago-no-imouto-todos-os-episodios",
      "texto_original": "Alice or Alice: Siscon Niisan to Futago no Imouto",
      "rating": 5.4,
      "classificacao_etaria": "A14",
      "imagem_original": "https://animefire.plus/img/animes/alice-or-alice-siscon-niisan-to-futago-no-imouto.webp",
      "imagem_pasta": "https://animefire.plus/img/animes/alice-or-alice-siscon-niisan-to-futago-no-imouto/",
      "secao": "legendados",
      "pagina": 116,
      "total_episodios": 11,
      "link_video": "https://animefire.plus/video/alice-or-alice-siscon-niisan-to-futago-no-imouto"
    },
    {
      "id": 142,
      "nome": "Alice to Zouroku",
      "link": "https://animefire.plus/animes/alice-to-zouroku-todos-os-episodios",
      "texto_original": "Alice to Zouroku",
      "rating": 7.18,
      "classificacao_etaria": "A14",
      "imagem_original": "https://animefire.plus/img/animes/alice-to-zouroku.webp",
      "imagem_pasta": "https://animefire.plus/img/animes/alice-to-zouroku/",
      "secao": "legendados",
      "pagina": 139,
      "total_episodios": 12,
      "link_video": "https://animefire.plus/video/alice-to-zouroku"
    },
    {
      "id": 144,
      "nome": "All Out!!",
      "link": "https://animefire.plus/animes/all-out-todos-os-episodios",
      "texto_original": "All Out!!",
      "rating": 7.19,
      "classificacao_etaria": "A14",
      "imagem_original": "https://animefire.plus/img/animes/all-out.webp",
      "imagem_pasta": "https://animefire.plus/img/animes/all-out/",
      "secao": "legendados",
      "pagina": 111,
      "total_episodios": 25,
      "link_video": "https://animefire.plus/video/all-out"
    },
    {
      "id": 145,
      "nome": "Allison to Lillia",
      "link": "https://animefire.plus/animes/allison-to-lillia-todos-os-episodios",
      "texto_original": "Allison to Lillia",
      "rating": 7.38,
      "classificacao_etaria": "A14",
      "imagem_original": "https://animefire.plus/img/animes/allison-to-lillia.webp",
      "imagem_pasta": "https://animefire.plus/img/animes/allison-to-lillia/",
      "secao": "legendados",
      "pagina": 116,
      "total_episodios": 26,
      "link_video": "https://animefire.plus/video/allison-to-lillia"
    },
    {
      "id": 147,
      "nome": "Amaama to Inazuma",
      "link": "https://animefire.plus/animes/amaama-to-inazuma-todos-os-episodios",
      "texto_original": "Amaama to Inazuma",
      "rating": 7.57,
      "classificacao_etaria": "A14",
      "imagem_original": "https://animefire.plus/img/animes/amaama-to-inazuma.webp",
      "imagem_pasta": "https://animefire.plus/img/animes/amaama-to-inazuma/",
      "secao": "legendados",
      "pagina": 134,
      "total_episodios": 12,
      "link_video": "https://animefire.plus/video/amaama-to-inazuma"
    },
    {
      "id": 150,
      "nome": "Amagami SS",
      "link": "https://animefire.plus/animes/amagami-ss-todos-os-episodios",
      "texto_original": "Amagami SS",
      "rating": 7.47,
      "classificacao_etaria": "A14",
      "imagem_original": "https://animefire.plus/img/animes/amagami-ss.webp",
      "imagem_pasta": "https://animefire.plus/img/animes/amagami-ss/",
      "secao": "legendados",
      "pagina": 133,
      "total_episodios": 26,
      "link_video": "https://animefire.plus/video/amagami-ss"
    },
    {
      "id": 151,
      "nome": "Amagami SS+ Plus",
      "link": "https://animefire.plus/animes/amagami-ss-plus-todos-os-episodios",
      "texto_original": "Amagami SS+ Plus",
      "rating": 7.53,
      "classificacao_etaria": "A14",
      "imagem_original": "https://animefire.plus/img/animes/amagami-ss-plus.webp",
      "imagem_pasta": "https://animefire.plus/img/animes/amagami-ss-plus/",
      "secao": "legendados",
      "pagina": 158,
      "total_episodios": 3,
      "link_video": "https://animefire.plus/video/amagami-ss-plus"
    },
    {
      "id": 152,
      "nome": "Amagami SS+ Plus Picture Drama",
      "link": "https://animefire.plus/animes/amagami-ss-plus-picture-drama-todos-os-episodios",
      "texto_original": "Amagami SS+ Plus Picture Drama",
      "rating": 6.56,
      "classificacao_etaria": "A14",
      "imagem_original": "https://animefire.plus/img/animes/amagami-ss-plus-picture-drama.webp",
      "imagem_pasta": "https://animefire.plus/img/animes/amagami-ss-plus-picture-drama/",
      "secao": "legendados",
      "pagina": 69,
      "total_episodios": 1,
      "link_video": "https://animefire.plus/video/amagami-ss-plus-picture-drama"
    },
    {
      "id": 153,
      "nome": "Amagami SS+ Plus: Extra Episode+ Plus",
      "link": "https://animefire.plus/animes/amagami-ss-plus-extra-episode-plus-todos-os-episodios",
      "texto_original": "Amagami SS+ Plus: Extra Episode+ Plus",
      "rating": 7.25,
      "classificacao_etaria": "A14",
      "imagem_original": "https://animefire.plus/img/animes/amagami-ss-plus-extra-episode-plus.webp",
      "imagem_pasta": "https://animefire.plus/img/animes/amagami-ss-plus-extra-episode-plus/",
      "secao": "legendados",
      "pagina": 69,
      "total_episodios": 1,
      "link_video": "https://animefire.plus/video/amagami-ss-plus-extra-episode-plus"
    }
  ],
  "pagination": {
    "current_page": 5,
    "per_page": 20,
    "total_items": 2988,
    "total_pages": 150,
    "has_next": true,
    "has_prev": true
  }
}
