{
  "message": "Animes com classificação etária: A14",
  "age_rating": "A14",
  "data": [
    {
      "id": 1353,
      "nome": "Hanasaku Iroha",
      "link": "https://animefire.plus/animes/hanasaku-iroha-todos-os-episodios",
      "texto_original": "Hanasaku Iroha",
      "rating": 8,
      "classificacao_etaria": "A14",
      "imagem_original": "https://animefire.plus/img/animes/hanasaku-iroha.webp",
      "imagem_pasta": "https://animefire.plus/img/animes/hanasaku-iroha/",
      "secao": "legendados",
      "pagina": 105,
      "total_episodios": 26,
      "link_video": "https://animefire.plus/video/hanasaku-iroha"
    },
    {
      "id": 1356,
      "nome": "Hanayamata",
      "link": "https://animefire.plus/animes/hanayamata-todos-os-episodios",
      "texto_original": "Hanayamata",
      "rating": 7.37,
      "classificacao_etaria": "A14",
      "imagem_original": "https://animefire.plus/img/animes/hanayamata.webp",
      "imagem_pasta": "https://animefire.plus/img/animes/hanayamata/",
      "secao": "legendados",
      "pagina": 91,
      "total_episodios": 12,
      "link_video": "https://animefire.plus/video/hanayamata"
    },
    {
      "id": 1357,
      "nome": "Hanbun no Tsuki ga Noboru Sora",
      "link": "https://animefire.plus/animes/hanbun-no-tsuki-ga-noboru-sora-todos-os-episodios",
      "texto_original": "Hanbun no Tsuki ga Noboru Sora",
      "rating": 7.59,
      "classificacao_etaria": "A14",
      "imagem_original": "https://animefire.plus/img/animes/hanbun-no-tsuki-ga-noboru-sora.webp",
      "imagem_pasta": "https://animefire.plus/img/animes/hanbun-no-tsuki-ga-noboru-sora/",
      "secao": "legendados",
      "pagina": 146,
      "total_episodios": 6,
      "link_video": "https://animefire.plus/video/hanbun-no-tsuki-ga-noboru-sora"
    },
    {
      "id": 1358,
      "nome": "Hand Maid May",
      "link": "https://animefire.plus/animes/hand-maid-may-todos-os-episodios",
      "texto_original": "Hand Maid May",
      "rating": 6.8,
      "classificacao_etaria": "A14",
      "imagem_original": "https://animefire.plus/img/animes/hand-maid-may.webp",
      "imagem_pasta": "https://animefire.plus/img/animes/hand-maid-may/",
      "secao": "legendados",
      "pagina": 108,
      "total_episodios": 0,
      "link_video": "https://animefire.plus/video/hand-maid-may"
    },
    {
      "id": 1359,
      "nome": "Hand Shakers",
      "link": "https://animefire.plus/animes/hand-shakers-todos-os-episodios",
      "texto_original": "Hand Shakers",
      "rating": 5.46,
      "classificacao_etaria": "A14",
      "imagem_original": "https://animefire.plus/img/animes/hand-shakers.webp",
      "imagem_pasta": "https://animefire.plus/img/animes/hand-shakers/",
      "secao": "legendados",
      "pagina": 74,
      "total_episodios": 12,
      "link_video": "https://animefire.plus/video/hand-shakers"
    },
    {
      "id": 1360,
      "nome": "Hand Shakers: Go ago Go",
      "link": "https://animefire.plus/animes/hand-shakers-go-ago-go-todos-os-episodios",
      "texto_original": "Hand Shakers: Go ago Go",
      "rating": 5.72,
      "classificacao_etaria": "A14",
      "imagem_original": "https://animefire.plus/img/animes/hand-shakers-go-ago-go.webp",
      "imagem_pasta": "https://animefire.plus/img/animes/hand-shakers-go-ago-go/",
      "secao": "legendados",
      "pagina": 89,
      "total_episodios": 1,
      "link_video": "https://animefire.plus/video/hand-shakers-go-ago-go"
    },
    {
      "id": 1361,
      "nome": "Handa-kun",
      "link": "https://animefire.plus/animes/handa-kun-todos-os-episodios",
      "texto_original": "Handa-kun",
      "rating": 7.46,
      "classificacao_etaria": "A14",
      "imagem_original": "https://animefire.plus/img/animes/handa-kun.webp",
      "imagem_pasta": "https://animefire.plus/img/animes/handa-kun/",
      "secao": "legendados",
      "pagina": 174,
      "total_episodios": 12,
      "link_video": "https://animefire.plus/video/handa-kun"
    },
    {
      "id": 1362,
      "nome": "Handsome Girl",
      "link": "https://animefire.plus/animes/handsome-girl-todos-os-episodios",
      "texto_original": "Handsome Girl",
      "rating": 5.79,
      "classificacao_etaria": "A14",
      "imagem_original": "https://animefire.plus/img/animes/handsome-girl.webp",
      "imagem_pasta": "https://animefire.plus/img/animes/handsome-girl/",
      "secao": "legendados",
      "pagina": 70,
      "total_episodios": 1,
      "link_video": "https://animefire.plus/video/handsome-girl"
    },
    {
      "id": 1363,
      "nome": "Hanebado!",
      "link": "https://animefire.plus/animes/hanebado-todos-os-episodios",
      "texto_original": "Hanebado!",
      "rating": 7.08,
      "classificacao_etaria": "A14",
      "imagem_original": "https://animefire.plus/img/animes/hanebado.webp",
      "imagem_pasta": "https://animefire.plus/img/animes/hanebado/",
      "secao": "legendados",
      "pagina": 146,
      "total_episodios": 13,
      "link_video": "https://animefire.plus/video/hanebado"
    },
    {
      "id": 1364,
      "nome": "Hangyakusei Million Arthur",
      "link": "https://animefire.plus/animes/hangyakusei-million-arthur-todos-os-episodios",
      "texto_original": "Hangyakusei Million Arthur",
      "rating": 6.28,
      "classificacao_etaria": "A14",
      "imagem_original": "https://animefire.plus/img/animes/hangyakusei-million-arthur.webp",
      "imagem_pasta": "https://animefire.plus/img/animes/hangyakusei-million-arthur/",
      "secao": "legendados",
      "pagina": 116,
      "total_episodios": 10,
      "link_video": "https://animefire.plus/video/hangyakusei-million-arthur"
    },
    {
      "id": 1365,
      "nome": "Hangyakusei Million Arthur 2nd Season",
      "link": "https://animefire.plus/animes/hangyakusei-million-arthur-2nd-season-todos-os-episodios",
      "texto_original": "Hangyakusei Million Arthur 2nd Season",
      "rating": 6.35,
      "classificacao_etaria": "A14",
      "imagem_original": "https://animefire.plus/img/animes/hangyakusei-million-arthur-2nd-season.webp",
      "imagem_pasta": "https://animefire.plus/img/animes/hangyakusei-million-arthur-2nd-season/",
      "secao": "legendados",
      "pagina": 130,
      "total_episodios": 6,
      "link_video": "https://animefire.plus/video/hangyakusei-million-arthur-2nd-season"
    },
    {
      "id": 1366,
      "nome": "Hangyakusei Million Arthur Special",
      "link": "https://animefire.plus/animes/hangyakusei-million-arthur-special-todos-os-episodios",
      "texto_original": "Hangyakusei Million Arthur Special",
      "rating": 6.37,
      "classificacao_etaria": "A14",
      "imagem_original": "https://animefire.plus/img/animes/hangyakusei-million-arthur-special.webp",
      "imagem_pasta": "https://animefire.plus/img/animes/hangyakusei-million-arthur-special/",
      "secao": "legendados",
      "pagina": 94,
      "total_episodios": 1,
      "link_video": "https://animefire.plus/video/hangyakusei-million-arthur-special"
    },
    {
      "id": 1369,
      "nome": "Hanoka",
      "link": "https://animefire.plus/animes/hanoka-todos-os-episodios",
      "texto_original": "Hanoka",
      "rating": 3.82,
      "classificacao_etaria": "A14",
      "imagem_original": "https://animefire.plus/img/animes/hanoka.webp",
      "imagem_pasta": "https://animefire.plus/img/animes/hanoka/",
      "secao": "legendados",
      "pagina": 56,
      "total_episodios": 12,
      "link_video": "https://animefire.plus/video/hanoka"
    },
    {
      "id": 1371,
      "nome": "Hanyou no Yashahime: Sengoku Otogizoushi - Ni no Shou (Dublado)",
      "link": "https://animefire.plus/animes/hanyou-no-yashahime-sengoku-otogizoushi---ni-no-shou-dublado-todos-os-episodios",
      "texto_original": "Hanyou no Yashahime: Sengoku Otogizoushi - Ni no Shou (Dublado)",
      "rating": 7.06,
      "classificacao_etaria": "A14",
      "imagem_original": "https://animefire.plus/img/animes/hanyou-no-yashahime-sengoku-otogizoushi---ni-no-shou.webp",
      "imagem_pasta": "https://animefire.plus/img/animes/hanyou-no-yashahime-sengoku-otogizoushi---ni-no-shou/",
      "secao": "dublados,legendados",
      "pagina": 14,
      "total_episodios": 24,
      "link_video": "https://animefire.plus/video/hanyou-no-yashahime-sengoku-otogizoushi---ni-no-shou-dublado"
    },
    {
      "id": 1372,
      "nome": "Hanyou no Yashahime: Sengoku Otogizoushi (Dublado)",
      "link": "https://animefire.plus/animes/hanyou-no-yashahime-sengoku-otogizoushi-dublado-todos-os-episodios",
      "texto_original": "Hanyou no Yashahime: Sengoku Otogizoushi (Dublado)",
      "rating": 7.36,
      "classificacao_etaria": "A14",
      "imagem_original": "https://animefire.plus/img/animes/hanyou-no-yashahime-sengoku-otogizoushi.webp",
      "imagem_pasta": "https://animefire.plus/img/animes/hanyou-no-yashahime-sengoku-otogizoushi/",
      "secao": "dublados,legendados,lancamentos",
      "pagina": 19,
      "total_episodios": 24,
      "link_video": "https://animefire.plus/video/hanyou-no-yashahime-sengoku-otogizoushi-dublado"
    },
    {
      "id": 1376,
      "nome": "HaruChika: Haruta To Chika Wa Seishun Suru",
      "link": "https://animefire.plus/animes/haruchika-haruta-to-chika-wa-seishun-suru-todos-os-episodios",
      "texto_original": "HaruChika: Haruta To Chika Wa Seishun Suru",
      "rating": 6.41,
      "classificacao_etaria": "A14",
      "imagem_original": "https://animefire.plus/img/animes/haruchika-haruta-to-chika-wa-seishun-suru.webp",
      "imagem_pasta": "https://animefire.plus/img/animes/haruchika-haruta-to-chika-wa-seishun-suru/",
      "secao": "legendados",
      "pagina": 96,
      "total_episodios": 12,
      "link_video": "https://animefire.plus/video/haruchika-haruta-to-chika-wa-seishun-suru"
    },
    {
      "id": 1377,
      "nome": "Harukana Receive",
      "link": "https://animefire.plus/animes/harukana-receive-todos-os-episodios",
      "texto_original": "Harukana Receive",
      "rating": 6.84,
      "classificacao_etaria": "A14",
      "imagem_original": "https://animefire.plus/img/animes/harukana-receive.webp",
      "imagem_pasta": "https://animefire.plus/img/animes/harukana-receive/",
      "secao": "legendados",
      "pagina": 161,
      "total_episodios": 12,
      "link_video": "https://animefire.plus/video/harukana-receive"
    },
    {
      "id": 1378,
      "nome": "Harukanaru Toki No Naka De: Hachiyou Shou",
      "link": "https://animefire.plus/animes/harukanaru-toki-no-naka-de-hachiyou-shou-todos-os-episodios",
      "texto_original": "Harukanaru Toki No Naka De: Hachiyou Shou",
      "rating": 7.12,
      "classificacao_etaria": "A14",
      "imagem_original": "https://animefire.plus/img/animes/harukanaru-toki-no-naka-de-hachiyou-shou.webp",
      "imagem_pasta": "https://animefire.plus/img/animes/harukanaru-toki-no-naka-de-hachiyou-shou/",
      "secao": "legendados",
      "pagina": 100,
      "total_episodios": 26,
      "link_video": "https://animefire.plus/video/harukanaru-toki-no-naka-de-hachiyou-shou"
    },
    {
      "id": 1380,
      "nome": "Hashiri Tsuzukete Yokattatte.",
      "link": "https://animefire.plus/animes/hashiri-tsuzukete-yokattatte-todos-os-episodios",
      "texto_original": "Hashiri Tsuzukete Yokattatte.",
      "rating": 6.49,
      "classificacao_etaria": "A14",
      "imagem_original": "https://animefire.plus/img/animes/hashiri-tsuzukete-yokattatte.webp",
      "imagem_pasta": "https://animefire.plus/img/animes/hashiri-tsuzukete-yokattatte/",
      "secao": "legendados",
      "pagina": 146,
      "total_episodios": 4,
      "link_video": "https://animefire.plus/video/hashiri-tsuzukete-yokattatte"
    },
    {
      "id": 1381,
      "nome": "Hataage! Kemono Michi",
      "link": "https://animefire.plus/animes/hataage-kemono-michi-todos-os-episodios",
      "texto_original": "Hataage! Kemono Michi",
      "rating": 6.69,
      "classificacao_etaria": "A14",
      "imagem_original": "https://animefire.plus/img/animes/hataage-kemono-michi.webp",
      "imagem_pasta": "https://animefire.plus/img/animes/hataage-kemono-michi/",
      "secao": "legendados",
      "pagina": 111,
      "total_episodios": 0,
      "link_video": "https://animefire.plus/video/hataage-kemono-michi"
    }
  ],
  "pagination": {
    "current_page": 44,
    "per_page": 20,
    "total_items": 2988,
    "total_pages": 150,
    "has_next": true,
    "has_prev": true
  }
}
