{
  "message": "Animes com classificação etária: A14",
  "age_rating": "A14",
  "data": [
    {
      "id": 1925,
      "nome": "Keishichou Tokumubu Tokushu Kyouakuhan Taisakushitsu Dainanaka: Tokunana",
      "link": "https://animefire.plus/animes/keishichou-tokumubu-tokushu-kyouakuhan-taisakushitsu-dainanaka-tokunana-todos-os-episodios",
      "texto_original": "Keishichou Tokumubu Tokushu Kyouakuhan Taisakushitsu Dainanaka: Tokunana",
      "rating": 6.02,
      "classificacao_etaria": "A14",
      "imagem_original": "https://animefire.plus/img/animes/keishichou-tokumubu-tokushu-kyouakuhan-taisakushitsu-dainanaka-tokunana.webp",
      "imagem_pasta": "https://animefire.plus/img/animes/keishichou-tokumubu-tokushu-kyouakuhan-taisakushitsu-dainanaka-tokunana/",
      "secao": "legendados",
      "pagina": 110,
      "total_episodios": 12,
      "link_video": "https://animefire.plus/video/keishichou-tokumubu-tokushu-kyouakuhan-taisakushitsu-dainanaka-tokunana"
    },
    {
      "id": 1927,
      "nome": "Keitai Shoujo",
      "link": "https://animefire.plus/animes/keitai-shoujo-todos-os-episodios",
      "texto_original": "Keitai Shoujo",
      "rating": 5.36,
      "classificacao_etaria": "A14",
      "imagem_original": "https://animefire.plus/img/animes/keitai-shoujo.webp",
      "imagem_pasta": "https://animefire.plus/img/animes/keitai-shoujo/",
      "secao": "legendados",
      "pagina": 131,
      "total_episodios": 5,
      "link_video": "https://animefire.plus/video/keitai-shoujo"
    },
    {
      "id": 1931,
      "nome": "Kekkaishi",
      "link": "https://animefire.plus/animes/kekkaishi-todos-os-episodios",
      "texto_original": "Kekkaishi",
      "rating": 7.68,
      "classificacao_etaria": "A14",
      "imagem_original": "https://animefire.plus/img/animes/kekkaishi.webp",
      "imagem_pasta": "https://animefire.plus/img/animes/kekkaishi/",
      "secao": "legendados",
      "pagina": 175,
      "total_episodios": 34,
      "link_video": "https://animefire.plus/video/kekkaishi"
    },
    {
      "id": 1932,
      "nome": "Kekkon suru tte, Hontou desu ka (Dublado)",
      "link": "https://animefire.plus/animes/kekkon-suru-tte-hontou-desu-ka-dublado-todos-os-episodios",
      "texto_original": "Kekkon suru tte, Hontou desu ka (Dublado)",
      "rating": 7.12,
      "classificacao_etaria": "A14",
      "imagem_original": "https://animefire.plus/img/animes/kekkon-suru-tte-hontou-desu-ka.webp",
      "imagem_pasta": "https://animefire.plus/img/animes/kekkon-suru-tte-hontou-desu-ka/",
      "secao": "dublados,legendados,lancamentos",
      "pagina": 2,
      "total_episodios": 12,
      "link_video": "https://animefire.plus/video/kekkon-suru-tte-hontou-desu-ka-dublado"
    },
    {
      "id": 1934,
      "nome": "Kemeko Deluxe!",
      "link": "https://animefire.plus/animes/kemeko-deluxe-todos-os-episodios",
      "texto_original": "Kemeko Deluxe!",
      "rating": 6.67,
      "classificacao_etaria": "A14",
      "imagem_original": "https://animefire.plus/img/animes/kemeko-deluxe.webp",
      "imagem_pasta": "https://animefire.plus/img/animes/kemeko-deluxe/",
      "secao": "legendados",
      "pagina": 137,
      "total_episodios": 12,
      "link_video": "https://animefire.plus/video/kemeko-deluxe"
    },
    {
      "id": 1936,
      "nome": "Kemono Friends 2",
      "link": "https://animefire.plus/animes/kemono-friends-2-todos-os-episodios",
      "texto_original": "Kemono Friends 2",
      "rating": 5.87,
      "classificacao_etaria": "A14",
      "imagem_original": "https://animefire.plus/img/animes/kemono-friends-2.webp",
      "imagem_pasta": "https://animefire.plus/img/animes/kemono-friends-2/",
      "secao": "legendados",
      "pagina": 112,
      "total_episodios": 2,
      "link_video": "https://animefire.plus/video/kemono-friends-2"
    },
    {
      "id": 1938,
      "nome": "Kemono no Souja Erin",
      "link": "https://animefire.plus/animes/kemono-no-souja-erin-todos-os-episodios",
      "texto_original": "Kemono no Souja Erin",
      "rating": 8.37,
      "classificacao_etaria": "A14",
      "imagem_original": "https://animefire.plus/img/animes/kemono-no-souja-erin.webp",
      "imagem_pasta": "https://animefire.plus/img/animes/kemono-no-souja-erin/",
      "secao": "legendados",
      "pagina": 72,
      "total_episodios": 50,
      "link_video": "https://animefire.plus/video/kemono-no-souja-erin"
    },
    {
      "id": 1940,
      "nome": "Kemurikusa (TV)",
      "link": "https://animefire.plus/animes/kemurikusa-tv-todos-os-episodios",
      "texto_original": "Kemurikusa (TV)",
      "rating": 7.1,
      "classificacao_etaria": "A14",
      "imagem_original": "https://animefire.plus/img/animes/kemurikusa-tv.webp",
      "imagem_pasta": "https://animefire.plus/img/animes/kemurikusa-tv/",
      "secao": "legendados",
      "pagina": 60,
      "total_episodios": 12,
      "link_video": "https://animefire.plus/video/kemurikusa-tv"
    },
    {
      "id": 1941,
      "nome": "Ken En Ken: Aoki Kagayaki",
      "link": "https://animefire.plus/animes/ken-en-ken-aoki-kagayaki-todos-os-episodios",
      "texto_original": "Ken En Ken: Aoki Kagayaki",
      "rating": 6.14,
      "classificacao_etaria": "A14",
      "imagem_original": "https://animefire.plus/img/animes/ken-en-ken-aoki-kagayaki.webp",
      "imagem_pasta": "https://animefire.plus/img/animes/ken-en-ken-aoki-kagayaki/",
      "secao": "legendados",
      "pagina": 159,
      "total_episodios": 13,
      "link_video": "https://animefire.plus/video/ken-en-ken-aoki-kagayaki"
    },
    {
      "id": 1944,
      "nome": "Kenja no Deshi wo Nanoru Kenja",
      "link": "https://animefire.plus/animes/kenja-no-deshi-wo-nanoru-kenja-todos-os-episodios",
      "texto_original": "Kenja no Deshi wo Nanoru Kenja",
      "rating": 6.33,
      "classificacao_etaria": "A14",
      "imagem_original": "https://animefire.plus/img/animes/kenja-no-deshi-wo-nanoru-kenja.webp",
      "imagem_pasta": "https://animefire.plus/img/animes/kenja-no-deshi-wo-nanoru-kenja/",
      "secao": "legendados",
      "pagina": 37,
      "total_episodios": 12,
      "link_video": "https://animefire.plus/video/kenja-no-deshi-wo-nanoru-kenja"
    },
    {
      "id": 1945,
      "nome": "Kenja no Mago (Dublado)",
      "link": "https://animefire.plus/animes/kenja-no-mago-dublado-todos-os-episodios",
      "texto_original": "Kenja no Mago (Dublado)",
      "rating": 6.58,
      "classificacao_etaria": "A14",
      "imagem_original": "https://animefire.plus/img/animes/kenja-no-mago.webp",
      "imagem_pasta": "https://animefire.plus/img/animes/kenja-no-mago/",
      "secao": "dublados,legendados",
      "pagina": 15,
      "total_episodios": 12,
      "link_video": "https://animefire.plus/video/kenja-no-mago-dublado"
    },
    {
      "id": 1946,
      "nome": "Kenka Banchou Otome: Girl Beats Boys",
      "link": "https://animefire.plus/animes/kenka-banchou-otome-girl-beats-boys-todos-os-episodios",
      "texto_original": "Kenka Banchou Otome: Girl Beats Boys",
      "rating": 6.59,
      "classificacao_etaria": "A14",
      "imagem_original": "https://animefire.plus/img/animes/kenka-banchou-otome-girl-beats-boys.webp",
      "imagem_pasta": "https://animefire.plus/img/animes/kenka-banchou-otome-girl-beats-boys/",
      "secao": "legendados",
      "pagina": 155,
      "total_episodios": 12,
      "link_video": "https://animefire.plus/video/kenka-banchou-otome-girl-beats-boys"
    },
    {
      "id": 1947,
      "nome": "Kenka Dokugaku",
      "link": "https://animefire.plus/animes/kenka-dokugaku-todos-os-episodios",
      "texto_original": "Kenka Dokugaku",
      "rating": 7.33,
      "classificacao_etaria": "A14",
      "imagem_original": "https://animefire.plus/img/animes/kenka-dokugaku.webp",
      "imagem_pasta": "https://animefire.plus/img/animes/kenka-dokugaku/",
      "secao": "legendados",
      "pagina": 14,
      "total_episodios": 12,
      "link_video": "https://animefire.plus/video/kenka-dokugaku"
    },
    {
      "id": 1948,
      "nome": "Kenkou Zenrakei Suieibu Umishou",
      "link": "https://animefire.plus/animes/kenkou-zenrakei-suieibu-umishou-todos-os-episodios",
      "texto_original": "Kenkou Zenrakei Suieibu Umishou",
      "rating": 7.17,
      "classificacao_etaria": "A14",
      "imagem_original": "https://animefire.plus/img/animes/kenkou-zenrakei-suieibu-umishou.webp",
      "imagem_pasta": "https://animefire.plus/img/animes/kenkou-zenrakei-suieibu-umishou/",
      "secao": "legendados",
      "pagina": 77,
      "total_episodios": 13,
      "link_video": "https://animefire.plus/video/kenkou-zenrakei-suieibu-umishou"
    },
    {
      "id": 1951,
      "nome": "Kenran Butou Sai: The Mars Daybreak",
      "link": "https://animefire.plus/animes/kenran-butou-sai-the-mars-daybreak-todos-os-episodios",
      "texto_original": "Kenran Butou Sai: The Mars Daybreak",
      "rating": 7.23,
      "classificacao_etaria": "A14",
      "imagem_original": "https://animefire.plus/img/animes/kenran-butou-sai-the-mars-daybreak.webp",
      "imagem_pasta": "https://animefire.plus/img/animes/kenran-butou-sai-the-mars-daybreak/",
      "secao": "legendados",
      "pagina": 138,
      "total_episodios": 26,
      "link_video": "https://animefire.plus/video/kenran-butou-sai-the-mars-daybreak"
    },
    {
      "id": 1953,
      "nome": "Keppeki Danshi! Aoyama-kun",
      "link": "https://animefire.plus/animes/keppeki-danshi-aoyama-kun-todos-os-episodios",
      "texto_original": "Keppeki Danshi! Aoyama-kun",
      "rating": 7.06,
      "classificacao_etaria": "A14",
      "imagem_original": "https://animefire.plus/img/animes/keppeki-danshi-aoyama-kun.webp",
      "imagem_pasta": "https://animefire.plus/img/animes/keppeki-danshi-aoyama-kun/",
      "secao": "legendados",
      "pagina": 103,
      "total_episodios": 0,
      "link_video": "https://animefire.plus/video/keppeki-danshi-aoyama-kun"
    },
    {
      "id": 1955,
      "nome": "Kiba",
      "link": "https://animefire.plus/animes/kiba-todos-os-episodios",
      "texto_original": "Kiba",
      "rating": 7.38,
      "classificacao_etaria": "A14",
      "imagem_original": "https://animefire.plus/img/animes/kiba.webp",
      "imagem_pasta": "https://animefire.plus/img/animes/kiba/",
      "secao": "legendados",
      "pagina": 168,
      "total_episodios": 51,
      "link_video": "https://animefire.plus/video/kiba"
    },
    {
      "id": 1956,
      "nome": "Kibou no Chikara: Otona Precure '23",
      "link": "https://animefire.plus/animes/kibou-no-chikara-otona-precure-23-todos-os-episodios",
      "texto_original": "Kibou no Chikara: Otona Precure '23",
      "rating": 6.56,
      "classificacao_etaria": "A14",
      "imagem_original": "https://animefire.plus/img/animes/kibou-no-chikara-otona-precure-23.webp",
      "imagem_pasta": "https://animefire.plus/img/animes/kibou-no-chikara-otona-precure-23/",
      "secao": "legendados",
      "pagina": 19,
      "total_episodios": 12,
      "link_video": "https://animefire.plus/video/kibou-no-chikara-otona-precure-23"
    },
    {
      "id": 1957,
      "nome": "Kiddy GiRL-AND",
      "link": "https://animefire.plus/animes/kiddy-girl-and-todos-os-episodios",
      "texto_original": "Kiddy GiRL-AND",
      "rating": 6.93,
      "classificacao_etaria": "A14",
      "imagem_original": "https://animefire.plus/img/animes/kiddy-girl-and.webp",
      "imagem_pasta": "https://animefire.plus/img/animes/kiddy-girl-and/",
      "secao": "legendados",
      "pagina": 142,
      "total_episodios": 24,
      "link_video": "https://animefire.plus/video/kiddy-girl-and"
    },
    {
      "id": 1959,
      "nome": "Kidou Keisatsu Patlabor",
      "link": "https://animefire.plus/animes/kidou-keisatsu-patlabor-todos-os-episodios",
      "texto_original": "Kidou Keisatsu Patlabor",
      "rating": 7.29,
      "classificacao_etaria": "A14",
      "imagem_original": "https://animefire.plus/img/animes/kidou-keisatsu-patlabor.webp",
      "imagem_pasta": "https://animefire.plus/img/animes/kidou-keisatsu-patlabor/",
      "secao": "legendados",
      "pagina": 42,
      "total_episodios": 7,
      "link_video": "https://animefire.plus/video/kidou-keisatsu-patlabor"
    }
  ],
  "pagination": {
    "current_page": 63,
    "per_page": 20,
    "total_items": 2988,
    "total_pages": 150,
    "has_next": true,
    "has_prev": true
  }
}
