{
  "message": "Animes com classificação etária: A14",
  "age_rating": "A14",
  "data": [
    {
      "id": 2728,
      "nome": "NieR:Automata Ver1.1a Part 2",
      "link": "https://animefire.plus/animes/nier-automata-ver1-1a-part-2-todos-os-episodios",
      "texto_original": "NieR:Automata Ver1.1a Part 2",
      "rating": 8.05,
      "classificacao_etaria": "A14",
      "imagem_original": "https://animefire.plus/img/animes/nier-automata-ver1-1a-part-2.webp",
      "imagem_pasta": "https://animefire.plus/img/animes/nier-automata-ver1-1a-part-2/",
      "secao": "legendados",
      "pagina": 12,
      "total_episodios": 12,
      "link_video": "https://animefire.plus/video/nier-automata-ver1-1a-part-2"
    },
    {
      "id": 2733,
      "nome": "Night Wizard",
      "link": "https://animefire.plus/animes/night-wizard-todos-os-episodios",
      "texto_original": "Night Wizard",
      "rating": 6.75,
      "classificacao_etaria": "A14",
      "imagem_original": "https://animefire.plus/img/animes/night-wizard.webp",
      "imagem_pasta": "https://animefire.plus/img/animes/night-wizard/",
      "secao": "legendados",
      "pagina": 178,
      "total_episodios": 9,
      "link_video": "https://animefire.plus/video/night-wizard"
    },
    {
      "id": 2735,
      "nome": "Nihon e Youkoso Elf-san.",
      "link": "https://animefire.plus/animes/nihon-e-youkoso-elf-san-todos-os-episodios",
      "texto_original": "Nihon e Youkoso Elf-san.",
      "rating": 7.29,
      "classificacao_etaria": "A14",
      "imagem_original": "https://animefire.plus/img/animes/nihon-e-youkoso-elf-san.webp",
      "imagem_pasta": "https://animefire.plus/img/animes/nihon-e-youkoso-elf-san/",
      "secao": "legendados",
      "pagina": 7,
      "total_episodios": 12,
      "link_video": "https://animefire.plus/video/nihon-e-youkoso-elf-san"
    },
    {
      "id": 2736,
      "nome": "Nijiiro Days",
      "link": "https://animefire.plus/animes/nijiiro-days-todos-os-episodios",
      "texto_original": "Nijiiro Days",
      "rating": 7.47,
      "classificacao_etaria": "A14",
      "imagem_original": "https://animefire.plus/img/animes/nijiiro-days.webp",
      "imagem_pasta": "https://animefire.plus/img/animes/nijiiro-days/",
      "secao": "legendados",
      "pagina": 113,
      "total_episodios": 16,
      "link_video": "https://animefire.plus/video/nijiiro-days"
    },
    {
      "id": 2737,
      "nome": "Nijiyon Animation",
      "link": "https://animefire.plus/animes/nijiyon-animation-todos-os-episodios",
      "texto_original": "Nijiyon Animation",
      "rating": 6.81,
      "classificacao_etaria": "A14",
      "imagem_original": "https://animefire.plus/img/animes/nijiyon-animation.webp",
      "imagem_pasta": "https://animefire.plus/img/animes/nijiyon-animation/",
      "secao": "legendados",
      "pagina": 25,
      "total_episodios": 12,
      "link_video": "https://animefire.plus/video/nijiyon-animation"
    },
    {
      "id": 2738,
      "nome": "Nijiyon Animation 2",
      "link": "https://animefire.plus/animes/nijiyon-animation-2-todos-os-episodios",
      "texto_original": "Nijiyon Animation 2",
      "rating": 6.85,
      "classificacao_etaria": "A14",
      "imagem_original": "https://animefire.plus/img/animes/nijiyon-animation-2.webp",
      "imagem_pasta": "https://animefire.plus/img/animes/nijiyon-animation-2/",
      "secao": "legendados",
      "pagina": 14,
      "total_episodios": 12,
      "link_video": "https://animefire.plus/video/nijiyon-animation-2"
    },
    {
      "id": 2739,
      "nome": "Nijuu Mensou no Musume",
      "link": "https://animefire.plus/animes/nijuu-mensou-no-musume-todos-os-episodios",
      "texto_original": "Nijuu Mensou no Musume",
      "rating": 7.61,
      "classificacao_etaria": "A14",
      "imagem_original": "https://animefire.plus/img/animes/nijuu-mensou-no-musume.webp",
      "imagem_pasta": "https://animefire.plus/img/animes/nijuu-mensou-no-musume/",
      "secao": "legendados",
      "pagina": 173,
      "total_episodios": 22,
      "link_video": "https://animefire.plus/video/nijuu-mensou-no-musume"
    },
    {
      "id": 2740,
      "nome": "Nil Admirari no Tenbin",
      "link": "https://animefire.plus/animes/nil-admirari-no-tenbin-todos-os-episodios",
      "texto_original": "Nil Admirari no Tenbin",
      "rating": 6.67,
      "classificacao_etaria": "A14",
      "imagem_original": "https://animefire.plus/img/animes/nil-admirari-no-tenbin.webp",
      "imagem_pasta": "https://animefire.plus/img/animes/nil-admirari-no-tenbin/",
      "secao": "legendados",
      "pagina": 146,
      "total_episodios": 12,
      "link_video": "https://animefire.plus/video/nil-admirari-no-tenbin"
    },
    {
      "id": 2741,
      "nome": "Ningen Fushin no Boukensha-tachi ga Sekai wo Sukuu you desu (Dublado)",
      "link": "https://animefire.plus/animes/ningen-fushin-no-boukensha-tachi-ga-sekai-wo-sukuu-you-desu-dublado-todos-os-episodios",
      "texto_original": "Ningen Fushin no Boukensha-tachi ga Sekai wo Sukuu you desu (Dublado)",
      "rating": 6.33,
      "classificacao_etaria": "A14",
      "imagem_original": "https://animefire.plus/img/animes/ningen-fushin-no-boukensha-tachi-ga-sekai-wo-sukuu-you-desu.webp",
      "imagem_pasta": "https://animefire.plus/img/animes/ningen-fushin-no-boukensha-tachi-ga-sekai-wo-sukuu-you-desu/",
      "secao": "dublados,legendados",
      "pagina": 6,
      "total_episodios": 12,
      "link_video": "https://animefire.plus/video/ningen-fushin-no-boukensha-tachi-ga-sekai-wo-sukuu-you-desu-dublado"
    },
    {
      "id": 2742,
      "nome": "Ninja Collection",
      "link": "https://animefire.plus/animes/ninja-collection-todos-os-episodios",
      "texto_original": "Ninja Collection",
      "rating": null,
      "classificacao_etaria": "A14",
      "imagem_original": "https://animefire.plus/img/animes/ninja-collection.webp",
      "imagem_pasta": "https://animefire.plus/img/animes/ninja-collection/",
      "secao": "legendados,lancamentos",
      "pagina": 57,
      "total_episodios": 11,
      "link_video": "https://animefire.plus/video/ninja-collection"
    },
    {
      "id": 2746,
      "nome": "Ninja to Koroshiya no Futarigurashi",
      "link": "https://animefire.plus/animes/ninja-to-koroshiya-no-futarigurashi-todos-os-episodios",
      "texto_original": "Ninja to Koroshiya no Futarigurashi",
      "rating": 7.63,
      "classificacao_etaria": "A14",
      "imagem_original": "https://animefire.plus/img/animes/ninja-to-koroshiya-no-futarigurashi.webp",
      "imagem_pasta": "https://animefire.plus/img/animes/ninja-to-koroshiya-no-futarigurashi/",
      "secao": "legendados",
      "pagina": 4,
      "total_episodios": 12,
      "link_video": "https://animefire.plus/video/ninja-to-koroshiya-no-futarigurashi"
    },
    {
      "id": 2747,
      "nome": "Nisekoi",
      "link": "https://animefire.plus/animes/nisekoi-todos-os-episodios",
      "texto_original": "Nisekoi",
      "rating": 7.71,
      "classificacao_etaria": "A14",
      "imagem_original": "https://animefire.plus/img/animes/nisekoi.webp",
      "imagem_pasta": "https://animefire.plus/img/animes/nisekoi/",
      "secao": "legendados",
      "pagina": 79,
      "total_episodios": 20,
      "link_video": "https://animefire.plus/video/nisekoi"
    },
    {
      "id": 2748,
      "nome": "Nisekoi 2nd season",
      "link": "https://animefire.plus/animes/nisekoi-2nd-season-todos-os-episodios",
      "texto_original": "Nisekoi 2nd season",
      "rating": 7.43,
      "classificacao_etaria": "A14",
      "imagem_original": "https://animefire.plus/img/animes/nisekoi-2nd-season.webp",
      "imagem_pasta": "https://animefire.plus/img/animes/nisekoi-2nd-season/",
      "secao": "legendados",
      "pagina": 79,
      "total_episodios": 12,
      "link_video": "https://animefire.plus/video/nisekoi-2nd-season"
    },
    {
      "id": 2750,
      "nome": "Nmeneko",
      "link": "https://animefire.plus/animes/nmeneko-todos-os-episodios",
      "texto_original": "Nmeneko",
      "rating": null,
      "classificacao_etaria": "A14",
      "imagem_original": "https://animefire.plus/img/animes/nmeneko.webp",
      "imagem_pasta": "https://animefire.plus/img/animes/nmeneko/",
      "secao": "legendados,lancamentos",
      "pagina": 4,
      "total_episodios": 0,
      "link_video": "https://animefire.plus/video/nmeneko"
    },
    {
      "id": 2751,
      "nome": "No Game No Life (Dublado)",
      "link": "https://animefire.plus/animes/no-game-no-life-dublado-todos-os-episodios",
      "texto_original": "No Game No Life (Dublado)",
      "rating": 8.29,
      "classificacao_etaria": "A14",
      "imagem_original": "https://animefire.plus/img/animes/no-game-no-life.webp",
      "imagem_pasta": "https://animefire.plus/img/animes/no-game-no-life/",
      "secao": "dublados,legendados",
      "pagina": 22,
      "total_episodios": 12,
      "link_video": "https://animefire.plus/video/no-game-no-life-dublado"
    },
    {
      "id": 2752,
      "nome": "No Game No Life Specials",
      "link": "https://animefire.plus/animes/no-game-no-life-specials-todos-os-episodios",
      "texto_original": "No Game No Life Specials",
      "rating": 6.76,
      "classificacao_etaria": "A14",
      "imagem_original": "https://animefire.plus/img/animes/no-game-no-life-specials.webp",
      "imagem_pasta": "https://animefire.plus/img/animes/no-game-no-life-specials/",
      "secao": "legendados",
      "pagina": 75,
      "total_episodios": 3,
      "link_video": "https://animefire.plus/video/no-game-no-life-specials"
    },
    {
      "id": 2753,
      "nome": "No Game No Life: Zero",
      "link": "https://animefire.plus/animes/no-game-no-life-zero-todos-os-episodios",
      "texto_original": "No Game No Life: Zero",
      "rating": 8.56,
      "classificacao_etaria": "A14",
      "imagem_original": "https://animefire.plus/img/animes/no-game-no-life-zero.webp",
      "imagem_pasta": "https://animefire.plus/img/animes/no-game-no-life-zero/",
      "secao": "legendados",
      "pagina": 105,
      "total_episodios": 4,
      "link_video": "https://animefire.plus/video/no-game-no-life-zero"
    },
    {
      "id": 2754,
      "nome": "No Guns Life",
      "link": "https://animefire.plus/animes/no-guns-life-todos-os-episodios",
      "texto_original": "No Guns Life",
      "rating": 6.89,
      "classificacao_etaria": "A14",
      "imagem_original": "https://animefire.plus/img/animes/no-guns-life.webp",
      "imagem_pasta": "https://animefire.plus/img/animes/no-guns-life/",
      "secao": "legendados",
      "pagina": 110,
      "total_episodios": 0,
      "link_video": "https://animefire.plus/video/no-guns-life"
    },
    {
      "id": 2755,
      "nome": "No Guns Life 2nd Season",
      "link": "https://animefire.plus/animes/no-guns-life-2nd-season-todos-os-episodios",
      "texto_original": "No Guns Life 2nd Season",
      "rating": null,
      "classificacao_etaria": "A14",
      "imagem_original": "https://animefire.plus/img/animes/no-guns-life-2nd-season.webp",
      "imagem_pasta": "https://animefire.plus/img/animes/no-guns-life-2nd-season/",
      "secao": "legendados",
      "pagina": 58,
      "total_episodios": 12,
      "link_video": "https://animefire.plus/video/no-guns-life-2nd-season"
    },
    {
      "id": 2760,
      "nome": "Nobunaga Concerto",
      "link": "https://animefire.plus/animes/nobunaga-concerto-todos-os-episodios",
      "texto_original": "Nobunaga Concerto",
      "rating": 7.69,
      "classificacao_etaria": "A14",
      "imagem_original": "https://animefire.plus/img/animes/nobunaga-concerto.webp",
      "imagem_pasta": "https://animefire.plus/img/animes/nobunaga-concerto/",
      "secao": "legendados",
      "pagina": 141,
      "total_episodios": 7,
      "link_video": "https://animefire.plus/video/nobunaga-concerto"
    }
  ],
  "pagination": {
    "current_page": 91,
    "per_page": 20,
    "total_items": 2988,
    "total_pages": 150,
    "has_next": true,
    "has_prev": true
  }
}
