{
  "message": "Animes com classificação etária: A14",
  "age_rating": "A14",
  "data": [
    {
      "id": 4273,
      "nome": "Yozakura Quartet: Hana no Uta",
      "link": "https://animefire.plus/animes/yozakura-quartet-hana-no-uta-todos-os-episodios",
      "texto_original": "Yozakura Quartet: Hana no Uta",
      "rating": 7.55,
      "classificacao_etaria": "A14",
      "imagem_original": "https://animefire.plus/img/animes/yozakura-quartet-hana-no-uta.webp",
      "imagem_pasta": "https://animefire.plus/img/animes/yozakura-quartet-hana-no-uta/",
      "secao": "legendados",
      "pagina": 169,
      "total_episodios": 4,
      "link_video": "https://animefire.plus/video/yozakura-quartet-hana-no-uta"
    },
    {
      "id": 4274,
      "nome": "Yozakura-san Chi no Daisakusen",
      "link": "https://animefire.plus/animes/yozakura-san-chi-no-daisakusen-todos-os-episodios",
      "texto_original": "Yozakura-san Chi no Daisakusen",
      "rating": 7.56,
      "classificacao_etaria": "A14",
      "imagem_original": "https://animefire.plus/img/animes/yozakura-san-chi-no-daisakusen.webp",
      "imagem_pasta": "https://animefire.plus/img/animes/yozakura-san-chi-no-daisakusen/",
      "secao": "legendados,lancamentos",
      "pagina": 15,
      "total_episodios": 18,
      "link_video": "https://animefire.plus/video/yozakura-san-chi-no-daisakusen"
    },
    {
      "id": 4275,
      "nome": "Yu-Gi-Oh! Card Game: The Chronicles",
      "link": "https://animefire.plus/animes/yu-gi-oh-card-game-the-chronicles-todos-os-episodios",
      "texto_original": "Yu-Gi-Oh! Card Game: The Chronicles",
      "rating": null,
      "classificacao_etaria": "A14",
      "imagem_original": "https://animefire.plus/img/animes/yu-gi-oh-card-game-the-chronicles.webp",
      "imagem_pasta": "https://animefire.plus/img/animes/yu-gi-oh-card-game-the-chronicles/",
      "secao": "legendados,lancamentos",
      "pagina": 3,
      "total_episodios": 0,
      "link_video": "https://animefire.plus/video/yu-gi-oh-card-game-the-chronicles"
    },
    {
      "id": 4276,
      "nome": "Yu☆Gi☆Oh!",
      "link": "https://animefire.plus/animes/yu-gi-oh-todos-os-episodios",
      "texto_original": "Yu☆Gi☆Oh!",
      "rating": 7.29,
      "classificacao_etaria": "A14",
      "imagem_original": "https://animefire.plus/img/animes/yu-gi-oh.webp",
      "imagem_pasta": "https://animefire.plus/img/animes/yu-gi-oh/",
      "secao": "legendados",
      "pagina": 131,
      "total_episodios": 16,
      "link_video": "https://animefire.plus/video/yu-gi-oh"
    },
    {
      "id": 4277,
      "nome": "Yu☆Gi☆Oh! 5D's",
      "link": "https://animefire.plus/animes/yu-gi-oh-5d-s-todos-os-episodios",
      "texto_original": "Yu☆Gi☆Oh! 5D's",
      "rating": 7.51,
      "classificacao_etaria": "A14",
      "imagem_original": "https://animefire.plus/img/animes/yu-gi-oh-5d-s.webp",
      "imagem_pasta": "https://animefire.plus/img/animes/yu-gi-oh-5d-s/",
      "secao": "legendados",
      "pagina": 125,
      "total_episodios": 153,
      "link_video": "https://animefire.plus/video/yu-gi-oh-5d-s"
    },
    {
      "id": 4278,
      "nome": "Yu☆Gi☆Oh! Duel Monsters",
      "link": "https://animefire.plus/animes/yu-gi-oh-duel-monsters-todos-os-episodios",
      "texto_original": "Yu☆Gi☆Oh! Duel Monsters",
      "rating": 7.56,
      "classificacao_etaria": "A14",
      "imagem_original": "https://animefire.plus/img/animes/yu-gi-oh-duel-monsters.webp",
      "imagem_pasta": "https://animefire.plus/img/animes/yu-gi-oh-duel-monsters/",
      "secao": "legendados",
      "pagina": 137,
      "total_episodios": 40,
      "link_video": "https://animefire.plus/video/yu-gi-oh-duel-monsters"
    },
    {
      "id": 4279,
      "nome": "Yu☆Gi☆Oh! VRAINS (Dublado)",
      "link": "https://animefire.plus/animes/yu-gi-oh-vrains-dublado-todos-os-episodios",
      "texto_original": "Yu☆Gi☆Oh! VRAINS (Dublado)",
      "rating": 6.64,
      "classificacao_etaria": "A14",
      "imagem_original": "https://animefire.plus/img/animes/yu-gi-oh-vrains.webp",
      "imagem_pasta": "https://animefire.plus/img/animes/yu-gi-oh-vrains/",
      "secao": "dublados",
      "pagina": 18,
      "total_episodios": 2,
      "link_video": "https://animefire.plus/video/yu-gi-oh-vrains-dublado"
    },
    {
      "id": 4280,
      "nome": "Yu☆Gi☆Oh! Zexal",
      "link": "https://animefire.plus/animes/yu-gi-oh-zexal-todos-os-episodios",
      "texto_original": "Yu☆Gi☆Oh! Zexal",
      "rating": 6.47,
      "classificacao_etaria": "A14",
      "imagem_original": "https://animefire.plus/img/animes/yu-gi-oh-zexal.webp",
      "imagem_pasta": "https://animefire.plus/img/animes/yu-gi-oh-zexal/",
      "secao": "legendados",
      "pagina": 125,
      "total_episodios": 41,
      "link_video": "https://animefire.plus/video/yu-gi-oh-zexal"
    },
    {
      "id": 4281,
      "nome": "Yu☆Gi☆Oh! Zexal Second",
      "link": "https://animefire.plus/animes/yu-gi-oh-zexal-second-todos-os-episodios",
      "texto_original": "Yu☆Gi☆Oh! Zexal Second",
      "rating": 6.88,
      "classificacao_etaria": "A14",
      "imagem_original": "https://animefire.plus/img/animes/yu-gi-oh-zexal-second.webp",
      "imagem_pasta": "https://animefire.plus/img/animes/yu-gi-oh-zexal-second/",
      "secao": "legendados",
      "pagina": 56,
      "total_episodios": 73,
      "link_video": "https://animefire.plus/video/yu-gi-oh-zexal-second"
    },
    {
      "id": 4282,
      "nome": "Yu☆Gi☆Oh!: Duel Monsters GX (Dublado)",
      "link": "https://animefire.plus/animes/yu-gi-oh-duel-monsters-gx-dublado-todos-os-episodios",
      "texto_original": "Yu☆Gi☆Oh!: Duel Monsters GX (Dublado)",
      "rating": 7.23,
      "classificacao_etaria": "A14",
      "imagem_original": "https://animefire.plus/img/animes/yu-gi-oh-duel-monsters-gx.webp",
      "imagem_pasta": "https://animefire.plus/img/animes/yu-gi-oh-duel-monsters-gx/",
      "secao": "dublados",
      "pagina": 27,
      "total_episodios": 20,
      "link_video": "https://animefire.plus/video/yu-gi-oh-duel-monsters-gx-dublado"
    },
    {
      "id": 4283,
      "nome": "Yu☆Gi☆Oh!: Go Rush!!",
      "link": "https://animefire.plus/animes/yu-gi-oh-go-rush-todos-os-episodios",
      "texto_original": "Yu☆Gi☆Oh!: Go Rush!!",
      "rating": 6.17,
      "classificacao_etaria": "A14",
      "imagem_original": "https://animefire.plus/img/animes/yu-gi-oh-go-rush.webp",
      "imagem_pasta": "https://animefire.plus/img/animes/yu-gi-oh-go-rush/",
      "secao": "legendados,lancamentos",
      "pagina": 33,
      "total_episodios": 2,
      "link_video": "https://animefire.plus/video/yu-gi-oh-go-rush"
    },
    {
      "id": 4284,
      "nome": "Yu☆Gi☆Oh!: Sevens",
      "link": "https://animefire.plus/animes/yu-gi-oh-sevens-todos-os-episodios",
      "texto_original": "Yu☆Gi☆Oh!: Sevens",
      "rating": 5.4,
      "classificacao_etaria": "A14",
      "imagem_original": "https://animefire.plus/img/animes/yu-gi-oh-sevens.webp",
      "imagem_pasta": "https://animefire.plus/img/animes/yu-gi-oh-sevens/",
      "secao": "legendados,lancamentos",
      "pagina": 81,
      "total_episodios": 9,
      "link_video": "https://animefire.plus/video/yu-gi-oh-sevens"
    },
    {
      "id": 4286,
      "nome": "Yubisaki to Renren",
      "link": "https://animefire.plus/animes/yubisaki-to-renren-todos-os-episodios",
      "texto_original": "Yubisaki to Renren",
      "rating": 8.2,
      "classificacao_etaria": "A14",
      "imagem_original": "https://animefire.plus/img/animes/yubisaki-to-renren.webp",
      "imagem_pasta": "https://animefire.plus/img/animes/yubisaki-to-renren/",
      "secao": "legendados",
      "pagina": 18,
      "total_episodios": 12,
      "link_video": "https://animefire.plus/video/yubisaki-to-renren"
    },
    {
      "id": 4287,
      "nome": "Yume Oukoku to Nemureru 100-nin no Ouji-sama",
      "link": "https://animefire.plus/animes/yume-oukoku-to-nemureru-100-nin-no-ouji-sama-todos-os-episodios",
      "texto_original": "Yume Oukoku to Nemureru 100-nin no Ouji-sama",
      "rating": 5.99,
      "classificacao_etaria": "A14",
      "imagem_original": "https://animefire.plus/img/animes/yume-oukoku-to-nemureru-100-nin-no-ouji-sama.webp",
      "imagem_pasta": "https://animefire.plus/img/animes/yume-oukoku-to-nemureru-100-nin-no-ouji-sama/",
      "secao": "legendados",
      "pagina": 163,
      "total_episodios": 11,
      "link_video": "https://animefire.plus/video/yume-oukoku-to-nemureru-100-nin-no-ouji-sama"
    },
    {
      "id": 4292,
      "nome": "Yumekui Merry",
      "link": "https://animefire.plus/animes/yumekui-merry-todos-os-episodios",
      "texto_original": "Yumekui Merry",
      "rating": 7.01,
      "classificacao_etaria": "A14",
      "imagem_original": "https://animefire.plus/img/animes/yumekui-merry.webp",
      "imagem_pasta": "https://animefire.plus/img/animes/yumekui-merry/",
      "secao": "legendados",
      "pagina": 112,
      "total_episodios": 13,
      "link_video": "https://animefire.plus/video/yumekui-merry"
    },
    {
      "id": 4293,
      "nome": "Yumemiru Danshi wa Genjitsushugisha",
      "link": "https://animefire.plus/animes/yumemiru-danshi-wa-genjitsushugisha-todos-os-episodios",
      "texto_original": "Yumemiru Danshi wa Genjitsushugisha",
      "rating": 6.62,
      "classificacao_etaria": "A14",
      "imagem_original": "https://animefire.plus/img/animes/yumemiru-danshi-wa-genjitsushugisha.jpg",
      "imagem_pasta": "https://animefire.plus/img/animes/yumemiru-danshi-wa-genjitsushugisha/",
      "secao": "legendados",
      "pagina": 22,
      "total_episodios": 12,
      "link_video": "https://animefire.plus/video/yumemiru-danshi-wa-genjitsushugisha"
    },
    {
      "id": 4294,
      "nome": "Yumeria",
      "link": "https://animefire.plus/animes/yumeria-todos-os-episodios",
      "texto_original": "Yumeria",
      "rating": 6.19,
      "classificacao_etaria": "A14",
      "imagem_original": "https://animefire.plus/img/animes/yumeria.webp",
      "imagem_pasta": "https://animefire.plus/img/animes/yumeria/",
      "secao": "legendados",
      "pagina": 133,
      "total_episodios": 12,
      "link_video": "https://animefire.plus/video/yumeria"
    },
    {
      "id": 4297,
      "nome": "Yurei Deco",
      "link": "https://animefire.plus/animes/yurei-deco-todos-os-episodios",
      "texto_original": "Yurei Deco",
      "rating": 6.03,
      "classificacao_etaria": "A14",
      "imagem_original": "https://animefire.plus/img/animes/yurei-deco.webp",
      "imagem_pasta": "https://animefire.plus/img/animes/yurei-deco/",
      "secao": "legendados",
      "pagina": 31,
      "total_episodios": 12,
      "link_video": "https://animefire.plus/video/yurei-deco"
    },
    {
      "id": 4299,
      "nome": "Yuri!!! on Ice",
      "link": "https://animefire.plus/animes/yuri-on-ice-todos-os-episodios",
      "texto_original": "Yuri!!! on Ice",
      "rating": 8.11,
      "classificacao_etaria": "A14",
      "imagem_original": "https://animefire.plus/img/animes/yuri-on-ice.webp",
      "imagem_pasta": "https://animefire.plus/img/animes/yuri-on-ice/",
      "secao": "legendados",
      "pagina": 116,
      "total_episodios": 1,
      "link_video": "https://animefire.plus/video/yuri-on-ice"
    },
    {
      "id": 4300,
      "nome": "Yuru Camp△ (Dublado)",
      "link": "https://animefire.plus/animes/yuru-camp-dublado-todos-os-episodios",
      "texto_original": "Yuru Camp△ (Dublado)",
      "rating": 8.27,
      "classificacao_etaria": "A14",
      "imagem_original": "https://animefire.plus/img/animes/yuru-camp.webp",
      "imagem_pasta": "https://animefire.plus/img/animes/yuru-camp/",
      "secao": "dublados,legendados",
      "pagina": 11,
      "total_episodios": 12,
      "link_video": "https://animefire.plus/video/yuru-camp-dublado"
    }
  ],
  "pagination": {
    "current_page": 147,
    "per_page": 20,
    "total_items": 2988,
    "total_pages": 150,
    "has_next": true,
    "has_prev": true
  }
}
