{
  "message": "Animes com classificação etária: A14",
  "age_rating": "A14",
  "data": [
    {
      "id": 1030,
      "nome": "Fruits Basket",
      "link": "https://animefire.plus/animes/fruits-basket-todos-os-episodios",
      "texto_original": "Fruits Basket",
      "rating": 7.71,
      "classificacao_etaria": "A14",
      "imagem_original": "https://animefire.plus/img/animes/fruits-basket.webp",
      "imagem_pasta": "https://animefire.plus/img/animes/fruits-basket/",
      "secao": "legendados",
      "pagina": 68,
      "total_episodios": 26,
      "link_video": "https://animefire.plus/video/fruits-basket"
    },
    {
      "id": 1031,
      "nome": "Fruits Basket (2019)",
      "link": "https://animefire.plus/animes/fruits-basket-2019-todos-os-episodios",
      "texto_original": "Fruits Basket (2019)",
      "rating": 8.2,
      "classificacao_etaria": "A14",
      "imagem_original": "https://animefire.plus/img/animes/fruits-basket-2019.webp",
      "imagem_pasta": "https://animefire.plus/img/animes/fruits-basket-2019/",
      "secao": "legendados",
      "pagina": 134,
      "total_episodios": 23,
      "link_video": "https://animefire.plus/video/fruits-basket-2019"
    },
    {
      "id": 1032,
      "nome": "Fruits Basket 1st Season (Dublado)",
      "link": "https://animefire.plus/animes/fruits-basket-1st-season-dublado-todos-os-episodios",
      "texto_original": "Fruits Basket 1st Season (Dublado)",
      "rating": 8.2,
      "classificacao_etaria": "A14",
      "imagem_original": "https://animefire.plus/img/animes/fruits-basket-1st-season.webp",
      "imagem_pasta": "https://animefire.plus/img/animes/fruits-basket-1st-season/",
      "secao": "dublados",
      "pagina": 17,
      "total_episodios": 25,
      "link_video": "https://animefire.plus/video/fruits-basket-1st-season-dublado"
    },
    {
      "id": 1033,
      "nome": "Fruits Basket 2nd Season (Dublado)",
      "link": "https://animefire.plus/animes/fruits-basket-2nd-season-dublado-todos-os-episodios",
      "texto_original": "Fruits Basket 2nd Season (Dublado)",
      "rating": 8.55,
      "classificacao_etaria": "A14",
      "imagem_original": "https://animefire.plus/img/animes/fruits-basket-2nd-season.webp",
      "imagem_pasta": "https://animefire.plus/img/animes/fruits-basket-2nd-season/",
      "secao": "dublados,legendados",
      "pagina": 17,
      "total_episodios": 25,
      "link_video": "https://animefire.plus/video/fruits-basket-2nd-season-dublado"
    },
    {
      "id": 1034,
      "nome": "Fruits Basket: The Final (Dublado)",
      "link": "https://animefire.plus/animes/fruits-basket-the-final-dublado-todos-os-episodios",
      "texto_original": "Fruits Basket: The Final (Dublado)",
      "rating": 8.95,
      "classificacao_etaria": "A14",
      "imagem_original": "https://animefire.plus/img/animes/fruits-basket-the-final.webp",
      "imagem_pasta": "https://animefire.plus/img/animes/fruits-basket-the-final/",
      "secao": "dublados,legendados",
      "pagina": 17,
      "total_episodios": 13,
      "link_video": "https://animefire.plus/video/fruits-basket-the-final-dublado"
    },
    {
      "id": 1035,
      "nome": "Fudanshi Koukou Seikatsu",
      "link": "https://animefire.plus/animes/fudanshi-koukou-seikatsu-todos-os-episodios",
      "texto_original": "Fudanshi Koukou Seikatsu",
      "rating": 6.64,
      "classificacao_etaria": "A14",
      "imagem_original": "https://animefire.plus/img/animes/fudanshi-koukou-seikatsu.webp",
      "imagem_pasta": "https://animefire.plus/img/animes/fudanshi-koukou-seikatsu/",
      "secao": "legendados",
      "pagina": 102,
      "total_episodios": 12,
      "link_video": "https://animefire.plus/video/fudanshi-koukou-seikatsu"
    },
    {
      "id": 1036,
      "nome": "Fugou Keiji: Balance:Unlimited",
      "link": "https://animefire.plus/animes/fugou-keiji-balance-unlimited-todos-os-episodios",
      "texto_original": "Fugou Keiji: Balance:Unlimited",
      "rating": 7.56,
      "classificacao_etaria": "A14",
      "imagem_original": "https://animefire.plus/img/animes/fugou-keiji-balance-unlimited.webp",
      "imagem_pasta": "https://animefire.plus/img/animes/fugou-keiji-balance-unlimited/",
      "secao": "legendados",
      "pagina": 80,
      "total_episodios": 1,
      "link_video": "https://animefire.plus/video/fugou-keiji-balance-unlimited"
    },
    {
      "id": 1038,
      "nome": "Fukigen na Mononokean",
      "link": "https://animefire.plus/animes/fukigen-na-mononokean-todos-os-episodios",
      "texto_original": "Fukigen na Mononokean",
      "rating": 7.46,
      "classificacao_etaria": "A14",
      "imagem_original": "https://animefire.plus/img/animes/fukigen-na-mononokean.webp",
      "imagem_pasta": "https://animefire.plus/img/animes/fukigen-na-mononokean/",
      "secao": "legendados",
      "pagina": 121,
      "total_episodios": 0,
      "link_video": "https://animefire.plus/video/fukigen-na-mononokean"
    },
    {
      "id": 1039,
      "nome": "Fukigen na Mononokean Tsuzuki",
      "link": "https://animefire.plus/animes/fukigen-na-mononokean-tsuzuki-todos-os-episodios",
      "texto_original": "Fukigen na Mononokean Tsuzuki",
      "rating": 7.57,
      "classificacao_etaria": "A14",
      "imagem_original": "https://animefire.plus/img/animes/fukigen-na-mononokean-tsuzuki.webp",
      "imagem_pasta": "https://animefire.plus/img/animes/fukigen-na-mononokean-tsuzuki/",
      "secao": "legendados",
      "pagina": 101,
      "total_episodios": 13,
      "link_video": "https://animefire.plus/video/fukigen-na-mononokean-tsuzuki"
    },
    {
      "id": 1040,
      "nome": "Fukumenkei Noise",
      "link": "https://animefire.plus/animes/fukumenkei-noise-todos-os-episodios",
      "texto_original": "Fukumenkei Noise",
      "rating": 7.14,
      "classificacao_etaria": "A14",
      "imagem_original": "https://animefire.plus/img/animes/fukumenkei-noise.webp",
      "imagem_pasta": "https://animefire.plus/img/animes/fukumenkei-noise/",
      "secao": "legendados",
      "pagina": 139,
      "total_episodios": 2,
      "link_video": "https://animefire.plus/video/fukumenkei-noise"
    },
    {
      "id": 1044,
      "nome": "Full Metal Panic? Fumoffu",
      "link": "https://animefire.plus/animes/full-metal-panic-fumoffu-todos-os-episodios",
      "texto_original": "Full Metal Panic? Fumoffu",
      "rating": 8.13,
      "classificacao_etaria": "A14",
      "imagem_original": "https://animefire.plus/img/animes/full-metal-panic-fumoffu.webp",
      "imagem_pasta": "https://animefire.plus/img/animes/full-metal-panic-fumoffu/",
      "secao": "legendados",
      "pagina": 137,
      "total_episodios": 12,
      "link_video": "https://animefire.plus/video/full-metal-panic-fumoffu"
    },
    {
      "id": 1045,
      "nome": "Full Moon wo Sagashite",
      "link": "https://animefire.plus/animes/full-moon-wo-sagashite-todos-os-episodios",
      "texto_original": "Full Moon wo Sagashite",
      "rating": 8.03,
      "classificacao_etaria": "A14",
      "imagem_original": "https://animefire.plus/img/animes/full-moon-wo-sagashite.webp",
      "imagem_pasta": "https://animefire.plus/img/animes/full-moon-wo-sagashite/",
      "secao": "legendados",
      "pagina": 171,
      "total_episodios": 52,
      "link_video": "https://animefire.plus/video/full-moon-wo-sagashite"
    },
    {
      "id": 1050,
      "nome": "Fumikiri Jikan",
      "link": "https://animefire.plus/animes/fumikiri-jikan-todos-os-episodios",
      "texto_original": "Fumikiri Jikan",
      "rating": 6.45,
      "classificacao_etaria": "A14",
      "imagem_original": "https://animefire.plus/img/animes/fumikiri-jikan.webp",
      "imagem_pasta": "https://animefire.plus/img/animes/fumikiri-jikan/",
      "secao": "legendados",
      "pagina": 142,
      "total_episodios": 12,
      "link_video": "https://animefire.plus/video/fumikiri-jikan"
    },
    {
      "id": 1051,
      "nome": "Fumiko no Kokuhaku",
      "link": "https://animefire.plus/animes/fumiko-no-kokuhaku-todos-os-episodios",
      "texto_original": "Fumiko no Kokuhaku",
      "rating": 6.68,
      "classificacao_etaria": "A14",
      "imagem_original": "https://animefire.plus/img/animes/fumiko-no-kokuhaku.webp",
      "imagem_pasta": "https://animefire.plus/img/animes/fumiko-no-kokuhaku/",
      "secao": "legendados",
      "pagina": 54,
      "total_episodios": 1,
      "link_video": "https://animefire.plus/video/fumiko-no-kokuhaku"
    },
    {
      "id": 1052,
      "nome": "Fune wo Amu",
      "link": "https://animefire.plus/animes/fune-wo-amu-todos-os-episodios",
      "texto_original": "Fune wo Amu",
      "rating": 7.68,
      "classificacao_etaria": "A14",
      "imagem_original": "https://animefire.plus/img/animes/fune-wo-amu.webp",
      "imagem_pasta": "https://animefire.plus/img/animes/fune-wo-amu/",
      "secao": "legendados",
      "pagina": 133,
      "total_episodios": 11,
      "link_video": "https://animefire.plus/video/fune-wo-amu"
    },
    {
      "id": 1053,
      "nome": "Fushigi Na Somera-chan",
      "link": "https://animefire.plus/animes/fushigi-na-somera-chan-todos-os-episodios",
      "texto_original": "Fushigi Na Somera-chan",
      "rating": 5.91,
      "classificacao_etaria": "A14",
      "imagem_original": "https://animefire.plus/img/animes/fushigi-na-somera-chan.webp",
      "imagem_pasta": "https://animefire.plus/img/animes/fushigi-na-somera-chan/",
      "secao": "legendados",
      "pagina": 97,
      "total_episodios": 12,
      "link_video": "https://animefire.plus/video/fushigi-na-somera-chan"
    },
    {
      "id": 1054,
      "nome": "Fushigi no Umi no Nadia",
      "link": "https://animefire.plus/animes/fushigi-no-umi-no-nadia-todos-os-episodios",
      "texto_original": "Fushigi no Umi no Nadia",
      "rating": 7.56,
      "classificacao_etaria": "A14",
      "imagem_original": "https://animefire.plus/img/animes/fushigi-no-umi-no-nadia.webp",
      "imagem_pasta": "https://animefire.plus/img/animes/fushigi-no-umi-no-nadia/",
      "secao": "legendados",
      "pagina": 64,
      "total_episodios": 39,
      "link_video": "https://animefire.plus/video/fushigi-no-umi-no-nadia"
    },
    {
      "id": 1055,
      "nome": "Fushigi Yuugi",
      "link": "https://animefire.plus/animes/fushigi-yuugi-todos-os-episodios",
      "texto_original": "Fushigi Yuugi",
      "rating": 7.74,
      "classificacao_etaria": "A14",
      "imagem_original": "https://animefire.plus/img/animes/fushigi-yuugi.webp",
      "imagem_pasta": "https://animefire.plus/img/animes/fushigi-yuugi/",
      "secao": "legendados",
      "pagina": 150,
      "total_episodios": 52,
      "link_video": "https://animefire.plus/video/fushigi-yuugi"
    },
    {
      "id": 1056,
      "nome": "Futakoi",
      "link": "https://animefire.plus/animes/futakoi-todos-os-episodios",
      "texto_original": "Futakoi",
      "rating": 6.56,
      "classificacao_etaria": "A14",
      "imagem_original": "https://animefire.plus/img/animes/futakoi.webp",
      "imagem_pasta": "https://animefire.plus/img/animes/futakoi/",
      "secao": "legendados",
      "pagina": 174,
      "total_episodios": 13,
      "link_video": "https://animefire.plus/video/futakoi"
    },
    {
      "id": 1057,
      "nome": "Futakoi Alternative",
      "link": "https://animefire.plus/animes/futakoi-alternative-todos-os-episodios",
      "texto_original": "Futakoi Alternative",
      "rating": 6.97,
      "classificacao_etaria": "A14",
      "imagem_original": "https://animefire.plus/img/animes/futakoi-alternative.webp",
      "imagem_pasta": "https://animefire.plus/img/animes/futakoi-alternative/",
      "secao": "legendados",
      "pagina": 151,
      "total_episodios": 13,
      "link_video": "https://animefire.plus/video/futakoi-alternative"
    }
  ],
  "pagination": {
    "current_page": 34,
    "per_page": 20,
    "total_items": 2988,
    "total_pages": 150,
    "has_next": true,
    "has_prev": true
  }
}
