{
  "message": "Animes com classificação etária: A14",
  "age_rating": "A14",
  "data": [
    {
      "id": 928,
      "nome": "Eiyuu Kyoushitsu (Dublado)",
      "link": "https://animefire.plus/animes/eiyuu-kyoushitsu-dublado-todos-os-episodios",
      "texto_original": "Eiyuu Kyoushitsu (Dublado)",
      "rating": 6.05,
      "classificacao_etaria": "A14",
      "imagem_original": "https://animefire.plus/img/animes/eiyuu-kyoushitsu.webp",
      "imagem_pasta": "https://animefire.plus/img/animes/eiyuu-kyoushitsu/",
      "secao": "dublados,legendados,lancamentos",
      "pagina": 6,
      "total_episodios": 12,
      "link_video": "https://animefire.plus/video/eiyuu-kyoushitsu-dublado"
    },
    {
      "id": 929,
      "nome": "Eiyuuou, Bu wo Kiwameru Tame Tenseisu: Soshite, Sekai Saikyou no Minarai Kishi♀",
      "link": "https://animefire.plus/animes/eiyuuou-bu-wo-kiwameru-tame-tenseisu-soshite-sekai-saikyou-no-minarai-kishi-todos-os-episodios",
      "texto_original": "Eiyuuou, Bu wo Kiwameru Tame Tenseisu: Soshite, Sekai Saikyou no Minarai Kishi♀",
      "rating": 6.56,
      "classificacao_etaria": "A14",
      "imagem_original": "https://animefire.plus/img/animes/eiyuuou-bu-wo-kiwameru-tame-tenseisu-soshite-sekai-saikyou-no-minarai-kishi.webp",
      "imagem_pasta": "https://animefire.plus/img/animes/eiyuuou-bu-wo-kiwameru-tame-tenseisu-soshite-sekai-saikyou-no-minarai-kishi/",
      "secao": "legendados",
      "pagina": 27,
      "total_episodios": 12,
      "link_video": "https://animefire.plus/video/eiyuuou-bu-wo-kiwameru-tame-tenseisu-soshite-sekai-saikyou-no-minarai-kishi"
    },
    {
      "id": 930,
      "nome": "Eizouken ni wa Te wo Dasu na! (Dublado)",
      "link": "https://animefire.plus/animes/eizouken-ni-wa-te-wo-dasu-na-dublado-todos-os-episodios",
      "texto_original": "Eizouken ni wa Te wo Dasu na! (Dublado)",
      "rating": 8.14,
      "classificacao_etaria": "A14",
      "imagem_original": "https://animefire.plus/img/animes/eizouken-ni-wa-te-wo-dasu-na.webp",
      "imagem_pasta": "https://animefire.plus/img/animes/eizouken-ni-wa-te-wo-dasu-na/",
      "secao": "dublados,legendados",
      "pagina": 12,
      "total_episodios": 12,
      "link_video": "https://animefire.plus/video/eizouken-ni-wa-te-wo-dasu-na-dublado"
    },
    {
      "id": 931,
      "nome": "El Cazador de la Bruja",
      "link": "https://animefire.plus/animes/el-cazador-de-la-bruja-todos-os-episodios",
      "texto_original": "El Cazador de la Bruja",
      "rating": 7.28,
      "classificacao_etaria": "A14",
      "imagem_original": "https://animefire.plus/img/animes/el-cazador-de-la-bruja.webp",
      "imagem_pasta": "https://animefire.plus/img/animes/el-cazador-de-la-bruja/",
      "secao": "legendados",
      "pagina": 113,
      "total_episodios": 26,
      "link_video": "https://animefire.plus/video/el-cazador-de-la-bruja"
    },
    {
      "id": 932,
      "nome": "El Hazard 2: The Magnificent World",
      "link": "https://animefire.plus/animes/el-hazard-2-the-magnificent-world-todos-os-episodios",
      "texto_original": "El Hazard 2: The Magnificent World",
      "rating": 6.86,
      "classificacao_etaria": "A14",
      "imagem_original": "https://animefire.plus/img/animes/el-hazard-2-the-magnificent-world.webp",
      "imagem_pasta": "https://animefire.plus/img/animes/el-hazard-2-the-magnificent-world/",
      "secao": "legendados",
      "pagina": 63,
      "total_episodios": 1,
      "link_video": "https://animefire.plus/video/el-hazard-2-the-magnificent-world"
    },
    {
      "id": 933,
      "nome": "El Hazard: The Alternative World",
      "link": "https://animefire.plus/animes/el-hazard-the-alternative-world-todos-os-episodios",
      "texto_original": "El Hazard: The Alternative World",
      "rating": 6.89,
      "classificacao_etaria": "A14",
      "imagem_original": "https://animefire.plus/img/animes/el-hazard-the-alternative-world.webp",
      "imagem_pasta": "https://animefire.plus/img/animes/el-hazard-the-alternative-world/",
      "secao": "legendados",
      "pagina": 99,
      "total_episodios": 13,
      "link_video": "https://animefire.plus/video/el-hazard-the-alternative-world"
    },
    {
      "id": 934,
      "nome": "El Hazard: The Magnificent World",
      "link": "https://animefire.plus/animes/el-hazard-the-magnificent-world-todos-os-episodios",
      "texto_original": "El Hazard: The Magnificent World",
      "rating": 7.34,
      "classificacao_etaria": "A14",
      "imagem_original": "https://animefire.plus/img/animes/el-hazard-the-magnificent-world.webp",
      "imagem_pasta": "https://animefire.plus/img/animes/el-hazard-the-magnificent-world/",
      "secao": "legendados",
      "pagina": 63,
      "total_episodios": 7,
      "link_video": "https://animefire.plus/video/el-hazard-the-magnificent-world"
    },
    {
      "id": 935,
      "nome": "El Hazard: The Wanderers",
      "link": "https://animefire.plus/animes/el-hazard-the-wanderers-todos-os-episodios",
      "texto_original": "El Hazard: The Wanderers",
      "rating": 7.04,
      "classificacao_etaria": "A14",
      "imagem_original": "https://animefire.plus/img/animes/el-hazard-the-wanderers.webp",
      "imagem_pasta": "https://animefire.plus/img/animes/el-hazard-the-wanderers/",
      "secao": "legendados",
      "pagina": 95,
      "total_episodios": 0,
      "link_video": "https://animefire.plus/video/el-hazard-the-wanderers"
    },
    {
      "id": 936,
      "nome": "ēlDLIVE",
      "link": "https://animefire.plus/animes/eldlive-todos-os-episodios",
      "texto_original": "ēlDLIVE",
      "rating": 6.25,
      "classificacao_etaria": "A14",
      "imagem_original": "https://animefire.plus/img/animes/eldlive.webp",
      "imagem_pasta": "https://animefire.plus/img/animes/eldlive/",
      "secao": "legendados",
      "pagina": 154,
      "total_episodios": 1,
      "link_video": "https://animefire.plus/video/eldlive"
    },
    {
      "id": 938,
      "nome": "Elf wo Karu Mono-tachi",
      "link": "https://animefire.plus/animes/elf-wo-karu-mono-tachi-todos-os-episodios",
      "texto_original": "Elf wo Karu Mono-tachi",
      "rating": 7.08,
      "classificacao_etaria": "A14",
      "imagem_original": "https://animefire.plus/img/animes/elf-wo-karu-mono-tachi.webp",
      "imagem_pasta": "https://animefire.plus/img/animes/elf-wo-karu-mono-tachi/",
      "secao": "legendados",
      "pagina": 142,
      "total_episodios": 0,
      "link_video": "https://animefire.plus/video/elf-wo-karu-mono-tachi"
    },
    {
      "id": 939,
      "nome": "Elf wo Karu Mono-tachi II",
      "link": "https://animefire.plus/animes/elf-wo-karu-mono-tachi-ii-todos-os-episodios",
      "texto_original": "Elf wo Karu Mono-tachi II",
      "rating": 7.11,
      "classificacao_etaria": "A14",
      "imagem_original": "https://animefire.plus/img/animes/elf-wo-karu-mono-tachi-ii.webp",
      "imagem_pasta": "https://animefire.plus/img/animes/elf-wo-karu-mono-tachi-ii/",
      "secao": "legendados",
      "pagina": 172,
      "total_episodios": 0,
      "link_video": "https://animefire.plus/video/elf-wo-karu-mono-tachi-ii"
    },
    {
      "id": 942,
      "nome": "Elsword: El-ui Yeoin",
      "link": "https://animefire.plus/animes/elsword-el-ui-yeoin-todos-os-episodios",
      "texto_original": "Elsword: El-ui Yeoin",
      "rating": 6.26,
      "classificacao_etaria": "A14",
      "imagem_original": "https://animefire.plus/img/animes/elsword-el-ui-yeoin.webp",
      "imagem_pasta": "https://animefire.plus/img/animes/elsword-el-ui-yeoin/",
      "secao": "legendados",
      "pagina": 168,
      "total_episodios": 2,
      "link_video": "https://animefire.plus/video/elsword-el-ui-yeoin"
    },
    {
      "id": 943,
      "nome": "Emiya-san Chi no Kyou no Gohan",
      "link": "https://animefire.plus/animes/emiya-san-chi-no-kyou-no-gohan-todos-os-episodios",
      "texto_original": "Emiya-san Chi no Kyou no Gohan",
      "rating": 7.91,
      "classificacao_etaria": "A14",
      "imagem_original": "https://animefire.plus/img/animes/emiya-san-chi-no-kyou-no-gohan.webp",
      "imagem_pasta": "https://animefire.plus/img/animes/emiya-san-chi-no-kyou-no-gohan/",
      "secao": "legendados",
      "pagina": 162,
      "total_episodios": 5,
      "link_video": "https://animefire.plus/video/emiya-san-chi-no-kyou-no-gohan"
    },
    {
      "id": 944,
      "nome": "Endride",
      "link": "https://animefire.plus/animes/endride-todos-os-episodios",
      "texto_original": "Endride",
      "rating": 5.76,
      "classificacao_etaria": "A14",
      "imagem_original": "https://animefire.plus/img/animes/endride.webp",
      "imagem_pasta": "https://animefire.plus/img/animes/endride/",
      "secao": "legendados",
      "pagina": 159,
      "total_episodios": 5,
      "link_video": "https://animefire.plus/video/endride"
    },
    {
      "id": 945,
      "nome": "Endro~!",
      "link": "https://animefire.plus/animes/endro-todos-os-episodios",
      "texto_original": "Endro~!",
      "rating": 6.95,
      "classificacao_etaria": "A14",
      "imagem_original": "https://animefire.plus/img/animes/endro.webp",
      "imagem_pasta": "https://animefire.plus/img/animes/endro/",
      "secao": "legendados",
      "pagina": 90,
      "total_episodios": 12,
      "link_video": "https://animefire.plus/video/endro"
    },
    {
      "id": 946,
      "nome": "Enen no Shouboutai (Dublado)",
      "link": "https://animefire.plus/animes/enen-no-shouboutai-dublado-todos-os-episodios",
      "texto_original": "Enen no Shouboutai (Dublado)",
      "rating": 7.68,
      "classificacao_etaria": "A14",
      "imagem_original": "https://animefire.plus/img/animes/enen-no-shouboutai.webp",
      "imagem_pasta": "https://animefire.plus/img/animes/enen-no-shouboutai/",
      "secao": "dublados,legendados",
      "pagina": 14,
      "total_episodios": 24,
      "link_video": "https://animefire.plus/video/enen-no-shouboutai-dublado"
    },
    {
      "id": 947,
      "nome": "Enen no Shouboutai: Ni no Shou (Dublado)",
      "link": "https://animefire.plus/animes/enen-no-shouboutai-ni-no-shou-dublado-todos-os-episodios",
      "texto_original": "Enen no Shouboutai: Ni no Shou (Dublado)",
      "rating": 7.76,
      "classificacao_etaria": "A14",
      "imagem_original": "https://animefire.plus/img/animes/enen-no-shouboutai-ni-no-shou.webp",
      "imagem_pasta": "https://animefire.plus/img/animes/enen-no-shouboutai-ni-no-shou/",
      "secao": "dublados,legendados",
      "pagina": 14,
      "total_episodios": 24,
      "link_video": "https://animefire.plus/video/enen-no-shouboutai-ni-no-shou-dublado"
    },
    {
      "id": 948,
      "nome": "Enen no Shouboutai: San no Shou (Dublado)",
      "link": "https://animefire.plus/animes/enen-no-shouboutai-san-no-shou-dublado-todos-os-episodios",
      "texto_original": "Enen no Shouboutai: San no Shou (Dublado)",
      "rating": 7.71,
      "classificacao_etaria": "A14",
      "imagem_original": "https://animefire.plus/img/animes/enen-no-shouboutai-san-no-shou.webp",
      "imagem_pasta": "https://animefire.plus/img/animes/enen-no-shouboutai-san-no-shou/",
      "secao": "dublados,legendados,lancamentos",
      "pagina": 1,
      "total_episodios": 12,
      "link_video": "https://animefire.plus/video/enen-no-shouboutai-san-no-shou-dublado"
    },
    {
      "id": 949,
      "nome": "Engage Kiss",
      "link": "https://animefire.plus/animes/engage-kiss-todos-os-episodios",
      "texto_original": "Engage Kiss",
      "rating": 6.79,
      "classificacao_etaria": "A14",
      "imagem_original": "https://animefire.plus/img/animes/engage-kiss.webp",
      "imagem_pasta": "https://animefire.plus/img/animes/engage-kiss/",
      "secao": "legendados",
      "pagina": 32,
      "total_episodios": 13,
      "link_video": "https://animefire.plus/video/engage-kiss"
    },
    {
      "id": 950,
      "nome": "Ensemble Stars!",
      "link": "https://animefire.plus/animes/ensemble-stars-todos-os-episodios",
      "texto_original": "Ensemble Stars!",
      "rating": 6.83,
      "classificacao_etaria": "A14",
      "imagem_original": "https://animefire.plus/img/animes/ensemble-stars.webp",
      "imagem_pasta": "https://animefire.plus/img/animes/ensemble-stars/",
      "secao": "legendados",
      "pagina": 159,
      "total_episodios": 8,
      "link_video": "https://animefire.plus/video/ensemble-stars"
    }
  ],
  "pagination": {
    "current_page": 30,
    "per_page": 20,
    "total_items": 2988,
    "total_pages": 150,
    "has_next": true,
    "has_prev": true
  }
}
