{
  "message": "Animes com classificação etária: A14",
  "age_rating": "A14",
  "data": [
    {
      "id": 1264,
      "nome": "Gugure! Kokkuri-san",
      "link": "https://animefire.plus/animes/gugure-kokkuri-san-todos-os-episodios",
      "texto_original": "Gugure! Kokkuri-san",
      "rating": 7.64,
      "classificacao_etaria": "A14",
      "imagem_original": "https://animefire.plus/img/animes/gugure-kokkuri-san.webp",
      "imagem_pasta": "https://animefire.plus/img/animes/gugure-kokkuri-san/",
      "secao": "legendados",
      "pagina": 146,
      "total_episodios": 7,
      "link_video": "https://animefire.plus/video/gugure-kokkuri-san"
    },
    {
      "id": 1265,
      "nome": "Gugure! Kokkuri-san Specials",
      "link": "https://animefire.plus/animes/gugure-kokkuri-san-specials-todos-os-episodios",
      "texto_original": "Gugure! Kokkuri-san Specials",
      "rating": 7.23,
      "classificacao_etaria": "A14",
      "imagem_original": "https://animefire.plus/img/animes/gugure-kokkuri-san-specials.webp",
      "imagem_pasta": "https://animefire.plus/img/animes/gugure-kokkuri-san-specials/",
      "secao": "legendados",
      "pagina": 84,
      "total_episodios": 4,
      "link_video": "https://animefire.plus/video/gugure-kokkuri-san-specials"
    },
    {
      "id": 1266,
      "nome": "Guild no Uketsukejou desu ga, Zangyou wa Iya nanode Boss wo Solo Toubatsu Shiyou to Omoimasu",
      "link": "https://animefire.plus/animes/guild-no-uketsukejou-desu-ga-zangyou-wa-iya-nanode-boss-wo-solo-toubatsu-shiyou-to-omoimasu-todos-os-episodios",
      "texto_original": "Guild no Uketsukejou desu ga, Zangyou wa Iya nanode Boss wo Solo Toubatsu Shiyou to Omoimasu",
      "rating": 6.66,
      "classificacao_etaria": "A14",
      "imagem_original": "https://animefire.plus/img/animes/guild-no-uketsukejou-desu-ga-zangyou-wa-iya-nanode-boss-wo-solo-toubatsu-shiyou-to-omoimasu.webp",
      "imagem_pasta": "https://animefire.plus/img/animes/guild-no-uketsukejou-desu-ga-zangyou-wa-iya-nanode-boss-wo-solo-toubatsu-shiyou-to-omoimasu/",
      "secao": "legendados",
      "pagina": 8,
      "total_episodios": 12,
      "link_video": "https://animefire.plus/video/guild-no-uketsukejou-desu-ga-zangyou-wa-iya-nanode-boss-wo-solo-toubatsu-shiyou-to-omoimasu"
    },
    {
      "id": 1269,
      "nome": "Guilty Gear Strive: Dual Rulers",
      "link": "https://animefire.plus/animes/guilty-gear-strive-dual-rulers-todos-os-episodios",
      "texto_original": "Guilty Gear Strive: Dual Rulers",
      "rating": 5.94,
      "classificacao_etaria": "A14",
      "imagem_original": "https://animefire.plus/img/animes/guilty-gear-strive-dual-rulers.webp",
      "imagem_pasta": "https://animefire.plus/img/animes/guilty-gear-strive-dual-rulers/",
      "secao": "legendados",
      "pagina": 5,
      "total_episodios": 8,
      "link_video": "https://animefire.plus/video/guilty-gear-strive-dual-rulers"
    },
    {
      "id": 1271,
      "nome": "Guin Saga",
      "link": "https://animefire.plus/animes/guin-saga-todos-os-episodios",
      "texto_original": "Guin Saga",
      "rating": 7.22,
      "classificacao_etaria": "A14",
      "imagem_original": "https://animefire.plus/img/animes/guin-saga.webp",
      "imagem_pasta": "https://animefire.plus/img/animes/guin-saga/",
      "secao": "legendados",
      "pagina": 64,
      "total_episodios": 26,
      "link_video": "https://animefire.plus/video/guin-saga"
    },
    {
      "id": 1272,
      "nome": "Gun Frontier",
      "link": "https://animefire.plus/animes/gun-frontier-todos-os-episodios",
      "texto_original": "Gun Frontier",
      "rating": 6.63,
      "classificacao_etaria": "A14",
      "imagem_original": "https://animefire.plus/img/animes/gun-frontier.webp",
      "imagem_pasta": "https://animefire.plus/img/animes/gun-frontier/",
      "secao": "legendados",
      "pagina": 125,
      "total_episodios": 12,
      "link_video": "https://animefire.plus/video/gun-frontier"
    },
    {
      "id": 1273,
      "nome": "Gun X Sword",
      "link": "https://animefire.plus/animes/gun-x-sword-todos-os-episodios",
      "texto_original": "Gun X Sword",
      "rating": 7.33,
      "classificacao_etaria": "A14",
      "imagem_original": "https://animefire.plus/img/animes/gun-x-sword.webp",
      "imagem_pasta": "https://animefire.plus/img/animes/gun-x-sword/",
      "secao": "legendados",
      "pagina": 105,
      "total_episodios": 26,
      "link_video": "https://animefire.plus/video/gun-x-sword"
    },
    {
      "id": 1274,
      "nome": "Gundam Build Divers",
      "link": "https://animefire.plus/animes/gundam-build-divers-todos-os-episodios",
      "texto_original": "Gundam Build Divers",
      "rating": 6.36,
      "classificacao_etaria": "A14",
      "imagem_original": "https://animefire.plus/img/animes/gundam-build-divers.webp",
      "imagem_pasta": "https://animefire.plus/img/animes/gundam-build-divers/",
      "secao": "legendados",
      "pagina": 73,
      "total_episodios": 25,
      "link_video": "https://animefire.plus/video/gundam-build-divers"
    },
    {
      "id": 1276,
      "nome": "Gundam Build Divers Re:Rise",
      "link": "https://animefire.plus/animes/gundam-build-divers-re-rise-todos-os-episodios",
      "texto_original": "Gundam Build Divers Re:Rise",
      "rating": 7.03,
      "classificacao_etaria": "A14",
      "imagem_original": "https://animefire.plus/img/animes/gundam-build-divers-re-rise.webp",
      "imagem_pasta": "https://animefire.plus/img/animes/gundam-build-divers-re-rise/",
      "secao": "legendados",
      "pagina": 109,
      "total_episodios": 2,
      "link_video": "https://animefire.plus/video/gundam-build-divers-re-rise"
    },
    {
      "id": 1282,
      "nome": "Gunjou no Fanfare",
      "link": "https://animefire.plus/animes/gunjou-no-fanfare-todos-os-episodios",
      "texto_original": "Gunjou no Fanfare",
      "rating": 6.15,
      "classificacao_etaria": "A14",
      "imagem_original": "https://animefire.plus/img/animes/gunjou-no-fanfare.webp",
      "imagem_pasta": "https://animefire.plus/img/animes/gunjou-no-fanfare/",
      "secao": "legendados",
      "pagina": 33,
      "total_episodios": 13,
      "link_video": "https://animefire.plus/video/gunjou-no-fanfare"
    },
    {
      "id": 1283,
      "nome": "Gunjou no Magmell (Dublado)",
      "link": "https://animefire.plus/animes/gunjou-no-magmell-dublado-todos-os-episodios",
      "texto_original": "Gunjou no Magmell (Dublado)",
      "rating": 6.04,
      "classificacao_etaria": "A14",
      "imagem_original": "https://animefire.plus/img/animes/gunjou-no-magmell.webp",
      "imagem_pasta": "https://animefire.plus/img/animes/gunjou-no-magmell/",
      "secao": "dublados,legendados",
      "pagina": 22,
      "total_episodios": 13,
      "link_video": "https://animefire.plus/video/gunjou-no-magmell-dublado"
    },
    {
      "id": 1288,
      "nome": "Gunsmith Cats (Dublado)",
      "link": "https://animefire.plus/animes/gunsmith-cats-dublado-todos-os-episodios",
      "texto_original": "Gunsmith Cats (Dublado)",
      "rating": 7.27,
      "classificacao_etaria": "A14",
      "imagem_original": "https://animefire.plus/img/animes/gunsmith-cats.webp",
      "imagem_pasta": "https://animefire.plus/img/animes/gunsmith-cats/",
      "secao": "dublados",
      "pagina": 23,
      "total_episodios": 3,
      "link_video": "https://animefire.plus/video/gunsmith-cats-dublado"
    },
    {
      "id": 1289,
      "nome": "Guomin Laogong Dai Huijia",
      "link": "https://animefire.plus/animes/guomin-laogong-dai-huijia-todos-os-episodios",
      "texto_original": "Guomin Laogong Dai Huijia",
      "rating": 6.27,
      "classificacao_etaria": "A14",
      "imagem_original": "https://animefire.plus/img/animes/guomin-laogong-dai-huijia.webp",
      "imagem_pasta": "https://animefire.plus/img/animes/guomin-laogong-dai-huijia/",
      "secao": "legendados",
      "pagina": 153,
      "total_episodios": 12,
      "link_video": "https://animefire.plus/video/guomin-laogong-dai-huijia"
    },
    {
      "id": 1290,
      "nome": "Guomin Laogong Dai Huijia 2nd season",
      "link": "https://animefire.plus/animes/guomin-laogong-dai-huijia-2nd-season-todos-os-episodios",
      "texto_original": "Guomin Laogong Dai Huijia 2nd season",
      "rating": 6.66,
      "classificacao_etaria": "A14",
      "imagem_original": "https://animefire.plus/img/animes/guomin-laogong-dai-huijia-2nd-season.webp",
      "imagem_pasta": "https://animefire.plus/img/animes/guomin-laogong-dai-huijia-2nd-season/",
      "secao": "legendados",
      "pagina": 88,
      "total_episodios": 12,
      "link_video": "https://animefire.plus/video/guomin-laogong-dai-huijia-2nd-season"
    },
    {
      "id": 1291,
      "nome": "Guomin Laogong Dai Huijia 3rd Season",
      "link": "https://animefire.plus/animes/guomin-laogong-dai-huijia-3rd-season-todos-os-episodios",
      "texto_original": "Guomin Laogong Dai Huijia 3rd Season",
      "rating": 6.65,
      "classificacao_etaria": "A14",
      "imagem_original": "https://animefire.plus/img/animes/guomin-laogong-dai-huijia-3rd-season.webp",
      "imagem_pasta": "https://animefire.plus/img/animes/guomin-laogong-dai-huijia-3rd-season/",
      "secao": "legendados",
      "pagina": 132,
      "total_episodios": 12,
      "link_video": "https://animefire.plus/video/guomin-laogong-dai-huijia-3rd-season"
    },
    {
      "id": 1292,
      "nome": "Guomin Laogong Dai Huijia 4th Season",
      "link": "https://animefire.plus/animes/guomin-laogong-dai-huijia-4th-season-todos-os-episodios",
      "texto_original": "Guomin Laogong Dai Huijia 4th Season",
      "rating": 6.5,
      "classificacao_etaria": "A14",
      "imagem_original": "https://animefire.plus/img/animes/guomin-laogong-dai-huijia-4th-season.webp",
      "imagem_pasta": "https://animefire.plus/img/animes/guomin-laogong-dai-huijia-4th-season/",
      "secao": "legendados",
      "pagina": 88,
      "total_episodios": 12,
      "link_video": "https://animefire.plus/video/guomin-laogong-dai-huijia-4th-season"
    },
    {
      "id": 1293,
      "nome": "Guraburu!",
      "link": "https://animefire.plus/animes/guraburu-todos-os-episodios",
      "texto_original": "Guraburu!",
      "rating": null,
      "classificacao_etaria": "A14",
      "imagem_original": "https://animefire.plus/img/animes/guraburu.webp",
      "imagem_pasta": "https://animefire.plus/img/animes/guraburu/",
      "secao": "legendados",
      "pagina": 51,
      "total_episodios": 12,
      "link_video": "https://animefire.plus/video/guraburu"
    },
    {
      "id": 1294,
      "nome": "Gurazeni",
      "link": "https://animefire.plus/animes/gurazeni-todos-os-episodios",
      "texto_original": "Gurazeni",
      "rating": 6.38,
      "classificacao_etaria": "A14",
      "imagem_original": "https://animefire.plus/img/animes/gurazeni.webp",
      "imagem_pasta": "https://animefire.plus/img/animes/gurazeni/",
      "secao": "legendados",
      "pagina": 103,
      "total_episodios": 0,
      "link_video": "https://animefire.plus/video/gurazeni"
    },
    {
      "id": 1297,
      "nome": "Gyakuten Saiban: Sono \"Shinjitsu\", Igi Ari!",
      "link": "https://animefire.plus/animes/gyakuten-saiban-sono-shinjitsu-igi-ari-todos-os-episodios",
      "texto_original": "Gyakuten Saiban: Sono \"Shinjitsu\", Igi Ari!",
      "rating": 6.47,
      "classificacao_etaria": "A14",
      "imagem_original": "https://animefire.plus/img/animes/gyakuten-saiban-sono-shinjitsu-igi-ari.webp",
      "imagem_pasta": "https://animefire.plus/img/animes/gyakuten-saiban-sono-shinjitsu-igi-ari/",
      "secao": "legendados",
      "pagina": 116,
      "total_episodios": 9,
      "link_video": "https://animefire.plus/video/gyakuten-saiban-sono-shinjitsu-igi-ari"
    },
    {
      "id": 1298,
      "nome": "Gyakuten Sekai no Denchi Shoujo (Dublado)",
      "link": "https://animefire.plus/animes/gyakuten-sekai-no-denchi-shoujo-dublado-todos-os-episodios",
      "texto_original": "Gyakuten Sekai no Denchi Shoujo (Dublado)",
      "rating": 6.3,
      "classificacao_etaria": "A14",
      "imagem_original": "https://animefire.plus/img/animes/gyakuten-sekai-no-denchi-shoujo.webp",
      "imagem_pasta": "https://animefire.plus/img/animes/gyakuten-sekai-no-denchi-shoujo/",
      "secao": "dublados,legendados",
      "pagina": 14,
      "total_episodios": 12,
      "link_video": "https://animefire.plus/video/gyakuten-sekai-no-denchi-shoujo-dublado"
    }
  ],
  "pagination": {
    "current_page": 41,
    "per_page": 20,
    "total_items": 2988,
    "total_pages": 150,
    "has_next": true,
    "has_prev": true
  }
}
