{
  "message": "Animes com classificação etária: A14",
  "age_rating": "A14",
  "data": [
    {
      "id": 4198,
      "nome": "Yamada-kun to 7-nin no Majo: Mou Hitotsu no Suzaku-sai",
      "link": "https://animefire.plus/animes/yamada-kun-to-7-nin-no-majo-mou-hitotsu-no-suzaku-sai-todos-os-episodios",
      "texto_original": "Yamada-kun to 7-nin no Majo: Mou Hitotsu no Suzaku-sai",
      "rating": 7.48,
      "classificacao_etaria": "A14",
      "imagem_original": "https://animefire.plus/img/animes/yamada-kun-to-7-nin-no-majo-mou-hitotsu-no-suzaku-sai.webp",
      "imagem_pasta": "https://animefire.plus/img/animes/yamada-kun-to-7-nin-no-majo-mou-hitotsu-no-suzaku-sai/",
      "secao": "legendados",
      "pagina": 54,
      "total_episodios": 2,
      "link_video": "https://animefire.plus/video/yamada-kun-to-7-nin-no-majo-mou-hitotsu-no-suzaku-sai"
    },
    {
      "id": 4199,
      "nome": "Yamada-kun to Lv999 no Koi o Suru",
      "link": "https://animefire.plus/animes/yamada-kun-to-lv999-no-koi-o-suru-todos-os-episodios",
      "texto_original": "Yamada-kun to Lv999 no Koi o Suru",
      "rating": 7.77,
      "classificacao_etaria": "A14",
      "imagem_original": "https://animefire.plus/img/animes/yamada-kun-to-lv999-no-koi-o-suru.jpg",
      "imagem_pasta": "https://animefire.plus/img/animes/yamada-kun-to-lv999-no-koi-o-suru/",
      "secao": "legendados",
      "pagina": 25,
      "total_episodios": 13,
      "link_video": "https://animefire.plus/video/yamada-kun-to-lv999-no-koi-o-suru"
    },
    {
      "id": 4200,
      "nome": "Yamato Nadeshiko Shichihenge♥",
      "link": "https://animefire.plus/animes/yamato-nadeshiko-shichihenge-todos-os-episodios",
      "texto_original": "Yamato Nadeshiko Shichihenge♥",
      "rating": 7.84,
      "classificacao_etaria": "A14",
      "imagem_original": "https://animefire.plus/img/animes/yamato-nadeshiko-shichihenge.webp",
      "imagem_pasta": "https://animefire.plus/img/animes/yamato-nadeshiko-shichihenge/",
      "secao": "legendados",
      "pagina": 146,
      "total_episodios": 11,
      "link_video": "https://animefire.plus/video/yamato-nadeshiko-shichihenge"
    },
    {
      "id": 4202,
      "nome": "Yami Shibai (Dublado)",
      "link": "https://animefire.plus/animes/yami-shibai-dublado-todos-os-episodios",
      "texto_original": "Yami Shibai (Dublado)",
      "rating": 7,
      "classificacao_etaria": "A14",
      "imagem_original": "https://animefire.plus/img/animes/yami-shibai.webp",
      "imagem_pasta": "https://animefire.plus/img/animes/yami-shibai/",
      "secao": "dublados,legendados",
      "pagina": 4,
      "total_episodios": 13,
      "link_video": "https://animefire.plus/video/yami-shibai-dublado"
    },
    {
      "id": 4203,
      "nome": "Yami Shibai 10",
      "link": "https://animefire.plus/animes/yami-shibai-10-todos-os-episodios",
      "texto_original": "Yami Shibai 10",
      "rating": 6.19,
      "classificacao_etaria": "A14",
      "imagem_original": "https://animefire.plus/img/animes/yami-shibai-10.webp",
      "imagem_pasta": "https://animefire.plus/img/animes/yami-shibai-10/",
      "secao": "legendados",
      "pagina": 35,
      "total_episodios": 13,
      "link_video": "https://animefire.plus/video/yami-shibai-10"
    },
    {
      "id": 4204,
      "nome": "Yami Shibai 11",
      "link": "https://animefire.plus/animes/yami-shibai-11-todos-os-episodios",
      "texto_original": "Yami Shibai 11",
      "rating": 5.83,
      "classificacao_etaria": "A14",
      "imagem_original": "https://animefire.plus/img/animes/yami-shibai-11.webp",
      "imagem_pasta": "https://animefire.plus/img/animes/yami-shibai-11/",
      "secao": "legendados",
      "pagina": 22,
      "total_episodios": 13,
      "link_video": "https://animefire.plus/video/yami-shibai-11"
    },
    {
      "id": 4205,
      "nome": "Yami Shibai 12",
      "link": "https://animefire.plus/animes/yami-shibai-12-todos-os-episodios",
      "texto_original": "Yami Shibai 12",
      "rating": 5.87,
      "classificacao_etaria": "A14",
      "imagem_original": "https://animefire.plus/img/animes/yami-shibai-12.webp",
      "imagem_pasta": "https://animefire.plus/img/animes/yami-shibai-12/",
      "secao": "legendados",
      "pagina": 16,
      "total_episodios": 13,
      "link_video": "https://animefire.plus/video/yami-shibai-12"
    },
    {
      "id": 4206,
      "nome": "Yami Shibai 13",
      "link": "https://animefire.plus/animes/yami-shibai-13-todos-os-episodios",
      "texto_original": "Yami Shibai 13",
      "rating": 6.03,
      "classificacao_etaria": "A14",
      "imagem_original": "https://animefire.plus/img/animes/yami-shibai-13.webp",
      "imagem_pasta": "https://animefire.plus/img/animes/yami-shibai-13/",
      "secao": "legendados",
      "pagina": 11,
      "total_episodios": 13,
      "link_video": "https://animefire.plus/video/yami-shibai-13"
    },
    {
      "id": 4207,
      "nome": "Yami Shibai 14",
      "link": "https://animefire.plus/animes/yami-shibai-14-todos-os-episodios",
      "texto_original": "Yami Shibai 14",
      "rating": 5.79,
      "classificacao_etaria": "A14",
      "imagem_original": "https://animefire.plus/img/animes/yami-shibai-14.webp",
      "imagem_pasta": "https://animefire.plus/img/animes/yami-shibai-14/",
      "secao": "legendados",
      "pagina": 6,
      "total_episodios": 13,
      "link_video": "https://animefire.plus/video/yami-shibai-14"
    },
    {
      "id": 4208,
      "nome": "Yami Shibai 15",
      "link": "https://animefire.plus/animes/yami-shibai-15-todos-os-episodios",
      "texto_original": "Yami Shibai 15",
      "rating": 5.99,
      "classificacao_etaria": "A14",
      "imagem_original": "https://animefire.plus/img/animes/yami-shibai-15.webp",
      "imagem_pasta": "https://animefire.plus/img/animes/yami-shibai-15/",
      "secao": "legendados,lancamentos",
      "pagina": 1,
      "total_episodios": 4,
      "link_video": "https://animefire.plus/video/yami-shibai-15"
    },
    {
      "id": 4209,
      "nome": "Yami Shibai 2 (Dublado)",
      "link": "https://animefire.plus/animes/yami-shibai-2-dublado-todos-os-episodios",
      "texto_original": "Yami Shibai 2 (Dublado)",
      "rating": 6.51,
      "classificacao_etaria": "A14",
      "imagem_original": "https://animefire.plus/img/animes/yami-shibai-2.webp",
      "imagem_pasta": "https://animefire.plus/img/animes/yami-shibai-2/",
      "secao": "dublados,legendados",
      "pagina": 4,
      "total_episodios": 13,
      "link_video": "https://animefire.plus/video/yami-shibai-2-dublado"
    },
    {
      "id": 4210,
      "nome": "Yami Shibai 3 (Dublado)",
      "link": "https://animefire.plus/animes/yami-shibai-3-dublado-todos-os-episodios",
      "texto_original": "Yami Shibai 3 (Dublado)",
      "rating": 6.33,
      "classificacao_etaria": "A14",
      "imagem_original": "https://animefire.plus/img/animes/yami-shibai-3.webp",
      "imagem_pasta": "https://animefire.plus/img/animes/yami-shibai-3/",
      "secao": "dublados,legendados",
      "pagina": 4,
      "total_episodios": 13,
      "link_video": "https://animefire.plus/video/yami-shibai-3-dublado"
    },
    {
      "id": 4211,
      "nome": "Yami Shibai 4 (Dublado)",
      "link": "https://animefire.plus/animes/yami-shibai-4-dublado-todos-os-episodios",
      "texto_original": "Yami Shibai 4 (Dublado)",
      "rating": 5.81,
      "classificacao_etaria": "A14",
      "imagem_original": "https://animefire.plus/img/animes/yami-shibai-4.webp",
      "imagem_pasta": "https://animefire.plus/img/animes/yami-shibai-4/",
      "secao": "dublados,legendados",
      "pagina": 4,
      "total_episodios": 13,
      "link_video": "https://animefire.plus/video/yami-shibai-4-dublado"
    },
    {
      "id": 4212,
      "nome": "Yami Shibai 5",
      "link": "https://animefire.plus/animes/yami-shibai-5-todos-os-episodios",
      "texto_original": "Yami Shibai 5",
      "rating": 6.29,
      "classificacao_etaria": "A14",
      "imagem_original": "https://animefire.plus/img/animes/yami-shibai-5.webp",
      "imagem_pasta": "https://animefire.plus/img/animes/yami-shibai-5/",
      "secao": "legendados",
      "pagina": 73,
      "total_episodios": 13,
      "link_video": "https://animefire.plus/video/yami-shibai-5"
    },
    {
      "id": 4213,
      "nome": "Yami Shibai 6",
      "link": "https://animefire.plus/animes/yami-shibai-6-todos-os-episodios",
      "texto_original": "Yami Shibai 6",
      "rating": 6.13,
      "classificacao_etaria": "A14",
      "imagem_original": "https://animefire.plus/img/animes/yami-shibai-6.webp",
      "imagem_pasta": "https://animefire.plus/img/animes/yami-shibai-6/",
      "secao": "legendados",
      "pagina": 171,
      "total_episodios": 13,
      "link_video": "https://animefire.plus/video/yami-shibai-6"
    },
    {
      "id": 4214,
      "nome": "Yami Shibai 7",
      "link": "https://animefire.plus/animes/yami-shibai-7-todos-os-episodios",
      "texto_original": "Yami Shibai 7",
      "rating": 5.91,
      "classificacao_etaria": "A14",
      "imagem_original": "https://animefire.plus/img/animes/yami-shibai-7.webp",
      "imagem_pasta": "https://animefire.plus/img/animes/yami-shibai-7/",
      "secao": "legendados",
      "pagina": 84,
      "total_episodios": 13,
      "link_video": "https://animefire.plus/video/yami-shibai-7"
    },
    {
      "id": 4215,
      "nome": "Yami Shibai 8",
      "link": "https://animefire.plus/animes/yami-shibai-8-todos-os-episodios",
      "texto_original": "Yami Shibai 8",
      "rating": 5.83,
      "classificacao_etaria": "A14",
      "imagem_original": "https://animefire.plus/img/animes/yami-shibai-8.webp",
      "imagem_pasta": "https://animefire.plus/img/animes/yami-shibai-8/",
      "secao": "legendados",
      "pagina": 49,
      "total_episodios": 13,
      "link_video": "https://animefire.plus/video/yami-shibai-8"
    },
    {
      "id": 4216,
      "nome": "Yami Shibai 9",
      "link": "https://animefire.plus/animes/yami-shibai-9-todos-os-episodios",
      "texto_original": "Yami Shibai 9",
      "rating": 5.92,
      "classificacao_etaria": "A14",
      "imagem_original": "https://animefire.plus/img/animes/yami-shibai-9.webp",
      "imagem_pasta": "https://animefire.plus/img/animes/yami-shibai-9/",
      "secao": "legendados",
      "pagina": 40,
      "total_episodios": 13,
      "link_video": "https://animefire.plus/video/yami-shibai-9"
    },
    {
      "id": 4218,
      "nome": "Yankee-kun na Yamada-kun to Megane-chan to Majo",
      "link": "https://animefire.plus/animes/yankee-kun-na-yamada-kun-to-megane-chan-to-majo-todos-os-episodios",
      "texto_original": "Yankee-kun na Yamada-kun to Megane-chan to Majo",
      "rating": 7.15,
      "classificacao_etaria": "A14",
      "imagem_original": "https://animefire.plus/img/animes/yankee-kun-na-yamada-kun-to-megane-chan-to-majo.webp",
      "imagem_pasta": "https://animefire.plus/img/animes/yankee-kun-na-yamada-kun-to-megane-chan-to-majo/",
      "secao": "legendados",
      "pagina": 89,
      "total_episodios": 1,
      "link_video": "https://animefire.plus/video/yankee-kun-na-yamada-kun-to-megane-chan-to-majo"
    },
    {
      "id": 4219,
      "nome": "Yao Jing Zhong Zhi Shou Ce",
      "link": "https://animefire.plus/animes/yao-jing-zhong-zhi-shou-ce-todos-os-episodios",
      "texto_original": "Yao Jing Zhong Zhi Shou Ce",
      "rating": 6.57,
      "classificacao_etaria": "A14",
      "imagem_original": "https://animefire.plus/img/animes/yao-jing-zhong-zhi-shou-ce.webp",
      "imagem_pasta": "https://animefire.plus/img/animes/yao-jing-zhong-zhi-shou-ce/",
      "secao": "legendados",
      "pagina": 92,
      "total_episodios": 0,
      "link_video": "https://animefire.plus/video/yao-jing-zhong-zhi-shou-ce"
    }
  ],
  "pagination": {
    "current_page": 144,
    "per_page": 20,
    "total_items": 2988,
    "total_pages": 150,
    "has_next": true,
    "has_prev": true
  }
}
