{
  "message": "Animes com classificação etária: A14",
  "age_rating": "A14",
  "data": [
    {
      "id": 3842,
      "nome": "The SoulTaker: Tamashii-gari",
      "link": "https://animefire.plus/animes/the-soultaker-tamashii-gari-todos-os-episodios",
      "texto_original": "The SoulTaker: Tamashii-gari",
      "rating": 6.44,
      "classificacao_etaria": "A14",
      "imagem_original": "https://animefire.plus/img/animes/the-soultaker-tamashii-gari.webp",
      "imagem_pasta": "https://animefire.plus/img/animes/the-soultaker-tamashii-gari/",
      "secao": "legendados",
      "pagina": 129,
      "total_episodios": 13,
      "link_video": "https://animefire.plus/video/the-soultaker-tamashii-gari"
    },
    {
      "id": 3844,
      "nome": "Tian Guan Cifu Er",
      "link": "https://animefire.plus/animes/tian-guan-cifu-er-todos-os-episodios",
      "texto_original": "Tian Guan Cifu Er",
      "rating": 8.65,
      "classificacao_etaria": "A14",
      "imagem_original": "https://animefire.plus/img/animes/tian-guan-cifu-er.webp",
      "imagem_pasta": "https://animefire.plus/img/animes/tian-guan-cifu-er/",
      "secao": "legendados",
      "pagina": 17,
      "total_episodios": 0,
      "link_video": "https://animefire.plus/video/tian-guan-cifu-er"
    },
    {
      "id": 3845,
      "nome": "Tide-Line Blue",
      "link": "https://animefire.plus/animes/tide-line-blue-todos-os-episodios",
      "texto_original": "Tide-Line Blue",
      "rating": 6.71,
      "classificacao_etaria": "A14",
      "imagem_original": "https://animefire.plus/img/animes/tide-line-blue.webp",
      "imagem_pasta": "https://animefire.plus/img/animes/tide-line-blue/",
      "secao": "legendados",
      "pagina": 141,
      "total_episodios": 13,
      "link_video": "https://animefire.plus/video/tide-line-blue"
    },
    {
      "id": 3846,
      "nome": "Tiger & Bunny (Dublado)",
      "link": "https://animefire.plus/animes/tiger-bunny-dublado-todos-os-episodios",
      "texto_original": "Tiger & Bunny (Dublado)",
      "rating": 7.94,
      "classificacao_etaria": "A14",
      "imagem_original": "https://animefire.plus/img/animes/tiger-bunny.webp",
      "imagem_pasta": "https://animefire.plus/img/animes/tiger-bunny/",
      "secao": "dublados,legendados",
      "pagina": 18,
      "total_episodios": 25,
      "link_video": "https://animefire.plus/video/tiger-bunny-dublado"
    },
    {
      "id": 3847,
      "nome": "Tiger & Bunny 2 (Dublado)",
      "link": "https://animefire.plus/animes/tiger-bunny-2-dublado-todos-os-episodios",
      "texto_original": "Tiger & Bunny 2 (Dublado)",
      "rating": 7.42,
      "classificacao_etaria": "A14",
      "imagem_original": "https://animefire.plus/img/animes/tiger-bunny-2.webp",
      "imagem_pasta": "https://animefire.plus/img/animes/tiger-bunny-2/",
      "secao": "dublados,legendados,lancamentos",
      "pagina": 11,
      "total_episodios": 13,
      "link_video": "https://animefire.plus/video/tiger-bunny-2-dublado"
    },
    {
      "id": 3848,
      "nome": "Time Bokan 24",
      "link": "https://animefire.plus/animes/time-bokan-24-todos-os-episodios",
      "texto_original": "Time Bokan 24",
      "rating": 5.89,
      "classificacao_etaria": "A14",
      "imagem_original": "https://animefire.plus/img/animes/time-bokan-24.webp",
      "imagem_pasta": "https://animefire.plus/img/animes/time-bokan-24/",
      "secao": "legendados",
      "pagina": 64,
      "total_episodios": 24,
      "link_video": "https://animefire.plus/video/time-bokan-24"
    },
    {
      "id": 3849,
      "nome": "Time Bokan: Gyakushuu no San Akunin",
      "link": "https://animefire.plus/animes/time-bokan-gyakushuu-no-san-akunin-todos-os-episodios",
      "texto_original": "Time Bokan: Gyakushuu no San Akunin",
      "rating": 5.77,
      "classificacao_etaria": "A14",
      "imagem_original": "https://animefire.plus/img/animes/time-bokan-gyakushuu-no-san-akunin.webp",
      "imagem_pasta": "https://animefire.plus/img/animes/time-bokan-gyakushuu-no-san-akunin/",
      "secao": "legendados",
      "pagina": 97,
      "total_episodios": 24,
      "link_video": "https://animefire.plus/video/time-bokan-gyakushuu-no-san-akunin"
    },
    {
      "id": 3851,
      "nome": "To Be Hero",
      "link": "https://animefire.plus/animes/to-be-hero-todos-os-episodios",
      "texto_original": "To Be Hero",
      "rating": 7.04,
      "classificacao_etaria": "A14",
      "imagem_original": "https://animefire.plus/img/animes/to-be-hero.webp",
      "imagem_pasta": "https://animefire.plus/img/animes/to-be-hero/",
      "secao": "legendados",
      "pagina": 99,
      "total_episodios": 12,
      "link_video": "https://animefire.plus/video/to-be-hero"
    },
    {
      "id": 3852,
      "nome": "To Heart",
      "link": "https://animefire.plus/animes/to-heart-todos-os-episodios",
      "texto_original": "To Heart",
      "rating": 6.65,
      "classificacao_etaria": "A14",
      "imagem_original": "https://animefire.plus/img/animes/to-heart.webp",
      "imagem_pasta": "https://animefire.plus/img/animes/to-heart/",
      "secao": "legendados",
      "pagina": 161,
      "total_episodios": 13,
      "link_video": "https://animefire.plus/video/to-heart"
    },
    {
      "id": 3853,
      "nome": "To Heart 2",
      "link": "https://animefire.plus/animes/to-heart-2-todos-os-episodios",
      "texto_original": "To Heart 2",
      "rating": 6.58,
      "classificacao_etaria": "A14",
      "imagem_original": "https://animefire.plus/img/animes/to-heart-2.webp",
      "imagem_pasta": "https://animefire.plus/img/animes/to-heart-2/",
      "secao": "legendados",
      "pagina": 147,
      "total_episodios": 12,
      "link_video": "https://animefire.plus/video/to-heart-2"
    },
    {
      "id": 3854,
      "nome": "To Heart: Remember My Memories",
      "link": "https://animefire.plus/animes/to-heart-remember-my-memories-todos-os-episodios",
      "texto_original": "To Heart: Remember My Memories",
      "rating": 6.51,
      "classificacao_etaria": "A14",
      "imagem_original": "https://animefire.plus/img/animes/to-heart-remember-my-memories.webp",
      "imagem_pasta": "https://animefire.plus/img/animes/to-heart-remember-my-memories/",
      "secao": "legendados",
      "pagina": 137,
      "total_episodios": 13,
      "link_video": "https://animefire.plus/video/to-heart-remember-my-memories"
    },
    {
      "id": 3858,
      "nome": "Toaru Hikuushi E No Koiuta",
      "link": "https://animefire.plus/animes/toaru-hikuushi-e-no-koiuta-todos-os-episodios",
      "texto_original": "Toaru Hikuushi E No Koiuta",
      "rating": 7.24,
      "classificacao_etaria": "A14",
      "imagem_original": "https://animefire.plus/img/animes/toaru-hikuushi-e-no-koiuta.webp",
      "imagem_pasta": "https://animefire.plus/img/animes/toaru-hikuushi-e-no-koiuta/",
      "secao": "legendados",
      "pagina": 101,
      "total_episodios": 13,
      "link_video": "https://animefire.plus/video/toaru-hikuushi-e-no-koiuta"
    },
    {
      "id": 3860,
      "nome": "Toaru Kagaku no Railgun",
      "link": "https://animefire.plus/animes/toaru-kagaku-no-railgun-todos-os-episodios",
      "texto_original": "Toaru Kagaku no Railgun",
      "rating": 7.8,
      "classificacao_etaria": "A14",
      "imagem_original": "https://animefire.plus/img/animes/toaru-kagaku-no-railgun.webp",
      "imagem_pasta": "https://animefire.plus/img/animes/toaru-kagaku-no-railgun/",
      "secao": "legendados",
      "pagina": 138,
      "total_episodios": 24,
      "link_video": "https://animefire.plus/video/toaru-kagaku-no-railgun"
    },
    {
      "id": 3862,
      "nome": "Toaru Kagaku no Railgun S: Daiji na Koto wa Zenbu Sentou ni Osowatta",
      "link": "https://animefire.plus/animes/toaru-kagaku-no-railgun-s-daiji-na-koto-wa-zenbu-sentou-ni-osowatta-todos-os-episodios",
      "texto_original": "Toaru Kagaku no Railgun S: Daiji na Koto wa Zenbu Sentou ni Osowatta",
      "rating": 6.81,
      "classificacao_etaria": "A14",
      "imagem_original": "https://animefire.plus/img/animes/toaru-kagaku-no-railgun-s-daiji-na-koto-wa-zenbu-sentou-ni-osowatta.webp",
      "imagem_pasta": "https://animefire.plus/img/animes/toaru-kagaku-no-railgun-s-daiji-na-koto-wa-zenbu-sentou-ni-osowatta/",
      "secao": "legendados",
      "pagina": 68,
      "total_episodios": 1,
      "link_video": "https://animefire.plus/video/toaru-kagaku-no-railgun-s-daiji-na-koto-wa-zenbu-sentou-ni-osowatta"
    },
    {
      "id": 3863,
      "nome": "Toaru Kagaku no Railgun S: Motto Marutto Railgun",
      "link": "https://animefire.plus/animes/toaru-kagaku-no-railgun-s-motto-marutto-railgun-todos-os-episodios",
      "texto_original": "Toaru Kagaku no Railgun S: Motto Marutto Railgun",
      "rating": 7.07,
      "classificacao_etaria": "A14",
      "imagem_original": "https://animefire.plus/img/animes/toaru-kagaku-no-railgun-s-motto-marutto-railgun.webp",
      "imagem_pasta": "https://animefire.plus/img/animes/toaru-kagaku-no-railgun-s-motto-marutto-railgun/",
      "secao": "legendados",
      "pagina": 68,
      "total_episodios": 2,
      "link_video": "https://animefire.plus/video/toaru-kagaku-no-railgun-s-motto-marutto-railgun"
    },
    {
      "id": 3867,
      "nome": "Toaru Majutsu no Index III",
      "link": "https://animefire.plus/animes/toaru-majutsu-no-index-iii-todos-os-episodios",
      "texto_original": "Toaru Majutsu no Index III",
      "rating": 6.75,
      "classificacao_etaria": "A14",
      "imagem_original": "https://animefire.plus/img/animes/toaru-majutsu-no-index-iii.webp",
      "imagem_pasta": "https://animefire.plus/img/animes/toaru-majutsu-no-index-iii/",
      "secao": "legendados",
      "pagina": 89,
      "total_episodios": 1,
      "link_video": "https://animefire.plus/video/toaru-majutsu-no-index-iii"
    },
    {
      "id": 3868,
      "nome": "Toaru Majutsu no Index-tan",
      "link": "https://animefire.plus/animes/toaru-majutsu-no-index-tan-todos-os-episodios",
      "texto_original": "Toaru Majutsu no Index-tan",
      "rating": 6.98,
      "classificacao_etaria": "A14",
      "imagem_original": "https://animefire.plus/img/animes/toaru-majutsu-no-index-tan.webp",
      "imagem_pasta": "https://animefire.plus/img/animes/toaru-majutsu-no-index-tan/",
      "secao": "legendados",
      "pagina": 54,
      "total_episodios": 1,
      "link_video": "https://animefire.plus/video/toaru-majutsu-no-index-tan"
    },
    {
      "id": 3869,
      "nome": "Toaru Majutsu no Index-tan II",
      "link": "https://animefire.plus/animes/toaru-majutsu-no-index-tan-ii-todos-os-episodios",
      "texto_original": "Toaru Majutsu no Index-tan II",
      "rating": 6.99,
      "classificacao_etaria": "A14",
      "imagem_original": "https://animefire.plus/img/animes/toaru-majutsu-no-index-tan-ii.webp",
      "imagem_pasta": "https://animefire.plus/img/animes/toaru-majutsu-no-index-tan-ii/",
      "secao": "legendados",
      "pagina": 78,
      "total_episodios": 2,
      "link_video": "https://animefire.plus/video/toaru-majutsu-no-index-tan-ii"
    },
    {
      "id": 3870,
      "nome": "Toaru Majutsu no Index-tan Movie: Endymion no Kiseki - Ga Attari Nakattari",
      "link": "https://animefire.plus/animes/toaru-majutsu-no-index-tan-movie-endymion-no-kiseki---ga-attari-nakattari-todos-os-episodios",
      "texto_original": "Toaru Majutsu no Index-tan Movie: Endymion no Kiseki - Ga Attari Nakattari",
      "rating": 7.11,
      "classificacao_etaria": "A14",
      "imagem_original": "https://animefire.plus/img/animes/toaru-majutsu-no-index-tan-movie-endymion-no-kiseki---ga-attari-nakattari.webp",
      "imagem_pasta": "https://animefire.plus/img/animes/toaru-majutsu-no-index-tan-movie-endymion-no-kiseki---ga-attari-nakattari/",
      "secao": "legendados",
      "pagina": 54,
      "total_episodios": 1,
      "link_video": "https://animefire.plus/video/toaru-majutsu-no-index-tan-movie-endymion-no-kiseki---ga-attari-nakattari"
    },
    {
      "id": 3871,
      "nome": "Toaru Ossan no VRMMO Katsudouki",
      "link": "https://animefire.plus/animes/toaru-ossan-no-vrmmo-katsudouki-todos-os-episodios",
      "texto_original": "Toaru Ossan no VRMMO Katsudouki",
      "rating": 6.39,
      "classificacao_etaria": "A14",
      "imagem_original": "https://animefire.plus/img/animes/toaru-ossan-no-vrmmo-katsudouki.webp",
      "imagem_pasta": "https://animefire.plus/img/animes/toaru-ossan-no-vrmmo-katsudouki/",
      "secao": "legendados",
      "pagina": 20,
      "total_episodios": 12,
      "link_video": "https://animefire.plus/video/toaru-ossan-no-vrmmo-katsudouki"
    }
  ],
  "pagination": {
    "current_page": 131,
    "per_page": 20,
    "total_items": 2988,
    "total_pages": 150,
    "has_next": true,
    "has_prev": true
  }
}
