{
  "message": "Animes com classificação etária: A14",
  "age_rating": "A14",
  "data": [
    {
      "id": 2621,
      "nome": "Mushishi Zoku Shou",
      "link": "https://animefire.plus/animes/mushishi-zoku-shou-todos-os-episodios",
      "texto_original": "Mushishi Zoku Shou",
      "rating": 8.74,
      "classificacao_etaria": "A14",
      "imagem_original": "https://animefire.plus/img/animes/mushishi-zoku-shou.webp",
      "imagem_pasta": "https://animefire.plus/img/animes/mushishi-zoku-shou/",
      "secao": "legendados",
      "pagina": 135,
      "total_episodios": 10,
      "link_video": "https://animefire.plus/video/mushishi-zoku-shou"
    },
    {
      "id": 2622,
      "nome": "Mushishi: Hihamukage",
      "link": "https://animefire.plus/animes/mushishi-hihamukage-todos-os-episodios",
      "texto_original": "Mushishi: Hihamukage",
      "rating": 8.6,
      "classificacao_etaria": "A14",
      "imagem_original": "https://animefire.plus/img/animes/mushishi-hihamukage.webp",
      "imagem_pasta": "https://animefire.plus/img/animes/mushishi-hihamukage/",
      "secao": "legendados",
      "pagina": 65,
      "total_episodios": 1,
      "link_video": "https://animefire.plus/video/mushishi-hihamukage"
    },
    {
      "id": 2630,
      "nome": "Muteki Choujin Zanbot 3",
      "link": "https://animefire.plus/animes/muteki-choujin-zanbot-3-todos-os-episodios",
      "texto_original": "Muteki Choujin Zanbot 3",
      "rating": 6.9,
      "classificacao_etaria": "A14",
      "imagem_original": "https://animefire.plus/img/animes/muteki-choujin-zanbot-3.webp",
      "imagem_pasta": "https://animefire.plus/img/animes/muteki-choujin-zanbot-3/",
      "secao": "legendados",
      "pagina": 54,
      "total_episodios": 23,
      "link_video": "https://animefire.plus/video/muteki-choujin-zanbot-3"
    },
    {
      "id": 2631,
      "nome": "Muteki Kanban Musume",
      "link": "https://animefire.plus/animes/muteki-kanban-musume-todos-os-episodios",
      "texto_original": "Muteki Kanban Musume",
      "rating": 7.17,
      "classificacao_etaria": "A14",
      "imagem_original": "https://animefire.plus/img/animes/muteki-kanban-musume.webp",
      "imagem_pasta": "https://animefire.plus/img/animes/muteki-kanban-musume/",
      "secao": "legendados",
      "pagina": 170,
      "total_episodios": 12,
      "link_video": "https://animefire.plus/video/muteki-kanban-musume"
    },
    {
      "id": 2632,
      "nome": "Muteking the Dancing Hero",
      "link": "https://animefire.plus/animes/muteking-the-dancing-hero-todos-os-episodios",
      "texto_original": "Muteking the Dancing Hero",
      "rating": 5.84,
      "classificacao_etaria": "A14",
      "imagem_original": "https://animefire.plus/img/animes/muteking-the-dancing-hero.webp",
      "imagem_pasta": "https://animefire.plus/img/animes/muteking-the-dancing-hero/",
      "secao": "legendados",
      "pagina": 38,
      "total_episodios": 12,
      "link_video": "https://animefire.plus/video/muteking-the-dancing-hero"
    },
    {
      "id": 2633,
      "nome": "Mutsu Enmei Ryuu Gaiden: Shura no Toki",
      "link": "https://animefire.plus/animes/mutsu-enmei-ryuu-gaiden-shura-no-toki-todos-os-episodios",
      "texto_original": "Mutsu Enmei Ryuu Gaiden: Shura no Toki",
      "rating": 7.63,
      "classificacao_etaria": "A14",
      "imagem_original": "https://animefire.plus/img/animes/mutsu-enmei-ryuu-gaiden-shura-no-toki.webp",
      "imagem_pasta": "https://animefire.plus/img/animes/mutsu-enmei-ryuu-gaiden-shura-no-toki/",
      "secao": "legendados",
      "pagina": 148,
      "total_episodios": 26,
      "link_video": "https://animefire.plus/video/mutsu-enmei-ryuu-gaiden-shura-no-toki"
    },
    {
      "id": 2637,
      "nome": "Muzik Tiger In the Forest",
      "link": "https://animefire.plus/animes/muzik-tiger-in-the-forest-todos-os-episodios",
      "texto_original": "Muzik Tiger In the Forest",
      "rating": null,
      "classificacao_etaria": "A14",
      "imagem_original": "https://animefire.plus/img/animes/muzik-tiger-in-the-forest.webp",
      "imagem_pasta": "https://animefire.plus/img/animes/muzik-tiger-in-the-forest/",
      "secao": "legendados,lancamentos",
      "pagina": 4,
      "total_episodios": 0,
      "link_video": "https://animefire.plus/video/muzik-tiger-in-the-forest"
    },
    {
      "id": 2638,
      "nome": "Myself; Yourself",
      "link": "https://animefire.plus/animes/myself-yourself-todos-os-episodios",
      "texto_original": "Myself; Yourself",
      "rating": 7.3,
      "classificacao_etaria": "A14",
      "imagem_original": "https://animefire.plus/img/animes/myself-yourself.webp",
      "imagem_pasta": "https://animefire.plus/img/animes/myself-yourself/",
      "secao": "legendados",
      "pagina": 127,
      "total_episodios": 13,
      "link_video": "https://animefire.plus/video/myself-yourself"
    },
    {
      "id": 2639,
      "nome": "Na Nare Hana Nare",
      "link": "https://animefire.plus/animes/na-nare-hana-nare-todos-os-episodios",
      "texto_original": "Na Nare Hana Nare",
      "rating": 6.37,
      "classificacao_etaria": "A14",
      "imagem_original": "https://animefire.plus/img/animes/na-nare-hana-nare.webp",
      "imagem_pasta": "https://animefire.plus/img/animes/na-nare-hana-nare/",
      "secao": "legendados",
      "pagina": 11,
      "total_episodios": 12,
      "link_video": "https://animefire.plus/video/na-nare-hana-nare"
    },
    {
      "id": 2640,
      "nome": "Nabari no Ou",
      "link": "https://animefire.plus/animes/nabari-no-ou-todos-os-episodios",
      "texto_original": "Nabari no Ou",
      "rating": 7.37,
      "classificacao_etaria": "A14",
      "imagem_original": "https://animefire.plus/img/animes/nabari-no-ou.webp",
      "imagem_pasta": "https://animefire.plus/img/animes/nabari-no-ou/",
      "secao": "legendados",
      "pagina": 159,
      "total_episodios": 26,
      "link_video": "https://animefire.plus/video/nabari-no-ou"
    },
    {
      "id": 2642,
      "nome": "Nagasarete Airantou",
      "link": "https://animefire.plus/animes/nagasarete-airantou-todos-os-episodios",
      "texto_original": "Nagasarete Airantou",
      "rating": 7.36,
      "classificacao_etaria": "A14",
      "imagem_original": "https://animefire.plus/img/animes/nagasarete-airantou.webp",
      "imagem_pasta": "https://animefire.plus/img/animes/nagasarete-airantou/",
      "secao": "legendados",
      "pagina": 154,
      "total_episodios": 26,
      "link_video": "https://animefire.plus/video/nagasarete-airantou"
    },
    {
      "id": 2643,
      "nome": "Nagato Yuki-chan no Shoushitsu",
      "link": "https://animefire.plus/animes/nagato-yuki-chan-no-shoushitsu-todos-os-episodios",
      "texto_original": "Nagato Yuki-chan no Shoushitsu",
      "rating": 6.74,
      "classificacao_etaria": "A14",
      "imagem_original": "https://animefire.plus/img/animes/nagato-yuki-chan-no-shoushitsu.webp",
      "imagem_pasta": "https://animefire.plus/img/animes/nagato-yuki-chan-no-shoushitsu/",
      "secao": "legendados",
      "pagina": 76,
      "total_episodios": 16,
      "link_video": "https://animefire.plus/video/nagato-yuki-chan-no-shoushitsu"
    },
    {
      "id": 2644,
      "nome": "Nageki no Bourei wa Intai shitai",
      "link": "https://animefire.plus/animes/nageki-no-bourei-wa-intai-shitai-todos-os-episodios",
      "texto_original": "Nageki no Bourei wa Intai shitai",
      "rating": 7.04,
      "classificacao_etaria": "A14",
      "imagem_original": "https://animefire.plus/img/animes/nageki-no-bourei-wa-intai-shitai.webp",
      "imagem_pasta": "https://animefire.plus/img/animes/nageki-no-bourei-wa-intai-shitai/",
      "secao": "legendados",
      "pagina": 11,
      "total_episodios": 13,
      "link_video": "https://animefire.plus/video/nageki-no-bourei-wa-intai-shitai"
    },
    {
      "id": 2645,
      "nome": "Nagi no Asu kara",
      "link": "https://animefire.plus/animes/nagi-no-asu-kara-todos-os-episodios",
      "texto_original": "Nagi no Asu kara",
      "rating": 8.2,
      "classificacao_etaria": "A14",
      "imagem_original": "https://animefire.plus/img/animes/nagi-no-asu-kara.webp",
      "imagem_pasta": "https://animefire.plus/img/animes/nagi-no-asu-kara/",
      "secao": "legendados",
      "pagina": 136,
      "total_episodios": 5,
      "link_video": "https://animefire.plus/video/nagi-no-asu-kara"
    },
    {
      "id": 2647,
      "nome": "Nakanohito Genome [Jikkyouchuu]",
      "link": "https://animefire.plus/animes/nakanohito-genome-jikkyouchuu-todos-os-episodios",
      "texto_original": "Nakanohito Genome [Jikkyouchuu]",
      "rating": 6.87,
      "classificacao_etaria": "A14",
      "imagem_original": "https://animefire.plus/img/animes/nakanohito-genome-jikkyouchuu.webp",
      "imagem_pasta": "https://animefire.plus/img/animes/nakanohito-genome-jikkyouchuu/",
      "secao": "legendados",
      "pagina": 157,
      "total_episodios": 2,
      "link_video": "https://animefire.plus/video/nakanohito-genome-jikkyouchuu"
    },
    {
      "id": 2648,
      "nome": "Nakanohito Genome [Jikkyouchuu]: Knots of Memories",
      "link": "https://animefire.plus/animes/nakanohito-genome-jikkyouchuu-knots-of-memories-todos-os-episodios",
      "texto_original": "Nakanohito Genome [Jikkyouchuu]: Knots of Memories",
      "rating": 6.79,
      "classificacao_etaria": "A14",
      "imagem_original": "https://animefire.plus/img/animes/nakanohito-genome-jikkyouchuu-knots-of-memories.webp",
      "imagem_pasta": "https://animefire.plus/img/animes/nakanohito-genome-jikkyouchuu-knots-of-memories/",
      "secao": "legendados",
      "pagina": 42,
      "total_episodios": 1,
      "link_video": "https://animefire.plus/video/nakanohito-genome-jikkyouchuu-knots-of-memories"
    },
    {
      "id": 2650,
      "nome": "Namu Amida Butsu!: Rendai Utena",
      "link": "https://animefire.plus/animes/namu-amida-butsu-rendai-utena-todos-os-episodios",
      "texto_original": "Namu Amida Butsu!: Rendai Utena",
      "rating": 6.07,
      "classificacao_etaria": "A14",
      "imagem_original": "https://animefire.plus/img/animes/namu-amida-butsu-rendai-utena.webp",
      "imagem_pasta": "https://animefire.plus/img/animes/namu-amida-butsu-rendai-utena/",
      "secao": "legendados",
      "pagina": 142,
      "total_episodios": 0,
      "link_video": "https://animefire.plus/video/namu-amida-butsu-rendai-utena"
    },
    {
      "id": 2652,
      "nome": "Nana Maru San Batsu",
      "link": "https://animefire.plus/animes/nana-maru-san-batsu-todos-os-episodios",
      "texto_original": "Nana Maru San Batsu",
      "rating": 6.79,
      "classificacao_etaria": "A14",
      "imagem_original": "https://animefire.plus/img/animes/nana-maru-san-batsu.webp",
      "imagem_pasta": "https://animefire.plus/img/animes/nana-maru-san-batsu/",
      "secao": "legendados",
      "pagina": 169,
      "total_episodios": 12,
      "link_video": "https://animefire.plus/video/nana-maru-san-batsu"
    },
    {
      "id": 2653,
      "nome": "Nana Toshi Monogatari: Hokkyokukai Sensen",
      "link": "https://animefire.plus/animes/nana-toshi-monogatari-hokkyokukai-sensen-todos-os-episodios",
      "texto_original": "Nana Toshi Monogatari: Hokkyokukai Sensen",
      "rating": 6.3,
      "classificacao_etaria": "A14",
      "imagem_original": "https://animefire.plus/img/animes/nana-toshi-monogatari-hokkyokukai-sensen.webp",
      "imagem_pasta": "https://animefire.plus/img/animes/nana-toshi-monogatari-hokkyokukai-sensen/",
      "secao": "legendados",
      "pagina": 72,
      "total_episodios": 2,
      "link_video": "https://animefire.plus/video/nana-toshi-monogatari-hokkyokukai-sensen"
    },
    {
      "id": 2654,
      "nome": "Nanaka 6/17",
      "link": "https://animefire.plus/animes/nanaka-6-17-todos-os-episodios",
      "texto_original": "Nanaka 6/17",
      "rating": 6.7,
      "classificacao_etaria": "A14",
      "imagem_original": "https://animefire.plus/img/animes/nanaka-6-17.webp",
      "imagem_pasta": "https://animefire.plus/img/animes/nanaka-6-17/",
      "secao": "legendados",
      "pagina": 141,
      "total_episodios": 12,
      "link_video": "https://animefire.plus/video/nanaka-6-17"
    }
  ],
  "pagination": {
    "current_page": 87,
    "per_page": 20,
    "total_items": 2988,
    "total_pages": 150,
    "has_next": true,
    "has_prev": true
  }
}
