{
  "message": "Animes com classificação etária: A16",
  "age_rating": "A16",
  "data": [
    {
      "id": 1610,
      "nome": "Ima, Soko ni Iru Boku",
      "link": "https://animefire.plus/animes/ima-soko-ni-iru-boku-todos-os-episodios",
      "texto_original": "Ima, Soko ni Iru Boku",
      "rating": 7.72,
      "classificacao_etaria": "A16",
      "imagem_original": "https://animefire.plus/img/animes/ima-soko-ni-iru-boku.webp",
      "imagem_pasta": "https://animefire.plus/img/animes/ima-soko-ni-iru-boku/",
      "secao": "legendados",
      "pagina": 173,
      "total_episodios": 0,
      "link_video": "https://animefire.plus/video/ima-soko-ni-iru-boku"
    },
    {
      "id": 1619,
      "nome": "Inferno Cop",
      "link": "https://animefire.plus/animes/inferno-cop-todos-os-episodios",
      "texto_original": "Inferno Cop",
      "rating": 7.3,
      "classificacao_etaria": "A16",
      "imagem_original": "https://animefire.plus/img/animes/inferno-cop.webp",
      "imagem_pasta": "https://animefire.plus/img/animes/inferno-cop/",
      "secao": "legendados",
      "pagina": 73,
      "total_episodios": 13,
      "link_video": "https://animefire.plus/video/inferno-cop"
    },
    {
      "id": 1622,
      "nome": "Ingress the Animation (Dublado)",
      "link": "https://animefire.plus/animes/ingress-the-animation-dublado-todos-os-episodios",
      "texto_original": "Ingress the Animation (Dublado)",
      "rating": 6.45,
      "classificacao_etaria": "A16",
      "imagem_original": "https://animefire.plus/img/animes/ingress-the-animation.webp",
      "imagem_pasta": "https://animefire.plus/img/animes/ingress-the-animation/",
      "secao": "dublados,legendados",
      "pagina": 22,
      "total_episodios": 11,
      "link_video": "https://animefire.plus/video/ingress-the-animation-dublado"
    },
    {
      "id": 1644,
      "nome": "Inuyashiki",
      "link": "https://animefire.plus/animes/inuyashiki-todos-os-episodios",
      "texto_original": "Inuyashiki",
      "rating": 7.81,
      "classificacao_etaria": "A16",
      "imagem_original": "https://animefire.plus/img/animes/inuyashiki.webp",
      "imagem_pasta": "https://animefire.plus/img/animes/inuyashiki/",
      "secao": "legendados",
      "pagina": 168,
      "total_episodios": 11,
      "link_video": "https://animefire.plus/video/inuyashiki"
    },
    {
      "id": 1646,
      "nome": "Iria: Zeiram The Animation",
      "link": "https://animefire.plus/animes/iria-zeiram-the-animation-todos-os-episodios",
      "texto_original": "Iria: Zeiram The Animation",
      "rating": 7.15,
      "classificacao_etaria": "A16",
      "imagem_original": "https://animefire.plus/img/animes/iria-zeiram-the-animation.webp",
      "imagem_pasta": "https://animefire.plus/img/animes/iria-zeiram-the-animation/",
      "secao": "legendados",
      "pagina": 133,
      "total_episodios": 6,
      "link_video": "https://animefire.plus/video/iria-zeiram-the-animation"
    },
    {
      "id": 1648,
      "nome": "Iron Virgin Jun",
      "link": "https://animefire.plus/animes/iron-virgin-jun-todos-os-episodios",
      "texto_original": "Iron Virgin Jun",
      "rating": 4.58,
      "classificacao_etaria": "A16",
      "imagem_original": "https://animefire.plus/img/animes/iron-virgin-jun.webp",
      "imagem_pasta": "https://animefire.plus/img/animes/iron-virgin-jun/",
      "secao": "legendados",
      "pagina": 43,
      "total_episodios": 1,
      "link_video": "https://animefire.plus/video/iron-virgin-jun"
    },
    {
      "id": 1671,
      "nome": "Isekai Suicide Squad",
      "link": "https://animefire.plus/animes/isekai-suicide-squad-todos-os-episodios",
      "texto_original": "Isekai Suicide Squad",
      "rating": 6.41,
      "classificacao_etaria": "A16",
      "imagem_original": "https://animefire.plus/img/animes/isekai-suicide-squad.webp",
      "imagem_pasta": "https://animefire.plus/img/animes/isekai-suicide-squad/",
      "secao": "legendados",
      "pagina": 12,
      "total_episodios": 10,
      "link_video": "https://animefire.plus/video/isekai-suicide-squad"
    },
    {
      "id": 1678,
      "nome": "Ishura 2nd Season",
      "link": "https://animefire.plus/animes/ishura-2nd-season-todos-os-episodios",
      "texto_original": "Ishura 2nd Season",
      "rating": null,
      "classificacao_etaria": "A16",
      "imagem_original": "https://animefire.plus/img/animes/ishura-2nd-season.webp",
      "imagem_pasta": "https://animefire.plus/img/animes/ishura-2nd-season/",
      "secao": "legendados",
      "pagina": 8,
      "total_episodios": 12,
      "link_video": "https://animefire.plus/video/ishura-2nd-season"
    },
    {
      "id": 1688,
      "nome": "Itazuraguma no Gloomy",
      "link": "https://animefire.plus/animes/itazuraguma-no-gloomy-todos-os-episodios",
      "texto_original": "Itazuraguma no Gloomy",
      "rating": 5.28,
      "classificacao_etaria": "A16",
      "imagem_original": "https://animefire.plus/img/animes/itazuraguma-no-gloomy.webp",
      "imagem_pasta": "https://animefire.plus/img/animes/itazuraguma-no-gloomy/",
      "secao": "legendados",
      "pagina": 45,
      "total_episodios": 12,
      "link_video": "https://animefire.plus/video/itazuraguma-no-gloomy"
    },
    {
      "id": 1690,
      "nome": "Itou Junji: Collection",
      "link": "https://animefire.plus/animes/itou-junji-collection-todos-os-episodios",
      "texto_original": "Itou Junji: Collection",
      "rating": 6.2,
      "classificacao_etaria": "A16",
      "imagem_original": "https://animefire.plus/img/animes/itou-junji-collection.webp",
      "imagem_pasta": "https://animefire.plus/img/animes/itou-junji-collection/",
      "secao": "legendados",
      "pagina": 148,
      "total_episodios": 12,
      "link_video": "https://animefire.plus/video/itou-junji-collection"
    },
    {
      "id": 1691,
      "nome": "Itou Junji: Maniac (Dublado)",
      "link": "https://animefire.plus/animes/itou-junji-maniac-dublado-todos-os-episodios",
      "texto_original": "Itou Junji: Maniac (Dublado)",
      "rating": 6.66,
      "classificacao_etaria": "A16",
      "imagem_original": "https://animefire.plus/img/animes/itou-junji-maniac.webp",
      "imagem_pasta": "https://animefire.plus/img/animes/itou-junji-maniac/",
      "secao": "dublados,legendados",
      "pagina": 8,
      "total_episodios": 12,
      "link_video": "https://animefire.plus/video/itou-junji-maniac-dublado"
    },
    {
      "id": 1723,
      "nome": "Jigoku Shoujo (Dublado)",
      "link": "https://animefire.plus/animes/jigoku-shoujo-dublado-todos-os-episodios",
      "texto_original": "Jigoku Shoujo (Dublado)",
      "rating": 7.68,
      "classificacao_etaria": "A16",
      "imagem_original": "https://animefire.plus/img/animes/jigoku-shoujo.webp",
      "imagem_pasta": "https://animefire.plus/img/animes/jigoku-shoujo/",
      "secao": "dublados,legendados",
      "pagina": 25,
      "total_episodios": 26,
      "link_video": "https://animefire.plus/video/jigoku-shoujo-dublado"
    },
    {
      "id": 1724,
      "nome": "Jigoku Shoujo Futakomori",
      "link": "https://animefire.plus/animes/jigoku-shoujo-futakomori-todos-os-episodios",
      "texto_original": "Jigoku Shoujo Futakomori",
      "rating": 8.01,
      "classificacao_etaria": "A16",
      "imagem_original": "https://animefire.plus/img/animes/jigoku-shoujo-futakomori.webp",
      "imagem_pasta": "https://animefire.plus/img/animes/jigoku-shoujo-futakomori/",
      "secao": "legendados",
      "pagina": 177,
      "total_episodios": 0,
      "link_video": "https://animefire.plus/video/jigoku-shoujo-futakomori"
    },
    {
      "id": 1725,
      "nome": "Jigoku Shoujo Mitsuganae",
      "link": "https://animefire.plus/animes/jigoku-shoujo-mitsuganae-todos-os-episodios",
      "texto_original": "Jigoku Shoujo Mitsuganae",
      "rating": 7.72,
      "classificacao_etaria": "A16",
      "imagem_original": "https://animefire.plus/img/animes/jigoku-shoujo-mitsuganae.webp",
      "imagem_pasta": "https://animefire.plus/img/animes/jigoku-shoujo-mitsuganae/",
      "secao": "legendados",
      "pagina": 167,
      "total_episodios": 0,
      "link_video": "https://animefire.plus/video/jigoku-shoujo-mitsuganae"
    },
    {
      "id": 1726,
      "nome": "Jigoku Shoujo: Yoi no Togi",
      "link": "https://animefire.plus/animes/jigoku-shoujo-yoi-no-togi-todos-os-episodios",
      "texto_original": "Jigoku Shoujo: Yoi no Togi",
      "rating": 6.61,
      "classificacao_etaria": "A16",
      "imagem_original": "https://animefire.plus/img/animes/jigoku-shoujo-yoi-no-togi.webp",
      "imagem_pasta": "https://animefire.plus/img/animes/jigoku-shoujo-yoi-no-togi/",
      "secao": "legendados",
      "pagina": 126,
      "total_episodios": 12,
      "link_video": "https://animefire.plus/video/jigoku-shoujo-yoi-no-togi"
    },
    {
      "id": 1727,
      "nome": "Jigokuraku (Dublado)",
      "link": "https://animefire.plus/animes/jigokuraku-dublado-todos-os-episodios",
      "texto_original": "Jigokuraku (Dublado)",
      "rating": 8.09,
      "classificacao_etaria": "A16",
      "imagem_original": "https://animefire.plus/img/animes/jigokuraku.webp",
      "imagem_pasta": "https://animefire.plus/img/animes/jigokuraku/",
      "secao": "dublados,legendados",
      "pagina": 7,
      "total_episodios": 13,
      "link_video": "https://animefire.plus/video/jigokuraku-dublado"
    },
    {
      "id": 1734,
      "nome": "Jinki:Extend",
      "link": "https://animefire.plus/animes/jinki-extend-todos-os-episodios",
      "texto_original": "Jinki:Extend",
      "rating": 6.2,
      "classificacao_etaria": "A16",
      "imagem_original": "https://animefire.plus/img/animes/jinki-extend.webp",
      "imagem_pasta": "https://animefire.plus/img/animes/jinki-extend/",
      "secao": "legendados",
      "pagina": 125,
      "total_episodios": 12,
      "link_video": "https://animefire.plus/video/jinki-extend"
    },
    {
      "id": 1739,
      "nome": "JoJo no Kimyou na Bouken (TV) (Dublado)",
      "link": "https://animefire.plus/animes/jojo-no-kimyou-na-bouken-tv-dublado-todos-os-episodios",
      "texto_original": "JoJo no Kimyou na Bouken (TV) (Dublado)",
      "rating": 7.99,
      "classificacao_etaria": "A16",
      "imagem_original": "https://animefire.plus/img/animes/jojo-no-kimyou-na-bouken-tv.webp",
      "imagem_pasta": "https://animefire.plus/img/animes/jojo-no-kimyou-na-bouken-tv/",
      "secao": "dublados,legendados",
      "pagina": 17,
      "total_episodios": 26,
      "link_video": "https://animefire.plus/video/jojo-no-kimyou-na-bouken-tv-dublado"
    },
    {
      "id": 1740,
      "nome": "JoJo no Kimyou na Bouken Part 3: Stardust Crusaders (Dublado)",
      "link": "https://animefire.plus/animes/jojo-no-kimyou-na-bouken-part-3-stardust-crusaders-dublado-todos-os-episodios",
      "texto_original": "JoJo no Kimyou na Bouken Part 3: Stardust Crusaders (Dublado)",
      "rating": 8.09,
      "classificacao_etaria": "A16",
      "imagem_original": "https://animefire.plus/img/animes/jojo-no-kimyou-na-bouken-part-3-stardust-crusaders.webp",
      "imagem_pasta": "https://animefire.plus/img/animes/jojo-no-kimyou-na-bouken-part-3-stardust-crusaders/",
      "secao": "dublados,legendados",
      "pagina": 15,
      "total_episodios": 24,
      "link_video": "https://animefire.plus/video/jojo-no-kimyou-na-bouken-part-3-stardust-crusaders-dublado"
    },
    {
      "id": 1741,
      "nome": "JoJo no Kimyou na Bouken Part 3: Stardust Crusaders 2nd Season (Dublado)",
      "link": "https://animefire.plus/animes/jojo-no-kimyou-na-bouken-part-3-stardust-crusaders-2nd-season-dublado-todos-os-episodios",
      "texto_original": "JoJo no Kimyou na Bouken Part 3: Stardust Crusaders 2nd Season (Dublado)",
      "rating": 8.43,
      "classificacao_etaria": "A16",
      "imagem_original": "https://animefire.plus/img/animes/jojo-no-kimyou-na-bouken-part-3-stardust-crusaders-2nd-season.webp",
      "imagem_pasta": "https://animefire.plus/img/animes/jojo-no-kimyou-na-bouken-part-3-stardust-crusaders-2nd-season/",
      "secao": "dublados,legendados",
      "pagina": 15,
      "total_episodios": 24,
      "link_video": "https://animefire.plus/video/jojo-no-kimyou-na-bouken-part-3-stardust-crusaders-2nd-season-dublado"
    }
  ],
  "pagination": {
    "current_page": 16,
    "per_page": 20,
    "total_items": 708,
    "total_pages": 36,
    "has_next": true,
    "has_prev": true
  }
}
