{
  "message": "Animes com classificação etária: A16",
  "age_rating": "A16",
  "data": [
    {
      "id": 3217,
      "nome": "Saiyuuki Gaiden",
      "link": "https://animefire.plus/animes/saiyuuki-gaiden-todos-os-episodios",
      "texto_original": "Saiyuuki Gaiden",
      "rating": 7.95,
      "classificacao_etaria": "A16",
      "imagem_original": "https://animefire.plus/img/animes/saiyuuki-gaiden.webp",
      "imagem_pasta": "https://animefire.plus/img/animes/saiyuuki-gaiden/",
      "secao": "legendados",
      "pagina": 152,
      "total_episodios": 3,
      "link_video": "https://animefire.plus/video/saiyuuki-gaiden"
    },
    {
      "id": 3224,
      "nome": "Sakamoto Days (Dublado)",
      "link": "https://animefire.plus/animes/sakamoto-days-dublado-todos-os-episodios",
      "texto_original": "Sakamoto Days (Dublado)",
      "rating": 7.58,
      "classificacao_etaria": "A16",
      "imagem_original": "https://animefire.plus/img/animes/sakamoto-days.webp",
      "imagem_pasta": "https://animefire.plus/img/animes/sakamoto-days/",
      "secao": "dublados,legendados",
      "pagina": 1,
      "total_episodios": 11,
      "link_video": "https://animefire.plus/video/sakamoto-days-dublado"
    },
    {
      "id": 3225,
      "nome": "Sakamoto Days Part 2 (Dublado)",
      "link": "https://animefire.plus/animes/sakamoto-days-part-2-dublado-todos-os-episodios",
      "texto_original": "Sakamoto Days Part 2 (Dublado)",
      "rating": 7.88,
      "classificacao_etaria": "A16",
      "imagem_original": "https://animefire.plus/img/animes/sakamoto-days-part-2.webp",
      "imagem_pasta": "https://animefire.plus/img/animes/sakamoto-days-part-2/",
      "secao": "dublados,legendados,lancamentos",
      "pagina": 1,
      "total_episodios": 4,
      "link_video": "https://animefire.plus/video/sakamoto-days-part-2-dublado"
    },
    {
      "id": 3239,
      "nome": "Sakurako-san no Ashimoto ni wa Shitai ga Umatteiru",
      "link": "https://animefire.plus/animes/sakurako-san-no-ashimoto-ni-wa-shitai-ga-umatteiru-todos-os-episodios",
      "texto_original": "Sakurako-san no Ashimoto ni wa Shitai ga Umatteiru",
      "rating": 7.46,
      "classificacao_etaria": "A16",
      "imagem_original": "https://animefire.plus/img/animes/sakurako-san-no-ashimoto-ni-wa-shitai-ga-umatteiru.webp",
      "imagem_pasta": "https://animefire.plus/img/animes/sakurako-san-no-ashimoto-ni-wa-shitai-ga-umatteiru/",
      "secao": "legendados",
      "pagina": 154,
      "total_episodios": 12,
      "link_video": "https://animefire.plus/video/sakurako-san-no-ashimoto-ni-wa-shitai-ga-umatteiru"
    },
    {
      "id": 3243,
      "nome": "Samurai Champloo (Dublado)",
      "link": "https://animefire.plus/animes/samurai-champloo-dublado-todos-os-episodios",
      "texto_original": "Samurai Champloo (Dublado)",
      "rating": 8.5,
      "classificacao_etaria": "A16",
      "imagem_original": "https://animefire.plus/img/animes/samurai-champloo.webp",
      "imagem_pasta": "https://animefire.plus/img/animes/samurai-champloo/",
      "secao": "dublados,legendados",
      "pagina": 25,
      "total_episodios": 26,
      "link_video": "https://animefire.plus/video/samurai-champloo-dublado"
    },
    {
      "id": 3245,
      "nome": "Samurai Flamenco",
      "link": "https://animefire.plus/animes/samurai-flamenco-todos-os-episodios",
      "texto_original": "Samurai Flamenco",
      "rating": 6.92,
      "classificacao_etaria": "A16",
      "imagem_original": "https://animefire.plus/img/animes/samurai-flamenco.webp",
      "imagem_pasta": "https://animefire.plus/img/animes/samurai-flamenco/",
      "secao": "legendados",
      "pagina": 65,
      "total_episodios": 22,
      "link_video": "https://animefire.plus/video/samurai-flamenco"
    },
    {
      "id": 3247,
      "nome": "Samurai Gun",
      "link": "https://animefire.plus/animes/samurai-gun-todos-os-episodios",
      "texto_original": "Samurai Gun",
      "rating": 6.07,
      "classificacao_etaria": "A16",
      "imagem_original": "https://animefire.plus/img/animes/samurai-gun.webp",
      "imagem_pasta": "https://animefire.plus/img/animes/samurai-gun/",
      "secao": "legendados",
      "pagina": 124,
      "total_episodios": 12,
      "link_video": "https://animefire.plus/video/samurai-gun"
    },
    {
      "id": 3248,
      "nome": "Samurai Gun Special",
      "link": "https://animefire.plus/animes/samurai-gun-special-todos-os-episodios",
      "texto_original": "Samurai Gun Special",
      "rating": 5.94,
      "classificacao_etaria": "A16",
      "imagem_original": "https://animefire.plus/img/animes/samurai-gun-special.webp",
      "imagem_pasta": "https://animefire.plus/img/animes/samurai-gun-special/",
      "secao": "legendados",
      "pagina": 82,
      "total_episodios": 1,
      "link_video": "https://animefire.plus/video/samurai-gun-special"
    },
    {
      "id": 3251,
      "nome": "Sankaku Mado no Sotogawa wa Yoru",
      "link": "https://animefire.plus/animes/sankaku-mado-no-sotogawa-wa-yoru-todos-os-episodios",
      "texto_original": "Sankaku Mado no Sotogawa wa Yoru",
      "rating": 6.75,
      "classificacao_etaria": "A16",
      "imagem_original": "https://animefire.plus/img/animes/sankaku-mado-no-sotogawa-wa-yoru.webp",
      "imagem_pasta": "https://animefire.plus/img/animes/sankaku-mado-no-sotogawa-wa-yoru/",
      "secao": "legendados",
      "pagina": 39,
      "total_episodios": 12,
      "link_video": "https://animefire.plus/video/sankaku-mado-no-sotogawa-wa-yoru"
    },
    {
      "id": 3258,
      "nome": "Saredo Tsumibito wa Ryuu to Odoru",
      "link": "https://animefire.plus/animes/saredo-tsumibito-wa-ryuu-to-odoru-todos-os-episodios",
      "texto_original": "Saredo Tsumibito wa Ryuu to Odoru",
      "rating": 5.91,
      "classificacao_etaria": "A16",
      "imagem_original": "https://animefire.plus/img/animes/saredo-tsumibito-wa-ryuu-to-odoru.webp",
      "imagem_pasta": "https://animefire.plus/img/animes/saredo-tsumibito-wa-ryuu-to-odoru/",
      "secao": "legendados",
      "pagina": 153,
      "total_episodios": 12,
      "link_video": "https://animefire.plus/video/saredo-tsumibito-wa-ryuu-to-odoru"
    },
    {
      "id": 3261,
      "nome": "Sasaki to Pii-chan",
      "link": "https://animefire.plus/animes/sasaki-to-pii-chan-todos-os-episodios",
      "texto_original": "Sasaki to Pii-chan",
      "rating": 6.84,
      "classificacao_etaria": "A16",
      "imagem_original": "https://animefire.plus/img/animes/sasaki-to-pii-chan.webp",
      "imagem_pasta": "https://animefire.plus/img/animes/sasaki-to-pii-chan/",
      "secao": "legendados",
      "pagina": 17,
      "total_episodios": 12,
      "link_video": "https://animefire.plus/video/sasaki-to-pii-chan"
    },
    {
      "id": 3266,
      "nome": "Satsuriku no Tenshi",
      "link": "https://animefire.plus/animes/satsuriku-no-tenshi-todos-os-episodios",
      "texto_original": "Satsuriku no Tenshi",
      "rating": 6.9,
      "classificacao_etaria": "A16",
      "imagem_original": "https://animefire.plus/img/animes/satsuriku-no-tenshi.webp",
      "imagem_pasta": "https://animefire.plus/img/animes/satsuriku-no-tenshi/",
      "secao": "legendados",
      "pagina": 169,
      "total_episodios": 16,
      "link_video": "https://animefire.plus/video/satsuriku-no-tenshi"
    },
    {
      "id": 3269,
      "nome": "Sayonara Zetsubou Sensei",
      "link": "https://animefire.plus/animes/sayonara-zetsubou-sensei-todos-os-episodios",
      "texto_original": "Sayonara Zetsubou Sensei",
      "rating": 7.92,
      "classificacao_etaria": "A16",
      "imagem_original": "https://animefire.plus/img/animes/sayonara-zetsubou-sensei.webp",
      "imagem_pasta": "https://animefire.plus/img/animes/sayonara-zetsubou-sensei/",
      "secao": "legendados",
      "pagina": 60,
      "total_episodios": 12,
      "link_video": "https://animefire.plus/video/sayonara-zetsubou-sensei"
    },
    {
      "id": 3270,
      "nome": "Sayonara Zetsubou Sensei Special",
      "link": "https://animefire.plus/animes/sayonara-zetsubou-sensei-special-todos-os-episodios",
      "texto_original": "Sayonara Zetsubou Sensei Special",
      "rating": 7.53,
      "classificacao_etaria": "A16",
      "imagem_original": "https://animefire.plus/img/animes/sayonara-zetsubou-sensei-special.webp",
      "imagem_pasta": "https://animefire.plus/img/animes/sayonara-zetsubou-sensei-special/",
      "secao": "legendados",
      "pagina": 85,
      "total_episodios": 1,
      "link_video": "https://animefire.plus/video/sayonara-zetsubou-sensei-special"
    },
    {
      "id": 3279,
      "nome": "Schwarzesmarken (Dublado)",
      "link": "https://animefire.plus/animes/schwarzesmarken-dublado-todos-os-episodios",
      "texto_original": "Schwarzesmarken (Dublado)",
      "rating": 6.85,
      "classificacao_etaria": "A16",
      "imagem_original": "https://animefire.plus/img/animes/schwarzesmarken.webp",
      "imagem_pasta": "https://animefire.plus/img/animes/schwarzesmarken/",
      "secao": "dublados,legendados",
      "pagina": 23,
      "total_episodios": 12,
      "link_video": "https://animefire.plus/video/schwarzesmarken-dublado"
    },
    {
      "id": 3295,
      "nome": "Seiken Tsukai No World Break",
      "link": "https://animefire.plus/animes/seiken-tsukai-no-world-break-todos-os-episodios",
      "texto_original": "Seiken Tsukai No World Break",
      "rating": 7.11,
      "classificacao_etaria": "A16",
      "imagem_original": "https://animefire.plus/img/animes/seiken-tsukai-no-world-break.webp",
      "imagem_pasta": "https://animefire.plus/img/animes/seiken-tsukai-no-world-break/",
      "secao": "legendados",
      "pagina": 101,
      "total_episodios": 12,
      "link_video": "https://animefire.plus/video/seiken-tsukai-no-world-break"
    },
    {
      "id": 3296,
      "nome": "Seikimatsu Occult Gakuin",
      "link": "https://animefire.plus/animes/seikimatsu-occult-gakuin-todos-os-episodios",
      "texto_original": "Seikimatsu Occult Gakuin",
      "rating": 7.11,
      "classificacao_etaria": "A16",
      "imagem_original": "https://animefire.plus/img/animes/seikimatsu-occult-gakuin.webp",
      "imagem_pasta": "https://animefire.plus/img/animes/seikimatsu-occult-gakuin/",
      "secao": "legendados",
      "pagina": 175,
      "total_episodios": 13,
      "link_video": "https://animefire.plus/video/seikimatsu-occult-gakuin"
    },
    {
      "id": 3305,
      "nome": "Seisen Cerberus: Ryuukoku no Fatalités",
      "link": "https://animefire.plus/animes/seisen-cerberus-ryuukoku-no-fatalites-todos-os-episodios",
      "texto_original": "Seisen Cerberus: Ryuukoku no Fatalités",
      "rating": 5.7,
      "classificacao_etaria": "A16",
      "imagem_original": "https://animefire.plus/img/animes/seisen-cerberus-ryuukoku-no-fatalites.webp",
      "imagem_pasta": "https://animefire.plus/img/animes/seisen-cerberus-ryuukoku-no-fatalites/",
      "secao": "legendados",
      "pagina": 89,
      "total_episodios": 13,
      "link_video": "https://animefire.plus/video/seisen-cerberus-ryuukoku-no-fatalites"
    },
    {
      "id": 3313,
      "nome": "Seitokai Yakuindomo",
      "link": "https://animefire.plus/animes/seitokai-yakuindomo-todos-os-episodios",
      "texto_original": "Seitokai Yakuindomo",
      "rating": 7.66,
      "classificacao_etaria": "A16",
      "imagem_original": "https://animefire.plus/img/animes/seitokai-yakuindomo.webp",
      "imagem_pasta": "https://animefire.plus/img/animes/seitokai-yakuindomo/",
      "secao": "legendados",
      "pagina": 162,
      "total_episodios": 13,
      "link_video": "https://animefire.plus/video/seitokai-yakuindomo"
    },
    {
      "id": 3314,
      "nome": "Seitokai Yakuindomo*",
      "link": "https://animefire.plus/animes/seitokai-yakuindomo-2-todos-os-episodios",
      "texto_original": "Seitokai Yakuindomo*",
      "rating": 7.78,
      "classificacao_etaria": "A16",
      "imagem_original": "https://animefire.plus/img/animes/seitokai-yakuindomo.webp",
      "imagem_pasta": "https://animefire.plus/img/animes/seitokai-yakuindomo/",
      "secao": "legendados",
      "pagina": 90,
      "total_episodios": 0,
      "link_video": "https://animefire.plus/video/seitokai-yakuindomo-2"
    }
  ],
  "pagination": {
    "current_page": 28,
    "per_page": 20,
    "total_items": 708,
    "total_pages": 36,
    "has_next": true,
    "has_prev": true
  }
}
