{
  "message": "Animes com classificação etária: A16",
  "age_rating": "A16",
  "data": [
    {
      "id": 3444,
      "nome": "Shingeki no Kyojin Season 3 Part 2 (Dublado)",
      "link": "https://animefire.plus/animes/shingeki-no-kyojin-season-3-part-2-dublado-todos-os-episodios",
      "texto_original": "Shingeki no Kyojin Season 3 Part 2 (Dublado)",
      "rating": 9.07,
      "classificacao_etaria": "A16",
      "imagem_original": "https://animefire.plus/img/animes/shingeki-no-kyojin-season-3-part-2.webp",
      "imagem_pasta": "https://animefire.plus/img/animes/shingeki-no-kyojin-season-3-part-2/",
      "secao": "dublados,legendados",
      "pagina": 19,
      "total_episodios": 10,
      "link_video": "https://animefire.plus/video/shingeki-no-kyojin-season-3-part-2-dublado"
    },
    {
      "id": 3445,
      "nome": "Shingeki no Kyojin: Kuinaki Sentaku (Dublado)",
      "link": "https://animefire.plus/animes/shingeki-no-kyojin-kuinaki-sentaku-dublado-todos-os-episodios",
      "texto_original": "Shingeki no Kyojin: Kuinaki Sentaku (Dublado)",
      "rating": 8.41,
      "classificacao_etaria": "A16",
      "imagem_original": "https://animefire.plus/img/animes/shingeki-no-kyojin-kuinaki-sentaku.webp",
      "imagem_pasta": "https://animefire.plus/img/animes/shingeki-no-kyojin-kuinaki-sentaku/",
      "secao": "dublados,legendados",
      "pagina": 11,
      "total_episodios": 2,
      "link_video": "https://animefire.plus/video/shingeki-no-kyojin-kuinaki-sentaku-dublado"
    },
    {
      "id": 3446,
      "nome": "Shingeki no Kyojin: Lost Girls (Dublado)",
      "link": "https://animefire.plus/animes/shingeki-no-kyojin-lost-girls-dublado-todos-os-episodios",
      "texto_original": "Shingeki no Kyojin: Lost Girls (Dublado)",
      "rating": 7.8,
      "classificacao_etaria": "A16",
      "imagem_original": "https://animefire.plus/img/animes/shingeki-no-kyojin-lost-girls.webp",
      "imagem_pasta": "https://animefire.plus/img/animes/shingeki-no-kyojin-lost-girls/",
      "secao": "dublados,legendados",
      "pagina": 10,
      "total_episodios": 3,
      "link_video": "https://animefire.plus/video/shingeki-no-kyojin-lost-girls-dublado"
    },
    {
      "id": 3447,
      "nome": "Shingeki no Kyojin: The Final Season - Kanketsu-hen",
      "link": "https://animefire.plus/animes/shingeki-no-kyojin-the-final-season-kanketsu-hen-todos-os-episodios",
      "texto_original": "Shingeki no Kyojin: The Final Season - Kanketsu-hen",
      "rating": 8.86,
      "classificacao_etaria": "A16",
      "imagem_original": "https://animefire.plus/img/animes/shingeki-no-kyojin-the-final-season-kanketsu-hen.jpg",
      "imagem_pasta": "https://animefire.plus/img/animes/shingeki-no-kyojin-the-final-season-kanketsu-hen/",
      "secao": "legendados",
      "pagina": 179,
      "total_episodios": 2,
      "link_video": "https://animefire.plus/video/shingeki-no-kyojin-the-final-season-kanketsu-hen"
    },
    {
      "id": 3448,
      "nome": "Shingeki no Kyojin: The Final Season - Kanketsu-hen (Dublado)",
      "link": "https://animefire.plus/animes/shingeki-no-kyojin-the-final-season---kanketsu-hen-dublado-todos-os-episodios",
      "texto_original": "Shingeki no Kyojin: The Final Season - Kanketsu-hen (Dublado)",
      "rating": 8.86,
      "classificacao_etaria": "A16",
      "imagem_original": "https://animefire.plus/img/animes/shingeki-no-kyojin-the-final-season---kanketsu-hen.webp",
      "imagem_pasta": "https://animefire.plus/img/animes/shingeki-no-kyojin-the-final-season---kanketsu-hen/",
      "secao": "dublados",
      "pagina": 28,
      "total_episodios": 1,
      "link_video": "https://animefire.plus/video/shingeki-no-kyojin-the-final-season---kanketsu-hen-dublado"
    },
    {
      "id": 3449,
      "nome": "Shingeki no Kyojin: The Final Season (Dublado)",
      "link": "https://animefire.plus/animes/shingeki-no-kyojin-the-final-season-dublado-todos-os-episodios",
      "texto_original": "Shingeki no Kyojin: The Final Season (Dublado)",
      "rating": 9.14,
      "classificacao_etaria": "A16",
      "imagem_original": "https://animefire.plus/img/animes/shingeki-no-kyojin-the-final-season.webp",
      "imagem_pasta": "https://animefire.plus/img/animes/shingeki-no-kyojin-the-final-season/",
      "secao": "dublados,legendados",
      "pagina": 18,
      "total_episodios": 9,
      "link_video": "https://animefire.plus/video/shingeki-no-kyojin-the-final-season-dublado"
    },
    {
      "id": 3450,
      "nome": "Shingeki no Kyojin: The Final Season Part 2 (Dublado)",
      "link": "https://animefire.plus/animes/shingeki-no-kyojin-the-final-season-part-2-dublado-todos-os-episodios",
      "texto_original": "Shingeki no Kyojin: The Final Season Part 2 (Dublado)",
      "rating": 8.76,
      "classificacao_etaria": "A16",
      "imagem_original": "https://animefire.plus/img/animes/shingeki-no-kyojin-the-final-season-part-2.webp",
      "imagem_pasta": "https://animefire.plus/img/animes/shingeki-no-kyojin-the-final-season-part-2/",
      "secao": "dublados,legendados",
      "pagina": 12,
      "total_episodios": 12,
      "link_video": "https://animefire.plus/video/shingeki-no-kyojin-the-final-season-part-2-dublado"
    },
    {
      "id": 3452,
      "nome": "Shingetsutan Tsukihime (Dublado)",
      "link": "https://animefire.plus/animes/shingetsutan-tsukihime-dublado-todos-os-episodios",
      "texto_original": "Shingetsutan Tsukihime (Dublado)",
      "rating": 6.83,
      "classificacao_etaria": "A16",
      "imagem_original": "https://animefire.plus/img/animes/shingetsutan-tsukihime.webp",
      "imagem_pasta": "https://animefire.plus/img/animes/shingetsutan-tsukihime/",
      "secao": "dublados,legendados",
      "pagina": 8,
      "total_episodios": 12,
      "link_video": "https://animefire.plus/video/shingetsutan-tsukihime-dublado"
    },
    {
      "id": 3474,
      "nome": "Shinsekai Yori",
      "link": "https://animefire.plus/animes/shinsekai-yori-todos-os-episodios",
      "texto_original": "Shinsekai Yori",
      "rating": 8.42,
      "classificacao_etaria": "A16",
      "imagem_original": "https://animefire.plus/img/animes/shinsekai-yori.webp",
      "imagem_pasta": "https://animefire.plus/img/animes/shinsekai-yori/",
      "secao": "legendados",
      "pagina": 104,
      "total_episodios": 0,
      "link_video": "https://animefire.plus/video/shinsekai-yori"
    },
    {
      "id": 3480,
      "nome": "Shirogane no Ishi: Argevollen",
      "link": "https://animefire.plus/animes/shirogane-no-ishi-argevollen-todos-os-episodios",
      "texto_original": "Shirogane no Ishi: Argevollen",
      "rating": 6.53,
      "classificacao_etaria": "A16",
      "imagem_original": "https://animefire.plus/img/animes/shirogane-no-ishi-argevollen.webp",
      "imagem_pasta": "https://animefire.plus/img/animes/shirogane-no-ishi-argevollen/",
      "secao": "legendados",
      "pagina": 138,
      "total_episodios": 2,
      "link_video": "https://animefire.plus/video/shirogane-no-ishi-argevollen"
    },
    {
      "id": 3486,
      "nome": "Shokei Shoujo no Virgin Road",
      "link": "https://animefire.plus/animes/shokei-shoujo-no-virgin-road-todos-os-episodios",
      "texto_original": "Shokei Shoujo no Virgin Road",
      "rating": 6.76,
      "classificacao_etaria": "A16",
      "imagem_original": "https://animefire.plus/img/animes/shokei-shoujo-no-virgin-road.webp",
      "imagem_pasta": "https://animefire.plus/img/animes/shokei-shoujo-no-virgin-road/",
      "secao": "legendados",
      "pagina": 34,
      "total_episodios": 12,
      "link_video": "https://animefire.plus/video/shokei-shoujo-no-virgin-road"
    },
    {
      "id": 3523,
      "nome": "Shuumatsu no Izetta",
      "link": "https://animefire.plus/animes/shuumatsu-no-izetta-todos-os-episodios",
      "texto_original": "Shuumatsu no Izetta",
      "rating": 6.82,
      "classificacao_etaria": "A16",
      "imagem_original": "https://animefire.plus/img/animes/shuumatsu-no-izetta.webp",
      "imagem_pasta": "https://animefire.plus/img/animes/shuumatsu-no-izetta/",
      "secao": "legendados",
      "pagina": 116,
      "total_episodios": 12,
      "link_video": "https://animefire.plus/video/shuumatsu-no-izetta"
    },
    {
      "id": 3524,
      "nome": "Shuumatsu no Walküre (Dublado)",
      "link": "https://animefire.plus/animes/shuumatsu-no-walk-re-dublado-todos-os-episodios",
      "texto_original": "Shuumatsu no Walküre (Dublado)",
      "rating": 6.81,
      "classificacao_etaria": "A16",
      "imagem_original": "https://animefire.plus/img/animes/shuumatsu-no-walk-re.webp",
      "imagem_pasta": "https://animefire.plus/img/animes/shuumatsu-no-walk-re/",
      "secao": "dublados,legendados",
      "pagina": 17,
      "total_episodios": 12,
      "link_video": "https://animefire.plus/video/shuumatsu-no-walk-re-dublado"
    },
    {
      "id": 3525,
      "nome": "Shuumatsu no Walküre II (Dublado)",
      "link": "https://animefire.plus/animes/shuumatsu-no-walk-re-ii-dublado-todos-os-episodios",
      "texto_original": "Shuumatsu no Walküre II (Dublado)",
      "rating": 7.49,
      "classificacao_etaria": "A16",
      "imagem_original": "https://animefire.plus/img/animes/shuumatsu-no-walk-re-ii.webp",
      "imagem_pasta": "https://animefire.plus/img/animes/shuumatsu-no-walk-re-ii/",
      "secao": "dublados,legendados",
      "pagina": 8,
      "total_episodios": 15,
      "link_video": "https://animefire.plus/video/shuumatsu-no-walk-re-ii-dublado"
    },
    {
      "id": 3529,
      "nome": "Si Ling Bianma: Zhi Shijie Caozong Zhe",
      "link": "https://animefire.plus/animes/si-ling-bianma-zhi-shijie-caozong-zhe-todos-os-episodios",
      "texto_original": "Si Ling Bianma: Zhi Shijie Caozong Zhe",
      "rating": 5.53,
      "classificacao_etaria": "A16",
      "imagem_original": "https://animefire.plus/img/animes/si-ling-bianma-zhi-shijie-caozong-zhe.webp",
      "imagem_pasta": "https://animefire.plus/img/animes/si-ling-bianma-zhi-shijie-caozong-zhe/",
      "secao": "legendados",
      "pagina": 83,
      "total_episodios": 12,
      "link_video": "https://animefire.plus/video/si-ling-bianma-zhi-shijie-caozong-zhe"
    },
    {
      "id": 3530,
      "nome": "Si Ling Bianma: Zhi Shijie Caozong Zhe Recap",
      "link": "https://animefire.plus/animes/si-ling-bianma-zhi-shijie-caozong-zhe-recap-todos-os-episodios",
      "texto_original": "Si Ling Bianma: Zhi Shijie Caozong Zhe Recap",
      "rating": null,
      "classificacao_etaria": "A16",
      "imagem_original": "https://animefire.plus/img/animes/si-ling-bianma-zhi-shijie-caozong-zhe-recap.webp",
      "imagem_pasta": "https://animefire.plus/img/animes/si-ling-bianma-zhi-shijie-caozong-zhe-recap/",
      "secao": "legendados",
      "pagina": 83,
      "total_episodios": 1,
      "link_video": "https://animefire.plus/video/si-ling-bianma-zhi-shijie-caozong-zhe-recap"
    },
    {
      "id": 3532,
      "nome": "Sidonia No Kishi: Daikyuu Wakusei Seneki",
      "link": "https://animefire.plus/animes/sidonia-no-kishi-daikyuu-wakusei-seneki-todos-os-episodios",
      "texto_original": "Sidonia No Kishi: Daikyuu Wakusei Seneki",
      "rating": 7.84,
      "classificacao_etaria": "A16",
      "imagem_original": "https://animefire.plus/img/animes/sidonia-no-kishi-daikyuu-wakusei-seneki.webp",
      "imagem_pasta": "https://animefire.plus/img/animes/sidonia-no-kishi-daikyuu-wakusei-seneki/",
      "secao": "legendados",
      "pagina": 103,
      "total_episodios": 5,
      "link_video": "https://animefire.plus/video/sidonia-no-kishi-daikyuu-wakusei-seneki"
    },
    {
      "id": 3537,
      "nome": "Sirius (Dublado)",
      "link": "https://animefire.plus/animes/sirius-dublado-todos-os-episodios",
      "texto_original": "Sirius (Dublado)",
      "rating": 7.18,
      "classificacao_etaria": "A16",
      "imagem_original": "https://animefire.plus/img/animes/sirius.webp",
      "imagem_pasta": "https://animefire.plus/img/animes/sirius/",
      "secao": "dublados,legendados",
      "pagina": 25,
      "total_episodios": 12,
      "link_video": "https://animefire.plus/video/sirius-dublado"
    },
    {
      "id": 3566,
      "nome": "Solty Rei",
      "link": "https://animefire.plus/animes/solty-rei-todos-os-episodios",
      "texto_original": "Solty Rei",
      "rating": 7.32,
      "classificacao_etaria": "A16",
      "imagem_original": "https://animefire.plus/img/animes/solty-rei.webp",
      "imagem_pasta": "https://animefire.plus/img/animes/solty-rei/",
      "secao": "legendados",
      "pagina": 158,
      "total_episodios": 24,
      "link_video": "https://animefire.plus/video/solty-rei"
    },
    {
      "id": 3594,
      "nome": "Soul Link",
      "link": "https://animefire.plus/animes/soul-link-todos-os-episodios",
      "texto_original": "Soul Link",
      "rating": 6.19,
      "classificacao_etaria": "A16",
      "imagem_original": "https://animefire.plus/img/animes/soul-link.webp",
      "imagem_pasta": "https://animefire.plus/img/animes/soul-link/",
      "secao": "legendados",
      "pagina": 145,
      "total_episodios": 13,
      "link_video": "https://animefire.plus/video/soul-link"
    }
  ],
  "pagination": {
    "current_page": 30,
    "per_page": 20,
    "total_items": 708,
    "total_pages": 36,
    "has_next": true,
    "has_prev": true
  }
}
