{
  "message": "Animes com classificação etária: A16",
  "age_rating": "A16",
  "data": [
    {
      "id": 1203,
      "nome": "Goblin Slayer (Dublado)",
      "link": "https://animefire.plus/animes/goblin-slayer-dublado-todos-os-episodios",
      "texto_original": "Goblin Slayer (Dublado)",
      "rating": 7.42,
      "classificacao_etaria": "A16",
      "imagem_original": "https://animefire.plus/img/animes/goblin-slayer.webp",
      "imagem_pasta": "https://animefire.plus/img/animes/goblin-slayer/",
      "secao": "dublados,legendados",
      "pagina": 2,
      "total_episodios": 0,
      "link_video": "https://animefire.plus/video/goblin-slayer-dublado"
    },
    {
      "id": 1204,
      "nome": "Goblin Slayer II (Dublado)",
      "link": "https://animefire.plus/animes/goblin-slayer-ii-dublado-todos-os-episodios",
      "texto_original": "Goblin Slayer II (Dublado)",
      "rating": 7.21,
      "classificacao_etaria": "A16",
      "imagem_original": "https://animefire.plus/img/animes/goblin-slayer-ii.webp",
      "imagem_pasta": "https://animefire.plus/img/animes/goblin-slayer-ii/",
      "secao": "dublados,legendados",
      "pagina": 5,
      "total_episodios": 12,
      "link_video": "https://animefire.plus/video/goblin-slayer-ii-dublado"
    },
    {
      "id": 1209,
      "nome": "God Eater",
      "link": "https://animefire.plus/animes/god-eater-todos-os-episodios",
      "texto_original": "God Eater",
      "rating": 7.37,
      "classificacao_etaria": "A16",
      "imagem_original": "https://animefire.plus/img/animes/god-eater.webp",
      "imagem_pasta": "https://animefire.plus/img/animes/god-eater/",
      "secao": "legendados",
      "pagina": 73,
      "total_episodios": 13,
      "link_video": "https://animefire.plus/video/god-eater"
    },
    {
      "id": 1215,
      "nome": "Gokusen",
      "link": "https://animefire.plus/animes/gokusen-todos-os-episodios",
      "texto_original": "Gokusen",
      "rating": 7.46,
      "classificacao_etaria": "A16",
      "imagem_original": "https://animefire.plus/img/animes/gokusen.webp",
      "imagem_pasta": "https://animefire.plus/img/animes/gokusen/",
      "secao": "legendados",
      "pagina": 100,
      "total_episodios": 13,
      "link_video": "https://animefire.plus/video/gokusen"
    },
    {
      "id": 1220,
      "nome": "Golden Kamuy",
      "link": "https://animefire.plus/animes/golden-kamuy-todos-os-episodios",
      "texto_original": "Golden Kamuy",
      "rating": 7.8,
      "classificacao_etaria": "A16",
      "imagem_original": "https://animefire.plus/img/animes/golden-kamuy.webp",
      "imagem_pasta": "https://animefire.plus/img/animes/golden-kamuy/",
      "secao": "legendados",
      "pagina": 140,
      "total_episodios": 12,
      "link_video": "https://animefire.plus/video/golden-kamuy"
    },
    {
      "id": 1221,
      "nome": "Golden Kamuy 2nd Season",
      "link": "https://animefire.plus/animes/golden-kamuy-2nd-season-todos-os-episodios",
      "texto_original": "Golden Kamuy 2nd Season",
      "rating": 8.17,
      "classificacao_etaria": "A16",
      "imagem_original": "https://animefire.plus/img/animes/golden-kamuy-2nd-season.webp",
      "imagem_pasta": "https://animefire.plus/img/animes/golden-kamuy-2nd-season/",
      "secao": "legendados",
      "pagina": 179,
      "total_episodios": 12,
      "link_video": "https://animefire.plus/video/golden-kamuy-2nd-season"
    },
    {
      "id": 1222,
      "nome": "Golden Kamuy 2nd Season OVA",
      "link": "https://animefire.plus/animes/golden-kamuy-2nd-season-ova-todos-os-episodios",
      "texto_original": "Golden Kamuy 2nd Season OVA",
      "rating": 7.44,
      "classificacao_etaria": "A16",
      "imagem_original": "https://animefire.plus/img/animes/golden-kamuy-2nd-season-ova.webp",
      "imagem_pasta": "https://animefire.plus/img/animes/golden-kamuy-2nd-season-ova/",
      "secao": "legendados",
      "pagina": 84,
      "total_episodios": 2,
      "link_video": "https://animefire.plus/video/golden-kamuy-2nd-season-ova"
    },
    {
      "id": 1223,
      "nome": "Golden Kamuy 3rd Season",
      "link": "https://animefire.plus/animes/golden-kamuy-3rd-season-todos-os-episodios",
      "texto_original": "Golden Kamuy 3rd Season",
      "rating": null,
      "classificacao_etaria": "A16",
      "imagem_original": "https://animefire.plus/img/animes/golden-kamuy-3rd-season.webp",
      "imagem_pasta": "https://animefire.plus/img/animes/golden-kamuy-3rd-season/",
      "secao": "legendados",
      "pagina": 51,
      "total_episodios": 12,
      "link_video": "https://animefire.plus/video/golden-kamuy-3rd-season"
    },
    {
      "id": 1224,
      "nome": "Golden Kamuy 4th Season",
      "link": "https://animefire.plus/animes/golden-kamuy-4th-season-todos-os-episodios",
      "texto_original": "Golden Kamuy 4th Season",
      "rating": 8.12,
      "classificacao_etaria": "A16",
      "imagem_original": "https://animefire.plus/img/animes/golden-kamuy-4th-season.webp",
      "imagem_pasta": "https://animefire.plus/img/animes/golden-kamuy-4th-season/",
      "secao": "legendados",
      "pagina": 29,
      "total_episodios": 13,
      "link_video": "https://animefire.plus/video/golden-kamuy-4th-season"
    },
    {
      "id": 1225,
      "nome": "Golden Kamuy OVA",
      "link": "https://animefire.plus/animes/golden-kamuy-ova-todos-os-episodios",
      "texto_original": "Golden Kamuy OVA",
      "rating": 7.16,
      "classificacao_etaria": "A16",
      "imagem_original": "https://animefire.plus/img/animes/golden-kamuy-ova.webp",
      "imagem_pasta": "https://animefire.plus/img/animes/golden-kamuy-ova/",
      "secao": "legendados",
      "pagina": 88,
      "total_episodios": 1,
      "link_video": "https://animefire.plus/video/golden-kamuy-ova"
    },
    {
      "id": 1229,
      "nome": "Good Night World (Dublado)",
      "link": "https://animefire.plus/animes/good-night-world-dublado-todos-os-episodios",
      "texto_original": "Good Night World (Dublado)",
      "rating": 7.06,
      "classificacao_etaria": "A16",
      "imagem_original": "https://animefire.plus/img/animes/good-night-world.webp",
      "imagem_pasta": "https://animefire.plus/img/animes/good-night-world/",
      "secao": "dublados,legendados",
      "pagina": 5,
      "total_episodios": 12,
      "link_video": "https://animefire.plus/video/good-night-world-dublado"
    },
    {
      "id": 1231,
      "nome": "Gosenzo-sama Banbanzai!",
      "link": "https://animefire.plus/animes/gosenzo-sama-banbanzai-todos-os-episodios",
      "texto_original": "Gosenzo-sama Banbanzai!",
      "rating": 7.33,
      "classificacao_etaria": "A16",
      "imagem_original": "https://animefire.plus/img/animes/gosenzo-sama-banbanzai.webp",
      "imagem_pasta": "https://animefire.plus/img/animes/gosenzo-sama-banbanzai/",
      "secao": "legendados",
      "pagina": 173,
      "total_episodios": 6,
      "link_video": "https://animefire.plus/video/gosenzo-sama-banbanzai"
    },
    {
      "id": 1233,
      "nome": "Gosick",
      "link": "https://animefire.plus/animes/gosick-todos-os-episodios",
      "texto_original": "Gosick",
      "rating": 8.17,
      "classificacao_etaria": "A16",
      "imagem_original": "https://animefire.plus/img/animes/gosick.webp",
      "imagem_pasta": "https://animefire.plus/img/animes/gosick/",
      "secao": "legendados",
      "pagina": 160,
      "total_episodios": 24,
      "link_video": "https://animefire.plus/video/gosick"
    },
    {
      "id": 1239,
      "nome": "Grancrest Senki",
      "link": "https://animefire.plus/animes/grancrest-senki-todos-os-episodios",
      "texto_original": "Grancrest Senki",
      "rating": 7.34,
      "classificacao_etaria": "A16",
      "imagem_original": "https://animefire.plus/img/animes/grancrest-senki.webp",
      "imagem_pasta": "https://animefire.plus/img/animes/grancrest-senki/",
      "secao": "legendados",
      "pagina": 133,
      "total_episodios": 25,
      "link_video": "https://animefire.plus/video/grancrest-senki"
    },
    {
      "id": 1240,
      "nome": "Grancrest Senki Tsuisou",
      "link": "https://animefire.plus/animes/grancrest-senki-tsuisou-todos-os-episodios",
      "texto_original": "Grancrest Senki Tsuisou",
      "rating": 6.51,
      "classificacao_etaria": "A16",
      "imagem_original": "https://animefire.plus/img/animes/grancrest-senki-tsuisou.webp",
      "imagem_pasta": "https://animefire.plus/img/animes/grancrest-senki-tsuisou/",
      "secao": "legendados",
      "pagina": 84,
      "total_episodios": 1,
      "link_video": "https://animefire.plus/video/grancrest-senki-tsuisou"
    },
    {
      "id": 1243,
      "nome": "Grandeek",
      "link": "https://animefire.plus/animes/grandeek-todos-os-episodios",
      "texto_original": "Grandeek",
      "rating": 5.73,
      "classificacao_etaria": "A16",
      "imagem_original": "https://animefire.plus/img/animes/grandeek.webp",
      "imagem_pasta": "https://animefire.plus/img/animes/grandeek/",
      "secao": "legendados",
      "pagina": 66,
      "total_episodios": 1,
      "link_video": "https://animefire.plus/video/grandeek"
    },
    {
      "id": 1244,
      "nome": "Grappler Baki",
      "link": "https://animefire.plus/animes/grappler-baki-todos-os-episodios",
      "texto_original": "Grappler Baki",
      "rating": 6.81,
      "classificacao_etaria": "A16",
      "imagem_original": "https://animefire.plus/img/animes/grappler-baki.webp",
      "imagem_pasta": "https://animefire.plus/img/animes/grappler-baki/",
      "secao": "legendados",
      "pagina": 62,
      "total_episodios": 24,
      "link_video": "https://animefire.plus/video/grappler-baki"
    },
    {
      "id": 1246,
      "nome": "Grappler Baki: Saidai Tournament-hen",
      "link": "https://animefire.plus/animes/grappler-baki-saidai-tournament-hen-todos-os-episodios",
      "texto_original": "Grappler Baki: Saidai Tournament-hen",
      "rating": 7.46,
      "classificacao_etaria": "A16",
      "imagem_original": "https://animefire.plus/img/animes/grappler-baki-saidai-tournament-hen.webp",
      "imagem_pasta": "https://animefire.plus/img/animes/grappler-baki-saidai-tournament-hen/",
      "secao": "legendados",
      "pagina": 67,
      "total_episodios": 24,
      "link_video": "https://animefire.plus/video/grappler-baki-saidai-tournament-hen"
    },
    {
      "id": 1248,
      "nome": "Great Pretender (Dublado)",
      "link": "https://animefire.plus/animes/great-pretender-dublado-todos-os-episodios",
      "texto_original": "Great Pretender (Dublado)",
      "rating": 8.31,
      "classificacao_etaria": "A16",
      "imagem_original": "https://animefire.plus/img/animes/great-pretender.webp",
      "imagem_pasta": "https://animefire.plus/img/animes/great-pretender/",
      "secao": "dublados,legendados",
      "pagina": 20,
      "total_episodios": 23,
      "link_video": "https://animefire.plus/video/great-pretender-dublado"
    },
    {
      "id": 1249,
      "nome": "Great Pretender: Razbliuto",
      "link": "https://animefire.plus/animes/great-pretender-razbliuto-todos-os-episodios",
      "texto_original": "Great Pretender: Razbliuto",
      "rating": 6.83,
      "classificacao_etaria": "A16",
      "imagem_original": "https://animefire.plus/img/animes/great-pretender-razbliuto.webp",
      "imagem_pasta": "https://animefire.plus/img/animes/great-pretender-razbliuto/",
      "secao": "legendados,lancamentos",
      "pagina": 16,
      "total_episodios": 1,
      "link_video": "https://animefire.plus/video/great-pretender-razbliuto"
    }
  ],
  "pagination": {
    "current_page": 12,
    "per_page": 20,
    "total_items": 708,
    "total_pages": 36,
    "has_next": true,
    "has_prev": true
  }
}
