{
  "message": "Animes com classificação etária: A16",
  "age_rating": "A16",
  "data": [
    {
      "id": 997,
      "nome": "Fate/Stay Night (Dublado)",
      "link": "https://animefire.plus/animes/fate-stay-night-dublado-todos-os-episodios",
      "texto_original": "Fate/Stay Night (Dublado)",
      "rating": 7.46,
      "classificacao_etaria": "A16",
      "imagem_original": "https://animefire.plus/img/animes/fate-stay-night.webp",
      "imagem_pasta": "https://animefire.plus/img/animes/fate-stay-night/",
      "secao": "dublados,legendados",
      "pagina": 26,
      "total_episodios": 24,
      "link_video": "https://animefire.plus/video/fate-stay-night-dublado"
    },
    {
      "id": 998,
      "nome": "Fate/stay night: Unlimited Blade Works",
      "link": "https://animefire.plus/animes/fate-stay-night-unlimited-blade-works-todos-os-episodios",
      "texto_original": "Fate/stay night: Unlimited Blade Works",
      "rating": 8.28,
      "classificacao_etaria": "A16",
      "imagem_original": "https://animefire.plus/img/animes/fate-stay-night-unlimited-blade-works.webp",
      "imagem_pasta": "https://animefire.plus/img/animes/fate-stay-night-unlimited-blade-works/",
      "secao": "legendados",
      "pagina": 90,
      "total_episodios": 12,
      "link_video": "https://animefire.plus/video/fate-stay-night-unlimited-blade-works"
    },
    {
      "id": 999,
      "nome": "Fate/stay night: Unlimited Blade Works 2nd Season",
      "link": "https://animefire.plus/animes/fate-stay-night-unlimited-blade-works-2nd-season-todos-os-episodios",
      "texto_original": "Fate/stay night: Unlimited Blade Works 2nd Season",
      "rating": 8.35,
      "classificacao_etaria": "A16",
      "imagem_original": "https://animefire.plus/img/animes/fate-stay-night-unlimited-blade-works-2nd-season.webp",
      "imagem_pasta": "https://animefire.plus/img/animes/fate-stay-night-unlimited-blade-works-2nd-season/",
      "secao": "legendados",
      "pagina": 73,
      "total_episodios": 14,
      "link_video": "https://animefire.plus/video/fate-stay-night-unlimited-blade-works-2nd-season"
    },
    {
      "id": 1000,
      "nome": "Fate/strange Fake",
      "link": "https://animefire.plus/animes/fate-strange-fake-todos-os-episodios",
      "texto_original": "Fate/strange Fake",
      "rating": null,
      "classificacao_etaria": "A16",
      "imagem_original": "https://animefire.plus/img/animes/fate-strange-fake.webp",
      "imagem_pasta": "https://animefire.plus/img/animes/fate-strange-fake/",
      "secao": "legendados,lancamentos",
      "pagina": 8,
      "total_episodios": 1,
      "link_video": "https://animefire.plus/video/fate-strange-fake"
    },
    {
      "id": 1001,
      "nome": "Fate/strange Fake: Whispers of Dawn",
      "link": "https://animefire.plus/animes/fate-strange-fake-whispers-of-dawn-todos-os-episodios",
      "texto_original": "Fate/strange Fake: Whispers of Dawn",
      "rating": 8.18,
      "classificacao_etaria": "A16",
      "imagem_original": "https://animefire.plus/img/animes/fate-strange-fake-whispers-of-dawn.webp",
      "imagem_pasta": "https://animefire.plus/img/animes/fate-strange-fake-whispers-of-dawn/",
      "secao": "legendados",
      "pagina": 21,
      "total_episodios": 1,
      "link_video": "https://animefire.plus/video/fate-strange-fake-whispers-of-dawn"
    },
    {
      "id": 1002,
      "nome": "Fate/Zero",
      "link": "https://animefire.plus/animes/fate-zero-todos-os-episodios",
      "texto_original": "Fate/Zero",
      "rating": 8.4,
      "classificacao_etaria": "A16",
      "imagem_original": "https://animefire.plus/img/animes/fate-zero.webp",
      "imagem_pasta": "https://animefire.plus/img/animes/fate-zero/",
      "secao": "legendados",
      "pagina": 89,
      "total_episodios": 13,
      "link_video": "https://animefire.plus/video/fate-zero"
    },
    {
      "id": 1003,
      "nome": "Fate/Zero 2nd Season",
      "link": "https://animefire.plus/animes/fate-zero-2nd-season-todos-os-episodios",
      "texto_original": "Fate/Zero 2nd Season",
      "rating": 8.55,
      "classificacao_etaria": "A16",
      "imagem_original": "https://animefire.plus/img/animes/fate-zero-2nd-season.webp",
      "imagem_pasta": "https://animefire.plus/img/animes/fate-zero-2nd-season/",
      "secao": "legendados",
      "pagina": 16,
      "total_episodios": 12,
      "link_video": "https://animefire.plus/video/fate-zero-2nd-season"
    },
    {
      "id": 1037,
      "nome": "Fuguushoku \"Kanteishi\" ga Jitsu wa Saikyou Datta",
      "link": "https://animefire.plus/animes/fuguushoku-kanteishi-ga-jitsu-wa-saikyou-datta-todos-os-episodios",
      "texto_original": "Fuguushoku \"Kanteishi\" ga Jitsu wa Saikyou Datta",
      "rating": 6.33,
      "classificacao_etaria": "A16",
      "imagem_original": "https://animefire.plus/img/animes/fuguushoku-kanteishi-ga-jitsu-wa-saikyou-datta.webp",
      "imagem_pasta": "https://animefire.plus/img/animes/fuguushoku-kanteishi-ga-jitsu-wa-saikyou-datta/",
      "secao": "legendados",
      "pagina": 8,
      "total_episodios": 12,
      "link_video": "https://animefire.plus/video/fuguushoku-kanteishi-ga-jitsu-wa-saikyou-datta"
    },
    {
      "id": 1041,
      "nome": "Full Metal Panic!",
      "link": "https://animefire.plus/animes/full-metal-panic-todos-os-episodios",
      "texto_original": "Full Metal Panic!",
      "rating": 7.73,
      "classificacao_etaria": "A16",
      "imagem_original": "https://animefire.plus/img/animes/full-metal-panic.webp",
      "imagem_pasta": "https://animefire.plus/img/animes/full-metal-panic/",
      "secao": "legendados",
      "pagina": 167,
      "total_episodios": 24,
      "link_video": "https://animefire.plus/video/full-metal-panic"
    },
    {
      "id": 1042,
      "nome": "Full Metal Panic! Invisible Victory",
      "link": "https://animefire.plus/animes/full-metal-panic-invisible-victory-todos-os-episodios",
      "texto_original": "Full Metal Panic! Invisible Victory",
      "rating": 7.66,
      "classificacao_etaria": "A16",
      "imagem_original": "https://animefire.plus/img/animes/full-metal-panic-invisible-victory.webp",
      "imagem_pasta": "https://animefire.plus/img/animes/full-metal-panic-invisible-victory/",
      "secao": "legendados",
      "pagina": 134,
      "total_episodios": 12,
      "link_video": "https://animefire.plus/video/full-metal-panic-invisible-victory"
    },
    {
      "id": 1043,
      "nome": "Full Metal Panic! The Second Raid",
      "link": "https://animefire.plus/animes/full-metal-panic-the-second-raid-todos-os-episodios",
      "texto_original": "Full Metal Panic! The Second Raid",
      "rating": 8.01,
      "classificacao_etaria": "A16",
      "imagem_original": "https://animefire.plus/img/animes/full-metal-panic-the-second-raid.webp",
      "imagem_pasta": "https://animefire.plus/img/animes/full-metal-panic-the-second-raid/",
      "secao": "legendados",
      "pagina": 120,
      "total_episodios": 12,
      "link_video": "https://animefire.plus/video/full-metal-panic-the-second-raid"
    },
    {
      "id": 1046,
      "nome": "Fullmetal Alchemist (Dublado)",
      "link": "https://animefire.plus/animes/fullmetal-alchemist-dublado-todos-os-episodios",
      "texto_original": "Fullmetal Alchemist (Dublado)",
      "rating": 8.22,
      "classificacao_etaria": "A16",
      "imagem_original": "https://animefire.plus/img/animes/fullmetal-alchemist.webp",
      "imagem_pasta": "https://animefire.plus/img/animes/fullmetal-alchemist/",
      "secao": "dublados,legendados",
      "pagina": 21,
      "total_episodios": 51,
      "link_video": "https://animefire.plus/video/fullmetal-alchemist-dublado"
    },
    {
      "id": 1047,
      "nome": "Fullmetal Alchemist: Brotherhood (Dublado)",
      "link": "https://animefire.plus/animes/fullmetal-alchemist-brotherhood-dublado-todos-os-episodios",
      "texto_original": "Fullmetal Alchemist: Brotherhood (Dublado)",
      "rating": 9.23,
      "classificacao_etaria": "A16",
      "imagem_original": "https://animefire.plus/img/animes/fullmetal-alchemist-brotherhood.webp",
      "imagem_pasta": "https://animefire.plus/img/animes/fullmetal-alchemist-brotherhood/",
      "secao": "dublados",
      "pagina": 25,
      "total_episodios": 64,
      "link_video": "https://animefire.plus/video/fullmetal-alchemist-brotherhood-dublado"
    },
    {
      "id": 1048,
      "nome": "Fumetsu no Anata e (Dublado)",
      "link": "https://animefire.plus/animes/fumetsu-no-anata-e-dublado-todos-os-episodios",
      "texto_original": "Fumetsu no Anata e (Dublado)",
      "rating": 8.34,
      "classificacao_etaria": "A16",
      "imagem_original": "https://animefire.plus/img/animes/fumetsu-no-anata-e.webp",
      "imagem_pasta": "https://animefire.plus/img/animes/fumetsu-no-anata-e/",
      "secao": "dublados,legendados",
      "pagina": 17,
      "total_episodios": 20,
      "link_video": "https://animefire.plus/video/fumetsu-no-anata-e-dublado"
    },
    {
      "id": 1049,
      "nome": "Fumetsu no Anata e 2nd Season (Dublado)",
      "link": "https://animefire.plus/animes/fumetsu-no-anata-e-2nd-season-dublado-todos-os-episodios",
      "texto_original": "Fumetsu no Anata e 2nd Season (Dublado)",
      "rating": 8.1,
      "classificacao_etaria": "A16",
      "imagem_original": "https://animefire.plus/img/animes/fumetsu-no-anata-e-2nd-season.webp",
      "imagem_pasta": "https://animefire.plus/img/animes/fumetsu-no-anata-e-2nd-season/",
      "secao": "dublados,legendados",
      "pagina": 8,
      "total_episodios": 20,
      "link_video": "https://animefire.plus/video/fumetsu-no-anata-e-2nd-season-dublado"
    },
    {
      "id": 1069,
      "nome": "Fuuma no Kojirou: Yasha-hen (Dublado)",
      "link": "https://animefire.plus/animes/fuuma-no-kojirou-yasha-hen-dublado-todos-os-episodios",
      "texto_original": "Fuuma no Kojirou: Yasha-hen (Dublado)",
      "rating": 6.71,
      "classificacao_etaria": "A16",
      "imagem_original": "https://animefire.plus/img/animes/fuuma-no-kojirou-yasha-hen.webp",
      "imagem_pasta": "https://animefire.plus/img/animes/fuuma-no-kojirou-yasha-hen/",
      "secao": "dublados",
      "pagina": 27,
      "total_episodios": 4,
      "link_video": "https://animefire.plus/video/fuuma-no-kojirou-yasha-hen-dublado"
    },
    {
      "id": 1071,
      "nome": "Fuuun Ishin Dai☆Shogun",
      "link": "https://animefire.plus/animes/fuuun-ishin-dai-shogun-todos-os-episodios",
      "texto_original": "Fuuun Ishin Dai☆Shogun",
      "rating": 5.78,
      "classificacao_etaria": "A16",
      "imagem_original": "https://animefire.plus/img/animes/fuuun-ishin-dai-shogun.webp",
      "imagem_pasta": "https://animefire.plus/img/animes/fuuun-ishin-dai-shogun/",
      "secao": "legendados",
      "pagina": 123,
      "total_episodios": 12,
      "link_video": "https://animefire.plus/video/fuuun-ishin-dai-shogun"
    },
    {
      "id": 1072,
      "nome": "G-On Riders",
      "link": "https://animefire.plus/animes/g-on-riders-todos-os-episodios",
      "texto_original": "G-On Riders",
      "rating": 5.87,
      "classificacao_etaria": "A16",
      "imagem_original": "https://animefire.plus/img/animes/g-on-riders.webp",
      "imagem_pasta": "https://animefire.plus/img/animes/g-on-riders/",
      "secao": "legendados",
      "pagina": 69,
      "total_episodios": 13,
      "link_video": "https://animefire.plus/video/g-on-riders"
    },
    {
      "id": 1073,
      "nome": "Ga-Rei: Zero",
      "link": "https://animefire.plus/animes/ga-rei-zero-todos-os-episodios",
      "texto_original": "Ga-Rei: Zero",
      "rating": 7.68,
      "classificacao_etaria": "A16",
      "imagem_original": "https://animefire.plus/img/animes/ga-rei-zero.webp",
      "imagem_pasta": "https://animefire.plus/img/animes/ga-rei-zero/",
      "secao": "legendados",
      "pagina": 174,
      "total_episodios": 12,
      "link_video": "https://animefire.plus/video/ga-rei-zero"
    },
    {
      "id": 1077,
      "nome": "Gaikotsu Kishi-sama, Tadaima Isekai e Odekakechuu",
      "link": "https://animefire.plus/animes/gaikotsu-kishi-sama-tadaima-isekai-e-odekakechuu-todos-os-episodios",
      "texto_original": "Gaikotsu Kishi-sama, Tadaima Isekai e Odekakechuu",
      "rating": 7.14,
      "classificacao_etaria": "A16",
      "imagem_original": "https://animefire.plus/img/animes/gaikotsu-kishi-sama-tadaima-isekai-e-odekakechuu.webp",
      "imagem_pasta": "https://animefire.plus/img/animes/gaikotsu-kishi-sama-tadaima-isekai-e-odekakechuu/",
      "secao": "legendados",
      "pagina": 35,
      "total_episodios": 12,
      "link_video": "https://animefire.plus/video/gaikotsu-kishi-sama-tadaima-isekai-e-odekakechuu"
    }
  ],
  "pagination": {
    "current_page": 10,
    "per_page": 20,
    "total_items": 708,
    "total_pages": 36,
    "has_next": true,
    "has_prev": true
  }
}
