{
  "message": "Animes com classificação etária: A16",
  "age_rating": "A16",
  "data": [
    {
      "id": 1819,
      "nome": "Kakegurui××",
      "link": "https://animefire.plus/animes/kakegurui-xx-todos-os-episodios",
      "texto_original": "Kakegurui××",
      "rating": 7.33,
      "classificacao_etaria": "A16",
      "imagem_original": "https://animefire.plus/img/animes/kakegurui-xx.webp",
      "imagem_pasta": "https://animefire.plus/img/animes/kakegurui-xx/",
      "secao": "legendados",
      "pagina": 167,
      "total_episodios": 6,
      "link_video": "https://animefire.plus/video/kakegurui-xx"
    },
    {
      "id": 1820,
      "nome": "Kakegurui×× (Dublado)",
      "link": "https://animefire.plus/animes/kakegurui-2nd-season-dublado-todos-os-episodios",
      "texto_original": "Kakegurui×× (Dublado)",
      "rating": 7.4,
      "classificacao_etaria": "A16",
      "imagem_original": "https://animefire.plus/img/animes/kakegurui-2nd-season.webp",
      "imagem_pasta": "https://animefire.plus/img/animes/kakegurui-2nd-season/",
      "secao": "dublados",
      "pagina": 21,
      "total_episodios": 12,
      "link_video": "https://animefire.plus/video/kakegurui-2nd-season-dublado"
    },
    {
      "id": 1824,
      "nome": "Kakumeiki Valvrave",
      "link": "https://animefire.plus/animes/kakumeiki-valvrave-todos-os-episodios",
      "texto_original": "Kakumeiki Valvrave",
      "rating": 7.24,
      "classificacao_etaria": "A16",
      "imagem_original": "https://animefire.plus/img/animes/kakumeiki-valvrave.webp",
      "imagem_pasta": "https://animefire.plus/img/animes/kakumeiki-valvrave/",
      "secao": "legendados",
      "pagina": 146,
      "total_episodios": 12,
      "link_video": "https://animefire.plus/video/kakumeiki-valvrave"
    },
    {
      "id": 1825,
      "nome": "Kakumeiki Valvrave 2nd Season",
      "link": "https://animefire.plus/animes/kakumeiki-valvrave-2nd-season-todos-os-episodios",
      "texto_original": "Kakumeiki Valvrave 2nd Season",
      "rating": 7.36,
      "classificacao_etaria": "A16",
      "imagem_original": "https://animefire.plus/img/animes/kakumeiki-valvrave-2nd-season.webp",
      "imagem_pasta": "https://animefire.plus/img/animes/kakumeiki-valvrave-2nd-season/",
      "secao": "legendados",
      "pagina": 141,
      "total_episodios": 5,
      "link_video": "https://animefire.plus/video/kakumeiki-valvrave-2nd-season"
    },
    {
      "id": 1852,
      "nome": "Kaminaki Sekai no Kamisama Katsudou",
      "link": "https://animefire.plus/animes/kaminaki-sekai-no-kamisama-katsudou-todos-os-episodios",
      "texto_original": "Kaminaki Sekai no Kamisama Katsudou",
      "rating": 6.68,
      "classificacao_etaria": "A16",
      "imagem_original": "https://animefire.plus/img/animes/kaminaki-sekai-no-kamisama-katsudou.jpg",
      "imagem_pasta": "https://animefire.plus/img/animes/kaminaki-sekai-no-kamisama-katsudou/",
      "secao": "legendados",
      "pagina": 24,
      "total_episodios": 12,
      "link_video": "https://animefire.plus/video/kaminaki-sekai-no-kamisama-katsudou"
    },
    {
      "id": 1853,
      "nome": "Kamisama Dolls",
      "link": "https://animefire.plus/animes/kamisama-dolls-todos-os-episodios",
      "texto_original": "Kamisama Dolls",
      "rating": 7.08,
      "classificacao_etaria": "A16",
      "imagem_original": "https://animefire.plus/img/animes/kamisama-dolls.webp",
      "imagem_pasta": "https://animefire.plus/img/animes/kamisama-dolls/",
      "secao": "legendados",
      "pagina": 91,
      "total_episodios": 13,
      "link_video": "https://animefire.plus/video/kamisama-dolls"
    },
    {
      "id": 1860,
      "nome": "Kamisama No Inai Nichiyoubi",
      "link": "https://animefire.plus/animes/kamisama-no-inai-nichiyoubi-todos-os-episodios",
      "texto_original": "Kamisama No Inai Nichiyoubi",
      "rating": 7.43,
      "classificacao_etaria": "A16",
      "imagem_original": "https://animefire.plus/img/animes/kamisama-no-inai-nichiyoubi.webp",
      "imagem_pasta": "https://animefire.plus/img/animes/kamisama-no-inai-nichiyoubi/",
      "secao": "legendados",
      "pagina": 96,
      "total_episodios": 9,
      "link_video": "https://animefire.plus/video/kamisama-no-inai-nichiyoubi"
    },
    {
      "id": 1861,
      "nome": "Kamisama no Memochou",
      "link": "https://animefire.plus/animes/kamisama-no-memochou-todos-os-episodios",
      "texto_original": "Kamisama no Memochou",
      "rating": 7.61,
      "classificacao_etaria": "A16",
      "imagem_original": "https://animefire.plus/img/animes/kamisama-no-memochou.webp",
      "imagem_pasta": "https://animefire.plus/img/animes/kamisama-no-memochou/",
      "secao": "legendados",
      "pagina": 157,
      "total_episodios": 12,
      "link_video": "https://animefire.plus/video/kamisama-no-memochou"
    },
    {
      "id": 1873,
      "nome": "Kankin Kuiki Level X",
      "link": "https://animefire.plus/animes/kankin-kuiki-level-x-todos-os-episodios",
      "texto_original": "Kankin Kuiki Level X",
      "rating": 6.4,
      "classificacao_etaria": "A16",
      "imagem_original": "https://animefire.plus/img/animes/kankin-kuiki-level-x.webp",
      "imagem_pasta": "https://animefire.plus/img/animes/kankin-kuiki-level-x/",
      "secao": "legendados,lancamentos",
      "pagina": 10,
      "total_episodios": 0,
      "link_video": "https://animefire.plus/video/kankin-kuiki-level-x"
    },
    {
      "id": 1898,
      "nome": "Karas",
      "link": "https://animefire.plus/animes/karas-todos-os-episodios",
      "texto_original": "Karas",
      "rating": 7.44,
      "classificacao_etaria": "A16",
      "imagem_original": "https://animefire.plus/img/animes/karas.webp",
      "imagem_pasta": "https://animefire.plus/img/animes/karas/",
      "secao": "legendados",
      "pagina": 77,
      "total_episodios": 6,
      "link_video": "https://animefire.plus/video/karas"
    },
    {
      "id": 1907,
      "nome": "Katanagatari",
      "link": "https://animefire.plus/animes/katanagatari-todos-os-episodios",
      "texto_original": "Katanagatari",
      "rating": 8.4,
      "classificacao_etaria": "A16",
      "imagem_original": "https://animefire.plus/img/animes/katanagatari.webp",
      "imagem_pasta": "https://animefire.plus/img/animes/katanagatari/",
      "secao": "legendados",
      "pagina": 108,
      "total_episodios": 0,
      "link_video": "https://animefire.plus/video/katanagatari"
    },
    {
      "id": 1911,
      "nome": "Katsute Kami Datta Kemono-tachi e",
      "link": "https://animefire.plus/animes/katsute-kami-datta-kemono-tachi-e-todos-os-episodios",
      "texto_original": "Katsute Kami Datta Kemono-tachi e",
      "rating": 6.41,
      "classificacao_etaria": "A16",
      "imagem_original": "https://animefire.plus/img/animes/katsute-kami-datta-kemono-tachi-e.webp",
      "imagem_pasta": "https://animefire.plus/img/animes/katsute-kami-datta-kemono-tachi-e/",
      "secao": "legendados",
      "pagina": 112,
      "total_episodios": 0,
      "link_video": "https://animefire.plus/video/katsute-kami-datta-kemono-tachi-e"
    },
    {
      "id": 1928,
      "nome": "Kekkai Sensen (Dublado)",
      "link": "https://animefire.plus/animes/kekkai-sensen-dublado-todos-os-episodios",
      "texto_original": "Kekkai Sensen (Dublado)",
      "rating": 7.66,
      "classificacao_etaria": "A16",
      "imagem_original": "https://animefire.plus/img/animes/kekkai-sensen.webp",
      "imagem_pasta": "https://animefire.plus/img/animes/kekkai-sensen/",
      "secao": "dublados,legendados",
      "pagina": 20,
      "total_episodios": 13,
      "link_video": "https://animefire.plus/video/kekkai-sensen-dublado"
    },
    {
      "id": 1929,
      "nome": "Kekkai Sensen & Beyond (Dublado)",
      "link": "https://animefire.plus/animes/kekkai-sensen-beyond-dublado-todos-os-episodios",
      "texto_original": "Kekkai Sensen & Beyond (Dublado)",
      "rating": 7.9,
      "classificacao_etaria": "A16",
      "imagem_original": "https://animefire.plus/img/animes/kekkai-sensen-beyond.webp",
      "imagem_pasta": "https://animefire.plus/img/animes/kekkai-sensen-beyond/",
      "secao": "dublados,legendados",
      "pagina": 19,
      "total_episodios": 12,
      "link_video": "https://animefire.plus/video/kekkai-sensen-beyond-dublado"
    },
    {
      "id": 1930,
      "nome": "Kekkai Sensen: Ousama no Restaurant no Ousama",
      "link": "https://animefire.plus/animes/kekkai-sensen-ousama-no-restaurant-no-ousama-todos-os-episodios",
      "texto_original": "Kekkai Sensen: Ousama no Restaurant no Ousama",
      "rating": 7.43,
      "classificacao_etaria": "A16",
      "imagem_original": "https://animefire.plus/img/animes/kekkai-sensen-ousama-no-restaurant-no-ousama.webp",
      "imagem_pasta": "https://animefire.plus/img/animes/kekkai-sensen-ousama-no-restaurant-no-ousama/",
      "secao": "legendados",
      "pagina": 86,
      "total_episodios": 1,
      "link_video": "https://animefire.plus/video/kekkai-sensen-ousama-no-restaurant-no-ousama"
    },
    {
      "id": 1937,
      "nome": "Kemono Jihen (Dublado)",
      "link": "https://animefire.plus/animes/kemono-jihen-dublado-todos-os-episodios",
      "texto_original": "Kemono Jihen (Dublado)",
      "rating": 7.36,
      "classificacao_etaria": "A16",
      "imagem_original": "https://animefire.plus/img/animes/kemono-jihen.webp",
      "imagem_pasta": "https://animefire.plus/img/animes/kemono-jihen/",
      "secao": "dublados,legendados",
      "pagina": 10,
      "total_episodios": 12,
      "link_video": "https://animefire.plus/video/kemono-jihen-dublado"
    },
    {
      "id": 1942,
      "nome": "Kengan Ashura (Dublado)",
      "link": "https://animefire.plus/animes/kengan-ashura-dublado-todos-os-episodios",
      "texto_original": "Kengan Ashura (Dublado)",
      "rating": 7.47,
      "classificacao_etaria": "A16",
      "imagem_original": "https://animefire.plus/img/animes/kengan-ashura.webp",
      "imagem_pasta": "https://animefire.plus/img/animes/kengan-ashura/",
      "secao": "dublados,legendados",
      "pagina": 25,
      "total_episodios": 12,
      "link_video": "https://animefire.plus/video/kengan-ashura-dublado"
    },
    {
      "id": 1943,
      "nome": "Kengan Ashura 2nd Season (Dublado)",
      "link": "https://animefire.plus/animes/kengan-ashura-2nd-season-dublado-todos-os-episodios",
      "texto_original": "Kengan Ashura 2nd Season (Dublado)",
      "rating": 7.75,
      "classificacao_etaria": "A16",
      "imagem_original": "https://animefire.plus/img/animes/kengan-ashura-2nd-season.webp",
      "imagem_pasta": "https://animefire.plus/img/animes/kengan-ashura-2nd-season/",
      "secao": "dublados",
      "pagina": 22,
      "total_episodios": 12,
      "link_video": "https://animefire.plus/video/kengan-ashura-2nd-season-dublado"
    },
    {
      "id": 1966,
      "nome": "Kijin Gentoushou",
      "link": "https://animefire.plus/animes/kijin-gentoushou-todos-os-episodios",
      "texto_original": "Kijin Gentoushou",
      "rating": 7.4,
      "classificacao_etaria": "A16",
      "imagem_original": "https://animefire.plus/img/animes/kijin-gentoushou.webp",
      "imagem_pasta": "https://animefire.plus/img/animes/kijin-gentoushou/",
      "secao": "legendados,lancamentos",
      "pagina": 6,
      "total_episodios": 16,
      "link_video": "https://animefire.plus/video/kijin-gentoushou"
    },
    {
      "id": 1976,
      "nome": "Kimetsu no Yaiba (Dublado)",
      "link": "https://animefire.plus/animes/kimetsu-no-yaiba-dublado-todos-os-episodios",
      "texto_original": "Kimetsu no Yaiba (Dublado)",
      "rating": 8.64,
      "classificacao_etaria": "A16",
      "imagem_original": "https://animefire.plus/img/animes/kimetsu-no-yaiba.webp",
      "imagem_pasta": "https://animefire.plus/img/animes/kimetsu-no-yaiba/",
      "secao": "dublados,legendados",
      "pagina": 18,
      "total_episodios": 26,
      "link_video": "https://animefire.plus/video/kimetsu-no-yaiba-dublado"
    }
  ],
  "pagination": {
    "current_page": 18,
    "per_page": 20,
    "total_items": 708,
    "total_pages": 36,
    "has_next": true,
    "has_prev": true
  }
}
