{
  "message": "Animes com classificação etária: A16",
  "age_rating": "A16",
  "data": [
    {
      "id": 2544,
      "nome": "Mobile Suit Gundam 00 Second Season",
      "link": "https://animefire.plus/animes/mobile-suit-gundam-00-second-season-todos-os-episodios",
      "texto_original": "Mobile Suit Gundam 00 Second Season",
      "rating": 8.16,
      "classificacao_etaria": "A16",
      "imagem_original": "https://animefire.plus/img/animes/mobile-suit-gundam-00-second-season.webp",
      "imagem_pasta": "https://animefire.plus/img/animes/mobile-suit-gundam-00-second-season/",
      "secao": "legendados",
      "pagina": 125,
      "total_episodios": 25,
      "link_video": "https://animefire.plus/video/mobile-suit-gundam-00-second-season"
    },
    {
      "id": 2547,
      "nome": "Mobile Suit Gundam SEED",
      "link": "https://animefire.plus/animes/mobile-suit-gundam-seed-todos-os-episodios",
      "texto_original": "Mobile Suit Gundam SEED",
      "rating": 7.86,
      "classificacao_etaria": "A16",
      "imagem_original": "https://animefire.plus/img/animes/mobile-suit-gundam-seed.webp",
      "imagem_pasta": "https://animefire.plus/img/animes/mobile-suit-gundam-seed/",
      "secao": "legendados",
      "pagina": 131,
      "total_episodios": 50,
      "link_video": "https://animefire.plus/video/mobile-suit-gundam-seed"
    },
    {
      "id": 2548,
      "nome": "Mobile Suit Gundam SEED Destiny",
      "link": "https://animefire.plus/animes/mobile-suit-gundam-seed-destiny-todos-os-episodios",
      "texto_original": "Mobile Suit Gundam SEED Destiny",
      "rating": 7.29,
      "classificacao_etaria": "A16",
      "imagem_original": "https://animefire.plus/img/animes/mobile-suit-gundam-seed-destiny.webp",
      "imagem_pasta": "https://animefire.plus/img/animes/mobile-suit-gundam-seed-destiny/",
      "secao": "legendados",
      "pagina": 131,
      "total_episodios": 50,
      "link_video": "https://animefire.plus/video/mobile-suit-gundam-seed-destiny"
    },
    {
      "id": 2549,
      "nome": "Mobile Suit Gundam Thunderbolt",
      "link": "https://animefire.plus/animes/mobile-suit-gundam-thunderbolt-todos-os-episodios",
      "texto_original": "Mobile Suit Gundam Thunderbolt",
      "rating": 7.96,
      "classificacao_etaria": "A16",
      "imagem_original": "https://animefire.plus/img/animes/mobile-suit-gundam-thunderbolt.webp",
      "imagem_pasta": "https://animefire.plus/img/animes/mobile-suit-gundam-thunderbolt/",
      "secao": "legendados",
      "pagina": 167,
      "total_episodios": 0,
      "link_video": "https://animefire.plus/video/mobile-suit-gundam-thunderbolt"
    },
    {
      "id": 2550,
      "nome": "Mobile Suit Gundam Thunderbolt 2nd Season",
      "link": "https://animefire.plus/animes/mobile-suit-gundam-thunderbolt-2nd-season-todos-os-episodios",
      "texto_original": "Mobile Suit Gundam Thunderbolt 2nd Season",
      "rating": 7.28,
      "classificacao_etaria": "A16",
      "imagem_original": "https://animefire.plus/img/animes/mobile-suit-gundam-thunderbolt-2nd-season.webp",
      "imagem_pasta": "https://animefire.plus/img/animes/mobile-suit-gundam-thunderbolt-2nd-season/",
      "secao": "legendados",
      "pagina": 55,
      "total_episodios": 4,
      "link_video": "https://animefire.plus/video/mobile-suit-gundam-thunderbolt-2nd-season"
    },
    {
      "id": 2554,
      "nome": "Mobile Suit Gundam: Iron-Blooded Orphans",
      "link": "https://animefire.plus/animes/mobile-suit-gundam-iron-blooded-orphans-todos-os-episodios",
      "texto_original": "Mobile Suit Gundam: Iron-Blooded Orphans",
      "rating": 8.03,
      "classificacao_etaria": "A16",
      "imagem_original": "https://animefire.plus/img/animes/mobile-suit-gundam-iron-blooded-orphans.webp",
      "imagem_pasta": "https://animefire.plus/img/animes/mobile-suit-gundam-iron-blooded-orphans/",
      "secao": "legendados",
      "pagina": 121,
      "total_episodios": 2,
      "link_video": "https://animefire.plus/video/mobile-suit-gundam-iron-blooded-orphans"
    },
    {
      "id": 2555,
      "nome": "Mobile Suit Gundam: Iron-Blooded Orphans 2nd Season",
      "link": "https://animefire.plus/animes/mobile-suit-gundam-iron-blooded-orphans-2nd-season-todos-os-episodios",
      "texto_original": "Mobile Suit Gundam: Iron-Blooded Orphans 2nd Season",
      "rating": 8.26,
      "classificacao_etaria": "A16",
      "imagem_original": "https://animefire.plus/img/animes/mobile-suit-gundam-iron-blooded-orphans-2nd-season.webp",
      "imagem_pasta": "https://animefire.plus/img/animes/mobile-suit-gundam-iron-blooded-orphans-2nd-season/",
      "secao": "legendados",
      "pagina": 64,
      "total_episodios": 25,
      "link_video": "https://animefire.plus/video/mobile-suit-gundam-iron-blooded-orphans-2nd-season"
    },
    {
      "id": 2558,
      "nome": "Mobile Suit Gundam: The Witch from Mercury",
      "link": "https://animefire.plus/animes/mobile-suit-gundam-the-witch-from-mercury-todos-os-episodios",
      "texto_original": "Mobile Suit Gundam: The Witch from Mercury",
      "rating": 7.85,
      "classificacao_etaria": "A16",
      "imagem_original": "https://animefire.plus/img/animes/mobile-suit-gundam-the-witch-from-mercury.webp",
      "imagem_pasta": "https://animefire.plus/img/animes/mobile-suit-gundam-the-witch-from-mercury/",
      "secao": "legendados",
      "pagina": 29,
      "total_episodios": 12,
      "link_video": "https://animefire.plus/video/mobile-suit-gundam-the-witch-from-mercury"
    },
    {
      "id": 2574,
      "nome": "Monogatari Series: Off & Monster Season",
      "link": "https://animefire.plus/animes/monogatari-series-off-monster-season-todos-os-episodios",
      "texto_original": "Monogatari Series: Off & Monster Season",
      "rating": 8.66,
      "classificacao_etaria": "A16",
      "imagem_original": "https://animefire.plus/img/animes/monogatari-series-off-monster-season.webp",
      "imagem_pasta": "https://animefire.plus/img/animes/monogatari-series-off-monster-season/",
      "secao": "legendados",
      "pagina": 11,
      "total_episodios": 14,
      "link_video": "https://animefire.plus/video/monogatari-series-off-monster-season"
    },
    {
      "id": 2575,
      "nome": "Monogatari Series: Second Season",
      "link": "https://animefire.plus/animes/monogatari-series-second-season-todos-os-episodios",
      "texto_original": "Monogatari Series: Second Season",
      "rating": 8.77,
      "classificacao_etaria": "A16",
      "imagem_original": "https://animefire.plus/img/animes/monogatari-series-second-season.webp",
      "imagem_pasta": "https://animefire.plus/img/animes/monogatari-series-second-season/",
      "secao": "legendados",
      "pagina": 143,
      "total_episodios": 5,
      "link_video": "https://animefire.plus/video/monogatari-series-second-season"
    },
    {
      "id": 2578,
      "nome": "Mononoke",
      "link": "https://animefire.plus/animes/mononoke-todos-os-episodios",
      "texto_original": "Mononoke",
      "rating": 8.42,
      "classificacao_etaria": "A16",
      "imagem_original": "https://animefire.plus/img/animes/mononoke.webp",
      "imagem_pasta": "https://animefire.plus/img/animes/mononoke/",
      "secao": "legendados",
      "pagina": 64,
      "total_episodios": 12,
      "link_video": "https://animefire.plus/video/mononoke"
    },
    {
      "id": 2589,
      "nome": "Moonrakers",
      "link": "https://animefire.plus/animes/moonrakers-todos-os-episodios",
      "texto_original": "Moonrakers",
      "rating": 5.63,
      "classificacao_etaria": "A16",
      "imagem_original": "https://animefire.plus/img/animes/moonrakers.webp",
      "imagem_pasta": "https://animefire.plus/img/animes/moonrakers/",
      "secao": "legendados",
      "pagina": 78,
      "total_episodios": 0,
      "link_video": "https://animefire.plus/video/moonrakers"
    },
    {
      "id": 2590,
      "nome": "Moonrise",
      "link": "https://animefire.plus/animes/moonrise-todos-os-episodios",
      "texto_original": "Moonrise",
      "rating": null,
      "classificacao_etaria": "A16",
      "imagem_original": "https://animefire.plus/img/animes/moonrise.webp",
      "imagem_pasta": "https://animefire.plus/img/animes/moonrise/",
      "secao": "legendados,lancamentos",
      "pagina": 4,
      "total_episodios": 3,
      "link_video": "https://animefire.plus/video/moonrise"
    },
    {
      "id": 2598,
      "nome": "Mouryou no Hako",
      "link": "https://animefire.plus/animes/mouryou-no-hako-todos-os-episodios",
      "texto_original": "Mouryou no Hako",
      "rating": 7.25,
      "classificacao_etaria": "A16",
      "imagem_original": "https://animefire.plus/img/animes/mouryou-no-hako.webp",
      "imagem_pasta": "https://animefire.plus/img/animes/mouryou-no-hako/",
      "secao": "legendados",
      "pagina": 151,
      "total_episodios": 13,
      "link_video": "https://animefire.plus/video/mouryou-no-hako"
    },
    {
      "id": 2603,
      "nome": "Mugen no Juunin: Immortal",
      "link": "https://animefire.plus/animes/mugen-no-juunin-immortal-todos-os-episodios",
      "texto_original": "Mugen no Juunin: Immortal",
      "rating": 7.36,
      "classificacao_etaria": "A16",
      "imagem_original": "https://animefire.plus/img/animes/mugen-no-juunin-immortal.webp",
      "imagem_pasta": "https://animefire.plus/img/animes/mugen-no-juunin-immortal/",
      "secao": "legendados",
      "pagina": 110,
      "total_episodios": 1,
      "link_video": "https://animefire.plus/video/mugen-no-juunin-immortal"
    },
    {
      "id": 2610,
      "nome": "Munou na Nana",
      "link": "https://animefire.plus/animes/munou-na-nana-todos-os-episodios",
      "texto_original": "Munou na Nana",
      "rating": null,
      "classificacao_etaria": "A16",
      "imagem_original": "https://animefire.plus/img/animes/munou-na-nana.webp",
      "imagem_pasta": "https://animefire.plus/img/animes/munou-na-nana/",
      "secao": "legendados",
      "pagina": 52,
      "total_episodios": 13,
      "link_video": "https://animefire.plus/video/munou-na-nana"
    },
    {
      "id": 2612,
      "nome": "Murder Mystery of the Dead",
      "link": "https://animefire.plus/animes/murder-mystery-of-the-dead-todos-os-episodios",
      "texto_original": "Murder Mystery of the Dead",
      "rating": null,
      "classificacao_etaria": "A16",
      "imagem_original": "https://animefire.plus/img/animes/murder-mystery-of-the-dead.webp",
      "imagem_pasta": "https://animefire.plus/img/animes/murder-mystery-of-the-dead/",
      "secao": "legendados,lancamentos",
      "pagina": 10,
      "total_episodios": 0,
      "link_video": "https://animefire.plus/video/murder-mystery-of-the-dead"
    },
    {
      "id": 2619,
      "nome": "Mushikago no Cagaster (Dublado)",
      "link": "https://animefire.plus/animes/mushikago-no-cagaster-dublado-todos-os-episodios",
      "texto_original": "Mushikago no Cagaster (Dublado)",
      "rating": 6.57,
      "classificacao_etaria": "A16",
      "imagem_original": "https://animefire.plus/img/animes/mushikago-no-cagaster.webp",
      "imagem_pasta": "https://animefire.plus/img/animes/mushikago-no-cagaster/",
      "secao": "dublados,legendados",
      "pagina": 25,
      "total_episodios": 12,
      "link_video": "https://animefire.plus/video/mushikago-no-cagaster-dublado"
    },
    {
      "id": 2623,
      "nome": "Mushoku Tensei II: Isekai Ittara Honki Dasu",
      "link": "https://animefire.plus/animes/mushoku-tensei-ii-sekai-ittara-honki-dasu-todos-os-episodios",
      "texto_original": "Mushoku Tensei II: Isekai Ittara Honki Dasu",
      "rating": 8.22,
      "classificacao_etaria": "A16",
      "imagem_original": "https://animefire.plus/img/animes/mushoku-tensei-II-sekai-ittara-honki-dasu.jpg",
      "imagem_pasta": "https://animefire.plus/img/animes/mushoku-tensei-II-sekai-ittara-honki-dasu/",
      "secao": "legendados",
      "pagina": 23,
      "total_episodios": 4,
      "link_video": "https://animefire.plus/video/mushoku-tensei-ii-sekai-ittara-honki-dasu"
    },
    {
      "id": 2624,
      "nome": "Mushoku Tensei II: Isekai Ittara Honki Dasu - Shugo Jutsushi Fitz (Dublado)",
      "link": "https://animefire.plus/animes/mushoku-tensei-ii-isekai-ittara-honki-dasu---shugo-jutsushi-fitz-dublado-todos-os-episodios",
      "texto_original": "Mushoku Tensei II: Isekai Ittara Honki Dasu - Shugo Jutsushi Fitz (Dublado)",
      "rating": 7.54,
      "classificacao_etaria": "A16",
      "imagem_original": "https://animefire.plus/img/animes/mushoku-tensei-ii-isekai-ittara-honki-dasu---shugo-jutsushi-fitz.webp",
      "imagem_pasta": "https://animefire.plus/img/animes/mushoku-tensei-ii-isekai-ittara-honki-dasu---shugo-jutsushi-fitz/",
      "secao": "dublados",
      "pagina": 6,
      "total_episodios": 0,
      "link_video": "https://animefire.plus/video/mushoku-tensei-ii-isekai-ittara-honki-dasu---shugo-jutsushi-fitz-dublado"
    }
  ],
  "pagination": {
    "current_page": 23,
    "per_page": 20,
    "total_items": 708,
    "total_pages": 36,
    "has_next": true,
    "has_prev": true
  }
}
