{
  "message": "Animes com classificação etária: A16",
  "age_rating": "A16",
  "data": [
    {
      "id": 1081,
      "nome": "Gakkougurashi!",
      "link": "https://animefire.plus/animes/gakkougurashi-todos-os-episodios",
      "texto_original": "Gakkougurashi!",
      "rating": 7.64,
      "classificacao_etaria": "A16",
      "imagem_original": "https://animefire.plus/img/animes/gakkougurashi.webp",
      "imagem_pasta": "https://animefire.plus/img/animes/gakkougurashi/",
      "secao": "legendados",
      "pagina": 57,
      "total_episodios": 12,
      "link_video": "https://animefire.plus/video/gakkougurashi"
    },
    {
      "id": 1097,
      "nome": "Galilei Donna",
      "link": "https://animefire.plus/animes/galilei-donna-todos-os-episodios",
      "texto_original": "Galilei Donna",
      "rating": 6.46,
      "classificacao_etaria": "A16",
      "imagem_original": "https://animefire.plus/img/animes/galilei-donna.webp",
      "imagem_pasta": "https://animefire.plus/img/animes/galilei-donna/",
      "secao": "legendados",
      "pagina": 134,
      "total_episodios": 3,
      "link_video": "https://animefire.plus/video/galilei-donna"
    },
    {
      "id": 1105,
      "nome": "Gangsta.",
      "link": "https://animefire.plus/animes/gangsta-todos-os-episodios",
      "texto_original": "Gangsta.",
      "rating": 7.45,
      "classificacao_etaria": "A16",
      "imagem_original": "https://animefire.plus/img/animes/gangsta.webp",
      "imagem_pasta": "https://animefire.plus/img/animes/gangsta/",
      "secao": "legendados",
      "pagina": 129,
      "total_episodios": 0,
      "link_video": "https://animefire.plus/video/gangsta"
    },
    {
      "id": 1106,
      "nome": "Gankutsuou (Dublado)",
      "link": "https://animefire.plus/animes/gankutsuou-dublado-todos-os-episodios",
      "texto_original": "Gankutsuou (Dublado)",
      "rating": 8.19,
      "classificacao_etaria": "A16",
      "imagem_original": "https://animefire.plus/img/animes/gankutsuou.webp",
      "imagem_pasta": "https://animefire.plus/img/animes/gankutsuou/",
      "secao": "dublados,legendados",
      "pagina": 22,
      "total_episodios": 24,
      "link_video": "https://animefire.plus/video/gankutsuou-dublado"
    },
    {
      "id": 1111,
      "nome": "Garo: Honoo no Kokuin",
      "link": "https://animefire.plus/animes/garo-honoo-no-kokuin-todos-os-episodios",
      "texto_original": "Garo: Honoo no Kokuin",
      "rating": 7.47,
      "classificacao_etaria": "A16",
      "imagem_original": "https://animefire.plus/img/animes/garo-honoo-no-kokuin.webp",
      "imagem_pasta": "https://animefire.plus/img/animes/garo-honoo-no-kokuin/",
      "secao": "legendados",
      "pagina": 138,
      "total_episodios": 0,
      "link_video": "https://animefire.plus/video/garo-honoo-no-kokuin"
    },
    {
      "id": 1112,
      "nome": "Garo: Vanishing Line",
      "link": "https://animefire.plus/animes/garo-vanishing-line-todos-os-episodios",
      "texto_original": "Garo: Vanishing Line",
      "rating": 7.23,
      "classificacao_etaria": "A16",
      "imagem_original": "https://animefire.plus/img/animes/garo-vanishing-line.webp",
      "imagem_pasta": "https://animefire.plus/img/animes/garo-vanishing-line/",
      "secao": "legendados",
      "pagina": 94,
      "total_episodios": 24,
      "link_video": "https://animefire.plus/video/garo-vanishing-line"
    },
    {
      "id": 1118,
      "nome": "Gate: Jieitai Kanochi Nite, Kaku Tatakaeri",
      "link": "https://animefire.plus/animes/gate-jieitai-kanochi-nite-kaku-tatakaeri-todos-os-episodios",
      "texto_original": "Gate: Jieitai Kanochi Nite, Kaku Tatakaeri",
      "rating": 7.85,
      "classificacao_etaria": "A16",
      "imagem_original": "https://animefire.plus/img/animes/gate-jieitai-kanochi-nite-kaku-tatakaeri.webp",
      "imagem_pasta": "https://animefire.plus/img/animes/gate-jieitai-kanochi-nite-kaku-tatakaeri/",
      "secao": "legendados",
      "pagina": 105,
      "total_episodios": 0,
      "link_video": "https://animefire.plus/video/gate-jieitai-kanochi-nite-kaku-tatakaeri"
    },
    {
      "id": 1119,
      "nome": "Gate: Jieitai Kanochi nite, Kaku Tatakaeri 2nd Season",
      "link": "https://animefire.plus/animes/gate-jieitai-kanochi-nite-kaku-tatakaeri-2nd-season-todos-os-episodios",
      "texto_original": "Gate: Jieitai Kanochi nite, Kaku Tatakaeri 2nd Season",
      "rating": 7.82,
      "classificacao_etaria": "A16",
      "imagem_original": "https://animefire.plus/img/animes/gate-jieitai-kanochi-nite-kaku-tatakaeri-2nd-season.webp",
      "imagem_pasta": "https://animefire.plus/img/animes/gate-jieitai-kanochi-nite-kaku-tatakaeri-2nd-season/",
      "secao": "legendados",
      "pagina": 58,
      "total_episodios": 0,
      "link_video": "https://animefire.plus/video/gate-jieitai-kanochi-nite-kaku-tatakaeri-2nd-season"
    },
    {
      "id": 1126,
      "nome": "Genei wo Kakeru Taiyou",
      "link": "https://animefire.plus/animes/genei-wo-kakeru-taiyou-todos-os-episodios",
      "texto_original": "Genei wo Kakeru Taiyou",
      "rating": 6.48,
      "classificacao_etaria": "A16",
      "imagem_original": "https://animefire.plus/img/animes/genei-wo-kakeru-taiyou.webp",
      "imagem_pasta": "https://animefire.plus/img/animes/genei-wo-kakeru-taiyou/",
      "secao": "legendados",
      "pagina": 152,
      "total_episodios": 4,
      "link_video": "https://animefire.plus/video/genei-wo-kakeru-taiyou"
    },
    {
      "id": 1135,
      "nome": "Genocyber (Dublado)",
      "link": "https://animefire.plus/animes/genocyber-dublado-todos-os-episodios",
      "texto_original": "Genocyber (Dublado)",
      "rating": 5.87,
      "classificacao_etaria": "A16",
      "imagem_original": "https://animefire.plus/img/animes/genocyber.webp",
      "imagem_pasta": "https://animefire.plus/img/animes/genocyber/",
      "secao": "dublados",
      "pagina": 21,
      "total_episodios": 3,
      "link_video": "https://animefire.plus/video/genocyber-dublado"
    },
    {
      "id": 1137,
      "nome": "Genshiken 2",
      "link": "https://animefire.plus/animes/genshiken-2-todos-os-episodios",
      "texto_original": "Genshiken 2",
      "rating": 7.79,
      "classificacao_etaria": "A16",
      "imagem_original": "https://animefire.plus/img/animes/genshiken-2.webp",
      "imagem_pasta": "https://animefire.plus/img/animes/genshiken-2/",
      "secao": "legendados",
      "pagina": 63,
      "total_episodios": 12,
      "link_video": "https://animefire.plus/video/genshiken-2"
    },
    {
      "id": 1138,
      "nome": "Genshiken Nidaime",
      "link": "https://animefire.plus/animes/genshiken-nidaime-todos-os-episodios",
      "texto_original": "Genshiken Nidaime",
      "rating": 7.48,
      "classificacao_etaria": "A16",
      "imagem_original": "https://animefire.plus/img/animes/genshiken-nidaime.webp",
      "imagem_pasta": "https://animefire.plus/img/animes/genshiken-nidaime/",
      "secao": "legendados",
      "pagina": 63,
      "total_episodios": 13,
      "link_video": "https://animefire.plus/video/genshiken-nidaime"
    },
    {
      "id": 1139,
      "nome": "Genshiken Nidaime OVA",
      "link": "https://animefire.plus/animes/genshiken-nidaime-ova-todos-os-episodios",
      "texto_original": "Genshiken Nidaime OVA",
      "rating": 7.2,
      "classificacao_etaria": "A16",
      "imagem_original": "https://animefire.plus/img/animes/genshiken-nidaime-ova.webp",
      "imagem_pasta": "https://animefire.plus/img/animes/genshiken-nidaime-ova/",
      "secao": "legendados",
      "pagina": 84,
      "total_episodios": 1,
      "link_video": "https://animefire.plus/video/genshiken-nidaime-ova"
    },
    {
      "id": 1140,
      "nome": "Genshiken Nidaime Specials",
      "link": "https://animefire.plus/animes/genshiken-nidaime-specials-todos-os-episodios",
      "texto_original": "Genshiken Nidaime Specials",
      "rating": 6.89,
      "classificacao_etaria": "A16",
      "imagem_original": "https://animefire.plus/img/animes/genshiken-nidaime-specials.webp",
      "imagem_pasta": "https://animefire.plus/img/animes/genshiken-nidaime-specials/",
      "secao": "legendados",
      "pagina": 129,
      "total_episodios": 4,
      "link_video": "https://animefire.plus/video/genshiken-nidaime-specials"
    },
    {
      "id": 1143,
      "nome": "Gensoumaden Saiyuuki",
      "link": "https://animefire.plus/animes/gensoumaden-saiyuuki-todos-os-episodios",
      "texto_original": "Gensoumaden Saiyuuki",
      "rating": 7.58,
      "classificacao_etaria": "A16",
      "imagem_original": "https://animefire.plus/img/animes/gensoumaden-saiyuuki.webp",
      "imagem_pasta": "https://animefire.plus/img/animes/gensoumaden-saiyuuki/",
      "secao": "legendados",
      "pagina": 42,
      "total_episodios": 50,
      "link_video": "https://animefire.plus/video/gensoumaden-saiyuuki"
    },
    {
      "id": 1153,
      "nome": "Gibiate",
      "link": "https://animefire.plus/animes/gibiate-todos-os-episodios",
      "texto_original": "Gibiate",
      "rating": null,
      "classificacao_etaria": "A16",
      "imagem_original": "https://animefire.plus/img/animes/gibiate.webp",
      "imagem_pasta": "https://animefire.plus/img/animes/gibiate/",
      "secao": "legendados",
      "pagina": 57,
      "total_episodios": 12,
      "link_video": "https://animefire.plus/video/gibiate"
    },
    {
      "id": 1156,
      "nome": "Gilgamesh",
      "link": "https://animefire.plus/animes/gilgamesh-todos-os-episodios",
      "texto_original": "Gilgamesh",
      "rating": 6.72,
      "classificacao_etaria": "A16",
      "imagem_original": "https://animefire.plus/img/animes/gilgamesh.webp",
      "imagem_pasta": "https://animefire.plus/img/animes/gilgamesh/",
      "secao": "legendados",
      "pagina": 99,
      "total_episodios": 26,
      "link_video": "https://animefire.plus/video/gilgamesh"
    },
    {
      "id": 1164,
      "nome": "Ginga Eiyuu Densetsu",
      "link": "https://animefire.plus/animes/ginga-eiyuu-densetsu-todos-os-episodios",
      "texto_original": "Ginga Eiyuu Densetsu",
      "rating": 9.06,
      "classificacao_etaria": "A16",
      "imagem_original": "https://animefire.plus/img/animes/ginga-eiyuu-densetsu.webp",
      "imagem_pasta": "https://animefire.plus/img/animes/ginga-eiyuu-densetsu/",
      "secao": "legendados",
      "pagina": 42,
      "total_episodios": 110,
      "link_video": "https://animefire.plus/video/ginga-eiyuu-densetsu"
    },
    {
      "id": 1165,
      "nome": "Ginga Eiyuu Densetsu: Die Neue These - Kaikou",
      "link": "https://animefire.plus/animes/ginga-eiyuu-densetsu-die-neue-these---kaikou-todos-os-episodios",
      "texto_original": "Ginga Eiyuu Densetsu: Die Neue These - Kaikou",
      "rating": 7.64,
      "classificacao_etaria": "A16",
      "imagem_original": "https://animefire.plus/img/animes/ginga-eiyuu-densetsu-die-neue-these---kaikou.webp",
      "imagem_pasta": "https://animefire.plus/img/animes/ginga-eiyuu-densetsu-die-neue-these---kaikou/",
      "secao": "legendados",
      "pagina": 177,
      "total_episodios": 10,
      "link_video": "https://animefire.plus/video/ginga-eiyuu-densetsu-die-neue-these---kaikou"
    },
    {
      "id": 1200,
      "nome": "Gleipnir (Dublado)",
      "link": "https://animefire.plus/animes/gleipnir-dublado-todos-os-episodios",
      "texto_original": "Gleipnir (Dublado)",
      "rating": 7.01,
      "classificacao_etaria": "A16",
      "imagem_original": "https://animefire.plus/img/animes/gleipnir.webp",
      "imagem_pasta": "https://animefire.plus/img/animes/gleipnir/",
      "secao": "dublados,legendados",
      "pagina": 14,
      "total_episodios": 13,
      "link_video": "https://animefire.plus/video/gleipnir-dublado"
    }
  ],
  "pagination": {
    "current_page": 11,
    "per_page": 20,
    "total_items": 708,
    "total_pages": 36,
    "has_next": true,
    "has_prev": true
  }
}
