{
  "message": "Animes com classificação etária: A16",
  "age_rating": "A16",
  "data": [
    {
      "id": 2928,
      "nome": "Ousama Game The Animation",
      "link": "https://animefire.plus/animes/ousama-game-the-animation-todos-os-episodios",
      "texto_original": "Ousama Game The Animation",
      "rating": 5.15,
      "classificacao_etaria": "A16",
      "imagem_original": "https://animefire.plus/img/animes/ousama-game-the-animation.webp",
      "imagem_pasta": "https://animefire.plus/img/animes/ousama-game-the-animation/",
      "secao": "legendados",
      "pagina": 95,
      "total_episodios": 12,
      "link_video": "https://animefire.plus/video/ousama-game-the-animation"
    },
    {
      "id": 2933,
      "nome": "Overlord (Dublado)",
      "link": "https://animefire.plus/animes/overlord-dublado-todos-os-episodios",
      "texto_original": "Overlord (Dublado)",
      "rating": 7.98,
      "classificacao_etaria": "A16",
      "imagem_original": "https://animefire.plus/img/animes/overlord.webp",
      "imagem_pasta": "https://animefire.plus/img/animes/overlord/",
      "secao": "dublados,legendados",
      "pagina": 19,
      "total_episodios": 13,
      "link_video": "https://animefire.plus/video/overlord-dublado"
    },
    {
      "id": 2934,
      "nome": "Overlord II (Dublado)",
      "link": "https://animefire.plus/animes/overlord-ii-dublado-todos-os-episodios",
      "texto_original": "Overlord II (Dublado)",
      "rating": 7.8,
      "classificacao_etaria": "A16",
      "imagem_original": "https://animefire.plus/img/animes/overlord-ii.webp",
      "imagem_pasta": "https://animefire.plus/img/animes/overlord-ii/",
      "secao": "dublados,legendados",
      "pagina": 19,
      "total_episodios": 13,
      "link_video": "https://animefire.plus/video/overlord-ii-dublado"
    },
    {
      "id": 2935,
      "nome": "Overlord III (Dublado)",
      "link": "https://animefire.plus/animes/overlord-iii-dublado-todos-os-episodios",
      "texto_original": "Overlord III (Dublado)",
      "rating": 7.98,
      "classificacao_etaria": "A16",
      "imagem_original": "https://animefire.plus/img/animes/overlord-iii.webp",
      "imagem_pasta": "https://animefire.plus/img/animes/overlord-iii/",
      "secao": "dublados,legendados",
      "pagina": 19,
      "total_episodios": 13,
      "link_video": "https://animefire.plus/video/overlord-iii-dublado"
    },
    {
      "id": 2936,
      "nome": "Overlord IV (Dublado)",
      "link": "https://animefire.plus/animes/overlord-iv-dublado-todos-os-episodios",
      "texto_original": "Overlord IV (Dublado)",
      "rating": 8.07,
      "classificacao_etaria": "A16",
      "imagem_original": "https://animefire.plus/img/animes/overlord-iv.webp",
      "imagem_pasta": "https://animefire.plus/img/animes/overlord-iv/",
      "secao": "dublados,legendados",
      "pagina": 10,
      "total_episodios": 13,
      "link_video": "https://animefire.plus/video/overlord-iv-dublado"
    },
    {
      "id": 2939,
      "nome": "Owari no Seraph (Dublado)",
      "link": "https://animefire.plus/animes/owari-no-seraph-dublado-todos-os-episodios",
      "texto_original": "Owari no Seraph (Dublado)",
      "rating": 7.49,
      "classificacao_etaria": "A16",
      "imagem_original": "https://animefire.plus/img/animes/owari-no-seraph.webp",
      "imagem_pasta": "https://animefire.plus/img/animes/owari-no-seraph/",
      "secao": "dublados,legendados",
      "pagina": 15,
      "total_episodios": 12,
      "link_video": "https://animefire.plus/video/owari-no-seraph-dublado"
    },
    {
      "id": 2940,
      "nome": "Owari no Seraph: Kyuuketsuki Shahar",
      "link": "https://animefire.plus/animes/owari-no-seraph-kyuuketsuki-shahar-todos-os-episodios",
      "texto_original": "Owari no Seraph: Kyuuketsuki Shahar",
      "rating": 7.18,
      "classificacao_etaria": "A16",
      "imagem_original": "https://animefire.plus/img/animes/owari-no-seraph-kyuuketsuki-shahar.webp",
      "imagem_pasta": "https://animefire.plus/img/animes/owari-no-seraph-kyuuketsuki-shahar/",
      "secao": "legendados",
      "pagina": 67,
      "total_episodios": 1,
      "link_video": "https://animefire.plus/video/owari-no-seraph-kyuuketsuki-shahar"
    },
    {
      "id": 2941,
      "nome": "Owari no Seraph: Nagoya Kessen-hen (Dublado)",
      "link": "https://animefire.plus/animes/owari-no-seraph-nagoya-kessen-hen-dublado-todos-os-episodios",
      "texto_original": "Owari no Seraph: Nagoya Kessen-hen (Dublado)",
      "rating": 7.63,
      "classificacao_etaria": "A16",
      "imagem_original": "https://animefire.plus/img/animes/owari-no-seraph-nagoya-kessen-hen.webp",
      "imagem_pasta": "https://animefire.plus/img/animes/owari-no-seraph-nagoya-kessen-hen/",
      "secao": "dublados,legendados",
      "pagina": 15,
      "total_episodios": 12,
      "link_video": "https://animefire.plus/video/owari-no-seraph-nagoya-kessen-hen-dublado"
    },
    {
      "id": 2942,
      "nome": "Owarimonogatari",
      "link": "https://animefire.plus/animes/owarimonogatari-todos-os-episodios",
      "texto_original": "Owarimonogatari",
      "rating": 8.46,
      "classificacao_etaria": "A16",
      "imagem_original": "https://animefire.plus/img/animes/owarimonogatari.webp",
      "imagem_pasta": "https://animefire.plus/img/animes/owarimonogatari/",
      "secao": "legendados",
      "pagina": 74,
      "total_episodios": 12,
      "link_video": "https://animefire.plus/video/owarimonogatari"
    },
    {
      "id": 2943,
      "nome": "Owarimonogatari 2nd Season",
      "link": "https://animefire.plus/animes/owarimonogatari-2nd-season-todos-os-episodios",
      "texto_original": "Owarimonogatari 2nd Season",
      "rating": 8.95,
      "classificacao_etaria": "A16",
      "imagem_original": "https://animefire.plus/img/animes/owarimonogatari-2nd-season.webp",
      "imagem_pasta": "https://animefire.plus/img/animes/owarimonogatari-2nd-season/",
      "secao": "legendados",
      "pagina": 99,
      "total_episodios": 3,
      "link_video": "https://animefire.plus/video/owarimonogatari-2nd-season"
    },
    {
      "id": 2950,
      "nome": "Panty & Stocking with Garterbelt",
      "link": "https://animefire.plus/animes/panty-stocking-with-garterbelt-todos-os-episodios",
      "texto_original": "Panty & Stocking with Garterbelt",
      "rating": 7.77,
      "classificacao_etaria": "A16",
      "imagem_original": "https://animefire.plus/img/animes/panty-stocking-with-garterbelt.webp",
      "imagem_pasta": "https://animefire.plus/img/animes/panty-stocking-with-garterbelt/",
      "secao": "legendados",
      "pagina": 161,
      "total_episodios": 13,
      "link_video": "https://animefire.plus/video/panty-stocking-with-garterbelt"
    },
    {
      "id": 2952,
      "nome": "Paradise Kiss",
      "link": "https://animefire.plus/animes/paradise-kiss-todos-os-episodios",
      "texto_original": "Paradise Kiss",
      "rating": 7.88,
      "classificacao_etaria": "A16",
      "imagem_original": "https://animefire.plus/img/animes/paradise-kiss.webp",
      "imagem_pasta": "https://animefire.plus/img/animes/paradise-kiss/",
      "secao": "legendados",
      "pagina": 149,
      "total_episodios": 12,
      "link_video": "https://animefire.plus/video/paradise-kiss"
    },
    {
      "id": 2960,
      "nome": "Peace Maker Kurogane",
      "link": "https://animefire.plus/animes/peace-maker-kurogane-todos-os-episodios",
      "texto_original": "Peace Maker Kurogane",
      "rating": 7.39,
      "classificacao_etaria": "A16",
      "imagem_original": "https://animefire.plus/img/animes/peace-maker-kurogane.webp",
      "imagem_pasta": "https://animefire.plus/img/animes/peace-maker-kurogane/",
      "secao": "legendados",
      "pagina": 163,
      "total_episodios": 24,
      "link_video": "https://animefire.plus/video/peace-maker-kurogane"
    },
    {
      "id": 2961,
      "nome": "Peach Boy Riverside",
      "link": "https://animefire.plus/animes/peach-boy-riverside-todos-os-episodios",
      "texto_original": "Peach Boy Riverside",
      "rating": 6.24,
      "classificacao_etaria": "A16",
      "imagem_original": "https://animefire.plus/img/animes/peach-boy-riverside.webp",
      "imagem_pasta": "https://animefire.plus/img/animes/peach-boy-riverside/",
      "secao": "legendados",
      "pagina": 41,
      "total_episodios": 12,
      "link_video": "https://animefire.plus/video/peach-boy-riverside"
    },
    {
      "id": 2967,
      "nome": "Persona 5 the Animation",
      "link": "https://animefire.plus/animes/persona-5-the-animation-todos-os-episodios",
      "texto_original": "Persona 5 the Animation",
      "rating": 6.71,
      "classificacao_etaria": "A16",
      "imagem_original": "https://animefire.plus/img/animes/persona-5-the-animation.webp",
      "imagem_pasta": "https://animefire.plus/img/animes/persona-5-the-animation/",
      "secao": "legendados",
      "pagina": 120,
      "total_episodios": 26,
      "link_video": "https://animefire.plus/video/persona-5-the-animation"
    },
    {
      "id": 2993,
      "nome": "Platinum End (Dublado)",
      "link": "https://animefire.plus/animes/platinum-end-dublado-todos-os-episodios",
      "texto_original": "Platinum End (Dublado)",
      "rating": 6.02,
      "classificacao_etaria": "A16",
      "imagem_original": "https://animefire.plus/img/animes/platinum-end.webp",
      "imagem_pasta": "https://animefire.plus/img/animes/platinum-end/",
      "secao": "dublados,legendados",
      "pagina": 14,
      "total_episodios": 24,
      "link_video": "https://animefire.plus/video/platinum-end-dublado"
    },
    {
      "id": 3030,
      "nome": "Princess Principal",
      "link": "https://animefire.plus/animes/princess-principal-todos-os-episodios",
      "texto_original": "Princess Principal",
      "rating": 7.7,
      "classificacao_etaria": "A16",
      "imagem_original": "https://animefire.plus/img/animes/princess-principal.webp",
      "imagem_pasta": "https://animefire.plus/img/animes/princess-principal/",
      "secao": "legendados",
      "pagina": 123,
      "total_episodios": 12,
      "link_video": "https://animefire.plus/video/princess-principal"
    },
    {
      "id": 3040,
      "nome": "Psycho-Pass",
      "link": "https://animefire.plus/animes/psycho-pass-todos-os-episodios",
      "texto_original": "Psycho-Pass",
      "rating": 8.42,
      "classificacao_etaria": "A16",
      "imagem_original": "https://animefire.plus/img/animes/psycho-pass.webp",
      "imagem_pasta": "https://animefire.plus/img/animes/psycho-pass/",
      "secao": "legendados",
      "pagina": 113,
      "total_episodios": 1,
      "link_video": "https://animefire.plus/video/psycho-pass"
    },
    {
      "id": 3041,
      "nome": "Psycho-Pass 2",
      "link": "https://animefire.plus/animes/psycho-pass-2-todos-os-episodios",
      "texto_original": "Psycho-Pass 2",
      "rating": 7.51,
      "classificacao_etaria": "A16",
      "imagem_original": "https://animefire.plus/img/animes/psycho-pass-2.webp",
      "imagem_pasta": "https://animefire.plus/img/animes/psycho-pass-2/",
      "secao": "legendados",
      "pagina": 142,
      "total_episodios": 0,
      "link_video": "https://animefire.plus/video/psycho-pass-2"
    },
    {
      "id": 3042,
      "nome": "Psycho-Pass 3",
      "link": "https://animefire.plus/animes/psycho-pass-3-todos-os-episodios",
      "texto_original": "Psycho-Pass 3",
      "rating": 7.54,
      "classificacao_etaria": "A16",
      "imagem_original": "https://animefire.plus/img/animes/psycho-pass-3.webp",
      "imagem_pasta": "https://animefire.plus/img/animes/psycho-pass-3/",
      "secao": "legendados",
      "pagina": 95,
      "total_episodios": 0,
      "link_video": "https://animefire.plus/video/psycho-pass-3"
    }
  ],
  "pagination": {
    "current_page": 26,
    "per_page": 20,
    "total_items": 708,
    "total_pages": 36,
    "has_next": true,
    "has_prev": true
  }
}
