{
  "message": "Animes com classificação etária: A16",
  "age_rating": "A16",
  "data": [
    {
      "id": 856,
      "nome": "Double Decker! Doug & Kirill",
      "link": "https://animefire.plus/animes/double-decker-doug-kirill-todos-os-episodios",
      "texto_original": "Double Decker! Doug & Kirill",
      "rating": 6.97,
      "classificacao_etaria": "A16",
      "imagem_original": "https://animefire.plus/img/animes/double-decker-doug-kirill.webp",
      "imagem_pasta": "https://animefire.plus/img/animes/double-decker-doug-kirill/",
      "secao": "legendados",
      "pagina": 107,
      "total_episodios": 13,
      "link_video": "https://animefire.plus/video/double-decker-doug-kirill"
    },
    {
      "id": 857,
      "nome": "Double Decker! Doug & Kirill: Extra",
      "link": "https://animefire.plus/animes/double-decker-doug-kirill-extra-todos-os-episodios",
      "texto_original": "Double Decker! Doug & Kirill: Extra",
      "rating": 7.2,
      "classificacao_etaria": "A16",
      "imagem_original": "https://animefire.plus/img/animes/double-decker-doug-kirill-extra.webp",
      "imagem_pasta": "https://animefire.plus/img/animes/double-decker-doug-kirill-extra/",
      "secao": "legendados",
      "pagina": 87,
      "total_episodios": 0,
      "link_video": "https://animefire.plus/video/double-decker-doug-kirill-extra"
    },
    {
      "id": 892,
      "nome": "Drifters",
      "link": "https://animefire.plus/animes/drifters-todos-os-episodios",
      "texto_original": "Drifters",
      "rating": 8.02,
      "classificacao_etaria": "A16",
      "imagem_original": "https://animefire.plus/img/animes/drifters.webp",
      "imagem_pasta": "https://animefire.plus/img/animes/drifters/",
      "secao": "legendados",
      "pagina": 136,
      "total_episodios": 3,
      "link_video": "https://animefire.plus/video/drifters"
    },
    {
      "id": 893,
      "nome": "Drifters: Special Edition",
      "link": "https://animefire.plus/animes/drifters-special-edition-todos-os-episodios",
      "texto_original": "Drifters: Special Edition",
      "rating": 7.75,
      "classificacao_etaria": "A16",
      "imagem_original": "https://animefire.plus/img/animes/drifters-special-edition.webp",
      "imagem_pasta": "https://animefire.plus/img/animes/drifters-special-edition/",
      "secao": "legendados",
      "pagina": 87,
      "total_episodios": 2,
      "link_video": "https://animefire.plus/video/drifters-special-edition"
    },
    {
      "id": 896,
      "nome": "Duan Nao",
      "link": "https://animefire.plus/animes/duan-nao-todos-os-episodios",
      "texto_original": "Duan Nao",
      "rating": 6.56,
      "classificacao_etaria": "A16",
      "imagem_original": "https://animefire.plus/img/animes/duan-nao.webp",
      "imagem_pasta": "https://animefire.plus/img/animes/duan-nao/",
      "secao": "legendados",
      "pagina": 163,
      "total_episodios": 14,
      "link_video": "https://animefire.plus/video/duan-nao"
    },
    {
      "id": 905,
      "nome": "Dungeon ni Deai wo Motomeru no wa Machigatteiru Darou ka IV: Fuka Shou - Yakusai-hen",
      "link": "https://animefire.plus/animes/dungeon-ni-deai-wo-motomeru-no-wa-machigatteiru-darou-ka-iv-fuka-shou---yakusai-hen-todos-os-episodios",
      "texto_original": "Dungeon ni Deai wo Motomeru no wa Machigatteiru Darou ka IV: Fuka Shou - Yakusai-hen",
      "rating": 8.25,
      "classificacao_etaria": "A16",
      "imagem_original": "https://animefire.plus/img/animes/dungeon-ni-deai-wo-motomeru-no-wa-machigatteiru-darou-ka-iv-fuka-shou---yakusai-hen.webp",
      "imagem_pasta": "https://animefire.plus/img/animes/dungeon-ni-deai-wo-motomeru-no-wa-machigatteiru-darou-ka-iv-fuka-shou---yakusai-hen/",
      "secao": "legendados",
      "pagina": 26,
      "total_episodios": 11,
      "link_video": "https://animefire.plus/video/dungeon-ni-deai-wo-motomeru-no-wa-machigatteiru-darou-ka-iv-fuka-shou---yakusai-hen"
    },
    {
      "id": 906,
      "nome": "Dungeon ni Deai wo Motomeru no wa Machigatteiru Darou ka IV: Shin Shou - Meikyuu-hen",
      "link": "https://animefire.plus/animes/dungeon-ni-deai-wo-motomeru-no-wa-machigatteiru-darou-ka-iv-shin-shou---meikyuu-hen-todos-os-episodios",
      "texto_original": "Dungeon ni Deai wo Motomeru no wa Machigatteiru Darou ka IV: Shin Shou - Meikyuu-hen",
      "rating": 7.75,
      "classificacao_etaria": "A16",
      "imagem_original": "https://animefire.plus/img/animes/dungeon-ni-deai-wo-motomeru-no-wa-machigatteiru-darou-ka-iv-shin-shou---meikyuu-hen.webp",
      "imagem_pasta": "https://animefire.plus/img/animes/dungeon-ni-deai-wo-motomeru-no-wa-machigatteiru-darou-ka-iv-shin-shou---meikyuu-hen/",
      "secao": "legendados",
      "pagina": 30,
      "total_episodios": 11,
      "link_video": "https://animefire.plus/video/dungeon-ni-deai-wo-motomeru-no-wa-machigatteiru-darou-ka-iv-shin-shou---meikyuu-hen"
    },
    {
      "id": 909,
      "nome": "Durarara!!",
      "link": "https://animefire.plus/animes/durarara-todos-os-episodios",
      "texto_original": "Durarara!!",
      "rating": 8.22,
      "classificacao_etaria": "A16",
      "imagem_original": "https://animefire.plus/img/animes/durarara.webp",
      "imagem_pasta": "https://animefire.plus/img/animes/durarara/",
      "secao": "legendados",
      "pagina": 61,
      "total_episodios": 26,
      "link_video": "https://animefire.plus/video/durarara"
    },
    {
      "id": 910,
      "nome": "Durarara!!x2 Ketsu",
      "link": "https://animefire.plus/animes/durarara-x2-ketsu-todos-os-episodios",
      "texto_original": "Durarara!!x2 Ketsu",
      "rating": 8.16,
      "classificacao_etaria": "A16",
      "imagem_original": "https://animefire.plus/img/animes/durarara-x2-ketsu.webp",
      "imagem_pasta": "https://animefire.plus/img/animes/durarara-x2-ketsu/",
      "secao": "legendados",
      "pagina": 128,
      "total_episodios": 12,
      "link_video": "https://animefire.plus/video/durarara-x2-ketsu"
    },
    {
      "id": 911,
      "nome": "Durarara!!x2 Shou",
      "link": "https://animefire.plus/animes/durarara-x2-shou-todos-os-episodios",
      "texto_original": "Durarara!!x2 Shou",
      "rating": 8.06,
      "classificacao_etaria": "A16",
      "imagem_original": "https://animefire.plus/img/animes/durarara-x2-shou.webp",
      "imagem_pasta": "https://animefire.plus/img/animes/durarara-x2-shou/",
      "secao": "legendados",
      "pagina": 61,
      "total_episodios": 12,
      "link_video": "https://animefire.plus/video/durarara-x2-shou"
    },
    {
      "id": 912,
      "nome": "Durarara!!x2 Ten",
      "link": "https://animefire.plus/animes/durarara-x2-ten-todos-os-episodios",
      "texto_original": "Durarara!!x2 Ten",
      "rating": 8.07,
      "classificacao_etaria": "A16",
      "imagem_original": "https://animefire.plus/img/animes/durarara-x2-ten.webp",
      "imagem_pasta": "https://animefire.plus/img/animes/durarara-x2-ten/",
      "secao": "legendados",
      "pagina": 103,
      "total_episodios": 12,
      "link_video": "https://animefire.plus/video/durarara-x2-ten"
    },
    {
      "id": 914,
      "nome": "Early Reins",
      "link": "https://animefire.plus/animes/early-reins-todos-os-episodios",
      "texto_original": "Early Reins",
      "rating": 5.93,
      "classificacao_etaria": "A16",
      "imagem_original": "https://animefire.plus/img/animes/early-reins.webp",
      "imagem_pasta": "https://animefire.plus/img/animes/early-reins/",
      "secao": "legendados",
      "pagina": 66,
      "total_episodios": 1,
      "link_video": "https://animefire.plus/video/early-reins"
    },
    {
      "id": 915,
      "nome": "Eat-Man",
      "link": "https://animefire.plus/animes/eat-man-todos-os-episodios",
      "texto_original": "Eat-Man",
      "rating": 6.57,
      "classificacao_etaria": "A16",
      "imagem_original": "https://animefire.plus/img/animes/eat-man.webp",
      "imagem_pasta": "https://animefire.plus/img/animes/eat-man/",
      "secao": "legendados",
      "pagina": 105,
      "total_episodios": 12,
      "link_video": "https://animefire.plus/video/eat-man"
    },
    {
      "id": 925,
      "nome": "Eightman After (Dublado)",
      "link": "https://animefire.plus/animes/eightman-after-dublado-todos-os-episodios",
      "texto_original": "Eightman After (Dublado)",
      "rating": 6.3,
      "classificacao_etaria": "A16",
      "imagem_original": "https://animefire.plus/img/animes/eightman-after.webp",
      "imagem_pasta": "https://animefire.plus/img/animes/eightman-after/",
      "secao": "dublados",
      "pagina": 27,
      "total_episodios": 4,
      "link_video": "https://animefire.plus/video/eightman-after-dublado"
    },
    {
      "id": 952,
      "nome": "Ergo Proxy",
      "link": "https://animefire.plus/animes/ergo-proxy-todos-os-episodios",
      "texto_original": "Ergo Proxy",
      "rating": 7.97,
      "classificacao_etaria": "A16",
      "imagem_original": "https://animefire.plus/img/animes/ergo-proxy.webp",
      "imagem_pasta": "https://animefire.plus/img/animes/ergo-proxy/",
      "secao": "legendados",
      "pagina": 172,
      "total_episodios": 23,
      "link_video": "https://animefire.plus/video/ergo-proxy"
    },
    {
      "id": 962,
      "nome": "Evil or Live",
      "link": "https://animefire.plus/animes/evil-or-live-todos-os-episodios",
      "texto_original": "Evil or Live",
      "rating": 5.97,
      "classificacao_etaria": "A16",
      "imagem_original": "https://animefire.plus/img/animes/evil-or-live.webp",
      "imagem_pasta": "https://animefire.plus/img/animes/evil-or-live/",
      "secao": "legendados",
      "pagina": 107,
      "total_episodios": 12,
      "link_video": "https://animefire.plus/video/evil-or-live"
    },
    {
      "id": 981,
      "nome": "Fatal Fury 2: The New Battle (Dublado)",
      "link": "https://animefire.plus/animes/fatal-fury-2-the-new-battle-dublado-todos-os-episodios",
      "texto_original": "Fatal Fury 2: The New Battle (Dublado)",
      "rating": 6.76,
      "classificacao_etaria": "A16",
      "imagem_original": "https://animefire.plus/img/animes/fatal-fury-2-the-new-battle.webp",
      "imagem_pasta": "https://animefire.plus/img/animes/fatal-fury-2-the-new-battle/",
      "secao": "dublados",
      "pagina": 21,
      "total_episodios": 1,
      "link_video": "https://animefire.plus/video/fatal-fury-2-the-new-battle-dublado"
    },
    {
      "id": 983,
      "nome": "Fate/Apocrypha (Dublado)",
      "link": "https://animefire.plus/animes/fate-apocrypha-dublado-todos-os-episodios",
      "texto_original": "Fate/Apocrypha (Dublado)",
      "rating": 7.16,
      "classificacao_etaria": "A16",
      "imagem_original": "https://animefire.plus/img/animes/fate-apocrypha.webp",
      "imagem_pasta": "https://animefire.plus/img/animes/fate-apocrypha/",
      "secao": "dublados,legendados",
      "pagina": 17,
      "total_episodios": 25,
      "link_video": "https://animefire.plus/video/fate-apocrypha-dublado"
    },
    {
      "id": 984,
      "nome": "Fate/Extra: Last Encore - Illustrias Tendousetsu",
      "link": "https://animefire.plus/animes/fate-extra-last-encore---illustrias-tendousetsu-todos-os-episodios",
      "texto_original": "Fate/Extra: Last Encore - Illustrias Tendousetsu",
      "rating": 6.65,
      "classificacao_etaria": "A16",
      "imagem_original": "https://animefire.plus/img/animes/fate-extra-last-encore---illustrias-tendousetsu.webp",
      "imagem_pasta": "https://animefire.plus/img/animes/fate-extra-last-encore---illustrias-tendousetsu/",
      "secao": "legendados",
      "pagina": 89,
      "total_episodios": 3,
      "link_video": "https://animefire.plus/video/fate-extra-last-encore---illustrias-tendousetsu"
    },
    {
      "id": 985,
      "nome": "Fate/Extra: Last Encore (Dublado)",
      "link": "https://animefire.plus/animes/fate-extra-last-encore-dublado-todos-os-episodios",
      "texto_original": "Fate/Extra: Last Encore (Dublado)",
      "rating": 6.38,
      "classificacao_etaria": "A16",
      "imagem_original": "https://animefire.plus/img/animes/fate-extra-last-encore.webp",
      "imagem_pasta": "https://animefire.plus/img/animes/fate-extra-last-encore/",
      "secao": "dublados,legendados",
      "pagina": 24,
      "total_episodios": 10,
      "link_video": "https://animefire.plus/video/fate-extra-last-encore-dublado"
    }
  ],
  "pagination": {
    "current_page": 9,
    "per_page": 20,
    "total_items": 708,
    "total_pages": 36,
    "has_next": true,
    "has_prev": true
  }
}
