{
  "message": "Animes com classificação etária: A16",
  "age_rating": "A16",
  "data": [
    {
      "id": 419,
      "nome": "Blade of the Immortal",
      "link": "https://animefire.plus/animes/blade-of-the-immortal-todos-os-episodios",
      "texto_original": "Blade of the Immortal",
      "rating": 6.87,
      "classificacao_etaria": "A16",
      "imagem_original": "https://animefire.plus/img/animes/blade-of-the-immortal.webp",
      "imagem_pasta": "https://animefire.plus/img/animes/blade-of-the-immortal/",
      "secao": "legendados",
      "pagina": 121,
      "total_episodios": 13,
      "link_video": "https://animefire.plus/video/blade-of-the-immortal"
    },
    {
      "id": 420,
      "nome": "Blade Runner: Black Lotus",
      "link": "https://animefire.plus/animes/blade-runner-black-lotus-todos-os-episodios",
      "texto_original": "Blade Runner: Black Lotus",
      "rating": 6.28,
      "classificacao_etaria": "A16",
      "imagem_original": "https://animefire.plus/img/animes/blade-runner-black-lotus.webp",
      "imagem_pasta": "https://animefire.plus/img/animes/blade-runner-black-lotus/",
      "secao": "legendados",
      "pagina": 37,
      "total_episodios": 13,
      "link_video": "https://animefire.plus/video/blade-runner-black-lotus"
    },
    {
      "id": 421,
      "nome": "Blassreiter",
      "link": "https://animefire.plus/animes/blassreiter-todos-os-episodios",
      "texto_original": "Blassreiter",
      "rating": 7,
      "classificacao_etaria": "A16",
      "imagem_original": "https://animefire.plus/img/animes/blassreiter.webp",
      "imagem_pasta": "https://animefire.plus/img/animes/blassreiter/",
      "secao": "legendados",
      "pagina": 114,
      "total_episodios": 24,
      "link_video": "https://animefire.plus/video/blassreiter"
    },
    {
      "id": 422,
      "nome": "BlazBlue: Alter Memory",
      "link": "https://animefire.plus/animes/blazblue-alter-memory-todos-os-episodios",
      "texto_original": "BlazBlue: Alter Memory",
      "rating": 6.21,
      "classificacao_etaria": "A16",
      "imagem_original": "https://animefire.plus/img/animes/blazblue-alter-memory.webp",
      "imagem_pasta": "https://animefire.plus/img/animes/blazblue-alter-memory/",
      "secao": "legendados",
      "pagina": 122,
      "total_episodios": 4,
      "link_video": "https://animefire.plus/video/blazblue-alter-memory"
    },
    {
      "id": 425,
      "nome": "Bleach: Sennen Kessen-hen - Ketsubetsu-tan",
      "link": "https://animefire.plus/animes/bleach-sennen-kessen-hen-ketsubetsu-tan-todos-os-episodios",
      "texto_original": "Bleach: Sennen Kessen-hen - Ketsubetsu-tan",
      "rating": 8.7,
      "classificacao_etaria": "A16",
      "imagem_original": "https://animefire.plus/img/animes/bleach-sennen-kessen-hen-ketsubetsu-tan.jpg",
      "imagem_pasta": "https://animefire.plus/img/animes/bleach-sennen-kessen-hen-ketsubetsu-tan/",
      "secao": "legendados",
      "pagina": 23,
      "total_episodios": 7,
      "link_video": "https://animefire.plus/video/bleach-sennen-kessen-hen-ketsubetsu-tan"
    },
    {
      "id": 426,
      "nome": "Bleach: Sennen Kessen-hen - Ketsubetsu-tan (Dublado)",
      "link": "https://animefire.plus/animes/bleach-sennen-kessen-hen---ketsubetsu-tan-dublado-todos-os-episodios",
      "texto_original": "Bleach: Sennen Kessen-hen - Ketsubetsu-tan (Dublado)",
      "rating": 8.7,
      "classificacao_etaria": "A16",
      "imagem_original": "https://animefire.plus/img/animes/bleach-sennen-kessen-hen---ketsubetsu-tan.webp",
      "imagem_pasta": "https://animefire.plus/img/animes/bleach-sennen-kessen-hen---ketsubetsu-tan/",
      "secao": "dublados",
      "pagina": 6,
      "total_episodios": 13,
      "link_video": "https://animefire.plus/video/bleach-sennen-kessen-hen---ketsubetsu-tan-dublado"
    },
    {
      "id": 427,
      "nome": "Bleach: Sennen Kessen-hen - Soukoku-tan (Dublado)",
      "link": "https://animefire.plus/animes/bleach-sennen-kessen-hen---soukoku-tan-dublado-todos-os-episodios",
      "texto_original": "Bleach: Sennen Kessen-hen - Soukoku-tan (Dublado)",
      "rating": 8.67,
      "classificacao_etaria": "A16",
      "imagem_original": "https://animefire.plus/img/animes/bleach-sennen-kessen-hen---soukoku-tan.webp",
      "imagem_pasta": "https://animefire.plus/img/animes/bleach-sennen-kessen-hen---soukoku-tan/",
      "secao": "dublados,legendados",
      "pagina": 2,
      "total_episodios": 14,
      "link_video": "https://animefire.plus/video/bleach-sennen-kessen-hen---soukoku-tan-dublado"
    },
    {
      "id": 428,
      "nome": "Bleach: Sennen Kessen-hen (Dublado)",
      "link": "https://animefire.plus/animes/bleach-sennen-kessen-hen-dublado-todos-os-episodios",
      "texto_original": "Bleach: Sennen Kessen-hen (Dublado)",
      "rating": 8.99,
      "classificacao_etaria": "A16",
      "imagem_original": "https://animefire.plus/img/animes/bleach-sennen-kessen-hen.webp",
      "imagem_pasta": "https://animefire.plus/img/animes/bleach-sennen-kessen-hen/",
      "secao": "dublados,legendados",
      "pagina": 9,
      "total_episodios": 13,
      "link_video": "https://animefire.plus/video/bleach-sennen-kessen-hen-dublado"
    },
    {
      "id": 431,
      "nome": "Blood-C",
      "link": "https://animefire.plus/animes/blood-c-todos-os-episodios",
      "texto_original": "Blood-C",
      "rating": 6.67,
      "classificacao_etaria": "A16",
      "imagem_original": "https://animefire.plus/img/animes/blood-c.webp",
      "imagem_pasta": "https://animefire.plus/img/animes/blood-c/",
      "secao": "legendados",
      "pagina": 158,
      "total_episodios": 12,
      "link_video": "https://animefire.plus/video/blood-c"
    },
    {
      "id": 432,
      "nome": "Blood+ (Dublado)",
      "link": "https://animefire.plus/animes/blood-dublado-todos-os-episodios",
      "texto_original": "Blood+ (Dublado)",
      "rating": 7.69,
      "classificacao_etaria": "A16",
      "imagem_original": "https://animefire.plus/img/animes/blood.webp",
      "imagem_pasta": "https://animefire.plus/img/animes/blood/",
      "secao": "dublados,legendados",
      "pagina": 22,
      "total_episodios": 50,
      "link_video": "https://animefire.plus/video/blood-dublado"
    },
    {
      "id": 433,
      "nome": "Bloodivores",
      "link": "https://animefire.plus/animes/bloodivores-todos-os-episodios",
      "texto_original": "Bloodivores",
      "rating": 5.64,
      "classificacao_etaria": "A16",
      "imagem_original": "https://animefire.plus/img/animes/bloodivores.webp",
      "imagem_pasta": "https://animefire.plus/img/animes/bloodivores/",
      "secao": "legendados",
      "pagina": 130,
      "total_episodios": 12,
      "link_video": "https://animefire.plus/video/bloodivores"
    },
    {
      "id": 444,
      "nome": "Blue Seed 2",
      "link": "https://animefire.plus/animes/blue-seed-2-todos-os-episodios",
      "texto_original": "Blue Seed 2",
      "rating": 6.45,
      "classificacao_etaria": "A16",
      "imagem_original": "https://animefire.plus/img/animes/blue-seed-2.webp",
      "imagem_pasta": "https://animefire.plus/img/animes/blue-seed-2/",
      "secao": "legendados",
      "pagina": 54,
      "total_episodios": 1,
      "link_video": "https://animefire.plus/video/blue-seed-2"
    },
    {
      "id": 447,
      "nome": "Boku dake ga Inai Machi",
      "link": "https://animefire.plus/animes/boku-dake-ga-inai-machi-todos-os-episodios",
      "texto_original": "Boku dake ga Inai Machi",
      "rating": 8.53,
      "classificacao_etaria": "A16",
      "imagem_original": "https://animefire.plus/img/animes/boku-dake-ga-inai-machi.webp",
      "imagem_pasta": "https://animefire.plus/img/animes/boku-dake-ga-inai-machi/",
      "secao": "legendados",
      "pagina": 118,
      "total_episodios": 0,
      "link_video": "https://animefire.plus/video/boku-dake-ga-inai-machi"
    },
    {
      "id": 474,
      "nome": "Bokurano",
      "link": "https://animefire.plus/animes/bokurano-todos-os-episodios",
      "texto_original": "Bokurano",
      "rating": 7.72,
      "classificacao_etaria": "A16",
      "imagem_original": "https://animefire.plus/img/animes/bokurano.webp",
      "imagem_pasta": "https://animefire.plus/img/animes/bokurano/",
      "secao": "legendados",
      "pagina": 142,
      "total_episodios": 24,
      "link_video": "https://animefire.plus/video/bokurano"
    },
    {
      "id": 475,
      "nome": "Bokusatsu Tenshi Dokuro-chan",
      "link": "https://animefire.plus/animes/bokusatsu-tenshi-dokuro-chan-todos-os-episodios",
      "texto_original": "Bokusatsu Tenshi Dokuro-chan",
      "rating": 6.71,
      "classificacao_etaria": "A16",
      "imagem_original": "https://animefire.plus/img/animes/bokusatsu-tenshi-dokuro-chan.webp",
      "imagem_pasta": "https://animefire.plus/img/animes/bokusatsu-tenshi-dokuro-chan/",
      "secao": "legendados",
      "pagina": 160,
      "total_episodios": 4,
      "link_video": "https://animefire.plus/video/bokusatsu-tenshi-dokuro-chan"
    },
    {
      "id": 476,
      "nome": "Bokusatsu Tenshi Dokuro-chan 2",
      "link": "https://animefire.plus/animes/bokusatsu-tenshi-dokuro-chan-2-todos-os-episodios",
      "texto_original": "Bokusatsu Tenshi Dokuro-chan 2",
      "rating": 6.8,
      "classificacao_etaria": "A16",
      "imagem_original": "https://animefire.plus/img/animes/bokusatsu-tenshi-dokuro-chan-2.webp",
      "imagem_pasta": "https://animefire.plus/img/animes/bokusatsu-tenshi-dokuro-chan-2/",
      "secao": "legendados",
      "pagina": 104,
      "total_episodios": 2,
      "link_video": "https://animefire.plus/video/bokusatsu-tenshi-dokuro-chan-2"
    },
    {
      "id": 482,
      "nome": "Boogiepop wa Warawanai (2019)",
      "link": "https://animefire.plus/animes/boogiepop-wa-warawanai-2019-todos-os-episodios",
      "texto_original": "Boogiepop wa Warawanai (2019)",
      "rating": 7.1,
      "classificacao_etaria": "A16",
      "imagem_original": "https://animefire.plus/img/animes/boogiepop-wa-warawanai-2019.webp",
      "imagem_pasta": "https://animefire.plus/img/animes/boogiepop-wa-warawanai-2019/",
      "secao": "legendados",
      "pagina": 96,
      "total_episodios": 18,
      "link_video": "https://animefire.plus/video/boogiepop-wa-warawanai-2019"
    },
    {
      "id": 494,
      "nome": "Brave 10 (Dublado)",
      "link": "https://animefire.plus/animes/brave-10-dublado-todos-os-episodios",
      "texto_original": "Brave 10 (Dublado)",
      "rating": 6.74,
      "classificacao_etaria": "A16",
      "imagem_original": "https://animefire.plus/img/animes/brave-10.webp",
      "imagem_pasta": "https://animefire.plus/img/animes/brave-10/",
      "secao": "dublados,legendados",
      "pagina": 3,
      "total_episodios": 12,
      "link_video": "https://animefire.plus/video/brave-10-dublado"
    },
    {
      "id": 498,
      "nome": "Break Blade",
      "link": "https://animefire.plus/animes/break-blade-todos-os-episodios",
      "texto_original": "Break Blade",
      "rating": 7.35,
      "classificacao_etaria": "A16",
      "imagem_original": "https://animefire.plus/img/animes/break-blade.webp",
      "imagem_pasta": "https://animefire.plus/img/animes/break-blade/",
      "secao": "legendados",
      "pagina": 123,
      "total_episodios": 11,
      "link_video": "https://animefire.plus/video/break-blade"
    },
    {
      "id": 500,
      "nome": "Bright: Samurai Soul (Dublado)",
      "link": "https://animefire.plus/animes/bright-samurai-soul-dublado-todos-os-episodios",
      "texto_original": "Bright: Samurai Soul (Dublado)",
      "rating": 5.39,
      "classificacao_etaria": "A16",
      "imagem_original": "https://animefire.plus/img/animes/bright-samurai-soul.webp",
      "imagem_pasta": "https://animefire.plus/img/animes/bright-samurai-soul/",
      "secao": "dublados,legendados",
      "pagina": 15,
      "total_episodios": 1,
      "link_video": "https://animefire.plus/video/bright-samurai-soul-dublado"
    }
  ],
  "pagination": {
    "current_page": 4,
    "per_page": 20,
    "total_items": 708,
    "total_pages": 36,
    "has_next": true,
    "has_prev": true
  }
}
