{
  "message": "Animes com classificação etária: A16",
  "age_rating": "A16",
  "data": [
    {
      "id": 1467,
      "nome": "Higurashi no Naku Koro ni Gou (Dublado)",
      "link": "https://animefire.plus/animes/higurashi-no-naku-koro-ni-gou-dublado-todos-os-episodios",
      "texto_original": "Higurashi no Naku Koro ni Gou (Dublado)",
      "rating": 7.22,
      "classificacao_etaria": "A16",
      "imagem_original": "https://animefire.plus/img/animes/higurashi-no-naku-koro-ni-gou.webp",
      "imagem_pasta": "https://animefire.plus/img/animes/higurashi-no-naku-koro-ni-gou/",
      "secao": "dublados",
      "pagina": 14,
      "total_episodios": 24,
      "link_video": "https://animefire.plus/video/higurashi-no-naku-koro-ni-gou-dublado"
    },
    {
      "id": 1468,
      "nome": "Higurashi no Naku Koro ni Kai",
      "link": "https://animefire.plus/animes/higurashi-no-naku-koro-ni-kai-todos-os-episodios",
      "texto_original": "Higurashi no Naku Koro ni Kai",
      "rating": 8.31,
      "classificacao_etaria": "A16",
      "imagem_original": "https://animefire.plus/img/animes/higurashi-no-naku-koro-ni-kai.webp",
      "imagem_pasta": "https://animefire.plus/img/animes/higurashi-no-naku-koro-ni-kai/",
      "secao": "legendados",
      "pagina": 126,
      "total_episodios": 24,
      "link_video": "https://animefire.plus/video/higurashi-no-naku-koro-ni-kai"
    },
    {
      "id": 1469,
      "nome": "Higurashi no Naku Koro ni Kaku: Outbreak",
      "link": "https://animefire.plus/animes/higurashi-no-naku-koro-ni-kaku-outbreak-todos-os-episodios",
      "texto_original": "Higurashi no Naku Koro ni Kaku: Outbreak",
      "rating": 7.28,
      "classificacao_etaria": "A16",
      "imagem_original": "https://animefire.plus/img/animes/higurashi-no-naku-koro-ni-kaku-outbreak.webp",
      "imagem_pasta": "https://animefire.plus/img/animes/higurashi-no-naku-koro-ni-kaku-outbreak/",
      "secao": "legendados",
      "pagina": 62,
      "total_episodios": 1,
      "link_video": "https://animefire.plus/video/higurashi-no-naku-koro-ni-kaku-outbreak"
    },
    {
      "id": 1470,
      "nome": "Higurashi no Naku Koro ni Kira",
      "link": "https://animefire.plus/animes/higurashi-no-naku-koro-ni-kira-todos-os-episodios",
      "texto_original": "Higurashi no Naku Koro ni Kira",
      "rating": 6.55,
      "classificacao_etaria": "A16",
      "imagem_original": "https://animefire.plus/img/animes/higurashi-no-naku-koro-ni-kira.webp",
      "imagem_pasta": "https://animefire.plus/img/animes/higurashi-no-naku-koro-ni-kira/",
      "secao": "legendados",
      "pagina": 62,
      "total_episodios": 1,
      "link_video": "https://animefire.plus/video/higurashi-no-naku-koro-ni-kira"
    },
    {
      "id": 1472,
      "nome": "Higurashi no Naku Koro ni Sotsu",
      "link": "https://animefire.plus/animes/higurashi-no-naku-koro-ni-sotsu-todos-os-episodios",
      "texto_original": "Higurashi no Naku Koro ni Sotsu",
      "rating": 6.73,
      "classificacao_etaria": "A16",
      "imagem_original": "https://animefire.plus/img/animes/higurashi-no-naku-koro-ni-sotsu.webp",
      "imagem_pasta": "https://animefire.plus/img/animes/higurashi-no-naku-koro-ni-sotsu/",
      "secao": "legendados",
      "pagina": 41,
      "total_episodios": 15,
      "link_video": "https://animefire.plus/video/higurashi-no-naku-koro-ni-sotsu"
    },
    {
      "id": 1479,
      "nome": "Hikaru ga Shinda Natsu",
      "link": "https://animefire.plus/animes/hikaru-ga-shinda-natsu-todos-os-episodios",
      "texto_original": "Hikaru ga Shinda Natsu",
      "rating": 8.18,
      "classificacao_etaria": "A16",
      "imagem_original": "https://animefire.plus/img/animes/hikaru-ga-shinda-natsu.webp",
      "imagem_pasta": "https://animefire.plus/img/animes/hikaru-ga-shinda-natsu/",
      "secao": "legendados,lancamentos",
      "pagina": 3,
      "total_episodios": 5,
      "link_video": "https://animefire.plus/video/hikaru-ga-shinda-natsu"
    },
    {
      "id": 1501,
      "nome": "Hitori no Shita: The Outcast",
      "link": "https://animefire.plus/animes/hitori-no-shita-the-outcast-todos-os-episodios",
      "texto_original": "Hitori no Shita: The Outcast",
      "rating": 6.8,
      "classificacao_etaria": "A16",
      "imagem_original": "https://animefire.plus/img/animes/hitori-no-shita-the-outcast.webp",
      "imagem_pasta": "https://animefire.plus/img/animes/hitori-no-shita-the-outcast/",
      "secao": "legendados",
      "pagina": 166,
      "total_episodios": 5,
      "link_video": "https://animefire.plus/video/hitori-no-shita-the-outcast"
    },
    {
      "id": 1502,
      "nome": "Hitori no Shita: The Outcast 2nd Season",
      "link": "https://animefire.plus/animes/hitori-no-shita-the-outcast-2nd-season-todos-os-episodios",
      "texto_original": "Hitori no Shita: The Outcast 2nd Season",
      "rating": 7.44,
      "classificacao_etaria": "A16",
      "imagem_original": "https://animefire.plus/img/animes/hitori-no-shita-the-outcast-2nd-season.webp",
      "imagem_pasta": "https://animefire.plus/img/animes/hitori-no-shita-the-outcast-2nd-season/",
      "secao": "legendados",
      "pagina": 119,
      "total_episodios": 22,
      "link_video": "https://animefire.plus/video/hitori-no-shita-the-outcast-2nd-season"
    },
    {
      "id": 1503,
      "nome": "Hitori no Shita: The Outcast 3rd Season",
      "link": "https://animefire.plus/animes/hitori-no-shita-the-outcast-3rd-season-todos-os-episodios",
      "texto_original": "Hitori no Shita: The Outcast 3rd Season",
      "rating": 6.81,
      "classificacao_etaria": "A16",
      "imagem_original": "https://animefire.plus/img/animes/hitori-no-shita-the-outcast-3rd-season.webp",
      "imagem_pasta": "https://animefire.plus/img/animes/hitori-no-shita-the-outcast-3rd-season/",
      "secao": "legendados",
      "pagina": 75,
      "total_episodios": 8,
      "link_video": "https://animefire.plus/video/hitori-no-shita-the-outcast-3rd-season"
    },
    {
      "id": 1504,
      "nome": "Hitori no Shita: The Outcast 4th Season",
      "link": "https://animefire.plus/animes/hitori-no-shita-the-outcast-4th-season-todos-os-episodios",
      "texto_original": "Hitori no Shita: The Outcast 4th Season",
      "rating": 6.95,
      "classificacao_etaria": "A16",
      "imagem_original": "https://animefire.plus/img/animes/hitori-no-shita-the-outcast-4th-season.webp",
      "imagem_pasta": "https://animefire.plus/img/animes/hitori-no-shita-the-outcast-4th-season/",
      "secao": "legendados",
      "pagina": 33,
      "total_episodios": 1,
      "link_video": "https://animefire.plus/video/hitori-no-shita-the-outcast-4th-season"
    },
    {
      "id": 1505,
      "nome": "Hitori no Shita: The Outcast Recap",
      "link": "https://animefire.plus/animes/hitori-no-shita-the-outcast-recap-todos-os-episodios",
      "texto_original": "Hitori no Shita: The Outcast Recap",
      "rating": 6.3,
      "classificacao_etaria": "A16",
      "imagem_original": "https://animefire.plus/img/animes/hitori-no-shita-the-outcast-recap.webp",
      "imagem_pasta": "https://animefire.plus/img/animes/hitori-no-shita-the-outcast-recap/",
      "secao": "legendados",
      "pagina": 85,
      "total_episodios": 1,
      "link_video": "https://animefire.plus/video/hitori-no-shita-the-outcast-recap"
    },
    {
      "id": 1510,
      "nome": "Hitsugi no Chaika",
      "link": "https://animefire.plus/animes/hitsugi-no-chaika-todos-os-episodios",
      "texto_original": "Hitsugi no Chaika",
      "rating": 7.37,
      "classificacao_etaria": "A16",
      "imagem_original": "https://animefire.plus/img/animes/hitsugi-no-chaika.webp",
      "imagem_pasta": "https://animefire.plus/img/animes/hitsugi-no-chaika/",
      "secao": "legendados",
      "pagina": 163,
      "total_episodios": 12,
      "link_video": "https://animefire.plus/video/hitsugi-no-chaika"
    },
    {
      "id": 1511,
      "nome": "Hitsugi no Chaika: Avenging Battle",
      "link": "https://animefire.plus/animes/hitsugi-no-chaika-avenging-battle-todos-os-episodios",
      "texto_original": "Hitsugi no Chaika: Avenging Battle",
      "rating": 7.28,
      "classificacao_etaria": "A16",
      "imagem_original": "https://animefire.plus/img/animes/hitsugi-no-chaika-avenging-battle.webp",
      "imagem_pasta": "https://animefire.plus/img/animes/hitsugi-no-chaika-avenging-battle/",
      "secao": "legendados",
      "pagina": 160,
      "total_episodios": 2,
      "link_video": "https://animefire.plus/video/hitsugi-no-chaika-avenging-battle"
    },
    {
      "id": 1514,
      "nome": "Hokuto no Ken 2",
      "link": "https://animefire.plus/animes/hokuto-no-ken-2-todos-os-episodios",
      "texto_original": "Hokuto no Ken 2",
      "rating": 7.58,
      "classificacao_etaria": "A16",
      "imagem_original": "https://animefire.plus/img/animes/hokuto-no-ken-2.webp",
      "imagem_pasta": "https://animefire.plus/img/animes/hokuto-no-ken-2/",
      "secao": "legendados",
      "pagina": 77,
      "total_episodios": 43,
      "link_video": "https://animefire.plus/video/hokuto-no-ken-2"
    },
    {
      "id": 1557,
      "nome": "Huyao Xiao Hongniang: Wangquan Fugui",
      "link": "https://animefire.plus/animes/huyao-xiao-hongniang-wangquan-fugui-todos-os-episodios",
      "texto_original": "Huyao Xiao Hongniang: Wangquan Fugui",
      "rating": 7.63,
      "classificacao_etaria": "A16",
      "imagem_original": "https://animefire.plus/img/animes/huyao-xiao-hongniang-wangquan-fugui.webp",
      "imagem_pasta": "https://animefire.plus/img/animes/huyao-xiao-hongniang-wangquan-fugui/",
      "secao": "legendados",
      "pagina": 85,
      "total_episodios": 14,
      "link_video": "https://animefire.plus/video/huyao-xiao-hongniang-wangquan-fugui"
    },
    {
      "id": 1558,
      "nome": "Huyao Xiao Hongniang: Yue Hong",
      "link": "https://animefire.plus/animes/huyao-xiao-hongniang-yue-hong-todos-os-episodios",
      "texto_original": "Huyao Xiao Hongniang: Yue Hong",
      "rating": 7.78,
      "classificacao_etaria": "A16",
      "imagem_original": "https://animefire.plus/img/animes/huyao-xiao-hongniang-yue-hong.webp",
      "imagem_pasta": "https://animefire.plus/img/animes/huyao-xiao-hongniang-yue-hong/",
      "secao": "legendados",
      "pagina": 172,
      "total_episodios": 13,
      "link_video": "https://animefire.plus/video/huyao-xiao-hongniang-yue-hong"
    },
    {
      "id": 1570,
      "nome": "Hypnosis Mic: Division Rap Battle - Rhyme Anima",
      "link": "https://animefire.plus/animes/hypnosis-mic-division-rap-battle---rhyme-anima-todos-os-episodios",
      "texto_original": "Hypnosis Mic: Division Rap Battle - Rhyme Anima",
      "rating": null,
      "classificacao_etaria": "A16",
      "imagem_original": "https://animefire.plus/img/animes/hypnosis-mic-division-rap-battle---rhyme-anima.webp",
      "imagem_pasta": "https://animefire.plus/img/animes/hypnosis-mic-division-rap-battle---rhyme-anima/",
      "secao": "legendados",
      "pagina": 52,
      "total_episodios": 13,
      "link_video": "https://animefire.plus/video/hypnosis-mic-division-rap-battle---rhyme-anima"
    },
    {
      "id": 1571,
      "nome": "Hypnosis Mic: Division Rap Battle - Rhyme Anima +",
      "link": "https://animefire.plus/animes/hypmic-2nd-season-todos-os-episodios",
      "texto_original": "Hypnosis Mic: Division Rap Battle - Rhyme Anima +",
      "rating": 6.86,
      "classificacao_etaria": "A16",
      "imagem_original": "https://animefire.plus/img/animes/hypmic-2nd-season.webp",
      "imagem_pasta": "https://animefire.plus/img/animes/hypmic-2nd-season/",
      "secao": "legendados,lancamentos",
      "pagina": 19,
      "total_episodios": 1,
      "link_video": "https://animefire.plus/video/hypmic-2nd-season"
    },
    {
      "id": 1573,
      "nome": "I: Wish You Were Here",
      "link": "https://animefire.plus/animes/i-wish-you-were-here-todos-os-episodios",
      "texto_original": "I: Wish You Were Here",
      "rating": 6.13,
      "classificacao_etaria": "A16",
      "imagem_original": "https://animefire.plus/img/animes/i-wish-you-were-here.webp",
      "imagem_pasta": "https://animefire.plus/img/animes/i-wish-you-were-here/",
      "secao": "legendados",
      "pagina": 113,
      "total_episodios": 4,
      "link_video": "https://animefire.plus/video/i-wish-you-were-here"
    },
    {
      "id": 1584,
      "nome": "ID:Invaded (Dublado)",
      "link": "https://animefire.plus/animes/id-invaded-dublado-todos-os-episodios",
      "texto_original": "ID:Invaded (Dublado)",
      "rating": 7.87,
      "classificacao_etaria": "A16",
      "imagem_original": "https://animefire.plus/img/animes/id-invaded.webp",
      "imagem_pasta": "https://animefire.plus/img/animes/id-invaded/",
      "secao": "dublados,legendados",
      "pagina": 15,
      "total_episodios": 13,
      "link_video": "https://animefire.plus/video/id-invaded-dublado"
    }
  ],
  "pagination": {
    "current_page": 15,
    "per_page": 20,
    "total_items": 708,
    "total_pages": 36,
    "has_next": true,
    "has_prev": true
  }
}
