{
  "message": "Animes com classificação etária: A16",
  "age_rating": "A16",
  "data": [
    {
      "id": 4021,
      "nome": "UN-GO",
      "link": "https://animefire.plus/animes/un-go-todos-os-episodios",
      "texto_original": "UN-GO",
      "rating": 7.46,
      "classificacao_etaria": "A16",
      "imagem_original": "https://animefire.plus/img/animes/un-go.webp",
      "imagem_pasta": "https://animefire.plus/img/animes/un-go/",
      "secao": "legendados",
      "pagina": 170,
      "total_episodios": 11,
      "link_video": "https://animefire.plus/video/un-go"
    },
    {
      "id": 4022,
      "nome": "Undead Girl Murder Farce",
      "link": "https://animefire.plus/animes/undead-girl-murder-farce-todos-os-episodios",
      "texto_original": "Undead Girl Murder Farce",
      "rating": 7.85,
      "classificacao_etaria": "A16",
      "imagem_original": "https://animefire.plus/img/animes/undead-girl-murder-farce.jpg",
      "imagem_pasta": "https://animefire.plus/img/animes/undead-girl-murder-farce/",
      "secao": "legendados",
      "pagina": 22,
      "total_episodios": 13,
      "link_video": "https://animefire.plus/video/undead-girl-murder-farce"
    },
    {
      "id": 4023,
      "nome": "Undead Unluck (Dublado)",
      "link": "https://animefire.plus/animes/undead-unluck-dublado-todos-os-episodios",
      "texto_original": "Undead Unluck (Dublado)",
      "rating": 7.79,
      "classificacao_etaria": "A16",
      "imagem_original": "https://animefire.plus/img/animes/undead-unluck.webp",
      "imagem_pasta": "https://animefire.plus/img/animes/undead-unluck/",
      "secao": "dublados,legendados",
      "pagina": 4,
      "total_episodios": 24,
      "link_video": "https://animefire.plus/video/undead-unluck-dublado"
    },
    {
      "id": 4024,
      "nome": "Under Ninja",
      "link": "https://animefire.plus/animes/under-ninja-todos-os-episodios",
      "texto_original": "Under Ninja",
      "rating": 6.92,
      "classificacao_etaria": "A16",
      "imagem_original": "https://animefire.plus/img/animes/under-ninja.webp",
      "imagem_pasta": "https://animefire.plus/img/animes/under-ninja/",
      "secao": "legendados",
      "pagina": 20,
      "total_episodios": 12,
      "link_video": "https://animefire.plus/video/under-ninja"
    },
    {
      "id": 4031,
      "nome": "Uragiri wa Boku no Namae wo Shitteiru",
      "link": "https://animefire.plus/animes/uragiri-wa-boku-no-namae-wo-shitteiru-todos-os-episodios",
      "texto_original": "Uragiri wa Boku no Namae wo Shitteiru",
      "rating": 7.37,
      "classificacao_etaria": "A16",
      "imagem_original": "https://animefire.plus/img/animes/uragiri-wa-boku-no-namae-wo-shitteiru.webp",
      "imagem_pasta": "https://animefire.plus/img/animes/uragiri-wa-boku-no-namae-wo-shitteiru/",
      "secao": "legendados",
      "pagina": 164,
      "total_episodios": 24,
      "link_video": "https://animefire.plus/video/uragiri-wa-boku-no-namae-wo-shitteiru"
    },
    {
      "id": 4035,
      "nome": "Urasekai Picnic",
      "link": "https://animefire.plus/animes/urasekai-picnic-todos-os-episodios",
      "texto_original": "Urasekai Picnic",
      "rating": 6.66,
      "classificacao_etaria": "A16",
      "imagem_original": "https://animefire.plus/img/animes/urasekai-picnic.webp",
      "imagem_pasta": "https://animefire.plus/img/animes/urasekai-picnic/",
      "secao": "legendados",
      "pagina": 49,
      "total_episodios": 12,
      "link_video": "https://animefire.plus/video/urasekai-picnic"
    },
    {
      "id": 4051,
      "nome": "Utawarerumono",
      "link": "https://animefire.plus/animes/utawarerumono-todos-os-episodios",
      "texto_original": "Utawarerumono",
      "rating": 7.72,
      "classificacao_etaria": "A16",
      "imagem_original": "https://animefire.plus/img/animes/utawarerumono.webp",
      "imagem_pasta": "https://animefire.plus/img/animes/utawarerumono/",
      "secao": "legendados",
      "pagina": 145,
      "total_episodios": 26,
      "link_video": "https://animefire.plus/video/utawarerumono"
    },
    {
      "id": 4057,
      "nome": "Uzumaki (Dublado)",
      "link": "https://animefire.plus/animes/uzumaki-dublado-todos-os-episodios",
      "texto_original": "Uzumaki (Dublado)",
      "rating": 5.72,
      "classificacao_etaria": "A16",
      "imagem_original": "https://animefire.plus/img/animes/uzumaki.webp",
      "imagem_pasta": "https://animefire.plus/img/animes/uzumaki/",
      "secao": "dublados,legendados",
      "pagina": 2,
      "total_episodios": 4,
      "link_video": "https://animefire.plus/video/uzumaki-dublado"
    },
    {
      "id": 4058,
      "nome": "Val x Love",
      "link": "https://animefire.plus/animes/val-x-love-todos-os-episodios",
      "texto_original": "Val x Love",
      "rating": 5.89,
      "classificacao_etaria": "A16",
      "imagem_original": "https://animefire.plus/img/animes/val-x-love.webp",
      "imagem_pasta": "https://animefire.plus/img/animes/val-x-love/",
      "secao": "legendados",
      "pagina": 110,
      "total_episodios": 0,
      "link_video": "https://animefire.plus/video/val-x-love"
    },
    {
      "id": 4062,
      "nome": "Vampire Hunter",
      "link": "https://animefire.plus/animes/vampire-hunter-todos-os-episodios",
      "texto_original": "Vampire Hunter",
      "rating": 6.74,
      "classificacao_etaria": "A16",
      "imagem_original": "https://animefire.plus/img/animes/vampire-hunter.webp",
      "imagem_pasta": "https://animefire.plus/img/animes/vampire-hunter/",
      "secao": "legendados",
      "pagina": 172,
      "total_episodios": 4,
      "link_video": "https://animefire.plus/video/vampire-hunter"
    },
    {
      "id": 4068,
      "nome": "Vanitas no Carte (Dublado)",
      "link": "https://animefire.plus/animes/vanitas-no-carte-dublado-todos-os-episodios",
      "texto_original": "Vanitas no Carte (Dublado)",
      "rating": 7.9,
      "classificacao_etaria": "A16",
      "imagem_original": "https://animefire.plus/img/animes/vanitas-no-carte.webp",
      "imagem_pasta": "https://animefire.plus/img/animes/vanitas-no-carte/",
      "secao": "dublados,legendados",
      "pagina": 16,
      "total_episodios": 12,
      "link_video": "https://animefire.plus/video/vanitas-no-carte-dublado"
    },
    {
      "id": 4069,
      "nome": "Vanitas no Karte 2nd Season",
      "link": "https://animefire.plus/animes/vanitas-no-karte-2nd-season-todos-os-episodios",
      "texto_original": "Vanitas no Karte 2nd Season",
      "rating": 8.19,
      "classificacao_etaria": "A16",
      "imagem_original": "https://animefire.plus/img/animes/vanitas-no-karte-2nd-season.webp",
      "imagem_pasta": "https://animefire.plus/img/animes/vanitas-no-karte-2nd-season/",
      "secao": "legendados",
      "pagina": 36,
      "total_episodios": 12,
      "link_video": "https://animefire.plus/video/vanitas-no-karte-2nd-season"
    },
    {
      "id": 4070,
      "nome": "Vanitas no Karte Part 2 (Dublado)",
      "link": "https://animefire.plus/animes/vanitas-no-karte-part-2-dublado-todos-os-episodios",
      "texto_original": "Vanitas no Karte Part 2 (Dublado)",
      "rating": 8.19,
      "classificacao_etaria": "A16",
      "imagem_original": "https://animefire.plus/img/animes/vanitas-no-karte-part-2.webp",
      "imagem_pasta": "https://animefire.plus/img/animes/vanitas-no-karte-part-2/",
      "secao": "dublados",
      "pagina": 12,
      "total_episodios": 13,
      "link_video": "https://animefire.plus/video/vanitas-no-karte-part-2-dublado"
    },
    {
      "id": 4073,
      "nome": "Vatican Kiseki Chousakan",
      "link": "https://animefire.plus/animes/vatican-kiseki-chousakan-todos-os-episodios",
      "texto_original": "Vatican Kiseki Chousakan",
      "rating": 6.43,
      "classificacao_etaria": "A16",
      "imagem_original": "https://animefire.plus/img/animes/vatican-kiseki-chousakan.webp",
      "imagem_pasta": "https://animefire.plus/img/animes/vatican-kiseki-chousakan/",
      "secao": "legendados",
      "pagina": 167,
      "total_episodios": 12,
      "link_video": "https://animefire.plus/video/vatican-kiseki-chousakan"
    },
    {
      "id": 4080,
      "nome": "Vinland Saga (Dublado)",
      "link": "https://animefire.plus/animes/vinland-saga-dublado-todos-os-episodios",
      "texto_original": "Vinland Saga (Dublado)",
      "rating": 8.72,
      "classificacao_etaria": "A16",
      "imagem_original": "https://animefire.plus/img/animes/vinland-saga.webp",
      "imagem_pasta": "https://animefire.plus/img/animes/vinland-saga/",
      "secao": "dublados,legendados",
      "pagina": 16,
      "total_episodios": 24,
      "link_video": "https://animefire.plus/video/vinland-saga-dublado"
    },
    {
      "id": 4081,
      "nome": "Vinland Saga Season 2 (Dublado)",
      "link": "https://animefire.plus/animes/vinland-saga-season-2-dublado-todos-os-episodios",
      "texto_original": "Vinland Saga Season 2 (Dublado)",
      "rating": 8.81,
      "classificacao_etaria": "A16",
      "imagem_original": "https://animefire.plus/img/animes/vinland-saga-season-2.webp",
      "imagem_pasta": "https://animefire.plus/img/animes/vinland-saga-season-2/",
      "secao": "dublados,legendados",
      "pagina": 7,
      "total_episodios": 24,
      "link_video": "https://animefire.plus/video/vinland-saga-season-2-dublado"
    },
    {
      "id": 4088,
      "nome": "Vivy: Fluorite Eye's Song (Dublado)",
      "link": "https://animefire.plus/animes/vivy-fluorite-eye-s-song-dublado-todos-os-episodios",
      "texto_original": "Vivy: Fluorite Eye's Song (Dublado)",
      "rating": 8.38,
      "classificacao_etaria": "A16",
      "imagem_original": "https://animefire.plus/img/animes/vivy-fluorite-eye-s-song.webp",
      "imagem_pasta": "https://animefire.plus/img/animes/vivy-fluorite-eye-s-song/",
      "secao": "dublados,legendados",
      "pagina": 15,
      "total_episodios": 13,
      "link_video": "https://animefire.plus/video/vivy-fluorite-eye-s-song-dublado"
    },
    {
      "id": 4138,
      "nome": "Witchblade",
      "link": "https://animefire.plus/animes/witchblade-todos-os-episodios",
      "texto_original": "Witchblade",
      "rating": 7.34,
      "classificacao_etaria": "A16",
      "imagem_original": "https://animefire.plus/img/animes/witchblade.webp",
      "imagem_pasta": "https://animefire.plus/img/animes/witchblade/",
      "secao": "legendados",
      "pagina": 134,
      "total_episodios": 2,
      "link_video": "https://animefire.plus/video/witchblade"
    },
    {
      "id": 4142,
      "nome": "Wo De Tian Jie Nu You",
      "link": "https://animefire.plus/animes/wo-de-tian-jie-nu-you-todos-os-episodios",
      "texto_original": "Wo De Tian Jie Nu You",
      "rating": 6.64,
      "classificacao_etaria": "A16",
      "imagem_original": "https://animefire.plus/img/animes/wo-de-tian-jie-nu-you.webp",
      "imagem_pasta": "https://animefire.plus/img/animes/wo-de-tian-jie-nu-you/",
      "secao": "legendados",
      "pagina": 59,
      "total_episodios": 15,
      "link_video": "https://animefire.plus/video/wo-de-tian-jie-nu-you"
    },
    {
      "id": 4143,
      "nome": "Wo De Tian Jie Nv You",
      "link": "https://animefire.plus/animes/wo-de-tian-jie-nv-you-todos-os-episodios",
      "texto_original": "Wo De Tian Jie Nv You",
      "rating": 6.73,
      "classificacao_etaria": "A16",
      "imagem_original": "https://animefire.plus/img/animes/wo-de-tian-jie-nv-you.webp",
      "imagem_pasta": "https://animefire.plus/img/animes/wo-de-tian-jie-nv-you/",
      "secao": "legendados",
      "pagina": 126,
      "total_episodios": 15,
      "link_video": "https://animefire.plus/video/wo-de-tian-jie-nv-you"
    }
  ],
  "pagination": {
    "current_page": 34,
    "per_page": 20,
    "total_items": 708,
    "total_pages": 36,
    "has_next": true,
    "has_prev": true
  }
}
