{
  "message": "Animes com classificação etária: A16",
  "age_rating": "A16",
  "data": [
    {
      "id": 4332,
      "nome": "Zan Sayonara Zetsubou Sensei Bangaichi",
      "link": "https://animefire.plus/animes/zan-sayonara-zetsubou-sensei-bangaichi-todos-os-episodios",
      "texto_original": "Zan Sayonara Zetsubou Sensei Bangaichi",
      "rating": 7.83,
      "classificacao_etaria": "A16",
      "imagem_original": "https://animefire.plus/img/animes/zan-sayonara-zetsubou-sensei-bangaichi.webp",
      "imagem_pasta": "https://animefire.plus/img/animes/zan-sayonara-zetsubou-sensei-bangaichi/",
      "secao": "legendados",
      "pagina": 85,
      "total_episodios": 2,
      "link_video": "https://animefire.plus/video/zan-sayonara-zetsubou-sensei-bangaichi"
    },
    {
      "id": 4333,
      "nome": "Zankyou no Terror",
      "link": "https://animefire.plus/animes/zankyou-no-terror-todos-os-episodios",
      "texto_original": "Zankyou no Terror",
      "rating": 8.18,
      "classificacao_etaria": "A16",
      "imagem_original": "https://animefire.plus/img/animes/zankyou-no-terror.webp",
      "imagem_pasta": "https://animefire.plus/img/animes/zankyou-no-terror/",
      "secao": "legendados",
      "pagina": 149,
      "total_episodios": 2,
      "link_video": "https://animefire.plus/video/zankyou-no-terror"
    },
    {
      "id": 4359,
      "nome": "Zoku Owarimonogatari",
      "link": "https://animefire.plus/animes/zoku-owarimonogatari-todos-os-episodios",
      "texto_original": "Zoku Owarimonogatari",
      "rating": 8.58,
      "classificacao_etaria": "A16",
      "imagem_original": "https://animefire.plus/img/animes/zoku-owarimonogatari.webp",
      "imagem_pasta": "https://animefire.plus/img/animes/zoku-owarimonogatari/",
      "secao": "legendados",
      "pagina": 102,
      "total_episodios": 6,
      "link_video": "https://animefire.plus/video/zoku-owarimonogatari"
    },
    {
      "id": 4360,
      "nome": "Zoku Sayonara Zetsubou Sensei",
      "link": "https://animefire.plus/animes/zoku-sayonara-zetsubou-sensei-todos-os-episodios",
      "texto_original": "Zoku Sayonara Zetsubou Sensei",
      "rating": 7.97,
      "classificacao_etaria": "A16",
      "imagem_original": "https://animefire.plus/img/animes/zoku-sayonara-zetsubou-sensei.webp",
      "imagem_pasta": "https://animefire.plus/img/animes/zoku-sayonara-zetsubou-sensei/",
      "secao": "legendados",
      "pagina": 162,
      "total_episodios": 13,
      "link_video": "https://animefire.plus/video/zoku-sayonara-zetsubou-sensei"
    },
    {
      "id": 4362,
      "nome": "Zom 100: Zombie ni Naru made ni Shitai 100 no Koto (Dublado)",
      "link": "https://animefire.plus/animes/zom-100-zombie-ni-naru-made-ni-shitai-100-no-koto-dublado-todos-os-episodios",
      "texto_original": "Zom 100: Zombie ni Naru made ni Shitai 100 no Koto (Dublado)",
      "rating": 7.73,
      "classificacao_etaria": "A16",
      "imagem_original": "https://animefire.plus/img/animes/zom-100-zombie-ni-naru-made-ni-shitai-100-no-koto.webp",
      "imagem_pasta": "https://animefire.plus/img/animes/zom-100-zombie-ni-naru-made-ni-shitai-100-no-koto/",
      "secao": "dublados,legendados",
      "pagina": 6,
      "total_episodios": 12,
      "link_video": "https://animefire.plus/video/zom-100-zombie-ni-naru-made-ni-shitai-100-no-koto-dublado"
    },
    {
      "id": 4363,
      "nome": "Zombie-Loan",
      "link": "https://animefire.plus/animes/zombie-loan-todos-os-episodios",
      "texto_original": "Zombie-Loan",
      "rating": 6.98,
      "classificacao_etaria": "A16",
      "imagem_original": "https://animefire.plus/img/animes/zombie-loan.webp",
      "imagem_pasta": "https://animefire.plus/img/animes/zombie-loan/",
      "secao": "legendados",
      "pagina": 175,
      "total_episodios": 13,
      "link_video": "https://animefire.plus/video/zombie-loan"
    },
    {
      "id": 4364,
      "nome": "Zombieland Saga",
      "link": "https://animefire.plus/animes/zombieland-saga-todos-os-episodios",
      "texto_original": "Zombieland Saga",
      "rating": 7.69,
      "classificacao_etaria": "A16",
      "imagem_original": "https://animefire.plus/img/animes/zombieland-saga.webp",
      "imagem_pasta": "https://animefire.plus/img/animes/zombieland-saga/",
      "secao": "legendados",
      "pagina": 139,
      "total_episodios": 12,
      "link_video": "https://animefire.plus/video/zombieland-saga"
    },
    {
      "id": 4365,
      "nome": "Zombieland Saga: Revenge",
      "link": "https://animefire.plus/animes/zombieland-saga-revenge-todos-os-episodios",
      "texto_original": "Zombieland Saga: Revenge",
      "rating": 7.99,
      "classificacao_etaria": "A16",
      "imagem_original": "https://animefire.plus/img/animes/zombieland-saga-revenge.webp",
      "imagem_pasta": "https://animefire.plus/img/animes/zombieland-saga-revenge/",
      "secao": "legendados",
      "pagina": 47,
      "total_episodios": 12,
      "link_video": "https://animefire.plus/video/zombieland-saga-revenge"
    }
  ],
  "pagination": {
    "current_page": 36,
    "per_page": 20,
    "total_items": 708,
    "total_pages": 36,
    "has_next": false,
    "has_prev": true
  }
}
