{
  "message": "Animes com classificação etária: A16",
  "age_rating": "A16",
  "data": [
    {
      "id": 3885,
      "nome": "Tokyo Ghoul:re (Dublado)",
      "link": "https://animefire.plus/animes/tokyo-ghoul-re-dublado-todos-os-episodios",
      "texto_original": "Tokyo Ghoul:re (Dublado)",
      "rating": 6.59,
      "classificacao_etaria": "A16",
      "imagem_original": "https://animefire.plus/img/animes/tokyo-ghoul-re.webp",
      "imagem_pasta": "https://animefire.plus/img/animes/tokyo-ghoul-re/",
      "secao": "dublados,legendados",
      "pagina": 19,
      "total_episodios": 12,
      "link_video": "https://animefire.plus/video/tokyo-ghoul-re-dublado"
    },
    {
      "id": 3886,
      "nome": "Tokyo Ghoul:re 2nd Season (Dublado)",
      "link": "https://animefire.plus/animes/tokyo-ghoul-re-2nd-season-dublado-todos-os-episodios",
      "texto_original": "Tokyo Ghoul:re 2nd Season (Dublado)",
      "rating": 6.33,
      "classificacao_etaria": "A16",
      "imagem_original": "https://animefire.plus/img/animes/tokyo-ghoul-re-2nd-season.webp",
      "imagem_pasta": "https://animefire.plus/img/animes/tokyo-ghoul-re-2nd-season/",
      "secao": "dublados,legendados",
      "pagina": 19,
      "total_episodios": 12,
      "link_video": "https://animefire.plus/video/tokyo-ghoul-re-2nd-season-dublado"
    },
    {
      "id": 3888,
      "nome": "Tokyo Majin Gakuen Kenpucho: Tou",
      "link": "https://animefire.plus/animes/tokyo-majin-gakuen-kenpucho-tou-todos-os-episodios",
      "texto_original": "Tokyo Majin Gakuen Kenpucho: Tou",
      "rating": 7.23,
      "classificacao_etaria": "A16",
      "imagem_original": "https://animefire.plus/img/animes/tokyo-majin-gakuen-kenpucho-tou.webp",
      "imagem_pasta": "https://animefire.plus/img/animes/tokyo-majin-gakuen-kenpucho-tou/",
      "secao": "legendados",
      "pagina": 122,
      "total_episodios": 14,
      "link_video": "https://animefire.plus/video/tokyo-majin-gakuen-kenpucho-tou"
    },
    {
      "id": 3889,
      "nome": "Tokyo Majin Gakuen Kenpucho: Tou Dai Ni Maku",
      "link": "https://animefire.plus/animes/tokyo-majin-gakuen-kenpucho-tou-dai-ni-maku-todos-os-episodios",
      "texto_original": "Tokyo Majin Gakuen Kenpucho: Tou Dai Ni Maku",
      "rating": 7.34,
      "classificacao_etaria": "A16",
      "imagem_original": "https://animefire.plus/img/animes/tokyo-majin-gakuen-kenpucho-tou-dai-ni-maku.webp",
      "imagem_pasta": "https://animefire.plus/img/animes/tokyo-majin-gakuen-kenpucho-tou-dai-ni-maku/",
      "secao": "legendados",
      "pagina": 97,
      "total_episodios": 12,
      "link_video": "https://animefire.plus/video/tokyo-majin-gakuen-kenpucho-tou-dai-ni-maku"
    },
    {
      "id": 3894,
      "nome": "Tokyo Revengers (Dublado)",
      "link": "https://animefire.plus/animes/tokyo-revengers-dublado-todos-os-episodios",
      "texto_original": "Tokyo Revengers (Dublado)",
      "rating": 7.85,
      "classificacao_etaria": "A16",
      "imagem_original": "https://animefire.plus/img/animes/tokyo-revengers.webp",
      "imagem_pasta": "https://animefire.plus/img/animes/tokyo-revengers/",
      "secao": "dublados,legendados",
      "pagina": 17,
      "total_episodios": 24,
      "link_video": "https://animefire.plus/video/tokyo-revengers-dublado"
    },
    {
      "id": 3895,
      "nome": "Tokyo Revengers: Seiya Kessen-hen (Dublado)",
      "link": "https://animefire.plus/animes/tokyo-revengers-seiya-kessen-hen-dublado-todos-os-episodios",
      "texto_original": "Tokyo Revengers: Seiya Kessen-hen (Dublado)",
      "rating": 7.63,
      "classificacao_etaria": "A16",
      "imagem_original": "https://animefire.plus/img/animes/tokyo-revengers-seiya-kessen-hen.webp",
      "imagem_pasta": "https://animefire.plus/img/animes/tokyo-revengers-seiya-kessen-hen/",
      "secao": "dublados,legendados,lancamentos",
      "pagina": 7,
      "total_episodios": 12,
      "link_video": "https://animefire.plus/video/tokyo-revengers-seiya-kessen-hen-dublado"
    },
    {
      "id": 3896,
      "nome": "Tokyo Revengers: Tenjiku-hen",
      "link": "https://animefire.plus/animes/tokyo-revengers-tenjiku-hen-todos-os-episodios",
      "texto_original": "Tokyo Revengers: Tenjiku-hen",
      "rating": 7.82,
      "classificacao_etaria": "A16",
      "imagem_original": "https://animefire.plus/img/animes/tokyo-revengers-tenjiku-hen.webp",
      "imagem_pasta": "https://animefire.plus/img/animes/tokyo-revengers-tenjiku-hen/",
      "secao": "legendados",
      "pagina": 21,
      "total_episodios": 13,
      "link_video": "https://animefire.plus/video/tokyo-revengers-tenjiku-hen"
    },
    {
      "id": 3900,
      "nome": "Tomodachi Game",
      "link": "https://animefire.plus/animes/tomodachi-game-todos-os-episodios",
      "texto_original": "Tomodachi Game",
      "rating": 7.71,
      "classificacao_etaria": "A16",
      "imagem_original": "https://animefire.plus/img/animes/tomodachi-game.webp",
      "imagem_pasta": "https://animefire.plus/img/animes/tomodachi-game/",
      "secao": "legendados",
      "pagina": 34,
      "total_episodios": 12,
      "link_video": "https://animefire.plus/video/tomodachi-game"
    },
    {
      "id": 3910,
      "nome": "Tong Zhi Zhe",
      "link": "https://animefire.plus/animes/tong-zhi-zhe-todos-os-episodios",
      "texto_original": "Tong Zhi Zhe",
      "rating": 6.64,
      "classificacao_etaria": "A16",
      "imagem_original": "https://animefire.plus/img/animes/tong-zhi-zhe.webp",
      "imagem_pasta": "https://animefire.plus/img/animes/tong-zhi-zhe/",
      "secao": "legendados",
      "pagina": 160,
      "total_episodios": 10,
      "link_video": "https://animefire.plus/video/tong-zhi-zhe"
    },
    {
      "id": 3925,
      "nome": "Touhai Densetsu Akagi: Yami ni Maiorita Tensai",
      "link": "https://animefire.plus/animes/touhai-densetsu-akagi-yami-ni-maiorita-tensai-todos-os-episodios",
      "texto_original": "Touhai Densetsu Akagi: Yami ni Maiorita Tensai",
      "rating": 7.98,
      "classificacao_etaria": "A16",
      "imagem_original": "https://animefire.plus/img/animes/touhai-densetsu-akagi-yami-ni-maiorita-tensai.webp",
      "imagem_pasta": "https://animefire.plus/img/animes/touhai-densetsu-akagi-yami-ni-maiorita-tensai/",
      "secao": "legendados",
      "pagina": 169,
      "total_episodios": 26,
      "link_video": "https://animefire.plus/video/touhai-densetsu-akagi-yami-ni-maiorita-tensai"
    },
    {
      "id": 3927,
      "nome": "Touka Gettan",
      "link": "https://animefire.plus/animes/touka-gettan-todos-os-episodios",
      "texto_original": "Touka Gettan",
      "rating": 6.63,
      "classificacao_etaria": "A16",
      "imagem_original": "https://animefire.plus/img/animes/touka-gettan.webp",
      "imagem_pasta": "https://animefire.plus/img/animes/touka-gettan/",
      "secao": "legendados",
      "pagina": 121,
      "total_episodios": 26,
      "link_video": "https://animefire.plus/video/touka-gettan"
    },
    {
      "id": 3933,
      "nome": "Tribe Nine (Dublado)",
      "link": "https://animefire.plus/animes/tribe-nine-dublado-todos-os-episodios",
      "texto_original": "Tribe Nine (Dublado)",
      "rating": 6.08,
      "classificacao_etaria": "A16",
      "imagem_original": "https://animefire.plus/img/animes/tribe-nine.webp",
      "imagem_pasta": "https://animefire.plus/img/animes/tribe-nine/",
      "secao": "dublados,legendados",
      "pagina": 12,
      "total_episodios": 12,
      "link_video": "https://animefire.plus/video/tribe-nine-dublado"
    },
    {
      "id": 3943,
      "nome": "Tsubasa: Shunraiki",
      "link": "https://animefire.plus/animes/tsubasa-shunraiki-todos-os-episodios",
      "texto_original": "Tsubasa: Shunraiki",
      "rating": 8.15,
      "classificacao_etaria": "A16",
      "imagem_original": "https://animefire.plus/img/animes/tsubasa-shunraiki.webp",
      "imagem_pasta": "https://animefire.plus/img/animes/tsubasa-shunraiki/",
      "secao": "legendados",
      "pagina": 62,
      "total_episodios": 1,
      "link_video": "https://animefire.plus/video/tsubasa-shunraiki"
    },
    {
      "id": 3944,
      "nome": "Tsubasa: Tokyo Revelations",
      "link": "https://animefire.plus/animes/tsubasa-tokyo-revelations-todos-os-episodios",
      "texto_original": "Tsubasa: Tokyo Revelations",
      "rating": 8.34,
      "classificacao_etaria": "A16",
      "imagem_original": "https://animefire.plus/img/animes/tsubasa-tokyo-revelations.webp",
      "imagem_pasta": "https://animefire.plus/img/animes/tsubasa-tokyo-revelations/",
      "secao": "legendados",
      "pagina": 62,
      "total_episodios": 1,
      "link_video": "https://animefire.plus/video/tsubasa-tokyo-revelations"
    },
    {
      "id": 3956,
      "nome": "Tsukimonogatari",
      "link": "https://animefire.plus/animes/tsukimonogatari-todos-os-episodios",
      "texto_original": "Tsukimonogatari",
      "rating": 8.18,
      "classificacao_etaria": "A16",
      "imagem_original": "https://animefire.plus/img/animes/tsukimonogatari.webp",
      "imagem_pasta": "https://animefire.plus/img/animes/tsukimonogatari/",
      "secao": "legendados",
      "pagina": 141,
      "total_episodios": 4,
      "link_video": "https://animefire.plus/video/tsukimonogatari"
    },
    {
      "id": 3984,
      "nome": "Übel Blatt",
      "link": "https://animefire.plus/animes/uebel-blatt-todos-os-episodios",
      "texto_original": "Übel Blatt",
      "rating": 6.3,
      "classificacao_etaria": "A16",
      "imagem_original": "https://animefire.plus/img/animes/uebel-blatt.webp",
      "imagem_pasta": "https://animefire.plus/img/animes/uebel-blatt/",
      "secao": "legendados",
      "pagina": 8,
      "total_episodios": 12,
      "link_video": "https://animefire.plus/video/uebel-blatt"
    },
    {
      "id": 3995,
      "nome": "Uchuu no Senshi",
      "link": "https://animefire.plus/animes/uchuu-no-senshi-todos-os-episodios",
      "texto_original": "Uchuu no Senshi",
      "rating": 6.21,
      "classificacao_etaria": "A16",
      "imagem_original": "https://animefire.plus/img/animes/uchuu-no-senshi.webp",
      "imagem_pasta": "https://animefire.plus/img/animes/uchuu-no-senshi/",
      "secao": "legendados",
      "pagina": 55,
      "total_episodios": 6,
      "link_video": "https://animefire.plus/video/uchuu-no-senshi"
    },
    {
      "id": 4010,
      "nome": "Ultraman (Dublado)",
      "link": "https://animefire.plus/animes/ultraman-dublado-todos-os-episodios",
      "texto_original": "Ultraman (Dublado)",
      "rating": 6.78,
      "classificacao_etaria": "A16",
      "imagem_original": "https://animefire.plus/img/animes/ultraman.webp",
      "imagem_pasta": "https://animefire.plus/img/animes/ultraman/",
      "secao": "dublados",
      "pagina": 23,
      "total_episodios": 13,
      "link_video": "https://animefire.plus/video/ultraman-dublado"
    },
    {
      "id": 4011,
      "nome": "Ultraviolet: Code 044",
      "link": "https://animefire.plus/animes/ultraviolet-code-044-todos-os-episodios",
      "texto_original": "Ultraviolet: Code 044",
      "rating": 5.98,
      "classificacao_etaria": "A16",
      "imagem_original": "https://animefire.plus/img/animes/ultraviolet-code-044.webp",
      "imagem_pasta": "https://animefire.plus/img/animes/ultraviolet-code-044/",
      "secao": "legendados",
      "pagina": 175,
      "total_episodios": 12,
      "link_video": "https://animefire.plus/video/ultraviolet-code-044"
    },
    {
      "id": 4020,
      "nome": "Umineko no Naku Koro ni",
      "link": "https://animefire.plus/animes/umineko-no-naku-koro-ni-todos-os-episodios",
      "texto_original": "Umineko no Naku Koro ni",
      "rating": 7.23,
      "classificacao_etaria": "A16",
      "imagem_original": "https://animefire.plus/img/animes/umineko-no-naku-koro-ni.webp",
      "imagem_pasta": "https://animefire.plus/img/animes/umineko-no-naku-koro-ni/",
      "secao": "legendados",
      "pagina": 112,
      "total_episodios": 26,
      "link_video": "https://animefire.plus/video/umineko-no-naku-koro-ni"
    }
  ],
  "pagination": {
    "current_page": 33,
    "per_page": 20,
    "total_items": 708,
    "total_pages": 36,
    "has_next": true,
    "has_prev": true
  }
}
