{
  "message": "Animes com classificação etária: A16",
  "age_rating": "A16",
  "data": [
    {
      "id": 2099,
      "nome": "Kore wa Zombie Desu ka? of the Dead",
      "link": "https://animefire.plus/animes/kore-wa-zombie-desu-ka-of-the-dead-todos-os-episodios",
      "texto_original": "Kore wa Zombie Desu ka? of the Dead",
      "rating": 7.67,
      "classificacao_etaria": "A16",
      "imagem_original": "https://animefire.plus/img/animes/kore-wa-zombie-desu-ka-of-the-dead.webp",
      "imagem_pasta": "https://animefire.plus/img/animes/kore-wa-zombie-desu-ka-of-the-dead/",
      "secao": "legendados",
      "pagina": 129,
      "total_episodios": 10,
      "link_video": "https://animefire.plus/video/kore-wa-zombie-desu-ka-of-the-dead"
    },
    {
      "id": 2101,
      "nome": "Koroshi Ai (Dublado)",
      "link": "https://animefire.plus/animes/koroshi-ai-dublado-todos-os-episodios",
      "texto_original": "Koroshi Ai (Dublado)",
      "rating": 6.9,
      "classificacao_etaria": "A16",
      "imagem_original": "https://animefire.plus/img/animes/koroshi-ai.webp",
      "imagem_pasta": "https://animefire.plus/img/animes/koroshi-ai/",
      "secao": "dublados,legendados",
      "pagina": 12,
      "total_episodios": 12,
      "link_video": "https://animefire.plus/video/koroshi-ai-dublado"
    },
    {
      "id": 2106,
      "nome": "Koukaku Kidoutai Arise: Alternative Architecture",
      "link": "https://animefire.plus/animes/koukaku-kidoutai-arise-alternative-architecture-todos-os-episodios",
      "texto_original": "Koukaku Kidoutai Arise: Alternative Architecture",
      "rating": 7.27,
      "classificacao_etaria": "A16",
      "imagem_original": "https://animefire.plus/img/animes/koukaku-kidoutai-arise-alternative-architecture.webp",
      "imagem_pasta": "https://animefire.plus/img/animes/koukaku-kidoutai-arise-alternative-architecture/",
      "secao": "legendados",
      "pagina": 75,
      "total_episodios": 10,
      "link_video": "https://animefire.plus/video/koukaku-kidoutai-arise-alternative-architecture"
    },
    {
      "id": 2107,
      "nome": "Koukaku Kidoutai: SAC_2045 (Dublado)",
      "link": "https://animefire.plus/animes/koukaku-kidoutai-sac-2045-dublado-todos-os-episodios",
      "texto_original": "Koukaku Kidoutai: SAC_2045 (Dublado)",
      "rating": 6.74,
      "classificacao_etaria": "A16",
      "imagem_original": "https://animefire.plus/img/animes/koukaku-kidoutai-sac-2045.webp",
      "imagem_pasta": "https://animefire.plus/img/animes/koukaku-kidoutai-sac-2045/",
      "secao": "dublados,legendados",
      "pagina": 20,
      "total_episodios": 12,
      "link_video": "https://animefire.plus/video/koukaku-kidoutai-sac-2045-dublado"
    },
    {
      "id": 2108,
      "nome": "Koukaku Kidoutai: SAC_2045 Season 2 (Dublado)",
      "link": "https://animefire.plus/animes/koukaku-kidoutai-sac-2045-season-2-dublado-todos-os-episodios",
      "texto_original": "Koukaku Kidoutai: SAC_2045 Season 2 (Dublado)",
      "rating": 6.84,
      "classificacao_etaria": "A16",
      "imagem_original": "https://animefire.plus/img/animes/koukaku-kidoutai-sac-2045-season-2.webp",
      "imagem_pasta": "https://animefire.plus/img/animes/koukaku-kidoutai-sac-2045-season-2/",
      "secao": "dublados,legendados",
      "pagina": 10,
      "total_episodios": 12,
      "link_video": "https://animefire.plus/video/koukaku-kidoutai-sac-2045-season-2-dublado"
    },
    {
      "id": 2117,
      "nome": "Koutetsujou no Kabaneri",
      "link": "https://animefire.plus/animes/koutetsujou-no-kabaneri-todos-os-episodios",
      "texto_original": "Koutetsujou no Kabaneri",
      "rating": 7.3,
      "classificacao_etaria": "A16",
      "imagem_original": "https://animefire.plus/img/animes/koutetsujou-no-kabaneri.webp",
      "imagem_pasta": "https://animefire.plus/img/animes/koutetsujou-no-kabaneri/",
      "secao": "legendados",
      "pagina": 153,
      "total_episodios": 5,
      "link_video": "https://animefire.plus/video/koutetsujou-no-kabaneri"
    },
    {
      "id": 2122,
      "nome": "Koyomimonogatari",
      "link": "https://animefire.plus/animes/koyomimonogatari-todos-os-episodios",
      "texto_original": "Koyomimonogatari",
      "rating": 7.75,
      "classificacao_etaria": "A16",
      "imagem_original": "https://animefire.plus/img/animes/koyomimonogatari.webp",
      "imagem_pasta": "https://animefire.plus/img/animes/koyomimonogatari/",
      "secao": "legendados",
      "pagina": 134,
      "total_episodios": 12,
      "link_video": "https://animefire.plus/video/koyomimonogatari"
    },
    {
      "id": 2124,
      "nome": "Kubikiri Cycle: Aoiro Savant to Zaregototsukai",
      "link": "https://animefire.plus/animes/kubikiri-cycle-aoiro-savant-to-zaregototsukai-todos-os-episodios",
      "texto_original": "Kubikiri Cycle: Aoiro Savant to Zaregototsukai",
      "rating": 7.89,
      "classificacao_etaria": "A16",
      "imagem_original": "https://animefire.plus/img/animes/kubikiri-cycle-aoiro-savant-to-zaregototsukai.webp",
      "imagem_pasta": "https://animefire.plus/img/animes/kubikiri-cycle-aoiro-savant-to-zaregototsukai/",
      "secao": "legendados",
      "pagina": 164,
      "total_episodios": 6,
      "link_video": "https://animefire.plus/video/kubikiri-cycle-aoiro-savant-to-zaregototsukai"
    },
    {
      "id": 2147,
      "nome": "Kurogane no Linebarrels",
      "link": "https://animefire.plus/animes/kurogane-no-linebarrels-todos-os-episodios",
      "texto_original": "Kurogane no Linebarrels",
      "rating": 7.01,
      "classificacao_etaria": "A16",
      "imagem_original": "https://animefire.plus/img/animes/kurogane-no-linebarrels.webp",
      "imagem_pasta": "https://animefire.plus/img/animes/kurogane-no-linebarrels/",
      "secao": "legendados",
      "pagina": 115,
      "total_episodios": 24,
      "link_video": "https://animefire.plus/video/kurogane-no-linebarrels"
    },
    {
      "id": 2149,
      "nome": "Kurokami The Animation",
      "link": "https://animefire.plus/animes/kurokami-the-animation-todos-os-episodios",
      "texto_original": "Kurokami The Animation",
      "rating": 7.22,
      "classificacao_etaria": "A16",
      "imagem_original": "https://animefire.plus/img/animes/kurokami-the-animation.webp",
      "imagem_pasta": "https://animefire.plus/img/animes/kurokami-the-animation/",
      "secao": "legendados",
      "pagina": 177,
      "total_episodios": 23,
      "link_video": "https://animefire.plus/video/kurokami-the-animation"
    },
    {
      "id": 2156,
      "nome": "Kuromukuro",
      "link": "https://animefire.plus/animes/kuromukuro-todos-os-episodios",
      "texto_original": "Kuromukuro",
      "rating": 7.32,
      "classificacao_etaria": "A16",
      "imagem_original": "https://animefire.plus/img/animes/kuromukuro.webp",
      "imagem_pasta": "https://animefire.plus/img/animes/kuromukuro/",
      "secao": "legendados",
      "pagina": 106,
      "total_episodios": 25,
      "link_video": "https://animefire.plus/video/kuromukuro"
    },
    {
      "id": 2157,
      "nome": "Kuroshitsuji (Dublado)",
      "link": "https://animefire.plus/animes/kuroshitsuji-dublado-todos-os-episodios",
      "texto_original": "Kuroshitsuji (Dublado)",
      "rating": 7.71,
      "classificacao_etaria": "A16",
      "imagem_original": "https://animefire.plus/img/animes/kuroshitsuji.webp",
      "imagem_pasta": "https://animefire.plus/img/animes/kuroshitsuji/",
      "secao": "dublados,legendados",
      "pagina": 16,
      "total_episodios": 25,
      "link_video": "https://animefire.plus/video/kuroshitsuji-dublado"
    },
    {
      "id": 2158,
      "nome": "Kuroshitsuji II (Dublado)",
      "link": "https://animefire.plus/animes/kuroshitsuji-ii-dublado-todos-os-episodios",
      "texto_original": "Kuroshitsuji II (Dublado)",
      "rating": 7.19,
      "classificacao_etaria": "A16",
      "imagem_original": "https://animefire.plus/img/animes/kuroshitsuji-ii.webp",
      "imagem_pasta": "https://animefire.plus/img/animes/kuroshitsuji-ii/",
      "secao": "dublados,legendados",
      "pagina": 16,
      "total_episodios": 12,
      "link_video": "https://animefire.plus/video/kuroshitsuji-ii-dublado"
    },
    {
      "id": 2160,
      "nome": "Kuroshitsuji: Book of Circus",
      "link": "https://animefire.plus/animes/kuroshitsuji-book-of-circus-todos-os-episodios",
      "texto_original": "Kuroshitsuji: Book of Circus",
      "rating": 8.29,
      "classificacao_etaria": "A16",
      "imagem_original": "https://animefire.plus/img/animes/kuroshitsuji-book-of-circus.webp",
      "imagem_pasta": "https://animefire.plus/img/animes/kuroshitsuji-book-of-circus/",
      "secao": "legendados",
      "pagina": 113,
      "total_episodios": 10,
      "link_video": "https://animefire.plus/video/kuroshitsuji-book-of-circus"
    },
    {
      "id": 2161,
      "nome": "Kuroshitsuji: Book of Murder",
      "link": "https://animefire.plus/animes/kuroshitsuji-book-of-murder-todos-os-episodios",
      "texto_original": "Kuroshitsuji: Book of Murder",
      "rating": 8.29,
      "classificacao_etaria": "A16",
      "imagem_original": "https://animefire.plus/img/animes/kuroshitsuji-book-of-murder.webp",
      "imagem_pasta": "https://animefire.plus/img/animes/kuroshitsuji-book-of-murder/",
      "secao": "legendados",
      "pagina": 103,
      "total_episodios": 2,
      "link_video": "https://animefire.plus/video/kuroshitsuji-book-of-murder"
    },
    {
      "id": 2162,
      "nome": "Kuroshitsuji: Kishuku Gakkou-hen",
      "link": "https://animefire.plus/animes/kuroshitsuji-kishuku-gakkou-hen-todos-os-episodios",
      "texto_original": "Kuroshitsuji: Kishuku Gakkou-hen",
      "rating": 7.86,
      "classificacao_etaria": "A16",
      "imagem_original": "https://animefire.plus/img/animes/kuroshitsuji-kishuku-gakkou-hen.webp",
      "imagem_pasta": "https://animefire.plus/img/animes/kuroshitsuji-kishuku-gakkou-hen/",
      "secao": "legendados",
      "pagina": 15,
      "total_episodios": 11,
      "link_video": "https://animefire.plus/video/kuroshitsuji-kishuku-gakkou-hen"
    },
    {
      "id": 2163,
      "nome": "Kuroshitsuji: Midori no Majo-hen",
      "link": "https://animefire.plus/animes/kuroshitsuji-midori-no-majo-hen-todos-os-episodios",
      "texto_original": "Kuroshitsuji: Midori no Majo-hen",
      "rating": 8.18,
      "classificacao_etaria": "A16",
      "imagem_original": "https://animefire.plus/img/animes/kuroshitsuji-midori-no-majo-hen.webp",
      "imagem_pasta": "https://animefire.plus/img/animes/kuroshitsuji-midori-no-majo-hen/",
      "secao": "legendados",
      "pagina": 6,
      "total_episodios": 13,
      "link_video": "https://animefire.plus/video/kuroshitsuji-midori-no-majo-hen"
    },
    {
      "id": 2164,
      "nome": "Kurozuka",
      "link": "https://animefire.plus/animes/kurozuka-todos-os-episodios",
      "texto_original": "Kurozuka",
      "rating": 7,
      "classificacao_etaria": "A16",
      "imagem_original": "https://animefire.plus/img/animes/kurozuka.webp",
      "imagem_pasta": "https://animefire.plus/img/animes/kurozuka/",
      "secao": "legendados",
      "pagina": 158,
      "total_episodios": 0,
      "link_video": "https://animefire.plus/video/kurozuka"
    },
    {
      "id": 2168,
      "nome": "Kuuchuu Buranko",
      "link": "https://animefire.plus/animes/kuuchuu-buranko-todos-os-episodios",
      "texto_original": "Kuuchuu Buranko",
      "rating": 8.01,
      "classificacao_etaria": "A16",
      "imagem_original": "https://animefire.plus/img/animes/kuuchuu-buranko.webp",
      "imagem_pasta": "https://animefire.plus/img/animes/kuuchuu-buranko/",
      "secao": "legendados",
      "pagina": 129,
      "total_episodios": 11,
      "link_video": "https://animefire.plus/video/kuuchuu-buranko"
    },
    {
      "id": 2174,
      "nome": "Kyokou Suiri",
      "link": "https://animefire.plus/animes/kyokou-suiri-todos-os-episodios",
      "texto_original": "Kyokou Suiri",
      "rating": 6.96,
      "classificacao_etaria": "A16",
      "imagem_original": "https://animefire.plus/img/animes/kyokou-suiri.webp",
      "imagem_pasta": "https://animefire.plus/img/animes/kyokou-suiri/",
      "secao": "legendados",
      "pagina": 92,
      "total_episodios": 0,
      "link_video": "https://animefire.plus/video/kyokou-suiri"
    }
  ],
  "pagination": {
    "current_page": 20,
    "per_page": 20,
    "total_items": 708,
    "total_pages": 36,
    "has_next": true,
    "has_prev": true
  }
}
