{
  "message": "Animes com classificação etária: A16",
  "age_rating": "A16",
  "data": [
    {
      "id": 2175,
      "nome": "Kyokou Suiri Season 2",
      "link": "https://animefire.plus/animes/kyokou-suiri-season-2-todos-os-episodios",
      "texto_original": "Kyokou Suiri Season 2",
      "rating": 7.35,
      "classificacao_etaria": "A16",
      "imagem_original": "https://animefire.plus/img/animes/kyokou-suiri-season-2.webp",
      "imagem_pasta": "https://animefire.plus/img/animes/kyokou-suiri-season-2/",
      "secao": "legendados",
      "pagina": 27,
      "total_episodios": 12,
      "link_video": "https://animefire.plus/video/kyokou-suiri-season-2"
    },
    {
      "id": 2182,
      "nome": "Kyougoku Natsuhiko: Kousetsu Hyaku Monogatari",
      "link": "https://animefire.plus/animes/kyougoku-natsuhiko-kousetsu-hyaku-monogatari-todos-os-episodios",
      "texto_original": "Kyougoku Natsuhiko: Kousetsu Hyaku Monogatari",
      "rating": 7.2,
      "classificacao_etaria": "A16",
      "imagem_original": "https://animefire.plus/img/animes/kyougoku-natsuhiko-kousetsu-hyaku-monogatari.webp",
      "imagem_pasta": "https://animefire.plus/img/animes/kyougoku-natsuhiko-kousetsu-hyaku-monogatari/",
      "secao": "legendados",
      "pagina": 151,
      "total_episodios": 13,
      "link_video": "https://animefire.plus/video/kyougoku-natsuhiko-kousetsu-hyaku-monogatari"
    },
    {
      "id": 2195,
      "nome": "Kyuuketsuhime Miyu (TV)",
      "link": "https://animefire.plus/animes/kyuuketsuhime-miyu-tv-todos-os-episodios",
      "texto_original": "Kyuuketsuhime Miyu (TV)",
      "rating": 7.2,
      "classificacao_etaria": "A16",
      "imagem_original": "https://animefire.plus/img/animes/kyuuketsuhime-miyu-tv.webp",
      "imagem_pasta": "https://animefire.plus/img/animes/kyuuketsuhime-miyu-tv/",
      "secao": "legendados",
      "pagina": 158,
      "total_episodios": 26,
      "link_video": "https://animefire.plus/video/kyuuketsuhime-miyu-tv"
    },
    {
      "id": 2210,
      "nome": "Le Chevalier D'Eon",
      "link": "https://animefire.plus/animes/le-chevalier-d-eon-todos-os-episodios",
      "texto_original": "Le Chevalier D'Eon",
      "rating": 7.25,
      "classificacao_etaria": "A16",
      "imagem_original": "https://animefire.plus/img/animes/le-chevalier-d-eon.webp",
      "imagem_pasta": "https://animefire.plus/img/animes/le-chevalier-d-eon/",
      "secao": "legendados",
      "pagina": 78,
      "total_episodios": 24,
      "link_video": "https://animefire.plus/video/le-chevalier-d-eon"
    },
    {
      "id": 2212,
      "nome": "Legend of Duo",
      "link": "https://animefire.plus/animes/legend-of-duo-todos-os-episodios",
      "texto_original": "Legend of Duo",
      "rating": 5.02,
      "classificacao_etaria": "A16",
      "imagem_original": "https://animefire.plus/img/animes/legend-of-duo.webp",
      "imagem_pasta": "https://animefire.plus/img/animes/legend-of-duo/",
      "secao": "legendados",
      "pagina": 176,
      "total_episodios": 0,
      "link_video": "https://animefire.plus/video/legend-of-duo"
    },
    {
      "id": 2216,
      "nome": "Level E (Dublado)",
      "link": "https://animefire.plus/animes/level-e-dublado-todos-os-episodios",
      "texto_original": "Level E (Dublado)",
      "rating": 7.41,
      "classificacao_etaria": "A16",
      "imagem_original": "https://animefire.plus/img/animes/level-e.webp",
      "imagem_pasta": "https://animefire.plus/img/animes/level-e/",
      "secao": "dublados,legendados",
      "pagina": 4,
      "total_episodios": 13,
      "link_video": "https://animefire.plus/video/level-e-dublado"
    },
    {
      "id": 2240,
      "nome": "Lord El-Melloi II Sei no Jikenbo: Rail Zeppelin Grace Note",
      "link": "https://animefire.plus/animes/lord-el-melloi-ii-sei-no-jikenbo-rail-zeppelin-grace-note-todos-os-episodios",
      "texto_original": "Lord El-Melloi II Sei no Jikenbo: Rail Zeppelin Grace Note",
      "rating": 7.36,
      "classificacao_etaria": "A16",
      "imagem_original": "https://animefire.plus/img/animes/lord-el-melloi-ii-sei-no-jikenbo-rail-zeppelin-grace-note.webp",
      "imagem_pasta": "https://animefire.plus/img/animes/lord-el-melloi-ii-sei-no-jikenbo-rail-zeppelin-grace-note/",
      "secao": "legendados",
      "pagina": 164,
      "total_episodios": 5,
      "link_video": "https://animefire.plus/video/lord-el-melloi-ii-sei-no-jikenbo-rail-zeppelin-grace-note"
    },
    {
      "id": 2244,
      "nome": "Lostorage Conflated WIXOSS",
      "link": "https://animefire.plus/animes/lostorage-conflated-wixoss-todos-os-episodios",
      "texto_original": "Lostorage Conflated WIXOSS",
      "rating": 7.19,
      "classificacao_etaria": "A16",
      "imagem_original": "https://animefire.plus/img/animes/lostorage-conflated-wixoss.webp",
      "imagem_pasta": "https://animefire.plus/img/animes/lostorage-conflated-wixoss/",
      "secao": "legendados",
      "pagina": 159,
      "total_episodios": 13,
      "link_video": "https://animefire.plus/video/lostorage-conflated-wixoss"
    },
    {
      "id": 2245,
      "nome": "Lostorage Incited WIXOSS",
      "link": "https://animefire.plus/animes/lostorage-incited-wixoss-todos-os-episodios",
      "texto_original": "Lostorage Incited WIXOSS",
      "rating": 6.78,
      "classificacao_etaria": "A16",
      "imagem_original": "https://animefire.plus/img/animes/lostorage-incited-wixoss.webp",
      "imagem_pasta": "https://animefire.plus/img/animes/lostorage-incited-wixoss/",
      "secao": "legendados",
      "pagina": 117,
      "total_episodios": 5,
      "link_video": "https://animefire.plus/video/lostorage-incited-wixoss"
    },
    {
      "id": 2267,
      "nome": "Luger Code 1951",
      "link": "https://animefire.plus/animes/luger-code-1951-todos-os-episodios",
      "texto_original": "Luger Code 1951",
      "rating": 6.49,
      "classificacao_etaria": "A16",
      "imagem_original": "https://animefire.plus/img/animes/luger-code-1951.webp",
      "imagem_pasta": "https://animefire.plus/img/animes/luger-code-1951/",
      "secao": "legendados",
      "pagina": 159,
      "total_episodios": 1,
      "link_video": "https://animefire.plus/video/luger-code-1951"
    },
    {
      "id": 2286,
      "nome": "M3: Sono Kuroki Hagane",
      "link": "https://animefire.plus/animes/m3-sono-kuroki-hagane-todos-os-episodios",
      "texto_original": "M3: Sono Kuroki Hagane",
      "rating": 6.66,
      "classificacao_etaria": "A16",
      "imagem_original": "https://animefire.plus/img/animes/m3-sono-kuroki-hagane.webp",
      "imagem_pasta": "https://animefire.plus/img/animes/m3-sono-kuroki-hagane/",
      "secao": "legendados",
      "pagina": 136,
      "total_episodios": 12,
      "link_video": "https://animefire.plus/video/m3-sono-kuroki-hagane"
    },
    {
      "id": 2296,
      "nome": "Madan no Ou to Vanadis",
      "link": "https://animefire.plus/animes/madan-no-ou-to-vanadis-todos-os-episodios",
      "texto_original": "Madan no Ou to Vanadis",
      "rating": 7.29,
      "classificacao_etaria": "A16",
      "imagem_original": "https://animefire.plus/img/animes/madan-no-ou-to-vanadis.webp",
      "imagem_pasta": "https://animefire.plus/img/animes/madan-no-ou-to-vanadis/",
      "secao": "legendados",
      "pagina": 160,
      "total_episodios": 1,
      "link_video": "https://animefire.plus/video/madan-no-ou-to-vanadis"
    },
    {
      "id": 2297,
      "nome": "Made in Abyss",
      "link": "https://animefire.plus/animes/made-in-abyss-todos-os-episodios",
      "texto_original": "Made in Abyss",
      "rating": 8.85,
      "classificacao_etaria": "A16",
      "imagem_original": "https://animefire.plus/img/animes/made-in-abyss.webp",
      "imagem_pasta": "https://animefire.plus/img/animes/made-in-abyss/",
      "secao": "legendados",
      "pagina": 168,
      "total_episodios": 14,
      "link_video": "https://animefire.plus/video/made-in-abyss"
    },
    {
      "id": 2298,
      "nome": "Made in Abyss: Retsujitsu no Ougonkyou",
      "link": "https://animefire.plus/animes/made-in-abyss-retsujitsu-no-ougonkyou-todos-os-episodios",
      "texto_original": "Made in Abyss: Retsujitsu no Ougonkyou",
      "rating": 8.61,
      "classificacao_etaria": "A16",
      "imagem_original": "https://animefire.plus/img/animes/made-in-abyss-retsujitsu-no-ougonkyou.webp",
      "imagem_pasta": "https://animefire.plus/img/animes/made-in-abyss-retsujitsu-no-ougonkyou/",
      "secao": "legendados",
      "pagina": 31,
      "total_episodios": 12,
      "link_video": "https://animefire.plus/video/made-in-abyss-retsujitsu-no-ougonkyou"
    },
    {
      "id": 2304,
      "nome": "Magatsu Wahrheit: Zuerst",
      "link": "https://animefire.plus/animes/magatsu-wahrheit-zuerst-todos-os-episodios",
      "texto_original": "Magatsu Wahrheit: Zuerst",
      "rating": null,
      "classificacao_etaria": "A16",
      "imagem_original": "https://animefire.plus/img/animes/magatsu-wahrheit-zuerst.webp",
      "imagem_pasta": "https://animefire.plus/img/animes/magatsu-wahrheit-zuerst/",
      "secao": "legendados",
      "pagina": 51,
      "total_episodios": 12,
      "link_video": "https://animefire.plus/video/magatsu-wahrheit-zuerst"
    },
    {
      "id": 2328,
      "nome": "Mahou Shoujo Ikusei Keikaku",
      "link": "https://animefire.plus/animes/mahou-shoujo-ikusei-keikaku-todos-os-episodios",
      "texto_original": "Mahou Shoujo Ikusei Keikaku",
      "rating": 7.09,
      "classificacao_etaria": "A16",
      "imagem_original": "https://animefire.plus/img/animes/mahou-shoujo-ikusei-keikaku.webp",
      "imagem_pasta": "https://animefire.plus/img/animes/mahou-shoujo-ikusei-keikaku/",
      "secao": "legendados",
      "pagina": 169,
      "total_episodios": 12,
      "link_video": "https://animefire.plus/video/mahou-shoujo-ikusei-keikaku"
    },
    {
      "id": 2340,
      "nome": "Mahou Shoujo Site",
      "link": "https://animefire.plus/animes/mahou-shoujo-site-todos-os-episodios",
      "texto_original": "Mahou Shoujo Site",
      "rating": 6.56,
      "classificacao_etaria": "A16",
      "imagem_original": "https://animefire.plus/img/animes/mahou-shoujo-site.webp",
      "imagem_pasta": "https://animefire.plus/img/animes/mahou-shoujo-site/",
      "secao": "legendados",
      "pagina": 177,
      "total_episodios": 12,
      "link_video": "https://animefire.plus/video/mahou-shoujo-site"
    },
    {
      "id": 2342,
      "nome": "Mahou Shoujo Tokushusen Asuka",
      "link": "https://animefire.plus/animes/mahou-shoujo-tokushusen-asuka-todos-os-episodios",
      "texto_original": "Mahou Shoujo Tokushusen Asuka",
      "rating": 6.34,
      "classificacao_etaria": "A16",
      "imagem_original": "https://animefire.plus/img/animes/mahou-shoujo-tokushusen-asuka.webp",
      "imagem_pasta": "https://animefire.plus/img/animes/mahou-shoujo-tokushusen-asuka/",
      "secao": "legendados",
      "pagina": 157,
      "total_episodios": 12,
      "link_video": "https://animefire.plus/video/mahou-shoujo-tokushusen-asuka"
    },
    {
      "id": 2346,
      "nome": "Mahouka Koukou no Rettousei 3rd Season",
      "link": "https://animefire.plus/animes/mahouka-koukou-no-rettousei-3rd-season-todos-os-episodios",
      "texto_original": "Mahouka Koukou no Rettousei 3rd Season",
      "rating": 7.04,
      "classificacao_etaria": "A16",
      "imagem_original": "https://animefire.plus/img/animes/mahouka-koukou-no-rettousei-3rd-season.webp",
      "imagem_pasta": "https://animefire.plus/img/animes/mahouka-koukou-no-rettousei-3rd-season/",
      "secao": "legendados",
      "pagina": 15,
      "total_episodios": 13,
      "link_video": "https://animefire.plus/video/mahouka-koukou-no-rettousei-3rd-season"
    },
    {
      "id": 2376,
      "nome": "Majin Tantei Nougami Neuro",
      "link": "https://animefire.plus/animes/majin-tantei-nougami-neuro-todos-os-episodios",
      "texto_original": "Majin Tantei Nougami Neuro",
      "rating": 7.69,
      "classificacao_etaria": "A16",
      "imagem_original": "https://animefire.plus/img/animes/majin-tantei-nougami-neuro.webp",
      "imagem_pasta": "https://animefire.plus/img/animes/majin-tantei-nougami-neuro/",
      "secao": "legendados",
      "pagina": 127,
      "total_episodios": 25,
      "link_video": "https://animefire.plus/video/majin-tantei-nougami-neuro"
    }
  ],
  "pagination": {
    "current_page": 21,
    "per_page": 20,
    "total_items": 708,
    "total_pages": 36,
    "has_next": true,
    "has_prev": true
  }
}
