{
  "message": "Animes com classificação etária: A16",
  "age_rating": "A16",
  "data": [
    {
      "id": 143,
      "nome": "Alien 9",
      "link": "https://animefire.plus/animes/alien-9-todos-os-episodios",
      "texto_original": "Alien 9",
      "rating": 6.68,
      "classificacao_etaria": "A16",
      "imagem_original": "https://animefire.plus/img/animes/alien-9.webp",
      "imagem_pasta": "https://animefire.plus/img/animes/alien-9/",
      "secao": "legendados",
      "pagina": 165,
      "total_episodios": 4,
      "link_video": "https://animefire.plus/video/alien-9"
    },
    {
      "id": 146,
      "nome": "Altered Carbon: Resleeved",
      "link": "https://animefire.plus/animes/altered-carbon-resleeved-todos-os-episodios",
      "texto_original": "Altered Carbon: Resleeved",
      "rating": 6.56,
      "classificacao_etaria": "A16",
      "imagem_original": "https://animefire.plus/img/animes/altered-carbon-resleeved.webp",
      "imagem_pasta": "https://animefire.plus/img/animes/altered-carbon-resleeved/",
      "secao": "legendados",
      "pagina": 78,
      "total_episodios": 1,
      "link_video": "https://animefire.plus/video/altered-carbon-resleeved"
    },
    {
      "id": 165,
      "nome": "Amon Saga",
      "link": "https://animefire.plus/animes/amon-saga-todos-os-episodios",
      "texto_original": "Amon Saga",
      "rating": 5.47,
      "classificacao_etaria": "A16",
      "imagem_original": "https://animefire.plus/img/animes/amon-saga.webp",
      "imagem_pasta": "https://animefire.plus/img/animes/amon-saga/",
      "secao": "legendados",
      "pagina": 42,
      "total_episodios": 1,
      "link_video": "https://animefire.plus/video/amon-saga"
    },
    {
      "id": 171,
      "nome": "Angolmois: Genkou Kassenki",
      "link": "https://animefire.plus/animes/angolmois-genkou-kassenki-todos-os-episodios",
      "texto_original": "Angolmois: Genkou Kassenki",
      "rating": 7.21,
      "classificacao_etaria": "A16",
      "imagem_original": "https://animefire.plus/img/animes/angolmois-genkou-kassenki.webp",
      "imagem_pasta": "https://animefire.plus/img/animes/angolmois-genkou-kassenki/",
      "secao": "legendados",
      "pagina": 117,
      "total_episodios": 12,
      "link_video": "https://animefire.plus/video/angolmois-genkou-kassenki"
    },
    {
      "id": 187,
      "nome": "Another",
      "link": "https://animefire.plus/animes/another-todos-os-episodios",
      "texto_original": "Another",
      "rating": 7.68,
      "classificacao_etaria": "A16",
      "imagem_original": "https://animefire.plus/img/animes/another.webp",
      "imagem_pasta": "https://animefire.plus/img/animes/another/",
      "secao": "legendados",
      "pagina": 94,
      "total_episodios": 12,
      "link_video": "https://animefire.plus/video/another"
    },
    {
      "id": 189,
      "nome": "Another: The Other - Inga",
      "link": "https://animefire.plus/animes/another-the-other---inga-todos-os-episodios",
      "texto_original": "Another: The Other - Inga",
      "rating": 7.36,
      "classificacao_etaria": "A16",
      "imagem_original": "https://animefire.plus/img/animes/another-the-other---inga.webp",
      "imagem_pasta": "https://animefire.plus/img/animes/another-the-other---inga/",
      "secao": "legendados",
      "pagina": 69,
      "total_episodios": 1,
      "link_video": "https://animefire.plus/video/another-the-other---inga"
    },
    {
      "id": 208,
      "nome": "Aoi Bungaku Series",
      "link": "https://animefire.plus/animes/aoi-bungaku-series-todos-os-episodios",
      "texto_original": "Aoi Bungaku Series",
      "rating": 7.81,
      "classificacao_etaria": "A16",
      "imagem_original": "https://animefire.plus/img/animes/aoi-bungaku-series.webp",
      "imagem_pasta": "https://animefire.plus/img/animes/aoi-bungaku-series/",
      "secao": "legendados",
      "pagina": 117,
      "total_episodios": 12,
      "link_video": "https://animefire.plus/video/aoi-bungaku-series"
    },
    {
      "id": 223,
      "nome": "Arc The Lad",
      "link": "https://animefire.plus/animes/arc-the-lad-todos-os-episodios",
      "texto_original": "Arc The Lad",
      "rating": 6.58,
      "classificacao_etaria": "A16",
      "imagem_original": "https://animefire.plus/img/animes/arc-the-lad.webp",
      "imagem_pasta": "https://animefire.plus/img/animes/arc-the-lad/",
      "secao": "legendados",
      "pagina": 96,
      "total_episodios": 26,
      "link_video": "https://animefire.plus/video/arc-the-lad"
    },
    {
      "id": 237,
      "nome": "Arifureta Shokugyou de Sekai Saikyou Season 3 (Dublado)",
      "link": "https://animefire.plus/animes/arifureta-shokugyou-de-sekai-saikyou-season-3-dublado-todos-os-episodios",
      "texto_original": "Arifureta Shokugyou de Sekai Saikyou Season 3 (Dublado)",
      "rating": 7.02,
      "classificacao_etaria": "A16",
      "imagem_original": "https://animefire.plus/img/animes/arifureta-shokugyou-de-sekai-saikyou-season-3.webp",
      "imagem_pasta": "https://animefire.plus/img/animes/arifureta-shokugyou-de-sekai-saikyou-season-3/",
      "secao": "dublados,legendados,lancamentos",
      "pagina": 2,
      "total_episodios": 16,
      "link_video": "https://animefire.plus/video/arifureta-shokugyou-de-sekai-saikyou-season-3-dublado"
    },
    {
      "id": 246,
      "nome": "Arslan Senki (TV)",
      "link": "https://animefire.plus/animes/arslan-senki-tv-todos-os-episodios",
      "texto_original": "Arslan Senki (TV)",
      "rating": 7.77,
      "classificacao_etaria": "A16",
      "imagem_original": "https://animefire.plus/img/animes/arslan-senki-tv.webp",
      "imagem_pasta": "https://animefire.plus/img/animes/arslan-senki-tv/",
      "secao": "legendados",
      "pagina": 95,
      "total_episodios": 4,
      "link_video": "https://animefire.plus/video/arslan-senki-tv"
    },
    {
      "id": 280,
      "nome": "Avenger",
      "link": "https://animefire.plus/animes/avenger-todos-os-episodios",
      "texto_original": "Avenger",
      "rating": 5.96,
      "classificacao_etaria": "A16",
      "imagem_original": "https://animefire.plus/img/animes/avenger.webp",
      "imagem_pasta": "https://animefire.plus/img/animes/avenger/",
      "secao": "legendados",
      "pagina": 179,
      "total_episodios": 13,
      "link_video": "https://animefire.plus/video/avenger"
    },
    {
      "id": 282,
      "nome": "Ayakashi",
      "link": "https://animefire.plus/animes/ayakashi-todos-os-episodios",
      "texto_original": "Ayakashi",
      "rating": 6.43,
      "classificacao_etaria": "A16",
      "imagem_original": "https://animefire.plus/img/animes/ayakashi.webp",
      "imagem_pasta": "https://animefire.plus/img/animes/ayakashi/",
      "secao": "legendados",
      "pagina": 145,
      "total_episodios": 12,
      "link_video": "https://animefire.plus/video/ayakashi"
    },
    {
      "id": 284,
      "nome": "Ayakashi: Japanese Classic Horror",
      "link": "https://animefire.plus/animes/ayakashi-japanese-classic-horror-todos-os-episodios",
      "texto_original": "Ayakashi: Japanese Classic Horror",
      "rating": 7.52,
      "classificacao_etaria": "A16",
      "imagem_original": "https://animefire.plus/img/animes/ayakashi-japanese-classic-horror.webp",
      "imagem_pasta": "https://animefire.plus/img/animes/ayakashi-japanese-classic-horror/",
      "secao": "legendados",
      "pagina": 154,
      "total_episodios": 11,
      "link_video": "https://animefire.plus/video/ayakashi-japanese-classic-horror"
    },
    {
      "id": 285,
      "nome": "Ayashi no Ceres",
      "link": "https://animefire.plus/animes/ayashi-no-ceres-todos-os-episodios",
      "texto_original": "Ayashi no Ceres",
      "rating": 7.32,
      "classificacao_etaria": "A16",
      "imagem_original": "https://animefire.plus/img/animes/ayashi-no-ceres.webp",
      "imagem_pasta": "https://animefire.plus/img/animes/ayashi-no-ceres/",
      "secao": "legendados",
      "pagina": 144,
      "total_episodios": 24,
      "link_video": "https://animefire.plus/video/ayashi-no-ceres"
    },
    {
      "id": 294,
      "nome": "B: The Beginning (Dublado)",
      "link": "https://animefire.plus/animes/b-the-beginning-dublado-todos-os-episodios",
      "texto_original": "B: The Beginning (Dublado)",
      "rating": 7.49,
      "classificacao_etaria": "A16",
      "imagem_original": "https://animefire.plus/img/animes/b-the-beginning.webp",
      "imagem_pasta": "https://animefire.plus/img/animes/b-the-beginning/",
      "secao": "dublados,legendados",
      "pagina": 24,
      "total_episodios": 12,
      "link_video": "https://animefire.plus/video/b-the-beginning-dublado"
    },
    {
      "id": 300,
      "nome": "Babylon",
      "link": "https://animefire.plus/animes/babylon-todos-os-episodios",
      "texto_original": "Babylon",
      "rating": 6.82,
      "classificacao_etaria": "A16",
      "imagem_original": "https://animefire.plus/img/animes/babylon.webp",
      "imagem_pasta": "https://animefire.plus/img/animes/babylon/",
      "secao": "legendados",
      "pagina": 110,
      "total_episodios": 3,
      "link_video": "https://animefire.plus/video/babylon"
    },
    {
      "id": 301,
      "nome": "Baccano!",
      "link": "https://animefire.plus/animes/baccano-todos-os-episodios",
      "texto_original": "Baccano!",
      "rating": 8.42,
      "classificacao_etaria": "A16",
      "imagem_original": "https://animefire.plus/img/animes/baccano.webp",
      "imagem_pasta": "https://animefire.plus/img/animes/baccano/",
      "secao": "legendados",
      "pagina": 51,
      "total_episodios": 13,
      "link_video": "https://animefire.plus/video/baccano"
    },
    {
      "id": 303,
      "nome": "Back Street Girls: Gokudolls (Dublado)",
      "link": "https://animefire.plus/animes/back-street-girls-gokudolls-dublado-todos-os-episodios",
      "texto_original": "Back Street Girls: Gokudolls (Dublado)",
      "rating": 6.93,
      "classificacao_etaria": "A16",
      "imagem_original": "https://animefire.plus/img/animes/back-street-girls-gokudolls.webp",
      "imagem_pasta": "https://animefire.plus/img/animes/back-street-girls-gokudolls/",
      "secao": "dublados,legendados",
      "pagina": 24,
      "total_episodios": 10,
      "link_video": "https://animefire.plus/video/back-street-girls-gokudolls-dublado"
    },
    {
      "id": 308,
      "nome": "Bakemonogatari",
      "link": "https://animefire.plus/animes/bakemonogatari-todos-os-episodios",
      "texto_original": "Bakemonogatari",
      "rating": 8.35,
      "classificacao_etaria": "A16",
      "imagem_original": "https://animefire.plus/img/animes/bakemonogatari.webp",
      "imagem_pasta": "https://animefire.plus/img/animes/bakemonogatari/",
      "secao": "legendados",
      "pagina": 162,
      "total_episodios": 15,
      "link_video": "https://animefire.plus/video/bakemonogatari"
    },
    {
      "id": 309,
      "nome": "Baki (Dublado)",
      "link": "https://animefire.plus/animes/baki-dublado-todos-os-episodios",
      "texto_original": "Baki (Dublado)",
      "rating": 7.33,
      "classificacao_etaria": "A16",
      "imagem_original": "https://animefire.plus/img/animes/baki.webp",
      "imagem_pasta": "https://animefire.plus/img/animes/baki/",
      "secao": "dublados,legendados",
      "pagina": 25,
      "total_episodios": 26,
      "link_video": "https://animefire.plus/video/baki-dublado"
    }
  ],
  "pagination": {
    "current_page": 2,
    "per_page": 20,
    "total_items": 708,
    "total_pages": 36,
    "has_next": true,
    "has_prev": true
  }
}
