{
  "message": "Animes com classificação etária: A16",
  "age_rating": "A16",
  "data": [
    {
      "id": 3327,
      "nome": "Selector Infected WIXOSS",
      "link": "https://animefire.plus/animes/selector-infected-wixoss-todos-os-episodios",
      "texto_original": "Selector Infected WIXOSS",
      "rating": 7.33,
      "classificacao_etaria": "A16",
      "imagem_original": "https://animefire.plus/img/animes/selector-infected-wixoss.webp",
      "imagem_pasta": "https://animefire.plus/img/animes/selector-infected-wixoss/",
      "secao": "legendados",
      "pagina": 100,
      "total_episodios": 12,
      "link_video": "https://animefire.plus/video/selector-infected-wixoss"
    },
    {
      "id": 3328,
      "nome": "Selector Spread WIXOSS",
      "link": "https://animefire.plus/animes/selector-spread-wixoss-todos-os-episodios",
      "texto_original": "Selector Spread WIXOSS",
      "rating": 7.46,
      "classificacao_etaria": "A16",
      "imagem_original": "https://animefire.plus/img/animes/selector-spread-wixoss.webp",
      "imagem_pasta": "https://animefire.plus/img/animes/selector-spread-wixoss/",
      "secao": "legendados",
      "pagina": 104,
      "total_episodios": 1,
      "link_video": "https://animefire.plus/video/selector-spread-wixoss"
    },
    {
      "id": 3347,
      "nome": "Senkou no Night Raid",
      "link": "https://animefire.plus/animes/senkou-no-night-raid-todos-os-episodios",
      "texto_original": "Senkou no Night Raid",
      "rating": 6.92,
      "classificacao_etaria": "A16",
      "imagem_original": "https://animefire.plus/img/animes/senkou-no-night-raid.webp",
      "imagem_pasta": "https://animefire.plus/img/animes/senkou-no-night-raid/",
      "secao": "legendados",
      "pagina": 127,
      "total_episodios": 13,
      "link_video": "https://animefire.plus/video/senkou-no-night-raid"
    },
    {
      "id": 3361,
      "nome": "Serial Experiments Lain (Dublado)",
      "link": "https://animefire.plus/animes/serial-experiments-lain-dublado-todos-os-episodios",
      "texto_original": "Serial Experiments Lain (Dublado)",
      "rating": 8.01,
      "classificacao_etaria": "A16",
      "imagem_original": "https://animefire.plus/img/animes/serial-experiments-lain.webp",
      "imagem_pasta": "https://animefire.plus/img/animes/serial-experiments-lain/",
      "secao": "dublados,legendados",
      "pagina": 25,
      "total_episodios": 13,
      "link_video": "https://animefire.plus/video/serial-experiments-lain-dublado"
    },
    {
      "id": 3362,
      "nome": "Servamp",
      "link": "https://animefire.plus/animes/servamp-todos-os-episodios",
      "texto_original": "Servamp",
      "rating": 7.09,
      "classificacao_etaria": "A16",
      "imagem_original": "https://animefire.plus/img/animes/servamp.webp",
      "imagem_pasta": "https://animefire.plus/img/animes/servamp/",
      "secao": "legendados",
      "pagina": 166,
      "total_episodios": 12,
      "link_video": "https://animefire.plus/video/servamp"
    },
    {
      "id": 3366,
      "nome": "Seven Knights Revolution: Eiyuu no Keishousha",
      "link": "https://animefire.plus/animes/seven-knights-revolution-eiyuu-no-keishousha-todos-os-episodios",
      "texto_original": "Seven Knights Revolution: Eiyuu no Keishousha",
      "rating": 6.3,
      "classificacao_etaria": "A16",
      "imagem_original": "https://animefire.plus/img/animes/seven-knights-revolution-eiyuu-no-keishousha.webp",
      "imagem_pasta": "https://animefire.plus/img/animes/seven-knights-revolution-eiyuu-no-keishousha/",
      "secao": "legendados",
      "pagina": 46,
      "total_episodios": 12,
      "link_video": "https://animefire.plus/video/seven-knights-revolution-eiyuu-no-keishousha"
    },
    {
      "id": 3392,
      "nome": "Shenmue the Animation",
      "link": "https://animefire.plus/animes/shenmue-the-animation-todos-os-episodios",
      "texto_original": "Shenmue the Animation",
      "rating": 6.67,
      "classificacao_etaria": "A16",
      "imagem_original": "https://animefire.plus/img/animes/shenmue-the-animation.webp",
      "imagem_pasta": "https://animefire.plus/img/animes/shenmue-the-animation/",
      "secao": "legendados",
      "pagina": 34,
      "total_episodios": 13,
      "link_video": "https://animefire.plus/video/shenmue-the-animation"
    },
    {
      "id": 3394,
      "nome": "Shi Xiong",
      "link": "https://animefire.plus/animes/shi-xiong-todos-os-episodios",
      "texto_original": "Shi Xiong",
      "rating": 6.79,
      "classificacao_etaria": "A16",
      "imagem_original": "https://animefire.plus/img/animes/shi-xiong.webp",
      "imagem_pasta": "https://animefire.plus/img/animes/shi-xiong/",
      "secao": "legendados",
      "pagina": 114,
      "total_episodios": 32,
      "link_video": "https://animefire.plus/video/shi-xiong"
    },
    {
      "id": 3400,
      "nome": "Shigofumi",
      "link": "https://animefire.plus/animes/shigofumi-todos-os-episodios",
      "texto_original": "Shigofumi",
      "rating": 7.54,
      "classificacao_etaria": "A16",
      "imagem_original": "https://animefire.plus/img/animes/shigofumi.webp",
      "imagem_pasta": "https://animefire.plus/img/animes/shigofumi/",
      "secao": "legendados",
      "pagina": 157,
      "total_episodios": 12,
      "link_video": "https://animefire.plus/video/shigofumi"
    },
    {
      "id": 3402,
      "nome": "Shiguang Guiyu",
      "link": "https://animefire.plus/animes/shiguang-guiyu-todos-os-episodios",
      "texto_original": "Shiguang Guiyu",
      "rating": 5.49,
      "classificacao_etaria": "A16",
      "imagem_original": "https://animefire.plus/img/animes/shiguang-guiyu.webp",
      "imagem_pasta": "https://animefire.plus/img/animes/shiguang-guiyu/",
      "secao": "legendados",
      "pagina": 133,
      "total_episodios": 10,
      "link_video": "https://animefire.plus/video/shiguang-guiyu"
    },
    {
      "id": 3407,
      "nome": "Shikabane Hime: Aka",
      "link": "https://animefire.plus/animes/shikabane-hime-aka-todos-os-episodios",
      "texto_original": "Shikabane Hime: Aka",
      "rating": 7.31,
      "classificacao_etaria": "A16",
      "imagem_original": "https://animefire.plus/img/animes/shikabane-hime-aka.webp",
      "imagem_pasta": "https://animefire.plus/img/animes/shikabane-hime-aka/",
      "secao": "legendados",
      "pagina": 177,
      "total_episodios": 12,
      "link_video": "https://animefire.plus/video/shikabane-hime-aka"
    },
    {
      "id": 3408,
      "nome": "Shikabane Hime: Kuro",
      "link": "https://animefire.plus/animes/shikabane-hime-kuro-todos-os-episodios",
      "texto_original": "Shikabane Hime: Kuro",
      "rating": 7.38,
      "classificacao_etaria": "A16",
      "imagem_original": "https://animefire.plus/img/animes/shikabane-hime-kuro.webp",
      "imagem_pasta": "https://animefire.plus/img/animes/shikabane-hime-kuro/",
      "secao": "legendados",
      "pagina": 147,
      "total_episodios": 12,
      "link_video": "https://animefire.plus/video/shikabane-hime-kuro"
    },
    {
      "id": 3410,
      "nome": "Shiki",
      "link": "https://animefire.plus/animes/shiki-todos-os-episodios",
      "texto_original": "Shiki",
      "rating": 7.87,
      "classificacao_etaria": "A16",
      "imagem_original": "https://animefire.plus/img/animes/shiki.webp",
      "imagem_pasta": "https://animefire.plus/img/animes/shiki/",
      "secao": "legendados",
      "pagina": 154,
      "total_episodios": 22,
      "link_video": "https://animefire.plus/video/shiki"
    },
    {
      "id": 3436,
      "nome": "Shinchou Yuusha: Kono Yuusha ga Ore Tueee Kuse ni Shinchou Sugiru",
      "link": "https://animefire.plus/animes/shinchou-yuusha-kono-yuusha-ga-ore-tueee-kuse-ni-shinchou-sugiru-todos-os-episodios",
      "texto_original": "Shinchou Yuusha: Kono Yuusha ga Ore Tueee Kuse ni Shinchou Sugiru",
      "rating": 7.55,
      "classificacao_etaria": "A16",
      "imagem_original": "https://animefire.plus/img/animes/shinchou-yuusha-kono-yuusha-ga-ore-tueee-kuse-ni-shinchou-sugiru.webp",
      "imagem_pasta": "https://animefire.plus/img/animes/shinchou-yuusha-kono-yuusha-ga-ore-tueee-kuse-ni-shinchou-sugiru/",
      "secao": "legendados",
      "pagina": 111,
      "total_episodios": 12,
      "link_video": "https://animefire.plus/video/shinchou-yuusha-kono-yuusha-ga-ore-tueee-kuse-ni-shinchou-sugiru"
    },
    {
      "id": 3438,
      "nome": "Shingeki no Bahamut: Genesis",
      "link": "https://animefire.plus/animes/shingeki-no-bahamut-genesis-todos-os-episodios",
      "texto_original": "Shingeki no Bahamut: Genesis",
      "rating": 7.74,
      "classificacao_etaria": "A16",
      "imagem_original": "https://animefire.plus/img/animes/shingeki-no-bahamut-genesis.webp",
      "imagem_pasta": "https://animefire.plus/img/animes/shingeki-no-bahamut-genesis/",
      "secao": "legendados",
      "pagina": 135,
      "total_episodios": 0,
      "link_video": "https://animefire.plus/video/shingeki-no-bahamut-genesis"
    },
    {
      "id": 3439,
      "nome": "Shingeki no Bahamut: Virgin Soul",
      "link": "https://animefire.plus/animes/shingeki-no-bahamut-virgin-soul-todos-os-episodios",
      "texto_original": "Shingeki no Bahamut: Virgin Soul",
      "rating": 7.53,
      "classificacao_etaria": "A16",
      "imagem_original": "https://animefire.plus/img/animes/shingeki-no-bahamut-virgin-soul.webp",
      "imagem_pasta": "https://animefire.plus/img/animes/shingeki-no-bahamut-virgin-soul/",
      "secao": "legendados",
      "pagina": 148,
      "total_episodios": 24,
      "link_video": "https://animefire.plus/video/shingeki-no-bahamut-virgin-soul"
    },
    {
      "id": 3440,
      "nome": "Shingeki no Kyojin (Dublado)",
      "link": "https://animefire.plus/animes/shingeki-no-kyojin-dublado-todos-os-episodios",
      "texto_original": "Shingeki no Kyojin (Dublado)",
      "rating": 8.45,
      "classificacao_etaria": "A16",
      "imagem_original": "https://animefire.plus/img/animes/shingeki-no-kyojin.webp",
      "imagem_pasta": "https://animefire.plus/img/animes/shingeki-no-kyojin/",
      "secao": "dublados,legendados",
      "pagina": 19,
      "total_episodios": 25,
      "link_video": "https://animefire.plus/video/shingeki-no-kyojin-dublado"
    },
    {
      "id": 3441,
      "nome": "Shingeki no Kyojin OVA (Dublado)",
      "link": "https://animefire.plus/animes/shingeki-no-kyojin-ova-dublado-todos-os-episodios",
      "texto_original": "Shingeki no Kyojin OVA (Dublado)",
      "rating": 7.86,
      "classificacao_etaria": "A16",
      "imagem_original": "https://animefire.plus/img/animes/shingeki-no-kyojin-ova.webp",
      "imagem_pasta": "https://animefire.plus/img/animes/shingeki-no-kyojin-ova/",
      "secao": "dublados,legendados",
      "pagina": 11,
      "total_episodios": 3,
      "link_video": "https://animefire.plus/video/shingeki-no-kyojin-ova-dublado"
    },
    {
      "id": 3442,
      "nome": "Shingeki no Kyojin Season 2 (Dublado)",
      "link": "https://animefire.plus/animes/shingeki-no-kyojin-season-2-dublado-todos-os-episodios",
      "texto_original": "Shingeki no Kyojin Season 2 (Dublado)",
      "rating": 8.4,
      "classificacao_etaria": "A16",
      "imagem_original": "https://animefire.plus/img/animes/shingeki-no-kyojin-season-2.webp",
      "imagem_pasta": "https://animefire.plus/img/animes/shingeki-no-kyojin-season-2/",
      "secao": "dublados,legendados",
      "pagina": 19,
      "total_episodios": 12,
      "link_video": "https://animefire.plus/video/shingeki-no-kyojin-season-2-dublado"
    },
    {
      "id": 3443,
      "nome": "Shingeki no Kyojin Season 3 (Dublado)",
      "link": "https://animefire.plus/animes/shingeki-no-kyojin-season-3-dublado-todos-os-episodios",
      "texto_original": "Shingeki no Kyojin Season 3 (Dublado)",
      "rating": 8.54,
      "classificacao_etaria": "A16",
      "imagem_original": "https://animefire.plus/img/animes/shingeki-no-kyojin-season-3.webp",
      "imagem_pasta": "https://animefire.plus/img/animes/shingeki-no-kyojin-season-3/",
      "secao": "dublados,legendados",
      "pagina": 19,
      "total_episodios": 12,
      "link_video": "https://animefire.plus/video/shingeki-no-kyojin-season-3-dublado"
    }
  ],
  "pagination": {
    "current_page": 29,
    "per_page": 20,
    "total_items": 708,
    "total_pages": 36,
    "has_next": true,
    "has_prev": true
  }
}
