{
  "message": "Animes com classificação etária: A16",
  "age_rating": "A16",
  "data": [
    {
      "id": 2377,
      "nome": "Majo no Tabitabi (Dublado)",
      "link": "https://animefire.plus/animes/majo-no-tabitabi-dublado-todos-os-episodios",
      "texto_original": "Majo no Tabitabi (Dublado)",
      "rating": 7.55,
      "classificacao_etaria": "A16",
      "imagem_original": "https://animefire.plus/img/animes/majo-no-tabitabi.webp",
      "imagem_pasta": "https://animefire.plus/img/animes/majo-no-tabitabi/",
      "secao": "dublados,legendados",
      "pagina": 13,
      "total_episodios": 12,
      "link_video": "https://animefire.plus/video/majo-no-tabitabi-dublado"
    },
    {
      "id": 2378,
      "nome": "Majo to Yajuu",
      "link": "https://animefire.plus/animes/majo-to-yajuu-todos-os-episodios",
      "texto_original": "Majo to Yajuu",
      "rating": 7.44,
      "classificacao_etaria": "A16",
      "imagem_original": "https://animefire.plus/img/animes/majo-to-yajuu.webp",
      "imagem_pasta": "https://animefire.plus/img/animes/majo-to-yajuu/",
      "secao": "legendados",
      "pagina": 18,
      "total_episodios": 12,
      "link_video": "https://animefire.plus/video/majo-to-yajuu"
    },
    {
      "id": 2411,
      "nome": "Maou Gakuin no Futekigousha: Shijou Saikyou no Maou no Shiso, Tensei shite Shison-tachi no Gakkou e",
      "link": "https://animefire.plus/animes/maou-gakuin-no-futekigousha-shijou-saikyou-no-maou-no-shiso-tensei-shite-shison-tachi-no-gakkou-e-todos-os-episodios",
      "texto_original": "Maou Gakuin no Futekigousha: Shijou Saikyou no Maou no Shiso, Tensei shite Shison-tachi no Gakkou e",
      "rating": 7.34,
      "classificacao_etaria": "A16",
      "imagem_original": "https://animefire.plus/img/animes/maou-gakuin-no-futekigousha-shijou-saikyou-no-maou-no-shiso-tensei-shite-shison-tachi-no-gakkou-e.webp",
      "imagem_pasta": "https://animefire.plus/img/animes/maou-gakuin-no-futekigousha-shijou-saikyou-no-maou-no-shiso-tensei-shite-shison-tachi-no-gakkou-e/",
      "secao": "legendados",
      "pagina": 58,
      "total_episodios": 7,
      "link_video": "https://animefire.plus/video/maou-gakuin-no-futekigousha-shijou-saikyou-no-maou-no-shiso-tensei-shite-shison-tachi-no-gakkou-e"
    },
    {
      "id": 2412,
      "nome": "Maou Gakuin no Futekigousha: Shijou Saikyou no Maou no Shiso, Tensei shite Shison-tachi no Gakkou e Kayou II",
      "link": "https://animefire.plus/animes/maou-gakuin-no-futekigousha-shijou-saikyou-no-maou-no-shiso-tensei-shite-shison-tachi-no-gakkou-e-kayou-ii-todos-os-episodios",
      "texto_original": "Maou Gakuin no Futekigousha: Shijou Saikyou no Maou no Shiso, Tensei shite Shison-tachi no Gakkou e Kayou II",
      "rating": 6.85,
      "classificacao_etaria": "A16",
      "imagem_original": "https://animefire.plus/img/animes/maou-gakuin-no-futekigousha-shijou-saikyou-no-maou-no-shiso-tensei-shite-shison-tachi-no-gakkou-e-kayou-ii.webp",
      "imagem_pasta": "https://animefire.plus/img/animes/maou-gakuin-no-futekigousha-shijou-saikyou-no-maou-no-shiso-tensei-shite-shison-tachi-no-gakkou-e-kayou-ii/",
      "secao": "legendados,lancamentos",
      "pagina": 27,
      "total_episodios": 9,
      "link_video": "https://animefire.plus/video/maou-gakuin-no-futekigousha-shijou-saikyou-no-maou-no-shiso-tensei-shite-shison-tachi-no-gakkou-e-kayou-ii"
    },
    {
      "id": 2413,
      "nome": "Maou Gakuin no Futekigousha: Shijou Saikyou no Maou no Shiso, Tensei shite Shison-tachi no Gakkou e Kayou II Part 2",
      "link": "https://animefire.plus/animes/maou-gakuin-no-futekigousha-shijou-saikyou-no-maou-no-shiso-tensei-shite-shison-tachi-no-gakkou-e-kayou-ii-part-2-todos-os-episodios",
      "texto_original": "Maou Gakuin no Futekigousha: Shijou Saikyou no Maou no Shiso, Tensei shite Shison-tachi no Gakkou e Kayou II Part 2",
      "rating": 6.46,
      "classificacao_etaria": "A16",
      "imagem_original": "https://animefire.plus/img/animes/maou-gakuin-no-futekigousha-shijou-saikyou-no-maou-no-shiso-tensei-shite-shison-tachi-no-gakkou-e-kayou-ii-part-2.webp",
      "imagem_pasta": "https://animefire.plus/img/animes/maou-gakuin-no-futekigousha-shijou-saikyou-no-maou-no-shiso-tensei-shite-shison-tachi-no-gakkou-e-kayou-ii-part-2/",
      "secao": "legendados,lancamentos",
      "pagina": 16,
      "total_episodios": 0,
      "link_video": "https://animefire.plus/video/maou-gakuin-no-futekigousha-shijou-saikyou-no-maou-no-shiso-tensei-shite-shison-tachi-no-gakkou-e-kayou-ii-part-2"
    },
    {
      "id": 2443,
      "nome": "Master Keaton",
      "link": "https://animefire.plus/animes/master-keaton-todos-os-episodios",
      "texto_original": "Master Keaton",
      "rating": 7.67,
      "classificacao_etaria": "A16",
      "imagem_original": "https://animefire.plus/img/animes/master-keaton.webp",
      "imagem_pasta": "https://animefire.plus/img/animes/master-keaton/",
      "secao": "legendados",
      "pagina": 136,
      "total_episodios": 24,
      "link_video": "https://animefire.plus/video/master-keaton"
    },
    {
      "id": 2444,
      "nome": "Master Keaton OVA",
      "link": "https://animefire.plus/animes/master-keaton-ova-todos-os-episodios",
      "texto_original": "Master Keaton OVA",
      "rating": 7.84,
      "classificacao_etaria": "A16",
      "imagem_original": "https://animefire.plus/img/animes/master-keaton-ova.webp",
      "imagem_pasta": "https://animefire.plus/img/animes/master-keaton-ova/",
      "secao": "legendados",
      "pagina": 166,
      "total_episodios": 15,
      "link_video": "https://animefire.plus/video/master-keaton-ova"
    },
    {
      "id": 2450,
      "nome": "Mawaru Penguindrum",
      "link": "https://animefire.plus/animes/mawaru-penguindrum-todos-os-episodios",
      "texto_original": "Mawaru Penguindrum",
      "rating": 8.01,
      "classificacao_etaria": "A16",
      "imagem_original": "https://animefire.plus/img/animes/mawaru-penguindrum.webp",
      "imagem_pasta": "https://animefire.plus/img/animes/mawaru-penguindrum/",
      "secao": "legendados",
      "pagina": 120,
      "total_episodios": 24,
      "link_video": "https://animefire.plus/video/mawaru-penguindrum"
    },
    {
      "id": 2453,
      "nome": "Mayoiga",
      "link": "https://animefire.plus/animes/mayoiga-todos-os-episodios",
      "texto_original": "Mayoiga",
      "rating": 5.62,
      "classificacao_etaria": "A16",
      "imagem_original": "https://animefire.plus/img/animes/mayoiga.webp",
      "imagem_pasta": "https://animefire.plus/img/animes/mayoiga/",
      "secao": "legendados",
      "pagina": 101,
      "total_episodios": 0,
      "link_video": "https://animefire.plus/video/mayoiga"
    },
    {
      "id": 2464,
      "nome": "Megalo Box",
      "link": "https://animefire.plus/animes/megalo-box-todos-os-episodios",
      "texto_original": "Megalo Box",
      "rating": 8.02,
      "classificacao_etaria": "A16",
      "imagem_original": "https://animefire.plus/img/animes/megalo-box.webp",
      "imagem_pasta": "https://animefire.plus/img/animes/megalo-box/",
      "secao": "legendados",
      "pagina": 95,
      "total_episodios": 13,
      "link_video": "https://animefire.plus/video/megalo-box"
    },
    {
      "id": 2473,
      "nome": "Meiji Gekken: 1874",
      "link": "https://animefire.plus/animes/meiji-gekken-1874-todos-os-episodios",
      "texto_original": "Meiji Gekken: 1874",
      "rating": 6.32,
      "classificacao_etaria": "A16",
      "imagem_original": "https://animefire.plus/img/animes/meiji-gekken-1874.webp",
      "imagem_pasta": "https://animefire.plus/img/animes/meiji-gekken-1874/",
      "secao": "legendados",
      "pagina": 16,
      "total_episodios": 10,
      "link_video": "https://animefire.plus/video/meiji-gekken-1874"
    },
    {
      "id": 2488,
      "nome": "Mi Yu Xing Zhe",
      "link": "https://animefire.plus/animes/mi-yu-xing-zhe-todos-os-episodios",
      "texto_original": "Mi Yu Xing Zhe",
      "rating": 7.56,
      "classificacao_etaria": "A16",
      "imagem_original": "https://animefire.plus/img/animes/mi-yu-xing-zhe.webp",
      "imagem_pasta": "https://animefire.plus/img/animes/mi-yu-xing-zhe/",
      "secao": "legendados",
      "pagina": 174,
      "total_episodios": 12,
      "link_video": "https://animefire.plus/video/mi-yu-xing-zhe"
    },
    {
      "id": 2489,
      "nome": "Miami Guns",
      "link": "https://animefire.plus/animes/miami-guns-todos-os-episodios",
      "texto_original": "Miami Guns",
      "rating": 6.56,
      "classificacao_etaria": "A16",
      "imagem_original": "https://animefire.plus/img/animes/miami-guns.webp",
      "imagem_pasta": "https://animefire.plus/img/animes/miami-guns/",
      "secao": "legendados",
      "pagina": 147,
      "total_episodios": 13,
      "link_video": "https://animefire.plus/video/miami-guns"
    },
    {
      "id": 2490,
      "nome": "Michiko to Hatchin",
      "link": "https://animefire.plus/animes/michiko-to-hatchin-todos-os-episodios",
      "texto_original": "Michiko to Hatchin",
      "rating": 7.87,
      "classificacao_etaria": "A16",
      "imagem_original": "https://animefire.plus/img/animes/michiko-to-hatchin.webp",
      "imagem_pasta": "https://animefire.plus/img/animes/michiko-to-hatchin/",
      "secao": "legendados",
      "pagina": 177,
      "total_episodios": 22,
      "link_video": "https://animefire.plus/video/michiko-to-hatchin"
    },
    {
      "id": 2505,
      "nome": "Min Diao Ju Yi Wen Lu",
      "link": "https://animefire.plus/animes/min-diao-ju-yi-wen-lu-todos-os-episodios",
      "texto_original": "Min Diao Ju Yi Wen Lu",
      "rating": 6.68,
      "classificacao_etaria": "A16",
      "imagem_original": "https://animefire.plus/img/animes/min-diao-ju-yi-wen-lu.webp",
      "imagem_pasta": "https://animefire.plus/img/animes/min-diao-ju-yi-wen-lu/",
      "secao": "legendados",
      "pagina": 43,
      "total_episodios": 5,
      "link_video": "https://animefire.plus/video/min-diao-ju-yi-wen-lu"
    },
    {
      "id": 2519,
      "nome": "Mirai Nikki (Dublado)",
      "link": "https://animefire.plus/animes/mirai-nikki-dublado-todos-os-episodios",
      "texto_original": "Mirai Nikki (Dublado)",
      "rating": 7.22,
      "classificacao_etaria": "A16",
      "imagem_original": "https://animefire.plus/img/animes/mirai-nikki.webp",
      "imagem_pasta": "https://animefire.plus/img/animes/mirai-nikki/",
      "secao": "dublados,legendados",
      "pagina": 13,
      "total_episodios": 26,
      "link_video": "https://animefire.plus/video/mirai-nikki-dublado"
    },
    {
      "id": 2520,
      "nome": "Mirai Nikki: Redial",
      "link": "https://animefire.plus/animes/mirai-nikki-redial-todos-os-episodios",
      "texto_original": "Mirai Nikki: Redial",
      "rating": 7.46,
      "classificacao_etaria": "A16",
      "imagem_original": "https://animefire.plus/img/animes/mirai-nikki-redial.webp",
      "imagem_pasta": "https://animefire.plus/img/animes/mirai-nikki-redial/",
      "secao": "legendados",
      "pagina": 60,
      "total_episodios": 1,
      "link_video": "https://animefire.plus/video/mirai-nikki-redial"
    },
    {
      "id": 2536,
      "nome": "Mo Dao Zu Shi",
      "link": "https://animefire.plus/animes/mo-dao-zu-shi-todos-os-episodios",
      "texto_original": "Mo Dao Zu Shi",
      "rating": 8.56,
      "classificacao_etaria": "A16",
      "imagem_original": "https://animefire.plus/img/animes/mo-dao-zu-shi.webp",
      "imagem_pasta": "https://animefire.plus/img/animes/mo-dao-zu-shi/",
      "secao": "legendados",
      "pagina": 95,
      "total_episodios": 15,
      "link_video": "https://animefire.plus/video/mo-dao-zu-shi"
    },
    {
      "id": 2537,
      "nome": "Mo Dao Zu Shi 2nd Season",
      "link": "https://animefire.plus/animes/mo-dao-zu-shi-2nd-season-todos-os-episodios",
      "texto_original": "Mo Dao Zu Shi 2nd Season",
      "rating": 8.41,
      "classificacao_etaria": "A16",
      "imagem_original": "https://animefire.plus/img/animes/mo-dao-zu-shi-2nd-season.webp",
      "imagem_pasta": "https://animefire.plus/img/animes/mo-dao-zu-shi-2nd-season/",
      "secao": "legendados",
      "pagina": 51,
      "total_episodios": 8,
      "link_video": "https://animefire.plus/video/mo-dao-zu-shi-2nd-season"
    },
    {
      "id": 2543,
      "nome": "Mobile Suit Gundam 00 (Dublado)",
      "link": "https://animefire.plus/animes/mobile-suit-gundam-00-dublado-todos-os-episodios",
      "texto_original": "Mobile Suit Gundam 00 (Dublado)",
      "rating": 8.13,
      "classificacao_etaria": "A16",
      "imagem_original": "https://animefire.plus/img/animes/mobile-suit-gundam-00.webp",
      "imagem_pasta": "https://animefire.plus/img/animes/mobile-suit-gundam-00/",
      "secao": "dublados,legendados,lancamentos",
      "pagina": 18,
      "total_episodios": 25,
      "link_video": "https://animefire.plus/video/mobile-suit-gundam-00-dublado"
    }
  ],
  "pagination": {
    "current_page": 22,
    "per_page": 20,
    "total_items": 708,
    "total_pages": 36,
    "has_next": true,
    "has_prev": true
  }
}
