{
  "message": "Animes com classificação etária: A16",
  "age_rating": "A16",
  "data": [
    {
      "id": 777,
      "nome": "Death Parade",
      "link": "https://animefire.plus/animes/death-parade-todos-os-episodios",
      "texto_original": "Death Parade",
      "rating": 8.23,
      "classificacao_etaria": "A16",
      "imagem_original": "https://animefire.plus/img/animes/death-parade.webp",
      "imagem_pasta": "https://animefire.plus/img/animes/death-parade/",
      "secao": "legendados",
      "pagina": 166,
      "total_episodios": 3,
      "link_video": "https://animefire.plus/video/death-parade"
    },
    {
      "id": 778,
      "nome": "Deatte 5-byou de Battle (Dublado)",
      "link": "https://animefire.plus/animes/deatte-5-byou-de-battle-dublado-todos-os-episodios",
      "texto_original": "Deatte 5-byou de Battle (Dublado)",
      "rating": 6.75,
      "classificacao_etaria": "A16",
      "imagem_original": "https://animefire.plus/img/animes/deatte-5-byou-de-battle.webp",
      "imagem_pasta": "https://animefire.plus/img/animes/deatte-5-byou-de-battle/",
      "secao": "dublados,legendados",
      "pagina": 15,
      "total_episodios": 12,
      "link_video": "https://animefire.plus/video/deatte-5-byou-de-battle-dublado"
    },
    {
      "id": 786,
      "nome": "Delicious Party♡Precure",
      "link": "https://animefire.plus/animes/delicious-party-precure-todos-os-episodios",
      "texto_original": "Delicious Party♡Precure",
      "rating": 6.86,
      "classificacao_etaria": "A16",
      "imagem_original": "https://animefire.plus/img/animes/delicious-party-precure.webp",
      "imagem_pasta": "https://animefire.plus/img/animes/delicious-party-precure/",
      "secao": "legendados",
      "pagina": 35,
      "total_episodios": 45,
      "link_video": "https://animefire.plus/video/delicious-party-precure"
    },
    {
      "id": 796,
      "nome": "Denpa-teki na Kanojo",
      "link": "https://animefire.plus/animes/denpa-teki-na-kanojo-todos-os-episodios",
      "texto_original": "Denpa-teki na Kanojo",
      "rating": 7.64,
      "classificacao_etaria": "A16",
      "imagem_original": "https://animefire.plus/img/animes/denpa-teki-na-kanojo.webp",
      "imagem_pasta": "https://animefire.plus/img/animes/denpa-teki-na-kanojo/",
      "secao": "legendados",
      "pagina": 104,
      "total_episodios": 2,
      "link_video": "https://animefire.plus/video/denpa-teki-na-kanojo"
    },
    {
      "id": 797,
      "nome": "Densetsu no Yuusha no Densetsu",
      "link": "https://animefire.plus/animes/densetsu-no-yuusha-no-densetsu-todos-os-episodios",
      "texto_original": "Densetsu no Yuusha no Densetsu",
      "rating": 7.71,
      "classificacao_etaria": "A16",
      "imagem_original": "https://animefire.plus/img/animes/densetsu-no-yuusha-no-densetsu.webp",
      "imagem_pasta": "https://animefire.plus/img/animes/densetsu-no-yuusha-no-densetsu/",
      "secao": "legendados",
      "pagina": 144,
      "total_episodios": 24,
      "link_video": "https://animefire.plus/video/densetsu-no-yuusha-no-densetsu"
    },
    {
      "id": 801,
      "nome": "Detroit Metal City",
      "link": "https://animefire.plus/animes/detroit-metal-city-todos-os-episodios",
      "texto_original": "Detroit Metal City",
      "rating": 8.19,
      "classificacao_etaria": "A16",
      "imagem_original": "https://animefire.plus/img/animes/detroit-metal-city.webp",
      "imagem_pasta": "https://animefire.plus/img/animes/detroit-metal-city/",
      "secao": "legendados",
      "pagina": 114,
      "total_episodios": 0,
      "link_video": "https://animefire.plus/video/detroit-metal-city"
    },
    {
      "id": 802,
      "nome": "Devil May Cry",
      "link": "https://animefire.plus/animes/devil-may-cry-todos-os-episodios",
      "texto_original": "Devil May Cry",
      "rating": 7.08,
      "classificacao_etaria": "A16",
      "imagem_original": "https://animefire.plus/img/animes/devil-may-cry.webp",
      "imagem_pasta": "https://animefire.plus/img/animes/devil-may-cry/",
      "secao": "legendados",
      "pagina": 178,
      "total_episodios": 12,
      "link_video": "https://animefire.plus/video/devil-may-cry"
    },
    {
      "id": 803,
      "nome": "Devil Survivor 2 The Animation",
      "link": "https://animefire.plus/animes/devil-survivor-2-the-animation-todos-os-episodios",
      "texto_original": "Devil Survivor 2 The Animation",
      "rating": 6.99,
      "classificacao_etaria": "A16",
      "imagem_original": "https://animefire.plus/img/animes/devil-survivor-2-the-animation.webp",
      "imagem_pasta": "https://animefire.plus/img/animes/devil-survivor-2-the-animation/",
      "secao": "legendados",
      "pagina": 160,
      "total_episodios": 13,
      "link_video": "https://animefire.plus/video/devil-survivor-2-the-animation"
    },
    {
      "id": 806,
      "nome": "Devils Line",
      "link": "https://animefire.plus/animes/devils-line-todos-os-episodios",
      "texto_original": "Devils Line",
      "rating": 6.89,
      "classificacao_etaria": "A16",
      "imagem_original": "https://animefire.plus/img/animes/devils-line.webp",
      "imagem_pasta": "https://animefire.plus/img/animes/devils-line/",
      "secao": "legendados",
      "pagina": 160,
      "total_episodios": 12,
      "link_video": "https://animefire.plus/video/devils-line"
    },
    {
      "id": 807,
      "nome": "Devils Line: Anytime Anywhere",
      "link": "https://animefire.plus/animes/devils-line-anytime-anywhere-todos-os-episodios",
      "texto_original": "Devils Line: Anytime Anywhere",
      "rating": 6.88,
      "classificacao_etaria": "A16",
      "imagem_original": "https://animefire.plus/img/animes/devils-line-anytime-anywhere.webp",
      "imagem_pasta": "https://animefire.plus/img/animes/devils-line-anytime-anywhere/",
      "secao": "legendados",
      "pagina": 42,
      "total_episodios": 1,
      "link_video": "https://animefire.plus/video/devils-line-anytime-anywhere"
    },
    {
      "id": 810,
      "nome": "Diabolik Lovers",
      "link": "https://animefire.plus/animes/diabolik-lovers-todos-os-episodios",
      "texto_original": "Diabolik Lovers",
      "rating": 5.65,
      "classificacao_etaria": "A16",
      "imagem_original": "https://animefire.plus/img/animes/diabolik-lovers.webp",
      "imagem_pasta": "https://animefire.plus/img/animes/diabolik-lovers/",
      "secao": "legendados",
      "pagina": 160,
      "total_episodios": 6,
      "link_video": "https://animefire.plus/video/diabolik-lovers"
    },
    {
      "id": 811,
      "nome": "Diabolik Lovers More,Blood",
      "link": "https://animefire.plus/animes/diabolik-lovers-more-blood-todos-os-episodios",
      "texto_original": "Diabolik Lovers More,Blood",
      "rating": 5.83,
      "classificacao_etaria": "A16",
      "imagem_original": "https://animefire.plus/img/animes/diabolik-lovers-more-blood.webp",
      "imagem_pasta": "https://animefire.plus/img/animes/diabolik-lovers-more-blood/",
      "secao": "legendados",
      "pagina": 63,
      "total_episodios": 12,
      "link_video": "https://animefire.plus/video/diabolik-lovers-more-blood"
    },
    {
      "id": 814,
      "nome": "Dies Irae",
      "link": "https://animefire.plus/animes/dies-irae-todos-os-episodios",
      "texto_original": "Dies Irae",
      "rating": 5.49,
      "classificacao_etaria": "A16",
      "imagem_original": "https://animefire.plus/img/animes/dies-irae.webp",
      "imagem_pasta": "https://animefire.plus/img/animes/dies-irae/",
      "secao": "legendados",
      "pagina": 98,
      "total_episodios": 17,
      "link_video": "https://animefire.plus/video/dies-irae"
    },
    {
      "id": 815,
      "nome": "Dies Irae: To the Ring Reincarnation",
      "link": "https://animefire.plus/animes/dies-irae-to-the-ring-reincarnation-todos-os-episodios",
      "texto_original": "Dies Irae: To the Ring Reincarnation",
      "rating": 6.15,
      "classificacao_etaria": "A16",
      "imagem_original": "https://animefire.plus/img/animes/dies-irae-to-the-ring-reincarnation.webp",
      "imagem_pasta": "https://animefire.plus/img/animes/dies-irae-to-the-ring-reincarnation/",
      "secao": "legendados",
      "pagina": 171,
      "total_episodios": 6,
      "link_video": "https://animefire.plus/video/dies-irae-to-the-ring-reincarnation"
    },
    {
      "id": 829,
      "nome": "Dimension W",
      "link": "https://animefire.plus/animes/dimension-w-todos-os-episodios",
      "texto_original": "Dimension W",
      "rating": 7.29,
      "classificacao_etaria": "A16",
      "imagem_original": "https://animefire.plus/img/animes/dimension-w.webp",
      "imagem_pasta": "https://animefire.plus/img/animes/dimension-w/",
      "secao": "legendados",
      "pagina": 162,
      "total_episodios": 3,
      "link_video": "https://animefire.plus/video/dimension-w"
    },
    {
      "id": 847,
      "nome": "Dorei-ku The Animation",
      "link": "https://animefire.plus/animes/dorei-ku-the-animation-todos-os-episodios",
      "texto_original": "Dorei-ku The Animation",
      "rating": 6.12,
      "classificacao_etaria": "A16",
      "imagem_original": "https://animefire.plus/img/animes/dorei-ku-the-animation.webp",
      "imagem_pasta": "https://animefire.plus/img/animes/dorei-ku-the-animation/",
      "secao": "legendados",
      "pagina": 127,
      "total_episodios": 12,
      "link_video": "https://animefire.plus/video/dorei-ku-the-animation"
    },
    {
      "id": 848,
      "nome": "Dorohedoro (Dublado)",
      "link": "https://animefire.plus/animes/dorohedoro-dublado-todos-os-episodios",
      "texto_original": "Dorohedoro (Dublado)",
      "rating": 8.13,
      "classificacao_etaria": "A16",
      "imagem_original": "https://animefire.plus/img/animes/dorohedoro.webp",
      "imagem_pasta": "https://animefire.plus/img/animes/dorohedoro/",
      "secao": "dublados,legendados",
      "pagina": 20,
      "total_episodios": 12,
      "link_video": "https://animefire.plus/video/dorohedoro-dublado"
    },
    {
      "id": 850,
      "nome": "Dororo",
      "link": "https://animefire.plus/animes/dororo-todos-os-episodios",
      "texto_original": "Dororo",
      "rating": 8.21,
      "classificacao_etaria": "A16",
      "imagem_original": "https://animefire.plus/img/animes/dororo.webp",
      "imagem_pasta": "https://animefire.plus/img/animes/dororo/",
      "secao": "legendados",
      "pagina": 41,
      "total_episodios": 24,
      "link_video": "https://animefire.plus/video/dororo"
    },
    {
      "id": 851,
      "nome": "Dororo to Hyakkimaru",
      "link": "https://animefire.plus/animes/dororo-to-hyakkimaru-todos-os-episodios",
      "texto_original": "Dororo to Hyakkimaru",
      "rating": 7.14,
      "classificacao_etaria": "A16",
      "imagem_original": "https://animefire.plus/img/animes/dororo-to-hyakkimaru.webp",
      "imagem_pasta": "https://animefire.plus/img/animes/dororo-to-hyakkimaru/",
      "secao": "legendados",
      "pagina": 77,
      "total_episodios": 2,
      "link_video": "https://animefire.plus/video/dororo-to-hyakkimaru"
    },
    {
      "id": 852,
      "nome": "Dororon Enma-kun Meeramera",
      "link": "https://animefire.plus/animes/dororon-enma-kun-meeramera-todos-os-episodios",
      "texto_original": "Dororon Enma-kun Meeramera",
      "rating": 6.55,
      "classificacao_etaria": "A16",
      "imagem_original": "https://animefire.plus/img/animes/dororon-enma-kun-meeramera.webp",
      "imagem_pasta": "https://animefire.plus/img/animes/dororon-enma-kun-meeramera/",
      "secao": "legendados",
      "pagina": 59,
      "total_episodios": 12,
      "link_video": "https://animefire.plus/video/dororon-enma-kun-meeramera"
    }
  ],
  "pagination": {
    "current_page": 8,
    "per_page": 20,
    "total_items": 708,
    "total_pages": 36,
    "has_next": true,
    "has_prev": true
  }
}
