{
  "message": "Animes com classificação etária: A18",
  "age_rating": "A18",
  "data": [
    {
      "id": 3705,
      "nome": "Tachibanakan Triangle",
      "link": "https://animefire.plus/animes/tachibanakan-triangle-todos-os-episodios",
      "texto_original": "Tachibanakan Triangle",
      "rating": 5.63,
      "classificacao_etaria": "A18",
      "imagem_original": "https://animefire.plus/img/animes/tachibanakan-triangle.webp",
      "imagem_pasta": "https://animefire.plus/img/animes/tachibanakan-triangle/",
      "secao": "legendados",
      "pagina": 156,
      "total_episodios": 12,
      "link_video": "https://animefire.plus/video/tachibanakan-triangle"
    },
    {
      "id": 3755,
      "nome": "Tatakae!! Iczer-1",
      "link": "https://animefire.plus/animes/tatakae-iczer-1-todos-os-episodios",
      "texto_original": "Tatakae!! Iczer-1",
      "rating": 6.1,
      "classificacao_etaria": "A18",
      "imagem_original": "https://animefire.plus/img/animes/tatakae-iczer-1.webp",
      "imagem_pasta": "https://animefire.plus/img/animes/tatakae-iczer-1/",
      "secao": "legendados",
      "pagina": 76,
      "total_episodios": 3,
      "link_video": "https://animefire.plus/video/tatakae-iczer-1"
    },
    {
      "id": 3769,
      "nome": "Teizokurei Daydream",
      "link": "https://animefire.plus/animes/teizokurei-daydream-todos-os-episodios",
      "texto_original": "Teizokurei Daydream",
      "rating": 6.27,
      "classificacao_etaria": "A18",
      "imagem_original": "https://animefire.plus/img/animes/teizokurei-daydream.webp",
      "imagem_pasta": "https://animefire.plus/img/animes/teizokurei-daydream/",
      "secao": "legendados",
      "pagina": 97,
      "total_episodios": 4,
      "link_video": "https://animefire.plus/video/teizokurei-daydream"
    },
    {
      "id": 3807,
      "nome": "Tenshi Kinryouku",
      "link": "https://animefire.plus/animes/tenshi-kinryouku-todos-os-episodios",
      "texto_original": "Tenshi Kinryouku",
      "rating": 6.39,
      "classificacao_etaria": "A18",
      "imagem_original": "https://animefire.plus/img/animes/tenshi-kinryouku.webp",
      "imagem_pasta": "https://animefire.plus/img/animes/tenshi-kinryouku/",
      "secao": "legendados",
      "pagina": 115,
      "total_episodios": 0,
      "link_video": "https://animefire.plus/video/tenshi-kinryouku"
    },
    {
      "id": 3823,
      "nome": "Texhnolyze",
      "link": "https://animefire.plus/animes/texhnolyze-todos-os-episodios",
      "texto_original": "Texhnolyze",
      "rating": 7.76,
      "classificacao_etaria": "A18",
      "imagem_original": "https://animefire.plus/img/animes/texhnolyze.webp",
      "imagem_pasta": "https://animefire.plus/img/animes/texhnolyze/",
      "secao": "legendados",
      "pagina": 144,
      "total_episodios": 22,
      "link_video": "https://animefire.plus/video/texhnolyze"
    },
    {
      "id": 3855,
      "nome": "To LOVE-Ru",
      "link": "https://animefire.plus/animes/to-love-ru-todos-os-episodios",
      "texto_original": "To LOVE-Ru",
      "rating": 7.21,
      "classificacao_etaria": "A18",
      "imagem_original": "https://animefire.plus/img/animes/to-love-ru.webp",
      "imagem_pasta": "https://animefire.plus/img/animes/to-love-ru/",
      "secao": "legendados",
      "pagina": 138,
      "total_episodios": 0,
      "link_video": "https://animefire.plus/video/to-love-ru"
    },
    {
      "id": 3856,
      "nome": "To LOVE-Ru Darkness",
      "link": "https://animefire.plus/animes/to-love-ru-darkness-todos-os-episodios",
      "texto_original": "To LOVE-Ru Darkness",
      "rating": 7.65,
      "classificacao_etaria": "A18",
      "imagem_original": "https://animefire.plus/img/animes/to-love-ru-darkness.webp",
      "imagem_pasta": "https://animefire.plus/img/animes/to-love-ru-darkness/",
      "secao": "legendados",
      "pagina": 116,
      "total_episodios": 0,
      "link_video": "https://animefire.plus/video/to-love-ru-darkness"
    },
    {
      "id": 3857,
      "nome": "To LOVE-Ru Darkness 2nd",
      "link": "https://animefire.plus/animes/to-love-ru-darkness-2nd-todos-os-episodios",
      "texto_original": "To LOVE-Ru Darkness 2nd",
      "rating": 7.65,
      "classificacao_etaria": "A18",
      "imagem_original": "https://animefire.plus/img/animes/to-love-ru-darkness-2nd.webp",
      "imagem_pasta": "https://animefire.plus/img/animes/to-love-ru-darkness-2nd/",
      "secao": "legendados",
      "pagina": 146,
      "total_episodios": 0,
      "link_video": "https://animefire.plus/video/to-love-ru-darkness-2nd"
    },
    {
      "id": 3897,
      "nome": "Tokyo Tribe 2",
      "link": "https://animefire.plus/animes/tokyo-tribe-2-todos-os-episodios",
      "texto_original": "Tokyo Tribe 2",
      "rating": 6.83,
      "classificacao_etaria": "A18",
      "imagem_original": "https://animefire.plus/img/animes/tokyo-tribe-2.webp",
      "imagem_pasta": "https://animefire.plus/img/animes/tokyo-tribe-2/",
      "secao": "legendados",
      "pagina": 100,
      "total_episodios": 0,
      "link_video": "https://animefire.plus/video/tokyo-tribe-2"
    },
    {
      "id": 3916,
      "nome": "Top wo Nerae 2! Diebuster",
      "link": "https://animefire.plus/animes/top-wo-nerae-2-diebuster-todos-os-episodios",
      "texto_original": "Top wo Nerae 2! Diebuster",
      "rating": 7.66,
      "classificacao_etaria": "A18",
      "imagem_original": "https://animefire.plus/img/animes/top-wo-nerae-2-diebuster.webp",
      "imagem_pasta": "https://animefire.plus/img/animes/top-wo-nerae-2-diebuster/",
      "secao": "legendados",
      "pagina": 41,
      "total_episodios": 6,
      "link_video": "https://animefire.plus/video/top-wo-nerae-2-diebuster"
    },
    {
      "id": 3917,
      "nome": "Top wo Nerae! Gunbuster",
      "link": "https://animefire.plus/animes/top-wo-nerae-gunbuster-todos-os-episodios",
      "texto_original": "Top wo Nerae! Gunbuster",
      "rating": 7.89,
      "classificacao_etaria": "A18",
      "imagem_original": "https://animefire.plus/img/animes/top-wo-nerae-gunbuster.webp",
      "imagem_pasta": "https://animefire.plus/img/animes/top-wo-nerae-gunbuster/",
      "secao": "legendados",
      "pagina": 53,
      "total_episodios": 1,
      "link_video": "https://animefire.plus/video/top-wo-nerae-gunbuster"
    },
    {
      "id": 3932,
      "nome": "Triage X",
      "link": "https://animefire.plus/animes/triage-x-todos-os-episodios",
      "texto_original": "Triage X",
      "rating": 6.36,
      "classificacao_etaria": "A18",
      "imagem_original": "https://animefire.plus/img/animes/triage-x.webp",
      "imagem_pasta": "https://animefire.plus/img/animes/triage-x/",
      "secao": "legendados",
      "pagina": 73,
      "total_episodios": 0,
      "link_video": "https://animefire.plus/video/triage-x"
    },
    {
      "id": 3946,
      "nome": "Tsugu Tsugumomo",
      "link": "https://animefire.plus/animes/tsugu-tsugumomo-todos-os-episodios",
      "texto_original": "Tsugu Tsugumomo",
      "rating": 7.51,
      "classificacao_etaria": "A18",
      "imagem_original": "https://animefire.plus/img/animes/tsugu-tsugumomo.webp",
      "imagem_pasta": "https://animefire.plus/img/animes/tsugu-tsugumomo/",
      "secao": "legendados",
      "pagina": 60,
      "total_episodios": 1,
      "link_video": "https://animefire.plus/video/tsugu-tsugumomo"
    },
    {
      "id": 3947,
      "nome": "Tsugumomo",
      "link": "https://animefire.plus/animes/tsugumomo-todos-os-episodios",
      "texto_original": "Tsugumomo",
      "rating": 7.11,
      "classificacao_etaria": "A18",
      "imagem_original": "https://animefire.plus/img/animes/tsugumomo.webp",
      "imagem_pasta": "https://animefire.plus/img/animes/tsugumomo/",
      "secao": "legendados",
      "pagina": 106,
      "total_episodios": 12,
      "link_video": "https://animefire.plus/video/tsugumomo"
    },
    {
      "id": 3948,
      "nome": "Tsugumomo OVA",
      "link": "https://animefire.plus/animes/tsugumomo-ova-todos-os-episodios",
      "texto_original": "Tsugumomo OVA",
      "rating": 6.87,
      "classificacao_etaria": "A18",
      "imagem_original": "https://animefire.plus/img/animes/tsugumomo-ova.webp",
      "imagem_pasta": "https://animefire.plus/img/animes/tsugumomo-ova/",
      "secao": "legendados",
      "pagina": 87,
      "total_episodios": 1,
      "link_video": "https://animefire.plus/video/tsugumomo-ova"
    },
    {
      "id": 3970,
      "nome": "Tsuujou Kougeki ga Zentai Kougeki de Ni-kai Kougeki no Okaasan wa Suki Desu ka?",
      "link": "https://animefire.plus/animes/tsuujou-kougeki-ga-zentai-kougeki-de-ni-kai-kougeki-no-okaasan-wa-suki-desu-ka-todos-os-episodios",
      "texto_original": "Tsuujou Kougeki ga Zentai Kougeki de Ni-kai Kougeki no Okaasan wa Suki Desu ka?",
      "rating": 5.54,
      "classificacao_etaria": "A18",
      "imagem_original": "https://animefire.plus/img/animes/tsuujou-kougeki-ga-zentai-kougeki-de-ni-kai-kougeki-no-okaasan-wa-suki-desu-ka.webp",
      "imagem_pasta": "https://animefire.plus/img/animes/tsuujou-kougeki-ga-zentai-kougeki-de-ni-kai-kougeki-no-okaasan-wa-suki-desu-ka/",
      "secao": "legendados",
      "pagina": 120,
      "total_episodios": 12,
      "link_video": "https://animefire.plus/video/tsuujou-kougeki-ga-zentai-kougeki-de-ni-kai-kougeki-no-okaasan-wa-suki-desu-ka"
    },
    {
      "id": 4006,
      "nome": "UFO Princess Valkyrie",
      "link": "https://animefire.plus/animes/ufo-princess-valkyrie-todos-os-episodios",
      "texto_original": "UFO Princess Valkyrie",
      "rating": 6.83,
      "classificacao_etaria": "A18",
      "imagem_original": "https://animefire.plus/img/animes/ufo-princess-valkyrie.webp",
      "imagem_pasta": "https://animefire.plus/img/animes/ufo-princess-valkyrie/",
      "secao": "legendados",
      "pagina": 106,
      "total_episodios": 0,
      "link_video": "https://animefire.plus/video/ufo-princess-valkyrie"
    },
    {
      "id": 4042,
      "nome": "Usagi-chan de Cue!!",
      "link": "https://animefire.plus/animes/usagi-chan-de-cue-todos-os-episodios",
      "texto_original": "Usagi-chan de Cue!!",
      "rating": 5.7,
      "classificacao_etaria": "A18",
      "imagem_original": "https://animefire.plus/img/animes/usagi-chan-de-cue.webp",
      "imagem_pasta": "https://animefire.plus/img/animes/usagi-chan-de-cue/",
      "secao": "legendados",
      "pagina": 69,
      "total_episodios": 3,
      "link_video": "https://animefire.plus/video/usagi-chan-de-cue"
    },
    {
      "id": 4059,
      "nome": "Valkyrie Drive: Mermaid",
      "link": "https://animefire.plus/animes/valkyrie-drive-mermaid-todos-os-episodios",
      "texto_original": "Valkyrie Drive: Mermaid",
      "rating": 6.21,
      "classificacao_etaria": "A18",
      "imagem_original": "https://animefire.plus/img/animes/valkyrie-drive-mermaid.webp",
      "imagem_pasta": "https://animefire.plus/img/animes/valkyrie-drive-mermaid/",
      "secao": "legendados",
      "pagina": 91,
      "total_episodios": 0,
      "link_video": "https://animefire.plus/video/valkyrie-drive-mermaid"
    },
    {
      "id": 4071,
      "nome": "Vanquished Queens",
      "link": "https://animefire.plus/animes/vanquished-queens-todos-os-episodios",
      "texto_original": "Vanquished Queens",
      "rating": 6.1,
      "classificacao_etaria": "A18",
      "imagem_original": "https://animefire.plus/img/animes/vanquished-queens.webp",
      "imagem_pasta": "https://animefire.plus/img/animes/vanquished-queens/",
      "secao": "legendados",
      "pagina": 76,
      "total_episodios": 4,
      "link_video": "https://animefire.plus/video/vanquished-queens"
    }
  ],
  "pagination": {
    "current_page": 18,
    "per_page": 20,
    "total_items": 374,
    "total_pages": 19,
    "has_next": true,
    "has_prev": true
  }
}
