{
  "message": "Animes com classificação etária: A18",
  "age_rating": "A18",
  "data": [
    {
      "id": 1772,
      "nome": "Juusou Kikou Dancougar Nova",
      "link": "https://animefire.plus/animes/juusou-kikou-dancougar-nova-todos-os-episodios",
      "texto_original": "Juusou Kikou Dancougar Nova",
      "rating": 6,
      "classificacao_etaria": "A18",
      "imagem_original": "https://animefire.plus/img/animes/juusou-kikou-dancougar-nova.webp",
      "imagem_pasta": "https://animefire.plus/img/animes/juusou-kikou-dancougar-nova/",
      "secao": "legendados",
      "pagina": 78,
      "total_episodios": 12,
      "link_video": "https://animefire.plus/video/juusou-kikou-dancougar-nova"
    },
    {
      "id": 1780,
      "nome": "Kachou Ouji",
      "link": "https://animefire.plus/animes/kachou-ouji-todos-os-episodios",
      "texto_original": "Kachou Ouji",
      "rating": 7.07,
      "classificacao_etaria": "A18",
      "imagem_original": "https://animefire.plus/img/animes/kachou-ouji.webp",
      "imagem_pasta": "https://animefire.plus/img/animes/kachou-ouji/",
      "secao": "legendados",
      "pagina": 168,
      "total_episodios": 0,
      "link_video": "https://animefire.plus/video/kachou-ouji"
    },
    {
      "id": 1800,
      "nome": "Kaiba",
      "link": "https://animefire.plus/animes/kaiba-todos-os-episodios",
      "texto_original": "Kaiba",
      "rating": 8.16,
      "classificacao_etaria": "A18",
      "imagem_original": "https://animefire.plus/img/animes/kaiba.webp",
      "imagem_pasta": "https://animefire.plus/img/animes/kaiba/",
      "secao": "legendados",
      "pagina": 92,
      "total_episodios": 12,
      "link_video": "https://animefire.plus/video/kaiba"
    },
    {
      "id": 1806,
      "nome": "Kaifuku Jutsushi no Yarinaoshi",
      "link": "https://animefire.plus/animes/kaifuku-jutsushi-no-yarinaoshi-todos-os-episodios",
      "texto_original": "Kaifuku Jutsushi no Yarinaoshi",
      "rating": 6.32,
      "classificacao_etaria": "A18",
      "imagem_original": "https://animefire.plus/img/animes/kaifuku-jutsushi-no-yarinaoshi.webp",
      "imagem_pasta": "https://animefire.plus/img/animes/kaifuku-jutsushi-no-yarinaoshi/",
      "secao": "legendados",
      "pagina": 48,
      "total_episodios": 12,
      "link_video": "https://animefire.plus/video/kaifuku-jutsushi-no-yarinaoshi"
    },
    {
      "id": 1823,
      "nome": "Kakugo no Susume",
      "link": "https://animefire.plus/animes/kakugo-no-susume-todos-os-episodios",
      "texto_original": "Kakugo no Susume",
      "rating": 4.7,
      "classificacao_etaria": "A18",
      "imagem_original": "https://animefire.plus/img/animes/kakugo-no-susume.webp",
      "imagem_pasta": "https://animefire.plus/img/animes/kakugo-no-susume/",
      "secao": "legendados",
      "pagina": 76,
      "total_episodios": 2,
      "link_video": "https://animefire.plus/video/kakugo-no-susume"
    },
    {
      "id": 1828,
      "nome": "Kakushite! Makina-san!!",
      "link": "https://animefire.plus/animes/kakushite-makina-san-todos-os-episodios",
      "texto_original": "Kakushite! Makina-san!!",
      "rating": 5.52,
      "classificacao_etaria": "A18",
      "imagem_original": "https://animefire.plus/img/animes/kakushite-makina-san.webp",
      "imagem_pasta": "https://animefire.plus/img/animes/kakushite-makina-san/",
      "secao": "legendados,lancamentos",
      "pagina": 5,
      "total_episodios": 5,
      "link_video": "https://animefire.plus/video/kakushite-makina-san"
    },
    {
      "id": 1833,
      "nome": "Kamen no Maid Guy",
      "link": "https://animefire.plus/animes/kamen-no-maid-guy-todos-os-episodios",
      "texto_original": "Kamen no Maid Guy",
      "rating": 7.09,
      "classificacao_etaria": "A18",
      "imagem_original": "https://animefire.plus/img/animes/kamen-no-maid-guy.webp",
      "imagem_pasta": "https://animefire.plus/img/animes/kamen-no-maid-guy/",
      "secao": "legendados",
      "pagina": 156,
      "total_episodios": 12,
      "link_video": "https://animefire.plus/video/kamen-no-maid-guy"
    },
    {
      "id": 1870,
      "nome": "Kandagawa Jet Girls",
      "link": "https://animefire.plus/animes/kandagawa-jet-girls-todos-os-episodios",
      "texto_original": "Kandagawa Jet Girls",
      "rating": 5.66,
      "classificacao_etaria": "A18",
      "imagem_original": "https://animefire.plus/img/animes/kandagawa-jet-girls.webp",
      "imagem_pasta": "https://animefire.plus/img/animes/kandagawa-jet-girls/",
      "secao": "legendados",
      "pagina": 110,
      "total_episodios": 0,
      "link_video": "https://animefire.plus/video/kandagawa-jet-girls"
    },
    {
      "id": 1885,
      "nome": "Kanokon",
      "link": "https://animefire.plus/animes/kanokon-todos-os-episodios",
      "texto_original": "Kanokon",
      "rating": 6.6,
      "classificacao_etaria": "A18",
      "imagem_original": "https://animefire.plus/img/animes/kanokon.webp",
      "imagem_pasta": "https://animefire.plus/img/animes/kanokon/",
      "secao": "legendados",
      "pagina": 153,
      "total_episodios": 0,
      "link_video": "https://animefire.plus/video/kanokon"
    },
    {
      "id": 1886,
      "nome": "Kanokon: Manatsu no Dai Shanikusai",
      "link": "https://animefire.plus/animes/kanokon-manatsu-no-dai-shanikusai-todos-os-episodios",
      "texto_original": "Kanokon: Manatsu no Dai Shanikusai",
      "rating": 6.66,
      "classificacao_etaria": "A18",
      "imagem_original": "https://animefire.plus/img/animes/kanokon-manatsu-no-dai-shanikusai.webp",
      "imagem_pasta": "https://animefire.plus/img/animes/kanokon-manatsu-no-dai-shanikusai/",
      "secao": "legendados",
      "pagina": 148,
      "total_episodios": 2,
      "link_video": "https://animefire.plus/video/kanokon-manatsu-no-dai-shanikusai"
    },
    {
      "id": 1913,
      "nome": "Katte ni Shirokuma",
      "link": "https://animefire.plus/animes/katte-ni-shirokuma-todos-os-episodios",
      "texto_original": "Katte ni Shirokuma",
      "rating": 5.64,
      "classificacao_etaria": "A18",
      "imagem_original": "https://animefire.plus/img/animes/katte-ni-shirokuma.webp",
      "imagem_pasta": "https://animefire.plus/img/animes/katte-ni-shirokuma/",
      "secao": "legendados",
      "pagina": 86,
      "total_episodios": 1,
      "link_video": "https://animefire.plus/video/katte-ni-shirokuma"
    },
    {
      "id": 1933,
      "nome": "Kekkon Yubiwa Monogatari (Dublado)",
      "link": "https://animefire.plus/animes/kekkon-yubiwa-monogatari-dublado-todos-os-episodios",
      "texto_original": "Kekkon Yubiwa Monogatari (Dublado)",
      "rating": 6.06,
      "classificacao_etaria": "A18",
      "imagem_original": "https://animefire.plus/img/animes/kekkon-yubiwa-monogatari.webp",
      "imagem_pasta": "https://animefire.plus/img/animes/kekkon-yubiwa-monogatari/",
      "secao": "dublados,legendados,lancamentos",
      "pagina": 3,
      "total_episodios": 12,
      "link_video": "https://animefire.plus/video/kekkon-yubiwa-monogatari-dublado"
    },
    {
      "id": 1939,
      "nome": "Kemonozume",
      "link": "https://animefire.plus/animes/kemonozume-todos-os-episodios",
      "texto_original": "Kemonozume",
      "rating": 7.46,
      "classificacao_etaria": "A18",
      "imagem_original": "https://animefire.plus/img/animes/kemonozume.webp",
      "imagem_pasta": "https://animefire.plus/img/animes/kemonozume/",
      "secao": "legendados",
      "pagina": 99,
      "total_episodios": 13,
      "link_video": "https://animefire.plus/video/kemonozume"
    },
    {
      "id": 1949,
      "nome": "Kennel Tokorozawa",
      "link": "https://animefire.plus/animes/kennel-tokorozawa-todos-os-episodios",
      "texto_original": "Kennel Tokorozawa",
      "rating": 4.44,
      "classificacao_etaria": "A18",
      "imagem_original": "https://animefire.plus/img/animes/kennel-tokorozawa.webp",
      "imagem_pasta": "https://animefire.plus/img/animes/kennel-tokorozawa/",
      "secao": "legendados",
      "pagina": 71,
      "total_episodios": 1,
      "link_video": "https://animefire.plus/video/kennel-tokorozawa"
    },
    {
      "id": 1950,
      "nome": "Kenpuu Denki Berserk",
      "link": "https://animefire.plus/animes/kenpuu-denki-berserk-todos-os-episodios",
      "texto_original": "Kenpuu Denki Berserk",
      "rating": 8.47,
      "classificacao_etaria": "A18",
      "imagem_original": "https://animefire.plus/img/animes/kenpuu-denki-berserk.webp",
      "imagem_pasta": "https://animefire.plus/img/animes/kenpuu-denki-berserk/",
      "secao": "legendados",
      "pagina": 126,
      "total_episodios": 25,
      "link_video": "https://animefire.plus/video/kenpuu-denki-berserk"
    },
    {
      "id": 1952,
      "nome": "Kenzen Robo Daimidaler",
      "link": "https://animefire.plus/animes/kenzen-robo-daimidaler-todos-os-episodios",
      "texto_original": "Kenzen Robo Daimidaler",
      "rating": 6.24,
      "classificacao_etaria": "A18",
      "imagem_original": "https://animefire.plus/img/animes/kenzen-robo-daimidaler.webp",
      "imagem_pasta": "https://animefire.plus/img/animes/kenzen-robo-daimidaler/",
      "secao": "legendados",
      "pagina": 114,
      "total_episodios": 12,
      "link_video": "https://animefire.plus/video/kenzen-robo-daimidaler"
    },
    {
      "id": 1954,
      "nome": "Key the Metal Idol",
      "link": "https://animefire.plus/animes/key-the-metal-idol-todos-os-episodios",
      "texto_original": "Key the Metal Idol",
      "rating": 6.91,
      "classificacao_etaria": "A18",
      "imagem_original": "https://animefire.plus/img/animes/key-the-metal-idol.webp",
      "imagem_pasta": "https://animefire.plus/img/animes/key-the-metal-idol/",
      "secao": "legendados",
      "pagina": 44,
      "total_episodios": 15,
      "link_video": "https://animefire.plus/video/key-the-metal-idol"
    },
    {
      "id": 1958,
      "nome": "Kiddy Grade",
      "link": "https://animefire.plus/animes/kiddy-grade-todos-os-episodios",
      "texto_original": "Kiddy Grade",
      "rating": 7.27,
      "classificacao_etaria": "A18",
      "imagem_original": "https://animefire.plus/img/animes/kiddy-grade.webp",
      "imagem_pasta": "https://animefire.plus/img/animes/kiddy-grade/",
      "secao": "legendados",
      "pagina": 150,
      "total_episodios": 24,
      "link_video": "https://animefire.plus/video/kiddy-grade"
    },
    {
      "id": 1970,
      "nome": "Kikoushi Enma",
      "link": "https://animefire.plus/animes/kikoushi-enma-todos-os-episodios",
      "texto_original": "Kikoushi Enma",
      "rating": 7.16,
      "classificacao_etaria": "A18",
      "imagem_original": "https://animefire.plus/img/animes/kikoushi-enma.webp",
      "imagem_pasta": "https://animefire.plus/img/animes/kikoushi-enma/",
      "secao": "legendados",
      "pagina": 66,
      "total_episodios": 4,
      "link_video": "https://animefire.plus/video/kikoushi-enma"
    },
    {
      "id": 1973,
      "nome": "Killing Bites",
      "link": "https://animefire.plus/animes/killing-bites-todos-os-episodios",
      "texto_original": "Killing Bites",
      "rating": 6.79,
      "classificacao_etaria": "A18",
      "imagem_original": "https://animefire.plus/img/animes/killing-bites.webp",
      "imagem_pasta": "https://animefire.plus/img/animes/killing-bites/",
      "secao": "legendados",
      "pagina": 109,
      "total_episodios": 12,
      "link_video": "https://animefire.plus/video/killing-bites"
    }
  ],
  "pagination": {
    "current_page": 9,
    "per_page": 20,
    "total_items": 374,
    "total_pages": 19,
    "has_next": true,
    "has_prev": true
  }
}
