{
  "message": "Animes com classificação etária: A18",
  "age_rating": "A18",
  "data": [
    {
      "id": 2398,
      "nome": "Maken-Ki! Two",
      "link": "https://animefire.plus/animes/maken-ki-two-todos-os-episodios",
      "texto_original": "Maken-Ki! Two",
      "rating": 6.33,
      "classificacao_etaria": "A18",
      "imagem_original": "https://animefire.plus/img/animes/maken-ki-two.webp",
      "imagem_pasta": "https://animefire.plus/img/animes/maken-ki-two/",
      "secao": "legendados",
      "pagina": 157,
      "total_episodios": 10,
      "link_video": "https://animefire.plus/video/maken-ki-two"
    },
    {
      "id": 2407,
      "nome": "Manyuu Hikenchou",
      "link": "https://animefire.plus/animes/manyuu-hikenchou-todos-os-episodios",
      "texto_original": "Manyuu Hikenchou",
      "rating": 6.19,
      "classificacao_etaria": "A18",
      "imagem_original": "https://animefire.plus/img/animes/manyuu-hikenchou.webp",
      "imagem_pasta": "https://animefire.plus/img/animes/manyuu-hikenchou/",
      "secao": "legendados",
      "pagina": 18,
      "total_episodios": 12,
      "link_video": "https://animefire.plus/video/manyuu-hikenchou"
    },
    {
      "id": 2409,
      "nome": "Maou Dante",
      "link": "https://animefire.plus/animes/maou-dante-todos-os-episodios",
      "texto_original": "Maou Dante",
      "rating": 6.18,
      "classificacao_etaria": "A18",
      "imagem_original": "https://animefire.plus/img/animes/maou-dante.webp",
      "imagem_pasta": "https://animefire.plus/img/animes/maou-dante/",
      "secao": "legendados",
      "pagina": 123,
      "total_episodios": 13,
      "link_video": "https://animefire.plus/video/maou-dante"
    },
    {
      "id": 2410,
      "nome": "Maou Evelogia ni Mi wo Sasage yo",
      "link": "https://animefire.plus/animes/maou-evelogia-ni-mi-wo-sasage-yo-todos-os-episodios",
      "texto_original": "Maou Evelogia ni Mi wo Sasage yo",
      "rating": 5.98,
      "classificacao_etaria": "A18",
      "imagem_original": "https://animefire.plus/img/animes/maou-evelogia-ni-mi-wo-sasage-yo.webp",
      "imagem_pasta": "https://animefire.plus/img/animes/maou-evelogia-ni-mi-wo-sasage-yo/",
      "secao": "legendados,lancamentos",
      "pagina": 39,
      "total_episodios": 0,
      "link_video": "https://animefire.plus/video/maou-evelogia-ni-mi-wo-sasage-yo"
    },
    {
      "id": 2430,
      "nome": "Maryuu Senki",
      "link": "https://animefire.plus/animes/maryuu-senki-todos-os-episodios",
      "texto_original": "Maryuu Senki",
      "rating": 5.31,
      "classificacao_etaria": "A18",
      "imagem_original": "https://animefire.plus/img/animes/maryuu-senki.webp",
      "imagem_pasta": "https://animefire.plus/img/animes/maryuu-senki/",
      "secao": "legendados",
      "pagina": 77,
      "total_episodios": 3,
      "link_video": "https://animefire.plus/video/maryuu-senki"
    },
    {
      "id": 2437,
      "nome": "Mashiro-iro Symphony: The Color of Lovers",
      "link": "https://animefire.plus/animes/mashiro-iro-symphony-the-color-of-lovers-todos-os-episodios",
      "texto_original": "Mashiro-iro Symphony: The Color of Lovers",
      "rating": 7.22,
      "classificacao_etaria": "A18",
      "imagem_original": "https://animefire.plus/img/animes/mashiro-iro-symphony-the-color-of-lovers.webp",
      "imagem_pasta": "https://animefire.plus/img/animes/mashiro-iro-symphony-the-color-of-lovers/",
      "secao": "legendados",
      "pagina": 126,
      "total_episodios": 12,
      "link_video": "https://animefire.plus/video/mashiro-iro-symphony-the-color-of-lovers"
    },
    {
      "id": 2441,
      "nome": "Masou Gakuen HxH",
      "link": "https://animefire.plus/animes/masou-gakuen-hxh-todos-os-episodios",
      "texto_original": "Masou Gakuen HxH",
      "rating": 6.38,
      "classificacao_etaria": "A18",
      "imagem_original": "https://animefire.plus/img/animes/masou-gakuen-hxh.webp",
      "imagem_pasta": "https://animefire.plus/img/animes/masou-gakuen-hxh/",
      "secao": "legendados",
      "pagina": 138,
      "total_episodios": 0,
      "link_video": "https://animefire.plus/video/masou-gakuen-hxh"
    },
    {
      "id": 2451,
      "nome": "Mayo Chiki!",
      "link": "https://animefire.plus/animes/mayo-chiki-todos-os-episodios",
      "texto_original": "Mayo Chiki!",
      "rating": 7.44,
      "classificacao_etaria": "A18",
      "imagem_original": "https://animefire.plus/img/animes/mayo-chiki.webp",
      "imagem_pasta": "https://animefire.plus/img/animes/mayo-chiki/",
      "secao": "legendados",
      "pagina": 114,
      "total_episodios": 13,
      "link_video": "https://animefire.plus/video/mayo-chiki"
    },
    {
      "id": 2458,
      "nome": "Maze☆Bakunetsu Jikuu (TV)",
      "link": "https://animefire.plus/animes/maze-bakunetsu-jikuu-tv-todos-os-episodios",
      "texto_original": "Maze☆Bakunetsu Jikuu (TV)",
      "rating": 6.73,
      "classificacao_etaria": "A18",
      "imagem_original": "https://animefire.plus/img/animes/maze-bakunetsu-jikuu-tv.webp",
      "imagem_pasta": "https://animefire.plus/img/animes/maze-bakunetsu-jikuu-tv/",
      "secao": "legendados",
      "pagina": 150,
      "total_episodios": 0,
      "link_video": "https://animefire.plus/video/maze-bakunetsu-jikuu-tv"
    },
    {
      "id": 2468,
      "nome": "Megami Paradise",
      "link": "https://animefire.plus/animes/megami-paradise-todos-os-episodios",
      "texto_original": "Megami Paradise",
      "rating": 5.54,
      "classificacao_etaria": "A18",
      "imagem_original": "https://animefire.plus/img/animes/megami-paradise.webp",
      "imagem_pasta": "https://animefire.plus/img/animes/megami-paradise/",
      "secao": "legendados",
      "pagina": 68,
      "total_episodios": 2,
      "link_video": "https://animefire.plus/video/megami-paradise"
    },
    {
      "id": 2469,
      "nome": "Megami-ryou no Ryoubo-kun.",
      "link": "https://animefire.plus/animes/megami-ryou-no-ryoubo-kun-todos-os-episodios",
      "texto_original": "Megami-ryou no Ryoubo-kun.",
      "rating": 6.49,
      "classificacao_etaria": "A18",
      "imagem_original": "https://animefire.plus/img/animes/megami-ryou-no-ryoubo-kun.webp",
      "imagem_pasta": "https://animefire.plus/img/animes/megami-ryou-no-ryoubo-kun/",
      "secao": "legendados",
      "pagina": 41,
      "total_episodios": 10,
      "link_video": "https://animefire.plus/video/megami-ryou-no-ryoubo-kun"
    },
    {
      "id": 2476,
      "nome": "Meiou Project Zeorymer",
      "link": "https://animefire.plus/animes/meiou-project-zeorymer-todos-os-episodios",
      "texto_original": "Meiou Project Zeorymer",
      "rating": 6.2,
      "classificacao_etaria": "A18",
      "imagem_original": "https://animefire.plus/img/animes/meiou-project-zeorymer.webp",
      "imagem_pasta": "https://animefire.plus/img/animes/meiou-project-zeorymer/",
      "secao": "legendados",
      "pagina": 76,
      "total_episodios": 4,
      "link_video": "https://animefire.plus/video/meiou-project-zeorymer"
    },
    {
      "id": 2485,
      "nome": "Mezzo DSA",
      "link": "https://animefire.plus/animes/mezzo-dsa-todos-os-episodios",
      "texto_original": "Mezzo DSA",
      "rating": 6.74,
      "classificacao_etaria": "A18",
      "imagem_original": "https://animefire.plus/img/animes/mezzo-dsa.webp",
      "imagem_pasta": "https://animefire.plus/img/animes/mezzo-dsa/",
      "secao": "legendados",
      "pagina": 166,
      "total_episodios": 13,
      "link_video": "https://animefire.plus/video/mezzo-dsa"
    },
    {
      "id": 2492,
      "nome": "Midnight Eye: Gokuu",
      "link": "https://animefire.plus/animes/midnight-eye-gokuu-todos-os-episodios",
      "texto_original": "Midnight Eye: Gokuu",
      "rating": 6.5,
      "classificacao_etaria": "A18",
      "imagem_original": "https://animefire.plus/img/animes/midnight-eye-gokuu.webp",
      "imagem_pasta": "https://animefire.plus/img/animes/midnight-eye-gokuu/",
      "secao": "legendados",
      "pagina": 84,
      "total_episodios": 1,
      "link_video": "https://animefire.plus/video/midnight-eye-gokuu"
    },
    {
      "id": 2493,
      "nome": "Midnight Eye: Gokuu II",
      "link": "https://animefire.plus/animes/midnight-eye-gokuu-ii-todos-os-episodios",
      "texto_original": "Midnight Eye: Gokuu II",
      "rating": 6.29,
      "classificacao_etaria": "A18",
      "imagem_original": "https://animefire.plus/img/animes/midnight-eye-gokuu-ii.webp",
      "imagem_pasta": "https://animefire.plus/img/animes/midnight-eye-gokuu-ii/",
      "secao": "legendados",
      "pagina": 84,
      "total_episodios": 1,
      "link_video": "https://animefire.plus/video/midnight-eye-gokuu-ii"
    },
    {
      "id": 2494,
      "nome": "Midori no Hibi",
      "link": "https://animefire.plus/animes/midori-no-hibi-todos-os-episodios",
      "texto_original": "Midori no Hibi",
      "rating": 7.36,
      "classificacao_etaria": "A18",
      "imagem_original": "https://animefire.plus/img/animes/midori-no-hibi.webp",
      "imagem_pasta": "https://animefire.plus/img/animes/midori-no-hibi/",
      "secao": "legendados",
      "pagina": 163,
      "total_episodios": 13,
      "link_video": "https://animefire.plus/video/midori-no-hibi"
    },
    {
      "id": 2535,
      "nome": "Mnemosyne: Mnemosyne no Musume-tachi",
      "link": "https://animefire.plus/animes/mnemosyne-mnemosyne-no-musume-tachi-todos-os-episodios",
      "texto_original": "Mnemosyne: Mnemosyne no Musume-tachi",
      "rating": 7.4,
      "classificacao_etaria": "A18",
      "imagem_original": "https://animefire.plus/img/animes/mnemosyne-mnemosyne-no-musume-tachi.webp",
      "imagem_pasta": "https://animefire.plus/img/animes/mnemosyne-mnemosyne-no-musume-tachi/",
      "secao": "legendados",
      "pagina": 119,
      "total_episodios": 4,
      "link_video": "https://animefire.plus/video/mnemosyne-mnemosyne-no-musume-tachi"
    },
    {
      "id": 2557,
      "nome": "Mobile Suit Gundam: The Origin",
      "link": "https://animefire.plus/animes/mobile-suit-gundam-the-origin-todos-os-episodios",
      "texto_original": "Mobile Suit Gundam: The Origin",
      "rating": 8.33,
      "classificacao_etaria": "A18",
      "imagem_original": "https://animefire.plus/img/animes/mobile-suit-gundam-the-origin.webp",
      "imagem_pasta": "https://animefire.plus/img/animes/mobile-suit-gundam-the-origin/",
      "secao": "legendados",
      "pagina": 178,
      "total_episodios": 5,
      "link_video": "https://animefire.plus/video/mobile-suit-gundam-the-origin"
    },
    {
      "id": 2562,
      "nome": "Moetan",
      "link": "https://animefire.plus/animes/moetan-todos-os-episodios",
      "texto_original": "Moetan",
      "rating": 6.48,
      "classificacao_etaria": "A18",
      "imagem_original": "https://animefire.plus/img/animes/moetan.webp",
      "imagem_pasta": "https://animefire.plus/img/animes/moetan/",
      "secao": "legendados",
      "pagina": 145,
      "total_episodios": 0,
      "link_video": "https://animefire.plus/video/moetan"
    },
    {
      "id": 2571,
      "nome": "Monkey Punch no Sekai: Alice",
      "link": "https://animefire.plus/animes/monkey-punch-no-sekai-alice-todos-os-episodios",
      "texto_original": "Monkey Punch no Sekai: Alice",
      "rating": 5.45,
      "classificacao_etaria": "A18",
      "imagem_original": "https://animefire.plus/img/animes/monkey-punch-no-sekai-alice.webp",
      "imagem_pasta": "https://animefire.plus/img/animes/monkey-punch-no-sekai-alice/",
      "secao": "legendados",
      "pagina": 56,
      "total_episodios": 1,
      "link_video": "https://animefire.plus/video/monkey-punch-no-sekai-alice"
    }
  ],
  "pagination": {
    "current_page": 12,
    "per_page": 20,
    "total_items": 374,
    "total_pages": 19,
    "has_next": true,
    "has_prev": true
  }
}
