{
  "message": "Animes com classificação etária: A18",
  "age_rating": "A18",
  "data": [
    {
      "id": 1191,
      "nome": "Girls Bravo: First Season",
      "link": "https://animefire.plus/animes/girls-bravo-first-season-todos-os-episodios",
      "texto_original": "Girls Bravo: First Season",
      "rating": 6.57,
      "classificacao_etaria": "A18",
      "imagem_original": "https://animefire.plus/img/animes/girls-bravo-first-season.webp",
      "imagem_pasta": "https://animefire.plus/img/animes/girls-bravo-first-season/",
      "secao": "legendados",
      "pagina": 141,
      "total_episodios": 11,
      "link_video": "https://animefire.plus/video/girls-bravo-first-season"
    },
    {
      "id": 1192,
      "nome": "Girls Bravo: Second Season",
      "link": "https://animefire.plus/animes/girls-bravo-second-season-todos-os-episodios",
      "texto_original": "Girls Bravo: Second Season",
      "rating": 6.79,
      "classificacao_etaria": "A18",
      "imagem_original": "https://animefire.plus/img/animes/girls-bravo-second-season.webp",
      "imagem_pasta": "https://animefire.plus/img/animes/girls-bravo-second-season/",
      "secao": "legendados",
      "pagina": 133,
      "total_episodios": 13,
      "link_video": "https://animefire.plus/video/girls-bravo-second-season"
    },
    {
      "id": 1214,
      "nome": "Gokukoku no Brynhildr",
      "link": "https://animefire.plus/animes/gokukoku-no-brynhildr-todos-os-episodios",
      "texto_original": "Gokukoku no Brynhildr",
      "rating": 7.03,
      "classificacao_etaria": "A18",
      "imagem_original": "https://animefire.plus/img/animes/gokukoku-no-brynhildr.webp",
      "imagem_pasta": "https://animefire.plus/img/animes/gokukoku-no-brynhildr/",
      "secao": "legendados",
      "pagina": 113,
      "total_episodios": 13,
      "link_video": "https://animefire.plus/video/gokukoku-no-brynhildr"
    },
    {
      "id": 1219,
      "nome": "Golden Boy",
      "link": "https://animefire.plus/animes/golden-boy-todos-os-episodios",
      "texto_original": "Golden Boy",
      "rating": 8.05,
      "classificacao_etaria": "A18",
      "imagem_original": "https://animefire.plus/img/animes/golden-boy.webp",
      "imagem_pasta": "https://animefire.plus/img/animes/golden-boy/",
      "secao": "legendados",
      "pagina": 101,
      "total_episodios": 6,
      "link_video": "https://animefire.plus/video/golden-boy"
    },
    {
      "id": 1227,
      "nome": "Golgo 13 (TV)",
      "link": "https://animefire.plus/animes/golgo-13-tv-todos-os-episodios",
      "texto_original": "Golgo 13 (TV)",
      "rating": 7.53,
      "classificacao_etaria": "A18",
      "imagem_original": "https://animefire.plus/img/animes/golgo-13-tv.webp",
      "imagem_pasta": "https://animefire.plus/img/animes/golgo-13-tv/",
      "secao": "legendados",
      "pagina": 45,
      "total_episodios": 50,
      "link_video": "https://animefire.plus/video/golgo-13-tv"
    },
    {
      "id": 1228,
      "nome": "Golgo 13: Queen Bee",
      "link": "https://animefire.plus/animes/golgo-13-queen-bee-todos-os-episodios",
      "texto_original": "Golgo 13: Queen Bee",
      "rating": 6.59,
      "classificacao_etaria": "A18",
      "imagem_original": "https://animefire.plus/img/animes/golgo-13-queen-bee.webp",
      "imagem_pasta": "https://animefire.plus/img/animes/golgo-13-queen-bee/",
      "secao": "legendados",
      "pagina": 45,
      "total_episodios": 1,
      "link_video": "https://animefire.plus/video/golgo-13-queen-bee"
    },
    {
      "id": 1232,
      "nome": "Goshuushou-sama Ninomiya-kun",
      "link": "https://animefire.plus/animes/goshuushou-sama-ninomiya-kun-todos-os-episodios",
      "texto_original": "Goshuushou-sama Ninomiya-kun",
      "rating": 6.8,
      "classificacao_etaria": "A18",
      "imagem_original": "https://animefire.plus/img/animes/goshuushou-sama-ninomiya-kun.webp",
      "imagem_pasta": "https://animefire.plus/img/animes/goshuushou-sama-ninomiya-kun/",
      "secao": "legendados",
      "pagina": 104,
      "total_episodios": 12,
      "link_video": "https://animefire.plus/video/goshuushou-sama-ninomiya-kun"
    },
    {
      "id": 1251,
      "nome": "Green Green",
      "link": "https://animefire.plus/animes/green-green-todos-os-episodios",
      "texto_original": "Green Green",
      "rating": 6.32,
      "classificacao_etaria": "A18",
      "imagem_original": "https://animefire.plus/img/animes/green-green.webp",
      "imagem_pasta": "https://animefire.plus/img/animes/green-green/",
      "secao": "legendados",
      "pagina": 117,
      "total_episodios": 12,
      "link_video": "https://animefire.plus/video/green-green"
    },
    {
      "id": 1253,
      "nome": "Green Green Specials",
      "link": "https://animefire.plus/animes/green-green-specials-todos-os-episodios",
      "texto_original": "Green Green Specials",
      "rating": 6.27,
      "classificacao_etaria": "A18",
      "imagem_original": "https://animefire.plus/img/animes/green-green-specials.webp",
      "imagem_pasta": "https://animefire.plus/img/animes/green-green-specials/",
      "secao": "legendados",
      "pagina": 70,
      "total_episodios": 1,
      "link_video": "https://animefire.plus/video/green-green-specials"
    },
    {
      "id": 1257,
      "nome": "Grisaia no Kajitsu",
      "link": "https://animefire.plus/animes/grisaia-no-kajitsu-todos-os-episodios",
      "texto_original": "Grisaia no Kajitsu",
      "rating": 7.64,
      "classificacao_etaria": "A18",
      "imagem_original": "https://animefire.plus/img/animes/grisaia-no-kajitsu.webp",
      "imagem_pasta": "https://animefire.plus/img/animes/grisaia-no-kajitsu/",
      "secao": "legendados",
      "pagina": 91,
      "total_episodios": 13,
      "link_video": "https://animefire.plus/video/grisaia-no-kajitsu"
    },
    {
      "id": 1258,
      "nome": "Grisaia no Meikyuu: Caprice no Mayu 0",
      "link": "https://animefire.plus/animes/grisaia-no-meikyuu-caprice-no-mayu-0-todos-os-episodios",
      "texto_original": "Grisaia no Meikyuu: Caprice no Mayu 0",
      "rating": 7.97,
      "classificacao_etaria": "A18",
      "imagem_original": "https://animefire.plus/img/animes/grisaia-no-meikyuu-caprice-no-mayu-0.webp",
      "imagem_pasta": "https://animefire.plus/img/animes/grisaia-no-meikyuu-caprice-no-mayu-0/",
      "secao": "legendados",
      "pagina": 73,
      "total_episodios": 2,
      "link_video": "https://animefire.plus/video/grisaia-no-meikyuu-caprice-no-mayu-0"
    },
    {
      "id": 1262,
      "nome": "Guardian Hearts",
      "link": "https://animefire.plus/animes/guardian-hearts-todos-os-episodios",
      "texto_original": "Guardian Hearts",
      "rating": 5.92,
      "classificacao_etaria": "A18",
      "imagem_original": "https://animefire.plus/img/animes/guardian-hearts.webp",
      "imagem_pasta": "https://animefire.plus/img/animes/guardian-hearts/",
      "secao": "legendados",
      "pagina": 70,
      "total_episodios": 3,
      "link_video": "https://animefire.plus/video/guardian-hearts"
    },
    {
      "id": 1284,
      "nome": "Gunnm (Dublado)",
      "link": "https://animefire.plus/animes/gunnm-dublado-todos-os-episodios",
      "texto_original": "Gunnm (Dublado)",
      "rating": 7.1,
      "classificacao_etaria": "A18",
      "imagem_original": "https://animefire.plus/img/animes/gunnm.webp",
      "imagem_pasta": "https://animefire.plus/img/animes/gunnm/",
      "secao": "dublados,legendados",
      "pagina": 21,
      "total_episodios": 2,
      "link_video": "https://animefire.plus/video/gunnm-dublado"
    },
    {
      "id": 1304,
      "nome": "Hagure Yuusha no Aesthetica",
      "link": "https://animefire.plus/animes/hagure-yuusha-no-aesthetica-todos-os-episodios",
      "texto_original": "Hagure Yuusha no Aesthetica",
      "rating": 7.1,
      "classificacao_etaria": "A18",
      "imagem_original": "https://animefire.plus/img/animes/hagure-yuusha-no-aesthetica.webp",
      "imagem_pasta": "https://animefire.plus/img/animes/hagure-yuusha-no-aesthetica/",
      "secao": "legendados",
      "pagina": 165,
      "total_episodios": 5,
      "link_video": "https://animefire.plus/video/hagure-yuusha-no-aesthetica"
    },
    {
      "id": 1317,
      "nome": "Haite Kudasai, Takamine-san",
      "link": "https://animefire.plus/animes/haite-kudasai-takamine-san-todos-os-episodios",
      "texto_original": "Haite Kudasai, Takamine-san",
      "rating": 6.23,
      "classificacao_etaria": "A18",
      "imagem_original": "https://animefire.plus/img/animes/haite-kudasai-takamine-san.webp",
      "imagem_pasta": "https://animefire.plus/img/animes/haite-kudasai-takamine-san/",
      "secao": "legendados",
      "pagina": 6,
      "total_episodios": 12,
      "link_video": "https://animefire.plus/video/haite-kudasai-takamine-san"
    },
    {
      "id": 1354,
      "nome": "Hanaukyou Maid-tai",
      "link": "https://animefire.plus/animes/hanaukyou-maid-tai-todos-os-episodios",
      "texto_original": "Hanaukyou Maid-tai",
      "rating": 6.65,
      "classificacao_etaria": "A18",
      "imagem_original": "https://animefire.plus/img/animes/hanaukyou-maid-tai.webp",
      "imagem_pasta": "https://animefire.plus/img/animes/hanaukyou-maid-tai/",
      "secao": "legendados",
      "pagina": 70,
      "total_episodios": 12,
      "link_video": "https://animefire.plus/video/hanaukyou-maid-tai"
    },
    {
      "id": 1355,
      "nome": "Hanaukyou Maid-tai: La Verite",
      "link": "https://animefire.plus/animes/hanaukyou-maid-tai-la-verite-todos-os-episodios",
      "texto_original": "Hanaukyou Maid-tai: La Verite",
      "rating": 6.83,
      "classificacao_etaria": "A18",
      "imagem_original": "https://animefire.plus/img/animes/hanaukyou-maid-tai-la-verite.webp",
      "imagem_pasta": "https://animefire.plus/img/animes/hanaukyou-maid-tai-la-verite/",
      "secao": "legendados",
      "pagina": 70,
      "total_episodios": 12,
      "link_video": "https://animefire.plus/video/hanaukyou-maid-tai-la-verite"
    },
    {
      "id": 1370,
      "nome": "Hantsu x Trash",
      "link": "https://animefire.plus/animes/hantsu-x-trash-todos-os-episodios",
      "texto_original": "Hantsu x Trash",
      "rating": 5.26,
      "classificacao_etaria": "A18",
      "imagem_original": "https://animefire.plus/img/animes/hantsu-x-trash.webp",
      "imagem_pasta": "https://animefire.plus/img/animes/hantsu-x-trash/",
      "secao": "legendados",
      "pagina": 150,
      "total_episodios": 3,
      "link_video": "https://animefire.plus/video/hantsu-x-trash"
    },
    {
      "id": 1412,
      "nome": "Hello Harinezumi: Satsui no Ryoubun",
      "link": "https://animefire.plus/animes/hello-harinezumi-satsui-no-ryoubun-todos-os-episodios",
      "texto_original": "Hello Harinezumi: Satsui no Ryoubun",
      "rating": 6.45,
      "classificacao_etaria": "A18",
      "imagem_original": "https://animefire.plus/img/animes/hello-harinezumi-satsui-no-ryoubun.webp",
      "imagem_pasta": "https://animefire.plus/img/animes/hello-harinezumi-satsui-no-ryoubun/",
      "secao": "legendados",
      "pagina": 70,
      "total_episodios": 1,
      "link_video": "https://animefire.plus/video/hello-harinezumi-satsui-no-ryoubun"
    },
    {
      "id": 1454,
      "nome": "High School DxD",
      "link": "https://animefire.plus/animes/high-school-dxd-todos-os-episodios",
      "texto_original": "High School DxD",
      "rating": 7.56,
      "classificacao_etaria": "A18",
      "imagem_original": "https://animefire.plus/img/animes/high-school-dxd.webp",
      "imagem_pasta": "https://animefire.plus/img/animes/high-school-dxd/",
      "secao": "legendados",
      "pagina": 133,
      "total_episodios": 0,
      "link_video": "https://animefire.plus/video/high-school-dxd"
    }
  ],
  "pagination": {
    "current_page": 6,
    "per_page": 20,
    "total_items": 374,
    "total_pages": 19,
    "has_next": true,
    "has_prev": true
  }
}
