{
  "message": "Animes com classificação etária: A18",
  "age_rating": "A18",
  "data": [
    {
      "id": 3034,
      "nome": "Prism Ark",
      "link": "https://animefire.plus/animes/prism-ark-todos-os-episodios",
      "texto_original": "Prism Ark",
      "rating": 6.52,
      "classificacao_etaria": "A18",
      "imagem_original": "https://animefire.plus/img/animes/prism-ark.webp",
      "imagem_pasta": "https://animefire.plus/img/animes/prism-ark/",
      "secao": "legendados",
      "pagina": 179,
      "total_episodios": 12,
      "link_video": "https://animefire.plus/video/prism-ark"
    },
    {
      "id": 3035,
      "nome": "Prism Magical: Prism Generations!",
      "link": "https://animefire.plus/animes/prism-magical-prism-generations-todos-os-episodios",
      "texto_original": "Prism Magical: Prism Generations!",
      "rating": 5.16,
      "classificacao_etaria": "A18",
      "imagem_original": "https://animefire.plus/img/animes/prism-magical-prism-generations.webp",
      "imagem_pasta": "https://animefire.plus/img/animes/prism-magical-prism-generations/",
      "secao": "legendados",
      "pagina": 82,
      "total_episodios": 1,
      "link_video": "https://animefire.plus/video/prism-magical-prism-generations"
    },
    {
      "id": 3036,
      "nome": "Prison School",
      "link": "https://animefire.plus/animes/prison-school-todos-os-episodios",
      "texto_original": "Prison School",
      "rating": 7.85,
      "classificacao_etaria": "A18",
      "imagem_original": "https://animefire.plus/img/animes/prison-school.webp",
      "imagem_pasta": "https://animefire.plus/img/animes/prison-school/",
      "secao": "legendados",
      "pagina": 152,
      "total_episodios": 0,
      "link_video": "https://animefire.plus/video/prison-school"
    },
    {
      "id": 3059,
      "nome": "Queen's Blade: Gyokuza wo Tsugu Mono",
      "link": "https://animefire.plus/animes/queen-s-blade-gyokuza-wo-tsugu-mono-todos-os-episodios",
      "texto_original": "Queen's Blade: Gyokuza wo Tsugu Mono",
      "rating": 6.66,
      "classificacao_etaria": "A18",
      "imagem_original": "https://animefire.plus/img/animes/queen-s-blade-gyokuza-wo-tsugu-mono.webp",
      "imagem_pasta": "https://animefire.plus/img/animes/queen-s-blade-gyokuza-wo-tsugu-mono/",
      "secao": "legendados",
      "pagina": 141,
      "total_episodios": 12,
      "link_video": "https://animefire.plus/video/queen-s-blade-gyokuza-wo-tsugu-mono"
    },
    {
      "id": 3060,
      "nome": "Queen's Blade: Rebellion",
      "link": "https://animefire.plus/animes/queen-s-blade-rebellion-todos-os-episodios",
      "texto_original": "Queen's Blade: Rebellion",
      "rating": 6.42,
      "classificacao_etaria": "A18",
      "imagem_original": "https://animefire.plus/img/animes/queen-s-blade-rebellion.webp",
      "imagem_pasta": "https://animefire.plus/img/animes/queen-s-blade-rebellion/",
      "secao": "legendados",
      "pagina": 178,
      "total_episodios": 0,
      "link_video": "https://animefire.plus/video/queen-s-blade-rebellion"
    },
    {
      "id": 3061,
      "nome": "Queen's Blade: Rurou no Senshi",
      "link": "https://animefire.plus/animes/queen-s-blade-rurou-no-senshi-todos-os-episodios",
      "texto_original": "Queen's Blade: Rurou no Senshi",
      "rating": 6.25,
      "classificacao_etaria": "A18",
      "imagem_original": "https://animefire.plus/img/animes/queen-s-blade-rurou-no-senshi.webp",
      "imagem_pasta": "https://animefire.plus/img/animes/queen-s-blade-rurou-no-senshi/",
      "secao": "legendados",
      "pagina": 147,
      "total_episodios": 12,
      "link_video": "https://animefire.plus/video/queen-s-blade-rurou-no-senshi"
    },
    {
      "id": 3062,
      "nome": "R-15",
      "link": "https://animefire.plus/animes/r-15-todos-os-episodios",
      "texto_original": "R-15",
      "rating": 6.6,
      "classificacao_etaria": "A18",
      "imagem_original": "https://animefire.plus/img/animes/r-15.webp",
      "imagem_pasta": "https://animefire.plus/img/animes/r-15/",
      "secao": "legendados",
      "pagina": 120,
      "total_episodios": 0,
      "link_video": "https://animefire.plus/video/r-15"
    },
    {
      "id": 3080,
      "nome": "Ranma ½ (Dublado)",
      "link": "https://animefire.plus/animes/ranma-dublado-todos-os-episodios",
      "texto_original": "Ranma ½ (Dublado)",
      "rating": 7.78,
      "classificacao_etaria": "A18",
      "imagem_original": "https://animefire.plus/img/animes/ranma.webp",
      "imagem_pasta": "https://animefire.plus/img/animes/ranma/",
      "secao": "dublados",
      "pagina": 23,
      "total_episodios": 161,
      "link_video": "https://animefire.plus/video/ranma-dublado"
    },
    {
      "id": 3112,
      "nome": "Renai Flops",
      "link": "https://animefire.plus/animes/renai-flops-todos-os-episodios",
      "texto_original": "Renai Flops",
      "rating": 6.7,
      "classificacao_etaria": "A18",
      "imagem_original": "https://animefire.plus/img/animes/renai-flops.webp",
      "imagem_pasta": "https://animefire.plus/img/animes/renai-flops/",
      "secao": "legendados",
      "pagina": 29,
      "total_episodios": 12,
      "link_video": "https://animefire.plus/video/renai-flops"
    },
    {
      "id": 3113,
      "nome": "Renkin San-kyuu Magical? Pokaan",
      "link": "https://animefire.plus/animes/renkin-san-kyuu-magical-pokaan-todos-os-episodios",
      "texto_original": "Renkin San-kyuu Magical? Pokaan",
      "rating": 7,
      "classificacao_etaria": "A18",
      "imagem_original": "https://animefire.plus/img/animes/renkin-san-kyuu-magical-pokaan.webp",
      "imagem_pasta": "https://animefire.plus/img/animes/renkin-san-kyuu-magical-pokaan/",
      "secao": "legendados",
      "pagina": 65,
      "total_episodios": 12,
      "link_video": "https://animefire.plus/video/renkin-san-kyuu-magical-pokaan"
    },
    {
      "id": 3122,
      "nome": "Riding Bean",
      "link": "https://animefire.plus/animes/riding-bean-todos-os-episodios",
      "texto_original": "Riding Bean",
      "rating": 7.09,
      "classificacao_etaria": "A18",
      "imagem_original": "https://animefire.plus/img/animes/riding-bean.webp",
      "imagem_pasta": "https://animefire.plus/img/animes/riding-bean/",
      "secao": "legendados",
      "pagina": 67,
      "total_episodios": 1,
      "link_video": "https://animefire.plus/video/riding-bean"
    },
    {
      "id": 3136,
      "nome": "Rizelmine",
      "link": "https://animefire.plus/animes/rizelmine-todos-os-episodios",
      "texto_original": "Rizelmine",
      "rating": 6.6,
      "classificacao_etaria": "A18",
      "imagem_original": "https://animefire.plus/img/animes/rizelmine.webp",
      "imagem_pasta": "https://animefire.plus/img/animes/rizelmine/",
      "secao": "legendados",
      "pagina": 115,
      "total_episodios": 24,
      "link_video": "https://animefire.plus/video/rizelmine"
    },
    {
      "id": 3156,
      "nome": "Rosario to Vampire",
      "link": "https://animefire.plus/animes/rosario-to-vampire-todos-os-episodios",
      "texto_original": "Rosario to Vampire",
      "rating": 7.01,
      "classificacao_etaria": "A18",
      "imagem_original": "https://animefire.plus/img/animes/rosario-to-vampire.webp",
      "imagem_pasta": "https://animefire.plus/img/animes/rosario-to-vampire/",
      "secao": "legendados",
      "pagina": 163,
      "total_episodios": 13,
      "link_video": "https://animefire.plus/video/rosario-to-vampire"
    },
    {
      "id": 3178,
      "nome": "S-Rank Monster no \"Behemoth\" dakedo, Neko to Machigawarete Elf Musume no Pet toshite Kurashitemasu",
      "link": "https://animefire.plus/animes/s-rank-monster-no-behemoth-dakedo-neko-to-machigawarete-elf-musume-no-pet-toshite-kurashitemasu-todos-os-episodios",
      "texto_original": "S-Rank Monster no \"Behemoth\" dakedo, Neko to Machigawarete Elf Musume no Pet toshite Kurashitemasu",
      "rating": 5.79,
      "classificacao_etaria": "A18",
      "imagem_original": "https://animefire.plus/img/animes/s-rank-monster-no-behemoth-dakedo-neko-to-machigawarete-elf-musume-no-pet-toshite-kurashitemasu.webp",
      "imagem_pasta": "https://animefire.plus/img/animes/s-rank-monster-no-behemoth-dakedo-neko-to-machigawarete-elf-musume-no-pet-toshite-kurashitemasu/",
      "secao": "legendados",
      "pagina": 8,
      "total_episodios": 12,
      "link_video": "https://animefire.plus/video/s-rank-monster-no-behemoth-dakedo-neko-to-machigawarete-elf-musume-no-pet-toshite-kurashitemasu"
    },
    {
      "id": 3202,
      "nome": "Sailor Victory",
      "link": "https://animefire.plus/animes/sailor-victory-todos-os-episodios",
      "texto_original": "Sailor Victory",
      "rating": 5.88,
      "classificacao_etaria": "A18",
      "imagem_original": "https://animefire.plus/img/animes/sailor-victory.webp",
      "imagem_pasta": "https://animefire.plus/img/animes/sailor-victory/",
      "secao": "legendados",
      "pagina": 145,
      "total_episodios": 13,
      "link_video": "https://animefire.plus/video/sailor-victory"
    },
    {
      "id": 3237,
      "nome": "Sakura Tsuushin",
      "link": "https://animefire.plus/animes/sakura-tsuushin-todos-os-episodios",
      "texto_original": "Sakura Tsuushin",
      "rating": 6.27,
      "classificacao_etaria": "A18",
      "imagem_original": "https://animefire.plus/img/animes/sakura-tsuushin.webp",
      "imagem_pasta": "https://animefire.plus/img/animes/sakura-tsuushin/",
      "secao": "legendados",
      "pagina": 124,
      "total_episodios": 12,
      "link_video": "https://animefire.plus/video/sakura-tsuushin"
    },
    {
      "id": 3252,
      "nome": "Sankarea",
      "link": "https://animefire.plus/animes/sankarea-todos-os-episodios",
      "texto_original": "Sankarea",
      "rating": 7.46,
      "classificacao_etaria": "A18",
      "imagem_original": "https://animefire.plus/img/animes/sankarea.webp",
      "imagem_pasta": "https://animefire.plus/img/animes/sankarea/",
      "secao": "legendados",
      "pagina": 158,
      "total_episodios": 12,
      "link_video": "https://animefire.plus/video/sankarea"
    },
    {
      "id": 3274,
      "nome": "School Days",
      "link": "https://animefire.plus/animes/school-days-todos-os-episodios",
      "texto_original": "School Days",
      "rating": 5.93,
      "classificacao_etaria": "A18",
      "imagem_original": "https://animefire.plus/img/animes/school-days.webp",
      "imagem_pasta": "https://animefire.plus/img/animes/school-days/",
      "secao": "legendados",
      "pagina": 158,
      "total_episodios": 12,
      "link_video": "https://animefire.plus/video/school-days"
    },
    {
      "id": 3294,
      "nome": "Seiken no Blacksmith",
      "link": "https://animefire.plus/animes/seiken-no-blacksmith-todos-os-episodios",
      "texto_original": "Seiken no Blacksmith",
      "rating": 6.86,
      "classificacao_etaria": "A18",
      "imagem_original": "https://animefire.plus/img/animes/seiken-no-blacksmith.webp",
      "imagem_pasta": "https://animefire.plus/img/animes/seiken-no-blacksmith/",
      "secao": "legendados",
      "pagina": 128,
      "total_episodios": 12,
      "link_video": "https://animefire.plus/video/seiken-no-blacksmith"
    },
    {
      "id": 3297,
      "nome": "Seikoku no Dragonar",
      "link": "https://animefire.plus/animes/seikoku-no-dragonar-todos-os-episodios",
      "texto_original": "Seikoku no Dragonar",
      "rating": 6.68,
      "classificacao_etaria": "A18",
      "imagem_original": "https://animefire.plus/img/animes/seikoku-no-dragonar.webp",
      "imagem_pasta": "https://animefire.plus/img/animes/seikoku-no-dragonar/",
      "secao": "legendados",
      "pagina": 157,
      "total_episodios": 0,
      "link_video": "https://animefire.plus/video/seikoku-no-dragonar"
    }
  ],
  "pagination": {
    "current_page": 15,
    "per_page": 20,
    "total_items": 374,
    "total_pages": 19,
    "has_next": true,
    "has_prev": true
  }
}
