{
  "message": "Animes com classificação etária: A18",
  "age_rating": "A18",
  "data": [
    {
      "id": 4072,
      "nome": "Variable Geo",
      "link": "https://animefire.plus/animes/variable-geo-todos-os-episodios",
      "texto_original": "Variable Geo",
      "rating": 5.69,
      "classificacao_etaria": "A18",
      "imagem_original": "https://animefire.plus/img/animes/variable-geo.webp",
      "imagem_pasta": "https://animefire.plus/img/animes/variable-geo/",
      "secao": "legendados",
      "pagina": 138,
      "total_episodios": 3,
      "link_video": "https://animefire.plus/video/variable-geo"
    },
    {
      "id": 4077,
      "nome": "Video Girl Ai",
      "link": "https://animefire.plus/animes/video-girl-ai-todos-os-episodios",
      "texto_original": "Video Girl Ai",
      "rating": 7.23,
      "classificacao_etaria": "A18",
      "imagem_original": "https://animefire.plus/img/animes/video-girl-ai.webp",
      "imagem_pasta": "https://animefire.plus/img/animes/video-girl-ai/",
      "secao": "legendados",
      "pagina": 77,
      "total_episodios": 6,
      "link_video": "https://animefire.plus/video/video-girl-ai"
    },
    {
      "id": 4099,
      "nome": "Walkure Romanze",
      "link": "https://animefire.plus/animes/walkure-romanze-todos-os-episodios",
      "texto_original": "Walkure Romanze",
      "rating": 6.49,
      "classificacao_etaria": "A18",
      "imagem_original": "https://animefire.plus/img/animes/walkure-romanze.webp",
      "imagem_pasta": "https://animefire.plus/img/animes/walkure-romanze/",
      "secao": "legendados",
      "pagina": 144,
      "total_episodios": 5,
      "link_video": "https://animefire.plus/video/walkure-romanze"
    },
    {
      "id": 4109,
      "nome": "Wanna-Be's",
      "link": "https://animefire.plus/animes/wanna-be-s-todos-os-episodios",
      "texto_original": "Wanna-Be's",
      "rating": 5.2,
      "classificacao_etaria": "A18",
      "imagem_original": "https://animefire.plus/img/animes/wanna-be-s.webp",
      "imagem_pasta": "https://animefire.plus/img/animes/wanna-be-s/",
      "secao": "legendados",
      "pagina": 68,
      "total_episodios": 1,
      "link_video": "https://animefire.plus/video/wanna-be-s"
    },
    {
      "id": 4217,
      "nome": "Yami To Boushi To Hon No Tabibito",
      "link": "https://animefire.plus/animes/yami-to-boushi-to-hon-no-tabibito-todos-os-episodios",
      "texto_original": "Yami To Boushi To Hon No Tabibito",
      "rating": 6.65,
      "classificacao_etaria": "A18",
      "imagem_original": "https://animefire.plus/img/animes/yami-to-boushi-to-hon-no-tabibito.webp",
      "imagem_pasta": "https://animefire.plus/img/animes/yami-to-boushi-to-hon-no-tabibito/",
      "secao": "legendados",
      "pagina": 102,
      "total_episodios": 13,
      "link_video": "https://animefire.plus/video/yami-to-boushi-to-hon-no-tabibito"
    },
    {
      "id": 4222,
      "nome": "Yarichin☆Bitch-bu",
      "link": "https://animefire.plus/animes/yarichin-bitch-bu-todos-os-episodios",
      "texto_original": "Yarichin☆Bitch-bu",
      "rating": 7.11,
      "classificacao_etaria": "A18",
      "imagem_original": "https://animefire.plus/img/animes/yarichin-bitch-bu.webp",
      "imagem_pasta": "https://animefire.plus/img/animes/yarichin-bitch-bu/",
      "secao": "legendados",
      "pagina": 89,
      "total_episodios": 2,
      "link_video": "https://animefire.plus/video/yarichin-bitch-bu"
    },
    {
      "id": 4251,
      "nome": "Yosuga no Sora: In Solitude, Where We Are Least Alone.",
      "link": "https://animefire.plus/animes/yosuga-no-sora-in-solitude-where-we-are-least-alone-todos-os-episodios",
      "texto_original": "Yosuga no Sora: In Solitude, Where We Are Least Alone.",
      "rating": 6.5,
      "classificacao_etaria": "A18",
      "imagem_original": "https://animefire.plus/img/animes/yosuga-no-sora-in-solitude-where-we-are-least-alone.webp",
      "imagem_pasta": "https://animefire.plus/img/animes/yosuga-no-sora-in-solitude-where-we-are-least-alone/",
      "secao": "legendados",
      "pagina": 172,
      "total_episodios": 12,
      "link_video": "https://animefire.plus/video/yosuga-no-sora-in-solitude-where-we-are-least-alone"
    },
    {
      "id": 4285,
      "nome": "Yubisaki kara Honki no Netsujou 2: Koibito wa Shouboushi",
      "link": "https://animefire.plus/animes/yubisaki-kara-honki-no-netsujou-2-koibito-wa-shouboushi-todos-os-episodios",
      "texto_original": "Yubisaki kara Honki no Netsujou 2: Koibito wa Shouboushi",
      "rating": 6.31,
      "classificacao_etaria": "A18",
      "imagem_original": "https://animefire.plus/img/animes/yubisaki-kara-honki-no-netsujou-2-koibito-wa-shouboushi.webp",
      "imagem_pasta": "https://animefire.plus/img/animes/yubisaki-kara-honki-no-netsujou-2-koibito-wa-shouboushi/",
      "secao": "legendados,lancamentos",
      "pagina": 40,
      "total_episodios": 0,
      "link_video": "https://animefire.plus/video/yubisaki-kara-honki-no-netsujou-2-koibito-wa-shouboushi"
    },
    {
      "id": 4295,
      "nome": "Yuragi-sou no Yuuna-san",
      "link": "https://animefire.plus/animes/yuragi-sou-no-yuuna-san-todos-os-episodios",
      "texto_original": "Yuragi-sou no Yuuna-san",
      "rating": 7.22,
      "classificacao_etaria": "A18",
      "imagem_original": "https://animefire.plus/img/animes/yuragi-sou-no-yuuna-san.webp",
      "imagem_pasta": "https://animefire.plus/img/animes/yuragi-sou-no-yuuna-san/",
      "secao": "legendados",
      "pagina": 128,
      "total_episodios": 12,
      "link_video": "https://animefire.plus/video/yuragi-sou-no-yuuna-san"
    },
    {
      "id": 4296,
      "nome": "Yuragi-sou no Yuuna-san OVA",
      "link": "https://animefire.plus/animes/yuragi-sou-no-yuuna-san-ova-todos-os-episodios",
      "texto_original": "Yuragi-sou no Yuuna-san OVA",
      "rating": 7.15,
      "classificacao_etaria": "A18",
      "imagem_original": "https://animefire.plus/img/animes/yuragi-sou-no-yuuna-san-ova.webp",
      "imagem_pasta": "https://animefire.plus/img/animes/yuragi-sou-no-yuuna-san-ova/",
      "secao": "legendados",
      "pagina": 107,
      "total_episodios": 4,
      "link_video": "https://animefire.plus/video/yuragi-sou-no-yuuna-san-ova"
    },
    {
      "id": 4321,
      "nome": "Yuusha ni Narenakatta Ore wa Shibushibu Shuushoku wo Ketsui Shimashita.",
      "link": "https://animefire.plus/animes/yuusha-ni-narenakatta-ore-wa-shibushibu-shuushoku-wo-ketsui-shimashita-todos-os-episodios",
      "texto_original": "Yuusha ni Narenakatta Ore wa Shibushibu Shuushoku wo Ketsui Shimashita.",
      "rating": 7.01,
      "classificacao_etaria": "A18",
      "imagem_original": "https://animefire.plus/img/animes/yuusha-ni-narenakatta-ore-wa-shibushibu-shuushoku-wo-ketsui-shimashita.webp",
      "imagem_pasta": "https://animefire.plus/img/animes/yuusha-ni-narenakatta-ore-wa-shibushibu-shuushoku-wo-ketsui-shimashita/",
      "secao": "legendados",
      "pagina": 141,
      "total_episodios": 4,
      "link_video": "https://animefire.plus/video/yuusha-ni-narenakatta-ore-wa-shibushibu-shuushoku-wo-ketsui-shimashita"
    },
    {
      "id": 4350,
      "nome": "Zetman",
      "link": "https://animefire.plus/animes/zetman-todos-os-episodios",
      "texto_original": "Zetman",
      "rating": 6.84,
      "classificacao_etaria": "A18",
      "imagem_original": "https://animefire.plus/img/animes/zetman.webp",
      "imagem_pasta": "https://animefire.plus/img/animes/zetman/",
      "secao": "legendados",
      "pagina": 16,
      "total_episodios": 13,
      "link_video": "https://animefire.plus/video/zetman"
    },
    {
      "id": 4354,
      "nome": "Zettai Junpaku♡Mahou Shoujo",
      "link": "https://animefire.plus/animes/zettai-junpaku-mahou-shoujo-todos-os-episodios",
      "texto_original": "Zettai Junpaku♡Mahou Shoujo",
      "rating": 5.37,
      "classificacao_etaria": "A18",
      "imagem_original": "https://animefire.plus/img/animes/zettai-junpaku-mahou-shoujo.webp",
      "imagem_pasta": "https://animefire.plus/img/animes/zettai-junpaku-mahou-shoujo/",
      "secao": "legendados",
      "pagina": 85,
      "total_episodios": 1,
      "link_video": "https://animefire.plus/video/zettai-junpaku-mahou-shoujo"
    },
    {
      "id": 4355,
      "nome": "Zettai Shougeki: Platonic Heart",
      "link": "https://animefire.plus/animes/zettai-shougeki-platonic-heart-todos-os-episodios",
      "texto_original": "Zettai Shougeki: Platonic Heart",
      "rating": 4.69,
      "classificacao_etaria": "A18",
      "imagem_original": "https://animefire.plus/img/animes/zettai-shougeki-platonic-heart.webp",
      "imagem_pasta": "https://animefire.plus/img/animes/zettai-shougeki-platonic-heart/",
      "secao": "legendados",
      "pagina": 68,
      "total_episodios": 5,
      "link_video": "https://animefire.plus/video/zettai-shougeki-platonic-heart"
    }
  ],
  "pagination": {
    "current_page": 19,
    "per_page": 20,
    "total_items": 374,
    "total_pages": 19,
    "has_next": false,
    "has_prev": true
  }
}
