{
  "message": "Animes com classificação etária: A18",
  "age_rating": "A18",
  "data": [
    {
      "id": 1605,
      "nome": "Ikkitousen: Extravaganza Epoch",
      "link": "https://animefire.plus/animes/ikkitousen-extravaganza-epoch-todos-os-episodios",
      "texto_original": "Ikkitousen: Extravaganza Epoch",
      "rating": 6.67,
      "classificacao_etaria": "A18",
      "imagem_original": "https://animefire.plus/img/animes/ikkitousen-extravaganza-epoch.webp",
      "imagem_pasta": "https://animefire.plus/img/animes/ikkitousen-extravaganza-epoch/",
      "secao": "legendados",
      "pagina": 86,
      "total_episodios": 2,
      "link_video": "https://animefire.plus/video/ikkitousen-extravaganza-epoch"
    },
    {
      "id": 1606,
      "nome": "Ikkitousen: Great Guardians",
      "link": "https://animefire.plus/animes/ikkitousen-great-guardians-todos-os-episodios",
      "texto_original": "Ikkitousen: Great Guardians",
      "rating": 6.88,
      "classificacao_etaria": "A18",
      "imagem_original": "https://animefire.plus/img/animes/ikkitousen-great-guardians.webp",
      "imagem_pasta": "https://animefire.plus/img/animes/ikkitousen-great-guardians/",
      "secao": "legendados",
      "pagina": 144,
      "total_episodios": 12,
      "link_video": "https://animefire.plus/video/ikkitousen-great-guardians"
    },
    {
      "id": 1607,
      "nome": "Ikkitousen: Western Wolves",
      "link": "https://animefire.plus/animes/ikkitousen-western-wolves-todos-os-episodios",
      "texto_original": "Ikkitousen: Western Wolves",
      "rating": 6.37,
      "classificacao_etaria": "A18",
      "imagem_original": "https://animefire.plus/img/animes/ikkitousen-western-wolves.webp",
      "imagem_pasta": "https://animefire.plus/img/animes/ikkitousen-western-wolves/",
      "secao": "legendados",
      "pagina": 86,
      "total_episodios": 3,
      "link_video": "https://animefire.plus/video/ikkitousen-western-wolves"
    },
    {
      "id": 1608,
      "nome": "Ikkitousen: Xtreme Xecutor",
      "link": "https://animefire.plus/animes/ikkitousen-xtreme-xecutor-todos-os-episodios",
      "texto_original": "Ikkitousen: Xtreme Xecutor",
      "rating": 6.87,
      "classificacao_etaria": "A18",
      "imagem_original": "https://animefire.plus/img/animes/ikkitousen-xtreme-xecutor.webp",
      "imagem_pasta": "https://animefire.plus/img/animes/ikkitousen-xtreme-xecutor/",
      "secao": "legendados",
      "pagina": 149,
      "total_episodios": 12,
      "link_video": "https://animefire.plus/video/ikkitousen-xtreme-xecutor"
    },
    {
      "id": 1625,
      "nome": "Initial D Extra Stage",
      "link": "https://animefire.plus/animes/initial-d-extra-stage-todos-os-episodios",
      "texto_original": "Initial D Extra Stage",
      "rating": 7.37,
      "classificacao_etaria": "A18",
      "imagem_original": "https://animefire.plus/img/animes/initial-d-extra-stage.webp",
      "imagem_pasta": "https://animefire.plus/img/animes/initial-d-extra-stage/",
      "secao": "legendados",
      "pagina": 72,
      "total_episodios": 1,
      "link_video": "https://animefire.plus/video/initial-d-extra-stage"
    },
    {
      "id": 1635,
      "nome": "Inu ni Nattara Suki na Hito ni Hirowareta.",
      "link": "https://animefire.plus/animes/inu-ni-nattara-suki-na-hito-ni-hirowareta-todos-os-episodios",
      "texto_original": "Inu ni Nattara Suki na Hito ni Hirowareta.",
      "rating": 5.04,
      "classificacao_etaria": "A18",
      "imagem_original": "https://animefire.plus/img/animes/inu-ni-nattara-suki-na-hito-ni-hirowareta.webp",
      "imagem_pasta": "https://animefire.plus/img/animes/inu-ni-nattara-suki-na-hito-ni-hirowareta/",
      "secao": "legendados,lancamentos",
      "pagina": 27,
      "total_episodios": 14,
      "link_video": "https://animefire.plus/video/inu-ni-nattara-suki-na-hito-ni-hirowareta"
    },
    {
      "id": 1636,
      "nome": "Inu ni Nattara Suki na Hito ni Hirowareta. Specials",
      "link": "https://animefire.plus/animes/inu-ni-nattara-suki-na-hito-ni-hirowareta-specials-todos-os-episodios",
      "texto_original": "Inu ni Nattara Suki na Hito ni Hirowareta. Specials",
      "rating": 5.3,
      "classificacao_etaria": "A18",
      "imagem_original": "https://animefire.plus/img/animes/inu-ni-nattara-suki-na-hito-ni-hirowareta-specials.webp",
      "imagem_pasta": "https://animefire.plus/img/animes/inu-ni-nattara-suki-na-hito-ni-hirowareta-specials/",
      "secao": "legendados",
      "pagina": 21,
      "total_episodios": 1,
      "link_video": "https://animefire.plus/video/inu-ni-nattara-suki-na-hito-ni-hirowareta-specials"
    },
    {
      "id": 1647,
      "nome": "Iriya no Sora, UFO no Natsu",
      "link": "https://animefire.plus/animes/iriya-no-sora-ufo-no-natsu-todos-os-episodios",
      "texto_original": "Iriya no Sora, UFO no Natsu",
      "rating": 7.01,
      "classificacao_etaria": "A18",
      "imagem_original": "https://animefire.plus/img/animes/iriya-no-sora-ufo-no-natsu.webp",
      "imagem_pasta": "https://animefire.plus/img/animes/iriya-no-sora-ufo-no-natsu/",
      "secao": "legendados",
      "pagina": 65,
      "total_episodios": 6,
      "link_video": "https://animefire.plus/video/iriya-no-sora-ufo-no-natsu"
    },
    {
      "id": 1658,
      "nome": "Isekai Meikyuu de Harem wo",
      "link": "https://animefire.plus/animes/isekai-meikyuu-de-harem-wo-todos-os-episodios",
      "texto_original": "Isekai Meikyuu de Harem wo",
      "rating": 6.54,
      "classificacao_etaria": "A18",
      "imagem_original": "https://animefire.plus/img/animes/isekai-meikyuu-de-harem-wo.webp",
      "imagem_pasta": "https://animefire.plus/img/animes/isekai-meikyuu-de-harem-wo/",
      "secao": "legendados",
      "pagina": 31,
      "total_episodios": 12,
      "link_video": "https://animefire.plus/video/isekai-meikyuu-de-harem-wo"
    },
    {
      "id": 1659,
      "nome": "Isekai Meikyuu de Harem wo Specials",
      "link": "https://animefire.plus/animes/isekai-meikyuu-de-harem-wo-specials-todos-os-episodios",
      "texto_original": "Isekai Meikyuu de Harem wo Specials",
      "rating": 6.65,
      "classificacao_etaria": "A18",
      "imagem_original": "https://animefire.plus/img/animes/isekai-meikyuu-de-harem-wo-specials.webp",
      "imagem_pasta": "https://animefire.plus/img/animes/isekai-meikyuu-de-harem-wo-specials/",
      "secao": "legendados",
      "pagina": 25,
      "total_episodios": 2,
      "link_video": "https://animefire.plus/video/isekai-meikyuu-de-harem-wo-specials"
    },
    {
      "id": 1661,
      "nome": "Isekai no Seikishi Monogatari",
      "link": "https://animefire.plus/animes/isekai-no-seikishi-monogatari-todos-os-episodios",
      "texto_original": "Isekai no Seikishi Monogatari",
      "rating": 7.97,
      "classificacao_etaria": "A18",
      "imagem_original": "https://animefire.plus/img/animes/isekai-no-seikishi-monogatari.webp",
      "imagem_pasta": "https://animefire.plus/img/animes/isekai-no-seikishi-monogatari/",
      "secao": "legendados",
      "pagina": 156,
      "total_episodios": 0,
      "link_video": "https://animefire.plus/video/isekai-no-seikishi-monogatari"
    },
    {
      "id": 1679,
      "nome": "Ishuzoku Reviewers",
      "link": "https://animefire.plus/animes/ishuzoku-reviewers-todos-os-episodios",
      "texto_original": "Ishuzoku Reviewers",
      "rating": 7.58,
      "classificacao_etaria": "A18",
      "imagem_original": "https://animefire.plus/img/animes/ishuzoku-reviewers.webp",
      "imagem_pasta": "https://animefire.plus/img/animes/ishuzoku-reviewers/",
      "secao": "legendados",
      "pagina": 92,
      "total_episodios": 0,
      "link_video": "https://animefire.plus/video/ishuzoku-reviewers"
    },
    {
      "id": 1684,
      "nome": "Isuca",
      "link": "https://animefire.plus/animes/isuca-todos-os-episodios",
      "texto_original": "Isuca",
      "rating": 6.13,
      "classificacao_etaria": "A18",
      "imagem_original": "https://animefire.plus/img/animes/isuca.webp",
      "imagem_pasta": "https://animefire.plus/img/animes/isuca/",
      "secao": "legendados",
      "pagina": 97,
      "total_episodios": 10,
      "link_video": "https://animefire.plus/video/isuca"
    },
    {
      "id": 1693,
      "nome": "Itsudatte My Santa!",
      "link": "https://animefire.plus/animes/itsudatte-my-santa-todos-os-episodios",
      "texto_original": "Itsudatte My Santa!",
      "rating": 6.02,
      "classificacao_etaria": "A18",
      "imagem_original": "https://animefire.plus/img/animes/itsudatte-my-santa.webp",
      "imagem_pasta": "https://animefire.plus/img/animes/itsudatte-my-santa/",
      "secao": "legendados",
      "pagina": 69,
      "total_episodios": 2,
      "link_video": "https://animefire.plus/video/itsudatte-my-santa"
    },
    {
      "id": 1695,
      "nome": "Itsuka Tenma No Kuro Usagi",
      "link": "https://animefire.plus/animes/itsuka-tenma-no-kuro-usagi-todos-os-episodios",
      "texto_original": "Itsuka Tenma No Kuro Usagi",
      "rating": 6.71,
      "classificacao_etaria": "A18",
      "imagem_original": "https://animefire.plus/img/animes/itsuka-tenma-no-kuro-usagi.webp",
      "imagem_pasta": "https://animefire.plus/img/animes/itsuka-tenma-no-kuro-usagi/",
      "secao": "legendados",
      "pagina": 106,
      "total_episodios": 12,
      "link_video": "https://animefire.plus/video/itsuka-tenma-no-kuro-usagi"
    },
    {
      "id": 1696,
      "nome": "Itsuka Tenma no Kuro Usagi Picture Drama",
      "link": "https://animefire.plus/animes/itsuka-tenma-no-kuro-usagi-picture-drama-todos-os-episodios",
      "texto_original": "Itsuka Tenma no Kuro Usagi Picture Drama",
      "rating": 6.19,
      "classificacao_etaria": "A18",
      "imagem_original": "https://animefire.plus/img/animes/itsuka-tenma-no-kuro-usagi-picture-drama.webp",
      "imagem_pasta": "https://animefire.plus/img/animes/itsuka-tenma-no-kuro-usagi-picture-drama/",
      "secao": "legendados",
      "pagina": 70,
      "total_episodios": 6,
      "link_video": "https://animefire.plus/video/itsuka-tenma-no-kuro-usagi-picture-drama"
    },
    {
      "id": 1731,
      "nome": "Jimihen!!: Jimiko wo Kaechau Jun Isei Kouyuu!!",
      "link": "https://animefire.plus/animes/jimihen-jimiko-wo-kaechau-jun-isei-kouyuu-todos-os-episodios",
      "texto_original": "Jimihen!!: Jimiko wo Kaechau Jun Isei Kouyuu!!",
      "rating": 6.38,
      "classificacao_etaria": "A18",
      "imagem_original": "https://animefire.plus/img/animes/jimihen-jimiko-wo-kaechau-jun-isei-kouyuu.webp",
      "imagem_pasta": "https://animefire.plus/img/animes/jimihen-jimiko-wo-kaechau-jun-isei-kouyuu/",
      "secao": "legendados,lancamentos",
      "pagina": 50,
      "total_episodios": 0,
      "link_video": "https://animefire.plus/video/jimihen-jimiko-wo-kaechau-jun-isei-kouyuu"
    },
    {
      "id": 1745,
      "nome": "JoJo no Kimyou na Bouken: Adventure",
      "link": "https://animefire.plus/animes/jojo-no-kimyou-na-bouken-adventure-todos-os-episodios",
      "texto_original": "JoJo no Kimyou na Bouken: Adventure",
      "rating": 7.22,
      "classificacao_etaria": "A18",
      "imagem_original": "https://animefire.plus/img/animes/jojo-no-kimyou-na-bouken-adventure.webp",
      "imagem_pasta": "https://animefire.plus/img/animes/jojo-no-kimyou-na-bouken-adventure/",
      "secao": "legendados",
      "pagina": 173,
      "total_episodios": 0,
      "link_video": "https://animefire.plus/video/jojo-no-kimyou-na-bouken-adventure"
    },
    {
      "id": 1747,
      "nome": "Jormungand",
      "link": "https://animefire.plus/animes/jormungand-todos-os-episodios",
      "texto_original": "Jormungand",
      "rating": 7.91,
      "classificacao_etaria": "A18",
      "imagem_original": "https://animefire.plus/img/animes/jormungand.webp",
      "imagem_pasta": "https://animefire.plus/img/animes/jormungand/",
      "secao": "legendados",
      "pagina": 143,
      "total_episodios": 7,
      "link_video": "https://animefire.plus/video/jormungand"
    },
    {
      "id": 1748,
      "nome": "Jormungand: Perfect Order",
      "link": "https://animefire.plus/animes/jormungand-perfect-order-todos-os-episodios",
      "texto_original": "Jormungand: Perfect Order",
      "rating": 8,
      "classificacao_etaria": "A18",
      "imagem_original": "https://animefire.plus/img/animes/jormungand-perfect-order.webp",
      "imagem_pasta": "https://animefire.plus/img/animes/jormungand-perfect-order/",
      "secao": "legendados",
      "pagina": 147,
      "total_episodios": 0,
      "link_video": "https://animefire.plus/video/jormungand-perfect-order"
    }
  ],
  "pagination": {
    "current_page": 8,
    "per_page": 20,
    "total_items": 374,
    "total_pages": 19,
    "has_next": true,
    "has_prev": true
  }
}
