{
  "message": "Animes com classificação etária: A18",
  "age_rating": "A18",
  "data": [
    {
      "id": 2189,
      "nome": "Kyoukaisenjou no Horizon II",
      "link": "https://animefire.plus/animes/kyoukaisenjou-no-horizon-ii-todos-os-episodios",
      "texto_original": "Kyoukaisenjou no Horizon II",
      "rating": 7.63,
      "classificacao_etaria": "A18",
      "imagem_original": "https://animefire.plus/img/animes/kyoukaisenjou-no-horizon-ii.webp",
      "imagem_pasta": "https://animefire.plus/img/animes/kyoukaisenjou-no-horizon-ii/",
      "secao": "legendados",
      "pagina": 136,
      "total_episodios": 7,
      "link_video": "https://animefire.plus/video/kyoukaisenjou-no-horizon-ii"
    },
    {
      "id": 2199,
      "nome": "Ladies versus Butlers!",
      "link": "https://animefire.plus/animes/ladies-versus-butlers-todos-os-episodios",
      "texto_original": "Ladies versus Butlers!",
      "rating": 6.77,
      "classificacao_etaria": "A18",
      "imagem_original": "https://animefire.plus/img/animes/ladies-versus-butlers.webp",
      "imagem_pasta": "https://animefire.plus/img/animes/ladies-versus-butlers/",
      "secao": "legendados",
      "pagina": 115,
      "total_episodios": 12,
      "link_video": "https://animefire.plus/video/ladies-versus-butlers"
    },
    {
      "id": 2214,
      "nome": "Let's Nupu Nupu",
      "link": "https://animefire.plus/animes/let-s-nupu-nupu-todos-os-episodios",
      "texto_original": "Let's Nupu Nupu",
      "rating": 6.25,
      "classificacao_etaria": "A18",
      "imagem_original": "https://animefire.plus/img/animes/let-s-nupu-nupu.webp",
      "imagem_pasta": "https://animefire.plus/img/animes/let-s-nupu-nupu/",
      "secao": "legendados",
      "pagina": 42,
      "total_episodios": 16,
      "link_video": "https://animefire.plus/video/let-s-nupu-nupu"
    },
    {
      "id": 2260,
      "nome": "Love♥Love?",
      "link": "https://animefire.plus/animes/love-love-todos-os-episodios",
      "texto_original": "Love♥Love?",
      "rating": 5.98,
      "classificacao_etaria": "A18",
      "imagem_original": "https://animefire.plus/img/animes/love-love.webp",
      "imagem_pasta": "https://animefire.plus/img/animes/love-love/",
      "secao": "legendados",
      "pagina": 127,
      "total_episodios": 9,
      "link_video": "https://animefire.plus/video/love-love"
    },
    {
      "id": 2279,
      "nome": "Lupin the Third: Mine Fujiko to Iu Onna",
      "link": "https://animefire.plus/animes/lupin-the-third-mine-fujiko-to-iu-onna-todos-os-episodios",
      "texto_original": "Lupin the Third: Mine Fujiko to Iu Onna",
      "rating": 7.81,
      "classificacao_etaria": "A18",
      "imagem_original": "https://animefire.plus/img/animes/lupin-the-third-mine-fujiko-to-iu-onna.webp",
      "imagem_pasta": "https://animefire.plus/img/animes/lupin-the-third-mine-fujiko-to-iu-onna/",
      "secao": "legendados",
      "pagina": 142,
      "total_episodios": 0,
      "link_video": "https://animefire.plus/video/lupin-the-third-mine-fujiko-to-iu-onna"
    },
    {
      "id": 2281,
      "nome": "Lupin Zero",
      "link": "https://animefire.plus/animes/lupin-zero-todos-os-episodios",
      "texto_original": "Lupin Zero",
      "rating": 7.39,
      "classificacao_etaria": "A18",
      "imagem_original": "https://animefire.plus/img/animes/lupin-zero.webp",
      "imagem_pasta": "https://animefire.plus/img/animes/lupin-zero/",
      "secao": "legendados",
      "pagina": 27,
      "total_episodios": 6,
      "link_video": "https://animefire.plus/video/lupin-zero"
    },
    {
      "id": 2287,
      "nome": "Maburaho",
      "link": "https://animefire.plus/animes/maburaho-todos-os-episodios",
      "texto_original": "Maburaho",
      "rating": 6.9,
      "classificacao_etaria": "A18",
      "imagem_original": "https://animefire.plus/img/animes/maburaho.webp",
      "imagem_pasta": "https://animefire.plus/img/animes/maburaho/",
      "secao": "legendados",
      "pagina": 170,
      "total_episodios": 24,
      "link_video": "https://animefire.plus/video/maburaho"
    },
    {
      "id": 2288,
      "nome": "Macademi Wasshoi!",
      "link": "https://animefire.plus/animes/macademi-wasshoi-todos-os-episodios",
      "texto_original": "Macademi Wasshoi!",
      "rating": 7.02,
      "classificacao_etaria": "A18",
      "imagem_original": "https://animefire.plus/img/animes/macademi-wasshoi.webp",
      "imagem_pasta": "https://animefire.plus/img/animes/macademi-wasshoi/",
      "secao": "legendados",
      "pagina": 143,
      "total_episodios": 0,
      "link_video": "https://animefire.plus/video/macademi-wasshoi"
    },
    {
      "id": 2291,
      "nome": "Machine-Doll wa Kizutsukanai",
      "link": "https://animefire.plus/animes/machine-doll-wa-kizutsukanai-todos-os-episodios",
      "texto_original": "Machine-Doll wa Kizutsukanai",
      "rating": 7.28,
      "classificacao_etaria": "A18",
      "imagem_original": "https://animefire.plus/img/animes/machine-doll-wa-kizutsukanai.webp",
      "imagem_pasta": "https://animefire.plus/img/animes/machine-doll-wa-kizutsukanai/",
      "secao": "legendados",
      "pagina": 154,
      "total_episodios": 4,
      "link_video": "https://animefire.plus/video/machine-doll-wa-kizutsukanai"
    },
    {
      "id": 2295,
      "nome": "Macross Zero",
      "link": "https://animefire.plus/animes/macross-zero-todos-os-episodios",
      "texto_original": "Macross Zero",
      "rating": 7.54,
      "classificacao_etaria": "A18",
      "imagem_original": "https://animefire.plus/img/animes/macross-zero.webp",
      "imagem_pasta": "https://animefire.plus/img/animes/macross-zero/",
      "secao": "legendados",
      "pagina": 45,
      "total_episodios": 3,
      "link_video": "https://animefire.plus/video/macross-zero"
    },
    {
      "id": 2321,
      "nome": "Mahoromatic 2",
      "link": "https://animefire.plus/animes/mahoromatic-2-todos-os-episodios",
      "texto_original": "Mahoromatic 2",
      "rating": 7.23,
      "classificacao_etaria": "A18",
      "imagem_original": "https://animefire.plus/img/animes/mahoromatic-2.webp",
      "imagem_pasta": "https://animefire.plus/img/animes/mahoromatic-2/",
      "secao": "legendados",
      "pagina": 113,
      "total_episodios": 14,
      "link_video": "https://animefire.plus/video/mahoromatic-2"
    },
    {
      "id": 2322,
      "nome": "Mahoromatic: Automatic Maiden",
      "link": "https://animefire.plus/animes/mahoromatic-automatic-maiden-todos-os-episodios",
      "texto_original": "Mahoromatic: Automatic Maiden",
      "rating": 7.24,
      "classificacao_etaria": "A18",
      "imagem_original": "https://animefire.plus/img/animes/mahoromatic-automatic-maiden.webp",
      "imagem_pasta": "https://animefire.plus/img/animes/mahoromatic-automatic-maiden/",
      "secao": "legendados",
      "pagina": 116,
      "total_episodios": 0,
      "link_video": "https://animefire.plus/video/mahoromatic-automatic-maiden"
    },
    {
      "id": 2323,
      "nome": "Mahoromatic: Motto Utsukushii Mono",
      "link": "https://animefire.plus/animes/mahoromatic-motto-utsukushii-mono-todos-os-episodios",
      "texto_original": "Mahoromatic: Motto Utsukushii Mono",
      "rating": 7.2,
      "classificacao_etaria": "A18",
      "imagem_original": "https://animefire.plus/img/animes/mahoromatic-motto-utsukushii-mono.webp",
      "imagem_pasta": "https://animefire.plus/img/animes/mahoromatic-motto-utsukushii-mono/",
      "secao": "legendados",
      "pagina": 70,
      "total_episodios": 14,
      "link_video": "https://animefire.plus/video/mahoromatic-motto-utsukushii-mono"
    },
    {
      "id": 2324,
      "nome": "Mahoromatic: Tadaima Okaeri",
      "link": "https://animefire.plus/animes/mahoromatic-tadaima-okaeri-todos-os-episodios",
      "texto_original": "Mahoromatic: Tadaima Okaeri",
      "rating": 7.09,
      "classificacao_etaria": "A18",
      "imagem_original": "https://animefire.plus/img/animes/mahoromatic-tadaima-okaeri.webp",
      "imagem_pasta": "https://animefire.plus/img/animes/mahoromatic-tadaima-okaeri/",
      "secao": "legendados",
      "pagina": 70,
      "total_episodios": 2,
      "link_video": "https://animefire.plus/video/mahoromatic-tadaima-okaeri"
    },
    {
      "id": 2338,
      "nome": "Mahou Shoujo ni Akogarete",
      "link": "https://animefire.plus/animes/mahou-shoujo-ni-akogarete-todos-os-episodios",
      "texto_original": "Mahou Shoujo ni Akogarete",
      "rating": 7.62,
      "classificacao_etaria": "A18",
      "imagem_original": "https://animefire.plus/img/animes/mahou-shoujo-ni-akogarete.webp",
      "imagem_pasta": "https://animefire.plus/img/animes/mahou-shoujo-ni-akogarete/",
      "secao": "legendados",
      "pagina": 17,
      "total_episodios": 13,
      "link_video": "https://animefire.plus/video/mahou-shoujo-ni-akogarete"
    },
    {
      "id": 2366,
      "nome": "Mai-Otome 0: S.ifr",
      "link": "https://animefire.plus/animes/mai-otome-0-s-ifr-todos-os-episodios",
      "texto_original": "Mai-Otome 0: S.ifr",
      "rating": 7.41,
      "classificacao_etaria": "A18",
      "imagem_original": "https://animefire.plus/img/animes/mai-otome-0-s-ifr.webp",
      "imagem_pasta": "https://animefire.plus/img/animes/mai-otome-0-s-ifr/",
      "secao": "legendados",
      "pagina": 68,
      "total_episodios": 3,
      "link_video": "https://animefire.plus/video/mai-otome-0-s-ifr"
    },
    {
      "id": 2367,
      "nome": "Mai-Otome Zwei",
      "link": "https://animefire.plus/animes/mai-otome-zwei-todos-os-episodios",
      "texto_original": "Mai-Otome Zwei",
      "rating": 7.29,
      "classificacao_etaria": "A18",
      "imagem_original": "https://animefire.plus/img/animes/mai-otome-zwei.webp",
      "imagem_pasta": "https://animefire.plus/img/animes/mai-otome-zwei/",
      "secao": "legendados",
      "pagina": 68,
      "total_episodios": 4,
      "link_video": "https://animefire.plus/video/mai-otome-zwei"
    },
    {
      "id": 2372,
      "nome": "Maison Ikkoku",
      "link": "https://animefire.plus/animes/maison-ikkoku-todos-os-episodios",
      "texto_original": "Maison Ikkoku",
      "rating": 8.19,
      "classificacao_etaria": "A18",
      "imagem_original": "https://animefire.plus/img/animes/maison-ikkoku.webp",
      "imagem_pasta": "https://animefire.plus/img/animes/maison-ikkoku/",
      "secao": "legendados",
      "pagina": 59,
      "total_episodios": 0,
      "link_video": "https://animefire.plus/video/maison-ikkoku"
    },
    {
      "id": 2373,
      "nome": "Maji de Watashi ni Koi Shinasai!",
      "link": "https://animefire.plus/animes/maji-de-watashi-ni-koi-shinasai-todos-os-episodios",
      "texto_original": "Maji de Watashi ni Koi Shinasai!",
      "rating": 6.66,
      "classificacao_etaria": "A18",
      "imagem_original": "https://animefire.plus/img/animes/maji-de-watashi-ni-koi-shinasai.webp",
      "imagem_pasta": "https://animefire.plus/img/animes/maji-de-watashi-ni-koi-shinasai/",
      "secao": "legendados",
      "pagina": 12,
      "total_episodios": 12,
      "link_video": "https://animefire.plus/video/maji-de-watashi-ni-koi-shinasai"
    },
    {
      "id": 2397,
      "nome": "Maken-Ki!",
      "link": "https://animefire.plus/animes/maken-ki-todos-os-episodios",
      "texto_original": "Maken-Ki!",
      "rating": 6.38,
      "classificacao_etaria": "A18",
      "imagem_original": "https://animefire.plus/img/animes/maken-ki.webp",
      "imagem_pasta": "https://animefire.plus/img/animes/maken-ki/",
      "secao": "legendados",
      "pagina": 40,
      "total_episodios": 12,
      "link_video": "https://animefire.plus/video/maken-ki"
    }
  ],
  "pagination": {
    "current_page": 11,
    "per_page": 20,
    "total_items": 374,
    "total_pages": 19,
    "has_next": true,
    "has_prev": true
  }
}
