{
  "message": "Animes com classificação etária: A18",
  "age_rating": "A18",
  "data": [
    {
      "id": 170,
      "nome": "Angel Cop",
      "link": "https://animefire.plus/animes/angel-cop-todos-os-episodios",
      "texto_original": "Angel Cop",
      "rating": 5.94,
      "classificacao_etaria": "A18",
      "imagem_original": "https://animefire.plus/img/animes/angel-cop.webp",
      "imagem_pasta": "https://animefire.plus/img/animes/angel-cop/",
      "secao": "legendados",
      "pagina": 53,
      "total_episodios": 6,
      "link_video": "https://animefire.plus/video/angel-cop"
    },
    {
      "id": 210,
      "nome": "Aoi Sekai No Chuushin De",
      "link": "https://animefire.plus/animes/aoi-sekai-no-chuushin-de-todos-os-episodios",
      "texto_original": "Aoi Sekai No Chuushin De",
      "rating": 5.91,
      "classificacao_etaria": "A18",
      "imagem_original": "https://animefire.plus/img/animes/aoi-sekai-no-chuushin-de.webp",
      "imagem_pasta": "https://animefire.plus/img/animes/aoi-sekai-no-chuushin-de/",
      "secao": "legendados",
      "pagina": 106,
      "total_episodios": 0,
      "link_video": "https://animefire.plus/video/aoi-sekai-no-chuushin-de"
    },
    {
      "id": 213,
      "nome": "Aoki Honoo",
      "link": "https://animefire.plus/animes/aoki-honoo-todos-os-episodios",
      "texto_original": "Aoki Honoo",
      "rating": 5.02,
      "classificacao_etaria": "A18",
      "imagem_original": "https://animefire.plus/img/animes/aoki-honoo.webp",
      "imagem_pasta": "https://animefire.plus/img/animes/aoki-honoo/",
      "secao": "legendados",
      "pagina": 65,
      "total_episodios": 1,
      "link_video": "https://animefire.plus/video/aoki-honoo"
    },
    {
      "id": 225,
      "nome": "Area 88",
      "link": "https://animefire.plus/animes/area-88-todos-os-episodios",
      "texto_original": "Area 88",
      "rating": 7.6,
      "classificacao_etaria": "A18",
      "imagem_original": "https://animefire.plus/img/animes/area-88.webp",
      "imagem_pasta": "https://animefire.plus/img/animes/area-88/",
      "secao": "legendados",
      "pagina": 103,
      "total_episodios": 12,
      "link_video": "https://animefire.plus/video/area-88"
    },
    {
      "id": 265,
      "nome": "Asobi ni Iku yo!",
      "link": "https://animefire.plus/animes/asobi-ni-iku-yo-todos-os-episodios",
      "texto_original": "Asobi ni Iku yo!",
      "rating": 6.77,
      "classificacao_etaria": "A18",
      "imagem_original": "https://animefire.plus/img/animes/asobi-ni-iku-yo.webp",
      "imagem_pasta": "https://animefire.plus/img/animes/asobi-ni-iku-yo/",
      "secao": "legendados",
      "pagina": 122,
      "total_episodios": 12,
      "link_video": "https://animefire.plus/video/asobi-ni-iku-yo"
    },
    {
      "id": 283,
      "nome": "Ayakashi Triangle",
      "link": "https://animefire.plus/animes/ayakashi-triangle-todos-os-episodios",
      "texto_original": "Ayakashi Triangle",
      "rating": 6.45,
      "classificacao_etaria": "A18",
      "imagem_original": "https://animefire.plus/img/animes/ayakashi-triangle.webp",
      "imagem_pasta": "https://animefire.plus/img/animes/ayakashi-triangle/",
      "secao": "legendados",
      "pagina": 26,
      "total_episodios": 12,
      "link_video": "https://animefire.plus/video/ayakashi-triangle"
    },
    {
      "id": 287,
      "nome": "Azur Lane (Dublado)",
      "link": "https://animefire.plus/animes/azur-lane-dublado-todos-os-episodios",
      "texto_original": "Azur Lane (Dublado)",
      "rating": 6.28,
      "classificacao_etaria": "A18",
      "imagem_original": "https://animefire.plus/img/animes/azur-lane.webp",
      "imagem_pasta": "https://animefire.plus/img/animes/azur-lane/",
      "secao": "dublados,legendados",
      "pagina": 18,
      "total_episodios": 12,
      "link_video": "https://animefire.plus/video/azur-lane-dublado"
    },
    {
      "id": 290,
      "nome": "B-gata H-kei",
      "link": "https://animefire.plus/animes/b-gata-h-kei-todos-os-episodios",
      "texto_original": "B-gata H-kei",
      "rating": 7.06,
      "classificacao_etaria": "A18",
      "imagem_original": "https://animefire.plus/img/animes/b-gata-h-kei.webp",
      "imagem_pasta": "https://animefire.plus/img/animes/b-gata-h-kei/",
      "secao": "legendados",
      "pagina": 150,
      "total_episodios": 11,
      "link_video": "https://animefire.plus/video/b-gata-h-kei"
    },
    {
      "id": 295,
      "nome": "B: The Beginning Succession (Dublado)",
      "link": "https://animefire.plus/animes/b-the-beginning-succession-dublado-todos-os-episodios",
      "texto_original": "B: The Beginning Succession (Dublado)",
      "rating": 6.2,
      "classificacao_etaria": "A18",
      "imagem_original": "https://animefire.plus/img/animes/b-the-beginning-succession.webp",
      "imagem_pasta": "https://animefire.plus/img/animes/b-the-beginning-succession/",
      "secao": "dublados,legendados",
      "pagina": 18,
      "total_episodios": 6,
      "link_video": "https://animefire.plus/video/b-the-beginning-succession-dublado"
    },
    {
      "id": 297,
      "nome": "Baby Princess 3D Paradise 0 [Love]",
      "link": "https://animefire.plus/animes/baby-princess-3d-paradise-0-love-todos-os-episodios",
      "texto_original": "Baby Princess 3D Paradise 0 [Love]",
      "rating": 6.47,
      "classificacao_etaria": "A18",
      "imagem_original": "https://animefire.plus/img/animes/baby-princess-3d-paradise-0-love.webp",
      "imagem_pasta": "https://animefire.plus/img/animes/baby-princess-3d-paradise-0-love/",
      "secao": "legendados",
      "pagina": 53,
      "total_episodios": 1,
      "link_video": "https://animefire.plus/video/baby-princess-3d-paradise-0-love"
    },
    {
      "id": 302,
      "nome": "Back Arrow (Dublado)",
      "link": "https://animefire.plus/animes/back-arrow-dublado-todos-os-episodios",
      "texto_original": "Back Arrow (Dublado)",
      "rating": 6.33,
      "classificacao_etaria": "A18",
      "imagem_original": "https://animefire.plus/img/animes/back-arrow.webp",
      "imagem_pasta": "https://animefire.plus/img/animes/back-arrow/",
      "secao": "dublados,legendados",
      "pagina": 13,
      "total_episodios": 24,
      "link_video": "https://animefire.plus/video/back-arrow-dublado"
    },
    {
      "id": 327,
      "nome": "Baldr Force Exe Resolution",
      "link": "https://animefire.plus/animes/baldr-force-exe-resolution-todos-os-episodios",
      "texto_original": "Baldr Force Exe Resolution",
      "rating": 6.5,
      "classificacao_etaria": "A18",
      "imagem_original": "https://animefire.plus/img/animes/baldr-force-exe-resolution.webp",
      "imagem_pasta": "https://animefire.plus/img/animes/baldr-force-exe-resolution/",
      "secao": "legendados",
      "pagina": 69,
      "total_episodios": 4,
      "link_video": "https://animefire.plus/video/baldr-force-exe-resolution"
    },
    {
      "id": 340,
      "nome": "Bannou Bunka Neko-Musume",
      "link": "https://animefire.plus/animes/bannou-bunka-neko-musume-todos-os-episodios",
      "texto_original": "Bannou Bunka Neko-Musume",
      "rating": 6.75,
      "classificacao_etaria": "A18",
      "imagem_original": "https://animefire.plus/img/animes/bannou-bunka-neko-musume.webp",
      "imagem_pasta": "https://animefire.plus/img/animes/bannou-bunka-neko-musume/",
      "secao": "legendados",
      "pagina": 106,
      "total_episodios": 12,
      "link_video": "https://animefire.plus/video/bannou-bunka-neko-musume"
    },
    {
      "id": 350,
      "nome": "Bastard!! Ankoku no Hakaishin (ONA) (Dublado)",
      "link": "https://animefire.plus/animes/bastard-ankoku-no-hakaishin-ona-dublado-todos-os-episodios",
      "texto_original": "Bastard!! Ankoku no Hakaishin (ONA) (Dublado)",
      "rating": 6.59,
      "classificacao_etaria": "A18",
      "imagem_original": "https://animefire.plus/img/animes/bastard-ankoku-no-hakaishin-ona.webp",
      "imagem_pasta": "https://animefire.plus/img/animes/bastard-ankoku-no-hakaishin-ona/",
      "secao": "dublados,legendados",
      "pagina": 10,
      "total_episodios": 13,
      "link_video": "https://animefire.plus/video/bastard-ankoku-no-hakaishin-ona-dublado"
    },
    {
      "id": 351,
      "nome": "Bastard!! Ankoku no Hakaishin (ONA) Part 2 (Dublado)",
      "link": "https://animefire.plus/animes/bastard-ankoku-no-hakaishin-ona-part-2-dublado-todos-os-episodios",
      "texto_original": "Bastard!! Ankoku no Hakaishin (ONA) Part 2 (Dublado)",
      "rating": 6.75,
      "classificacao_etaria": "A18",
      "imagem_original": "https://animefire.plus/img/animes/bastard-ankoku-no-hakaishin-ona-part-2.webp",
      "imagem_pasta": "https://animefire.plus/img/animes/bastard-ankoku-no-hakaishin-ona-part-2/",
      "secao": "dublados,legendados",
      "pagina": 9,
      "total_episodios": 11,
      "link_video": "https://animefire.plus/video/bastard-ankoku-no-hakaishin-ona-part-2-dublado"
    },
    {
      "id": 352,
      "nome": "Bastard!! Ankoku no Hakaishin Part 2 (ONA) (Dublado)",
      "link": "https://animefire.plus/animes/bastard-ankoku-no-hakaishin-part-2-ona-dublado-todos-os-episodios",
      "texto_original": "Bastard!! Ankoku no Hakaishin Part 2 (ONA) (Dublado)",
      "rating": 6.75,
      "classificacao_etaria": "A18",
      "imagem_original": "https://animefire.plus/img/animes/bastard-ankoku-no-hakaishin-part-2-ona.webp",
      "imagem_pasta": "https://animefire.plus/img/animes/bastard-ankoku-no-hakaishin-part-2-ona/",
      "secao": "dublados",
      "pagina": 8,
      "total_episodios": 11,
      "link_video": "https://animefire.plus/video/bastard-ankoku-no-hakaishin-part-2-ona-dublado"
    },
    {
      "id": 353,
      "nome": "Bastard!! Ankoku no Hakaishin Season 2 (ONA) (Dublado)",
      "link": "https://animefire.plus/animes/bastard-ankoku-no-hakaishin-season-2-ona-dublado-todos-os-episodios",
      "texto_original": "Bastard!! Ankoku no Hakaishin Season 2 (ONA) (Dublado)",
      "rating": 7.07,
      "classificacao_etaria": "A18",
      "imagem_original": "https://animefire.plus/img/animes/bastard-ankoku-no-hakaishin-season-2-ona.webp",
      "imagem_pasta": "https://animefire.plus/img/animes/bastard-ankoku-no-hakaishin-season-2-ona/",
      "secao": "dublados,legendados",
      "pagina": 6,
      "total_episodios": 15,
      "link_video": "https://animefire.plus/video/bastard-ankoku-no-hakaishin-season-2-ona-dublado"
    },
    {
      "id": 354,
      "nome": "Bastard!!: Ankoku no Hakaishin",
      "link": "https://animefire.plus/animes/bastard-ankoku-no-hakaishin-todos-os-episodios",
      "texto_original": "Bastard!!: Ankoku no Hakaishin",
      "rating": 6.84,
      "classificacao_etaria": "A18",
      "imagem_original": "https://animefire.plus/img/animes/bastard-ankoku-no-hakaishin.webp",
      "imagem_pasta": "https://animefire.plus/img/animes/bastard-ankoku-no-hakaishin/",
      "secao": "legendados",
      "pagina": 113,
      "total_episodios": 6,
      "link_video": "https://animefire.plus/video/bastard-ankoku-no-hakaishin"
    },
    {
      "id": 359,
      "nome": "Battle Royal High School",
      "link": "https://animefire.plus/animes/battle-royal-high-school-todos-os-episodios",
      "texto_original": "Battle Royal High School",
      "rating": 5.59,
      "classificacao_etaria": "A18",
      "imagem_original": "https://animefire.plus/img/animes/battle-royal-high-school.webp",
      "imagem_pasta": "https://animefire.plus/img/animes/battle-royal-high-school/",
      "secao": "legendados",
      "pagina": 65,
      "total_episodios": 1,
      "link_video": "https://animefire.plus/video/battle-royal-high-school"
    },
    {
      "id": 376,
      "nome": "Berserk",
      "link": "https://animefire.plus/animes/berserk-todos-os-episodios",
      "texto_original": "Berserk",
      "rating": 6.51,
      "classificacao_etaria": "A18",
      "imagem_original": "https://animefire.plus/img/animes/berserk.webp",
      "imagem_pasta": "https://animefire.plus/img/animes/berserk/",
      "secao": "legendados",
      "pagina": 66,
      "total_episodios": 12,
      "link_video": "https://animefire.plus/video/berserk"
    }
  ],
  "pagination": {
    "current_page": 2,
    "per_page": 20,
    "total_items": 374,
    "total_pages": 19,
    "has_next": true,
    "has_prev": true
  }
}
