{
  "message": "Animes com classificação etária: A18",
  "age_rating": "A18",
  "data": [
    {
      "id": 2579,
      "nome": "Monster",
      "link": "https://animefire.plus/animes/monster-todos-os-episodios",
      "texto_original": "Monster",
      "rating": 8.72,
      "classificacao_etaria": "A18",
      "imagem_original": "https://animefire.plus/img/animes/monster.webp",
      "imagem_pasta": "https://animefire.plus/img/animes/monster/",
      "secao": "legendados",
      "pagina": 59,
      "total_episodios": 74,
      "link_video": "https://animefire.plus/video/monster"
    },
    {
      "id": 2582,
      "nome": "Monster Musume no Iru Nichijou",
      "link": "https://animefire.plus/animes/monster-musume-no-iru-nichijou-todos-os-episodios",
      "texto_original": "Monster Musume no Iru Nichijou",
      "rating": 7.25,
      "classificacao_etaria": "A18",
      "imagem_original": "https://animefire.plus/img/animes/monster-musume-no-iru-nichijou.webp",
      "imagem_pasta": "https://animefire.plus/img/animes/monster-musume-no-iru-nichijou/",
      "secao": "legendados",
      "pagina": 176,
      "total_episodios": 3,
      "link_video": "https://animefire.plus/video/monster-musume-no-iru-nichijou"
    },
    {
      "id": 2583,
      "nome": "Monster Musume no Iru Nichijou OVA",
      "link": "https://animefire.plus/animes/monster-musume-no-iru-nichijou-ova-todos-os-episodios",
      "texto_original": "Monster Musume no Iru Nichijou OVA",
      "rating": 7.26,
      "classificacao_etaria": "A18",
      "imagem_original": "https://animefire.plus/img/animes/monster-musume-no-iru-nichijou-ova.webp",
      "imagem_pasta": "https://animefire.plus/img/animes/monster-musume-no-iru-nichijou-ova/",
      "secao": "legendados",
      "pagina": 88,
      "total_episodios": 2,
      "link_video": "https://animefire.plus/video/monster-musume-no-iru-nichijou-ova"
    },
    {
      "id": 2594,
      "nome": "Motto To LOVE-Ru",
      "link": "https://animefire.plus/animes/motto-to-love-ru-todos-os-episodios",
      "texto_original": "Motto To LOVE-Ru",
      "rating": 7.47,
      "classificacao_etaria": "A18",
      "imagem_original": "https://animefire.plus/img/animes/motto-to-love-ru.webp",
      "imagem_pasta": "https://animefire.plus/img/animes/motto-to-love-ru/",
      "secao": "legendados",
      "pagina": 163,
      "total_episodios": 2,
      "link_video": "https://animefire.plus/video/motto-to-love-ru"
    },
    {
      "id": 2599,
      "nome": "Mouse",
      "link": "https://animefire.plus/animes/mouse-todos-os-episodios",
      "texto_original": "Mouse",
      "rating": 6.11,
      "classificacao_etaria": "A18",
      "imagem_original": "https://animefire.plus/img/animes/mouse.webp",
      "imagem_pasta": "https://animefire.plus/img/animes/mouse/",
      "secao": "legendados",
      "pagina": 119,
      "total_episodios": 12,
      "link_video": "https://animefire.plus/video/mouse"
    },
    {
      "id": 2600,
      "nome": "Mousou Dairinin",
      "link": "https://animefire.plus/animes/mousou-dairinin-todos-os-episodios",
      "texto_original": "Mousou Dairinin",
      "rating": 7.72,
      "classificacao_etaria": "A18",
      "imagem_original": "https://animefire.plus/img/animes/mousou-dairinin.webp",
      "imagem_pasta": "https://animefire.plus/img/animes/mousou-dairinin/",
      "secao": "legendados",
      "pagina": 111,
      "total_episodios": 13,
      "link_video": "https://animefire.plus/video/mousou-dairinin"
    },
    {
      "id": 2634,
      "nome": "Muv-Luv Alternative",
      "link": "https://animefire.plus/animes/muv-luv-alternative-todos-os-episodios",
      "texto_original": "Muv-Luv Alternative",
      "rating": 5.83,
      "classificacao_etaria": "A18",
      "imagem_original": "https://animefire.plus/img/animes/muv-luv-alternative.webp",
      "imagem_pasta": "https://animefire.plus/img/animes/muv-luv-alternative/",
      "secao": "legendados",
      "pagina": 37,
      "total_episodios": 12,
      "link_video": "https://animefire.plus/video/muv-luv-alternative"
    },
    {
      "id": 2635,
      "nome": "Muv-Luv Alternative 2nd Season",
      "link": "https://animefire.plus/animes/muv-luv-alternative-2nd-season-todos-os-episodios",
      "texto_original": "Muv-Luv Alternative 2nd Season",
      "rating": 6.53,
      "classificacao_etaria": "A18",
      "imagem_original": "https://animefire.plus/img/animes/muv-luv-alternative-2nd-season.webp",
      "imagem_pasta": "https://animefire.plus/img/animes/muv-luv-alternative-2nd-season/",
      "secao": "legendados",
      "pagina": 28,
      "total_episodios": 12,
      "link_video": "https://animefire.plus/video/muv-luv-alternative-2nd-season"
    },
    {
      "id": 2636,
      "nome": "Muv-Luv Alternative: Total Eclipse (Dublado)",
      "link": "https://animefire.plus/animes/muv-luv-alternative-total-eclipse-dublado-todos-os-episodios",
      "texto_original": "Muv-Luv Alternative: Total Eclipse (Dublado)",
      "rating": 7.09,
      "classificacao_etaria": "A18",
      "imagem_original": "https://animefire.plus/img/animes/muv-luv-alternative-total-eclipse.webp",
      "imagem_pasta": "https://animefire.plus/img/animes/muv-luv-alternative-total-eclipse/",
      "secao": "dublados,legendados",
      "pagina": 4,
      "total_episodios": 24,
      "link_video": "https://animefire.plus/video/muv-luv-alternative-total-eclipse-dublado"
    },
    {
      "id": 2646,
      "nome": "Najica Dengeki Sakusen",
      "link": "https://animefire.plus/animes/najica-dengeki-sakusen-todos-os-episodios",
      "texto_original": "Najica Dengeki Sakusen",
      "rating": 6.05,
      "classificacao_etaria": "A18",
      "imagem_original": "https://animefire.plus/img/animes/najica-dengeki-sakusen.webp",
      "imagem_pasta": "https://animefire.plus/img/animes/najica-dengeki-sakusen/",
      "secao": "legendados",
      "pagina": 154,
      "total_episodios": 12,
      "link_video": "https://animefire.plus/video/najica-dengeki-sakusen"
    },
    {
      "id": 2651,
      "nome": "Nana",
      "link": "https://animefire.plus/animes/nana-todos-os-episodios",
      "texto_original": "Nana",
      "rating": 8.48,
      "classificacao_etaria": "A18",
      "imagem_original": "https://animefire.plus/img/animes/nana.webp",
      "imagem_pasta": "https://animefire.plus/img/animes/nana/",
      "secao": "legendados",
      "pagina": 150,
      "total_episodios": 11,
      "link_video": "https://animefire.plus/video/nana"
    },
    {
      "id": 2655,
      "nome": "Nanatsu no Bitoku",
      "link": "https://animefire.plus/animes/nanatsu-no-bitoku-todos-os-episodios",
      "texto_original": "Nanatsu no Bitoku",
      "rating": 5.27,
      "classificacao_etaria": "A18",
      "imagem_original": "https://animefire.plus/img/animes/nanatsu-no-bitoku.webp",
      "imagem_pasta": "https://animefire.plus/img/animes/nanatsu-no-bitoku/",
      "secao": "legendados",
      "pagina": 146,
      "total_episodios": 7,
      "link_video": "https://animefire.plus/video/nanatsu-no-bitoku"
    },
    {
      "id": 2656,
      "nome": "Nanatsu no Bitoku Specials",
      "link": "https://animefire.plus/animes/nanatsu-no-bitoku-specials-todos-os-episodios",
      "texto_original": "Nanatsu no Bitoku Specials",
      "rating": 5.52,
      "classificacao_etaria": "A18",
      "imagem_original": "https://animefire.plus/img/animes/nanatsu-no-bitoku-specials.webp",
      "imagem_pasta": "https://animefire.plus/img/animes/nanatsu-no-bitoku-specials/",
      "secao": "legendados",
      "pagina": 84,
      "total_episodios": 2,
      "link_video": "https://animefire.plus/video/nanatsu-no-bitoku-specials"
    },
    {
      "id": 2672,
      "nome": "Nande Koko ni Sensei ga!?",
      "link": "https://animefire.plus/animes/nande-koko-ni-sensei-ga-todos-os-episodios",
      "texto_original": "Nande Koko ni Sensei ga!?",
      "rating": 6.47,
      "classificacao_etaria": "A18",
      "imagem_original": "https://animefire.plus/img/animes/nande-koko-ni-sensei-ga.webp",
      "imagem_pasta": "https://animefire.plus/img/animes/nande-koko-ni-sensei-ga/",
      "secao": "legendados",
      "pagina": 129,
      "total_episodios": 0,
      "link_video": "https://animefire.plus/video/nande-koko-ni-sensei-ga"
    },
    {
      "id": 2673,
      "nome": "Nande Koko ni Sensei ga!? Special",
      "link": "https://animefire.plus/animes/nande-koko-ni-sensei-ga-special-todos-os-episodios",
      "texto_original": "Nande Koko ni Sensei ga!? Special",
      "rating": 6.85,
      "classificacao_etaria": "A18",
      "imagem_original": "https://animefire.plus/img/animes/nande-koko-ni-sensei-ga-special.webp",
      "imagem_pasta": "https://animefire.plus/img/animes/nande-koko-ni-sensei-ga-special/",
      "secao": "legendados",
      "pagina": 84,
      "total_episodios": 1,
      "link_video": "https://animefire.plus/video/nande-koko-ni-sensei-ga-special"
    },
    {
      "id": 2720,
      "nome": "Netsuzou TRap",
      "link": "https://animefire.plus/animes/netsuzou-trap-todos-os-episodios",
      "texto_original": "Netsuzou TRap",
      "rating": 5.42,
      "classificacao_etaria": "A18",
      "imagem_original": "https://animefire.plus/img/animes/netsuzou-trap.webp",
      "imagem_pasta": "https://animefire.plus/img/animes/netsuzou-trap/",
      "secao": "legendados",
      "pagina": 62,
      "total_episodios": 12,
      "link_video": "https://animefire.plus/video/netsuzou-trap"
    },
    {
      "id": 2723,
      "nome": "NHK ni Youkoso!",
      "link": "https://animefire.plus/animes/nhk-ni-youkoso-todos-os-episodios",
      "texto_original": "NHK ni Youkoso!",
      "rating": 8.36,
      "classificacao_etaria": "A18",
      "imagem_original": "https://animefire.plus/img/animes/nhk-ni-youkoso.webp",
      "imagem_pasta": "https://animefire.plus/img/animes/nhk-ni-youkoso/",
      "secao": "legendados",
      "pagina": 145,
      "total_episodios": 24,
      "link_video": "https://animefire.plus/video/nhk-ni-youkoso"
    },
    {
      "id": 2732,
      "nome": "Night Walker: Mayonaka no Tantei",
      "link": "https://animefire.plus/animes/night-walker-mayonaka-no-tantei-todos-os-episodios",
      "texto_original": "Night Walker: Mayonaka no Tantei",
      "rating": 7.03,
      "classificacao_etaria": "A18",
      "imagem_original": "https://animefire.plus/img/animes/night-walker-mayonaka-no-tantei.webp",
      "imagem_pasta": "https://animefire.plus/img/animes/night-walker-mayonaka-no-tantei/",
      "secao": "legendados",
      "pagina": 138,
      "total_episodios": 12,
      "link_video": "https://animefire.plus/video/night-walker-mayonaka-no-tantei"
    },
    {
      "id": 2764,
      "nome": "Nobunaga-sensei no Osanazuma",
      "link": "https://animefire.plus/animes/nobunaga-sensei-no-osanazuma-todos-os-episodios",
      "texto_original": "Nobunaga-sensei no Osanazuma",
      "rating": 5.28,
      "classificacao_etaria": "A18",
      "imagem_original": "https://animefire.plus/img/animes/nobunaga-sensei-no-osanazuma.webp",
      "imagem_pasta": "https://animefire.plus/img/animes/nobunaga-sensei-no-osanazuma/",
      "secao": "legendados",
      "pagina": 136,
      "total_episodios": 0,
      "link_video": "https://animefire.plus/video/nobunaga-sensei-no-osanazuma"
    },
    {
      "id": 2787,
      "nome": "Nozo x Kimi",
      "link": "https://animefire.plus/animes/nozo-x-kimi-todos-os-episodios",
      "texto_original": "Nozo x Kimi",
      "rating": 6.49,
      "classificacao_etaria": "A18",
      "imagem_original": "https://animefire.plus/img/animes/nozo-x-kimi.webp",
      "imagem_pasta": "https://animefire.plus/img/animes/nozo-x-kimi/",
      "secao": "legendados",
      "pagina": 61,
      "total_episodios": 3,
      "link_video": "https://animefire.plus/video/nozo-x-kimi"
    }
  ],
  "pagination": {
    "current_page": 13,
    "per_page": 20,
    "total_items": 374,
    "total_pages": 19,
    "has_next": true,
    "has_prev": true
  }
}
